%!PS-Adobe-3.0 EPSF-3.0
%%Creator: (MATLAB, The Mathworks, Inc. Version 9.1.0.441655 \(R2016b\). Operating System: Windows 8)
%%Title: C:/Users/Eigenaar/WIT/SI/system-identification/Report/aic0.05.eps
%%CreationDate: 2016-11-23T12:48:59
%%Pages: (atend)
%%BoundingBox: 0 0 420 315
%%LanguageLevel: 3
%%EndComments
%%BeginProlog
%%BeginResource: procset (Apache XML Graphics Std ProcSet) 1.2 0
%%Version: 1.2 0
%%Copyright: (Copyright 2001-2003,2010 The Apache Software Foundation. License terms: http://www.apache.org/licenses/LICENSE-2.0)
/bd{bind def}bind def
/ld{load def}bd
/GR/grestore ld
/M/moveto ld
/LJ/setlinejoin ld
/C/curveto ld
/f/fill ld
/LW/setlinewidth ld
/GC/setgray ld
/t/show ld
/N/newpath ld
/CT/concat ld
/cp/closepath ld
/S/stroke ld
/L/lineto ld
/CC/setcmykcolor ld
/A/ashow ld
/GS/gsave ld
/RC/setrgbcolor ld
/RM/rmoveto ld
/ML/setmiterlimit ld
/re {4 2 roll M
1 index 0 rlineto
0 exch rlineto
neg 0 rlineto
cp } bd
/_ctm matrix def
/_tm matrix def
/BT { _ctm currentmatrix pop matrix _tm copy pop 0 0 moveto } bd
/ET { _ctm setmatrix } bd
/iTm { _ctm setmatrix _tm concat } bd
/Tm { _tm astore pop iTm 0 0 moveto } bd
/ux 0.0 def
/uy 0.0 def
/F {
  /Tp exch def
  /Tf exch def
  Tf findfont Tp scalefont setfont
  /cf Tf def  /cs Tp def
} bd
/ULS {currentpoint /uy exch def /ux exch def} bd
/ULE {
  /Tcx currentpoint pop def
  gsave
  newpath
  cf findfont cs scalefont dup
  /FontMatrix get 0 get /Ts exch def /FontInfo get dup
  /UnderlinePosition get Ts mul /To exch def
  /UnderlineThickness get Ts mul /Tt exch def
  ux uy To add moveto  Tcx uy To add lineto
  Tt setlinewidth stroke
  grestore
} bd
/OLE {
  /Tcx currentpoint pop def
  gsave
  newpath
  cf findfont cs scalefont dup
  /FontMatrix get 0 get /Ts exch def /FontInfo get dup
  /UnderlinePosition get Ts mul /To exch def
  /UnderlineThickness get Ts mul /Tt exch def
  ux uy To add cs add moveto Tcx uy To add cs add lineto
  Tt setlinewidth stroke
  grestore
} bd
/SOE {
  /Tcx currentpoint pop def
  gsave
  newpath
  cf findfont cs scalefont dup
  /FontMatrix get 0 get /Ts exch def /FontInfo get dup
  /UnderlinePosition get Ts mul /To exch def
  /UnderlineThickness get Ts mul /Tt exch def
  ux uy To add cs 10 mul 26 idiv add moveto Tcx uy To add cs 10 mul 26 idiv add lineto
  Tt setlinewidth stroke
  grestore
} bd
/QT {
/Y22 exch store
/X22 exch store
/Y21 exch store
/X21 exch store
currentpoint
/Y21 load 2 mul add 3 div exch
/X21 load 2 mul add 3 div exch
/X21 load 2 mul /X22 load add 3 div
/Y21 load 2 mul /Y22 load add 3 div
/X22 load /Y22 load curveto
} bd
/SSPD {
dup length /d exch dict def
{
/v exch def
/k exch def
currentpagedevice k known {
/cpdv currentpagedevice k get def
v cpdv ne {
/upd false def
/nullv v type /nulltype eq def
/nullcpdv cpdv type /nulltype eq def
nullv nullcpdv or
{
/upd true def
} {
/sametype v type cpdv type eq def
sametype {
v type /arraytype eq {
/vlen v length def
/cpdvlen cpdv length def
vlen cpdvlen eq {
0 1 vlen 1 sub {
/i exch def
/obj v i get def
/cpdobj cpdv i get def
obj cpdobj ne {
/upd true def
exit
} if
} for
} {
/upd true def
} ifelse
} {
v type /dicttype eq {
v {
/dv exch def
/dk exch def
/cpddv cpdv dk get def
dv cpddv ne {
/upd true def
exit
} if
} forall
} {
/upd true def
} ifelse
} ifelse
} if
} ifelse
upd true eq {
d k v put
} if
} if
} if
} forall
d length 0 gt {
d setpagedevice
} if
} bd
/RE { % /NewFontName [NewEncodingArray] /FontName RE -
  findfont dup length dict begin
  {
    1 index /FID ne
    {def} {pop pop} ifelse
  } forall
  /Encoding exch def
  /FontName 1 index def
  currentdict definefont pop
  end
} bind def
%%EndResource
%%BeginResource: procset (Apache XML Graphics EPS ProcSet) 1.0 0
%%Version: 1.0 0
%%Copyright: (Copyright 2002-2003 The Apache Software Foundation. License terms: http://www.apache.org/licenses/LICENSE-2.0)
/BeginEPSF { %def
/b4_Inc_state save def         % Save state for cleanup
/dict_count countdictstack def % Count objects on dict stack
/op_count count 1 sub def      % Count objects on operand stack
userdict begin                 % Push userdict on dict stack
/showpage { } def              % Redefine showpage, { } = null proc
0 setgray 0 setlinecap         % Prepare graphics state
1 setlinewidth 0 setlinejoin
10 setmiterlimit [ ] 0 setdash newpath
/languagelevel where           % If level not equal to 1 then
{pop languagelevel             % set strokeadjust and
1 ne                           % overprint to their defaults.
{false setstrokeadjust false setoverprint
} if
} if
} bd
/EndEPSF { %def
count op_count sub {pop} repeat            % Clean up stacks
countdictstack dict_count sub {end} repeat
b4_Inc_state restore
} bd
%%EndResource
%FOPBeginFontDict
%%IncludeResource: font Courier-Bold
%%IncludeResource: font Helvetica
%%IncludeResource: font Courier-BoldOblique
%%IncludeResource: font Courier-Oblique
%%IncludeResource: font Times-Roman
%%IncludeResource: font Helvetica-BoldOblique
%%IncludeResource: font Helvetica-Bold
%%IncludeResource: font Helvetica-Oblique
%%IncludeResource: font Times-BoldItalic
%%IncludeResource: font Courier
%%IncludeResource: font Times-Italic
%%IncludeResource: font Times-Bold
%%IncludeResource: font Symbol
%%IncludeResource: font ZapfDingbats
%FOPEndFontDict
%%BeginResource: encoding WinAnsiEncoding
/WinAnsiEncoding [
/.notdef /.notdef /.notdef /.notdef /.notdef
/.notdef /.notdef /.notdef /.notdef /.notdef
/.notdef /.notdef /.notdef /.notdef /.notdef
/.notdef /.notdef /.notdef /.notdef /.notdef
/.notdef /.notdef /.notdef /.notdef /.notdef
/.notdef /.notdef /.notdef /.notdef /.notdef
/.notdef /.notdef /space /exclam /quotedbl
/numbersign /dollar /percent /ampersand /quotesingle
/parenleft /parenright /asterisk /plus /comma
/hyphen /period /slash /zero /one
/two /three /four /five /six
/seven /eight /nine /colon /semicolon
/less /equal /greater /question /at
/A /B /C /D /E
/F /G /H /I /J
/K /L /M /N /O
/P /Q /R /S /T
/U /V /W /X /Y
/Z /bracketleft /backslash /bracketright /asciicircum
/underscore /quoteleft /a /b /c
/d /e /f /g /h
/i /j /k /l /m
/n /o /p /q /r
/s /t /u /v /w
/x /y /z /braceleft /bar
/braceright /asciitilde /bullet /Euro /bullet
/quotesinglbase /florin /quotedblbase /ellipsis /dagger
/daggerdbl /circumflex /perthousand /Scaron /guilsinglleft
/OE /bullet /Zcaron /bullet /bullet
/quoteleft /quoteright /quotedblleft /quotedblright /bullet
/endash /emdash /asciitilde /trademark /scaron
/guilsinglright /oe /bullet /zcaron /Ydieresis
/space /exclamdown /cent /sterling /currency
/yen /brokenbar /section /dieresis /copyright
/ordfeminine /guillemotleft /logicalnot /sfthyphen /registered
/macron /degree /plusminus /twosuperior /threesuperior
/acute /mu /paragraph /middot /cedilla
/onesuperior /ordmasculine /guillemotright /onequarter /onehalf
/threequarters /questiondown /Agrave /Aacute /Acircumflex
/Atilde /Adieresis /Aring /AE /Ccedilla
/Egrave /Eacute /Ecircumflex /Edieresis /Igrave
/Iacute /Icircumflex /Idieresis /Eth /Ntilde
/Ograve /Oacute /Ocircumflex /Otilde /Odieresis
/multiply /Oslash /Ugrave /Uacute /Ucircumflex
/Udieresis /Yacute /Thorn /germandbls /agrave
/aacute /acircumflex /atilde /adieresis /aring
/ae /ccedilla /egrave /eacute /ecircumflex
/edieresis /igrave /iacute /icircumflex /idieresis
/eth /ntilde /ograve /oacute /ocircumflex
/otilde /odieresis /divide /oslash /ugrave
/uacute /ucircumflex /udieresis /yacute /thorn
/ydieresis
] def
%%EndResource
%FOPBeginFontReencode
/Courier-Bold findfont
dup length dict begin
  {1 index /FID ne {def} {pop pop} ifelse} forall
  /Encoding WinAnsiEncoding def
  currentdict
end
/Courier-Bold exch definefont pop
/Helvetica findfont
dup length dict begin
  {1 index /FID ne {def} {pop pop} ifelse} forall
  /Encoding WinAnsiEncoding def
  currentdict
end
/Helvetica exch definefont pop
/Courier-BoldOblique findfont
dup length dict begin
  {1 index /FID ne {def} {pop pop} ifelse} forall
  /Encoding WinAnsiEncoding def
  currentdict
end
/Courier-BoldOblique exch definefont pop
/Courier-Oblique findfont
dup length dict begin
  {1 index /FID ne {def} {pop pop} ifelse} forall
  /Encoding WinAnsiEncoding def
  currentdict
end
/Courier-Oblique exch definefont pop
/Times-Roman findfont
dup length dict begin
  {1 index /FID ne {def} {pop pop} ifelse} forall
  /Encoding WinAnsiEncoding def
  currentdict
end
/Times-Roman exch definefont pop
/Helvetica-BoldOblique findfont
dup length dict begin
  {1 index /FID ne {def} {pop pop} ifelse} forall
  /Encoding WinAnsiEncoding def
  currentdict
end
/Helvetica-BoldOblique exch definefont pop
/Helvetica-Bold findfont
dup length dict begin
  {1 index /FID ne {def} {pop pop} ifelse} forall
  /Encoding WinAnsiEncoding def
  currentdict
end
/Helvetica-Bold exch definefont pop
/Helvetica-Oblique findfont
dup length dict begin
  {1 index /FID ne {def} {pop pop} ifelse} forall
  /Encoding WinAnsiEncoding def
  currentdict
end
/Helvetica-Oblique exch definefont pop
/Times-BoldItalic findfont
dup length dict begin
  {1 index /FID ne {def} {pop pop} ifelse} forall
  /Encoding WinAnsiEncoding def
  currentdict
end
/Times-BoldItalic exch definefont pop
/Courier findfont
dup length dict begin
  {1 index /FID ne {def} {pop pop} ifelse} forall
  /Encoding WinAnsiEncoding def
  currentdict
end
/Courier exch definefont pop
/Times-Italic findfont
dup length dict begin
  {1 index /FID ne {def} {pop pop} ifelse} forall
  /Encoding WinAnsiEncoding def
  currentdict
end
/Times-Italic exch definefont pop
/Times-Bold findfont
dup length dict begin
  {1 index /FID ne {def} {pop pop} ifelse} forall
  /Encoding WinAnsiEncoding def
  currentdict
end
/Times-Bold exch definefont pop
%FOPEndFontReencode
%%EndProlog
%%Page: 1 1
%%PageBoundingBox: 0 0 420 315
%%BeginPageSetup
[1 0 0 -1 0 315] CT
%%EndPageSetup
GS
[0.75 0 0 0.75 0 0] CT
1 GC
N
0 0 560 420 re
f
GR
GS
[0.75 0 0 0.75 0 0] CT
1 GC
N
0 0 560 420 re
f
GR
GS
[0.75 0 0 0.75 0 0] CT
1 GC
N
73 374 M
507 374 L
507 31 L
73 31 L
cp
f
GR
GS
[0.75 0 0 0.75 0 0] CT
0.149 GC
2 setlinecap
1 LJ
0.667 LW
N
73 374 M
507 374 L
S
GR
GS
[0.75 0 0 0.75 0 0] CT
0.149 GC
2 setlinecap
1 LJ
0.667 LW
N
73 31 M
507 31 L
S
GR
GS
[0.75 0 0 0.75 0 0] CT
0.149 GC
2 setlinecap
1 LJ
0.667 LW
N
109.115 374 M
109.115 369.66 L
S
GR
GS
[0.75 0 0 0.75 0 0] CT
0.149 GC
2 setlinecap
1 LJ
0.667 LW
N
153.325 374 M
153.325 369.66 L
S
GR
GS
[0.75 0 0 0.75 0 0] CT
0.149 GC
2 setlinecap
1 LJ
0.667 LW
N
197.534 374 M
197.534 369.66 L
S
GR
GS
[0.75 0 0 0.75 0 0] CT
0.149 GC
2 setlinecap
1 LJ
0.667 LW
N
241.743 374 M
241.743 369.66 L
S
GR
GS
[0.75 0 0 0.75 0 0] CT
0.149 GC
2 setlinecap
1 LJ
0.667 LW
N
285.953 374 M
285.953 369.66 L
S
GR
GS
[0.75 0 0 0.75 0 0] CT
0.149 GC
2 setlinecap
1 LJ
0.667 LW
N
330.162 374 M
330.162 369.66 L
S
GR
GS
[0.75 0 0 0.75 0 0] CT
0.149 GC
2 setlinecap
1 LJ
0.667 LW
N
374.372 374 M
374.372 369.66 L
S
GR
GS
[0.75 0 0 0.75 0 0] CT
0.149 GC
2 setlinecap
1 LJ
0.667 LW
N
418.581 374 M
418.581 369.66 L
S
GR
GS
[0.75 0 0 0.75 0 0] CT
0.149 GC
2 setlinecap
1 LJ
0.667 LW
N
462.791 374 M
462.791 369.66 L
S
GR
GS
[0.75 0 0 0.75 0 0] CT
0.149 GC
2 setlinecap
1 LJ
0.667 LW
N
507 374 M
507 369.66 L
S
GR
GS
[0.75 0 0 0.75 0 0] CT
0.149 GC
2 setlinecap
1 LJ
0.667 LW
N
109.115 31 M
109.115 35.34 L
S
GR
GS
[0.75 0 0 0.75 0 0] CT
0.149 GC
2 setlinecap
1 LJ
0.667 LW
N
153.325 31 M
153.325 35.34 L
S
GR
GS
[0.75 0 0 0.75 0 0] CT
0.149 GC
2 setlinecap
1 LJ
0.667 LW
N
197.534 31 M
197.534 35.34 L
S
GR
GS
[0.75 0 0 0.75 0 0] CT
0.149 GC
2 setlinecap
1 LJ
0.667 LW
N
241.743 31 M
241.743 35.34 L
S
GR
GS
[0.75 0 0 0.75 0 0] CT
0.149 GC
2 setlinecap
1 LJ
0.667 LW
N
285.953 31 M
285.953 35.34 L
S
GR
GS
[0.75 0 0 0.75 0 0] CT
0.149 GC
2 setlinecap
1 LJ
0.667 LW
N
330.162 31 M
330.162 35.34 L
S
GR
GS
[0.75 0 0 0.75 0 0] CT
0.149 GC
2 setlinecap
1 LJ
0.667 LW
N
374.372 31 M
374.372 35.34 L
S
GR
GS
[0.75 0 0 0.75 0 0] CT
0.149 GC
2 setlinecap
1 LJ
0.667 LW
N
418.581 31 M
418.581 35.34 L
S
GR
GS
[0.75 0 0 0.75 0 0] CT
0.149 GC
2 setlinecap
1 LJ
0.667 LW
N
462.791 31 M
462.791 35.34 L
S
GR
GS
[0.75 0 0 0.75 0 0] CT
0.149 GC
2 setlinecap
1 LJ
0.667 LW
N
507 31 M
507 35.34 L
S
GR
GS
[0.75 0 0 0.75 81.83641 284.50003] CT
0.149 GC
/Helvetica 13.333 F
GS
[1 0 0 1 0 0] CT
-7.5 14 moveto 
1 -1 scale
(10) t 
GR
GR
GS
[0.75 0 0 0.75 114.99347 284.50003] CT
0.149 GC
/Helvetica 13.333 F
GS
[1 0 0 1 0 0] CT
-7.5 14 moveto 
1 -1 scale
(20) t 
GR
GR
GS
[0.75 0 0 0.75 148.15054 284.50003] CT
0.149 GC
/Helvetica 13.333 F
GS
[1 0 0 1 0 0] CT
-7.5 14 moveto 
1 -1 scale
(30) t 
GR
GR
GS
[0.75 0 0 0.75 181.3076 284.50003] CT
0.149 GC
/Helvetica 13.333 F
GS
[1 0 0 1 0 0] CT
-7.5 14 moveto 
1 -1 scale
(40) t 
GR
GR
GS
[0.75 0 0 0.75 214.46468 284.50003] CT
0.149 GC
/Helvetica 13.333 F
GS
[1 0 0 1 0 0] CT
-7.5 14 moveto 
1 -1 scale
(50) t 
GR
GR
GS
[0.75 0 0 0.75 247.62174 284.50003] CT
0.149 GC
/Helvetica 13.333 F
GS
[1 0 0 1 0 0] CT
-7.5 14 moveto 
1 -1 scale
(60) t 
GR
GR
GS
[0.75 0 0 0.75 280.7788 284.50003] CT
0.149 GC
/Helvetica 13.333 F
GS
[1 0 0 1 0 0] CT
-7.5 14 moveto 
1 -1 scale
(70) t 
GR
GR
GS
[0.75 0 0 0.75 313.93586 284.50003] CT
0.149 GC
/Helvetica 13.333 F
GS
[1 0 0 1 0 0] CT
-7.5 14 moveto 
1 -1 scale
(80) t 
GR
GR
GS
[0.75 0 0 0.75 347.09294 284.50003] CT
0.149 GC
/Helvetica 13.333 F
GS
[1 0 0 1 0 0] CT
-7.5 14 moveto 
1 -1 scale
(90) t 
GR
GR
GS
[0.75 0 0 0.75 380.25 284.50003] CT
0.149 GC
/Helvetica 13.333 F
GS
[1 0 0 1 0 0] CT
-11 14 moveto 
1 -1 scale
(100) t 
GR
GR
GS
[0.75 0 0 0.75 217.50016 298.25002] CT
0.149 GC
/Helvetica 14.667 F
GS
[1 0 0 1 0 0] CT
-44.5 16 moveto 
1 -1 scale
(Model order I) t 
GR
GR
GS
[0.75 0 0 0.75 0 0] CT
0.149 GC
2 setlinecap
1 LJ
0.667 LW
N
73 374 M
73 31 L
S
GR
GS
[0.75 0 0 0.75 0 0] CT
0.149 GC
2 setlinecap
1 LJ
0.667 LW
N
507 374 M
507 31 L
S
GR
GS
[0.75 0 0 0.75 0 0] CT
0.149 GC
2 setlinecap
1 LJ
0.667 LW
N
73 340.409 M
77.34 340.409 L
S
GR
GS
[0.75 0 0 0.75 0 0] CT
0.149 GC
2 setlinecap
1 LJ
0.667 LW
N
73 300.444 M
77.34 300.444 L
S
GR
GS
[0.75 0 0 0.75 0 0] CT
0.149 GC
2 setlinecap
1 LJ
0.667 LW
N
73 260.479 M
77.34 260.479 L
S
GR
GS
[0.75 0 0 0.75 0 0] CT
0.149 GC
2 setlinecap
1 LJ
0.667 LW
N
73 220.514 M
77.34 220.514 L
S
GR
GS
[0.75 0 0 0.75 0 0] CT
0.149 GC
2 setlinecap
1 LJ
0.667 LW
N
73 180.549 M
77.34 180.549 L
S
GR
GS
[0.75 0 0 0.75 0 0] CT
0.149 GC
2 setlinecap
1 LJ
0.667 LW
N
73 140.585 M
77.34 140.585 L
S
GR
GS
[0.75 0 0 0.75 0 0] CT
0.149 GC
2 setlinecap
1 LJ
0.667 LW
N
73 100.62 M
77.34 100.62 L
S
GR
GS
[0.75 0 0 0.75 0 0] CT
0.149 GC
2 setlinecap
1 LJ
0.667 LW
N
73 60.655 M
77.34 60.655 L
S
GR
GS
[0.75 0 0 0.75 0 0] CT
0.149 GC
2 setlinecap
1 LJ
0.667 LW
N
507 340.409 M
502.66 340.409 L
S
GR
GS
[0.75 0 0 0.75 0 0] CT
0.149 GC
2 setlinecap
1 LJ
0.667 LW
N
507 300.444 M
502.66 300.444 L
S
GR
GS
[0.75 0 0 0.75 0 0] CT
0.149 GC
2 setlinecap
1 LJ
0.667 LW
N
507 260.479 M
502.66 260.479 L
S
GR
GS
[0.75 0 0 0.75 0 0] CT
0.149 GC
2 setlinecap
1 LJ
0.667 LW
N
507 220.514 M
502.66 220.514 L
S
GR
GS
[0.75 0 0 0.75 0 0] CT
0.149 GC
2 setlinecap
1 LJ
0.667 LW
N
507 180.549 M
502.66 180.549 L
S
GR
GS
[0.75 0 0 0.75 0 0] CT
0.149 GC
2 setlinecap
1 LJ
0.667 LW
N
507 140.585 M
502.66 140.585 L
S
GR
GS
[0.75 0 0 0.75 0 0] CT
0.149 GC
2 setlinecap
1 LJ
0.667 LW
N
507 100.62 M
502.66 100.62 L
S
GR
GS
[0.75 0 0 0.75 0 0] CT
0.149 GC
2 setlinecap
1 LJ
0.667 LW
N
507 60.655 M
502.66 60.655 L
S
GR
GS
[0.75 0 0 0.75 50.75 255.30643] CT
0.149 GC
/Helvetica 13.333 F
GS
[1 0 0 1 0 0] CT
-19 5.5 moveto 
1 -1 scale
(0.9) t 
GR
GR
GS
[0.75 0 0 0.75 50.75 225.33284] CT
0.149 GC
/Helvetica 13.333 F
GS
[1 0 0 1 0 0] CT
-26 5.5 moveto 
1 -1 scale
(0.95) t 
GR
GR
GS
[0.75 0 0 0.75 50.75 195.35923] CT
0.149 GC
/Helvetica 13.333 F
GS
[1 0 0 1 0 0] CT
-8 5.5 moveto 
1 -1 scale
(1) t 
GR
GR
GS
[0.75 0 0 0.75 50.75 165.38565] CT
0.149 GC
/Helvetica 13.333 F
GS
[1 0 0 1 0 0] CT
-26 5.5 moveto 
1 -1 scale
(1.05) t 
GR
GR
GS
[0.75 0 0 0.75 50.75 135.41202] CT
0.149 GC
/Helvetica 13.333 F
GS
[1 0 0 1 0 0] CT
-19 5.5 moveto 
1 -1 scale
(1.1) t 
GR
GR
GS
[0.75 0 0 0.75 50.75 105.43845] CT
0.149 GC
/Helvetica 13.333 F
GS
[1 0 0 1 0 0] CT
-26 5.5 moveto 
1 -1 scale
(1.15) t 
GR
GR
GS
[0.75 0 0 0.75 50.75 75.46481] CT
0.149 GC
/Helvetica 13.333 F
GS
[1 0 0 1 0 0] CT
-19 5.5 moveto 
1 -1 scale
(1.2) t 
GR
GR
GS
[0.75 0 0 0.75 50.75 45.49124] CT
0.149 GC
/Helvetica 13.333 F
GS
[1 0 0 1 0 0] CT
-26 5.5 moveto 
1 -1 scale
(1.25) t 
GR
GR
GS
[0 -0.75 0.75 0 28.25 151.87486] CT
0.149 GC
/Helvetica 14.667 F
GS
[1 0 0 1 0 0] CT
-48 -4 moveto 
1 -1 scale
(Cost functions) t 
GR
GR
GS
[0.75 0 0 0.75 217.50021 21.18752] CT
/Helvetica-Bold 14.667 F
GS
[1 0 0 1 0 0] CT
-206.5 -4 moveto 
1 -1 scale
(The LS cost function of the estimation and validation data) t 
GR
GR
GS
[0.75 0 0 0.75 0 0] CT
0 0.447 0.741 RC
1 LJ
0.667 LW
N
176.557 30.959 M
179.85 81.535 L
184.271 119.46 L
188.692 173.201 L
193.113 174.073 L
197.534 173.875 L
201.955 174.98 L
206.376 212.452 L
210.797 215.222 L
215.218 226.295 L
219.639 231.338 L
224.06 229.94 L
228.481 226.553 L
232.902 228.036 L
237.323 232.246 L
241.743 232.302 L
246.164 232.478 L
250.585 232.163 L
255.006 232.258 L
259.427 232.395 L
263.848 234.184 L
268.269 235.205 L
272.69 229.908 L
277.111 228.193 L
281.532 228.143 L
285.953 228.318 L
290.374 228.253 L
294.795 228.531 L
299.216 228.899 L
303.637 228.687 L
308.058 228.668 L
312.479 224.344 L
316.9 224.666 L
321.32 224.7 L
325.741 220.749 L
330.162 221.063 L
334.583 220.291 L
339.004 218.808 L
343.425 218.8 L
347.846 216.874 L
352.267 213.764 L
356.688 213.817 L
361.109 213.415 L
365.53 213.486 L
369.951 213.506 L
374.372 213.796 L
378.793 213.37 L
383.214 212.663 L
387.635 212.645 L
392.056 212.337 L
396.476 212.215 L
400.897 209.512 L
405.318 207.096 L
409.739 206.315 L
414.16 202.575 L
418.581 202.631 L
423.002 202.616 L
427.423 202.43 L
431.844 202.674 L
436.265 194.463 L
440.686 194.375 L
445.107 194.156 L
449.528 193.843 L
453.949 190.742 L
458.37 190.772 L
462.791 190.676 L
467.212 189.868 L
471.632 189.82 L
476.053 182.276 L
480.474 182.351 L
484.895 181.484 L
489.316 179.553 L
493.737 179.623 L
498.158 178.998 L
502.579 177.895 L
507 175.829 L
S
GR
GS
[0.75 0 0 0.75 0 0] CT
0.851 0.325 0.098 RC
1 LJ
0.667 LW
N
176.457 30.959 M
179.85 96.583 L
184.271 129.203 L
188.692 185.902 L
193.113 186.878 L
197.534 192.207 L
201.955 193.88 L
206.376 227.434 L
210.797 229.344 L
215.218 250.787 L
219.639 256.053 L
224.06 258.077 L
228.481 258.909 L
232.902 262.869 L
237.323 267.864 L
241.743 268.155 L
246.164 271.24 L
250.585 271.256 L
255.006 271.266 L
259.427 271.651 L
263.848 277.619 L
268.269 278.297 L
272.69 283.679 L
277.111 284.02 L
281.532 284.028 L
285.953 284.064 L
290.374 284.238 L
294.795 285.781 L
299.216 286.176 L
303.637 286.404 L
308.058 286.445 L
312.479 290.032 L
316.9 290.077 L
321.32 290.093 L
325.741 291.865 L
330.162 292.431 L
334.583 292.955 L
339.004 294.714 L
343.425 294.75 L
347.846 295.32 L
352.267 297.823 L
356.688 297.837 L
361.109 299.123 L
365.53 299.138 L
369.951 299.299 L
374.372 299.514 L
378.793 299.594 L
383.214 299.722 L
387.635 299.761 L
392.056 299.951 L
396.476 300.105 L
400.897 302.104 L
405.318 304.52 L
409.739 304.655 L
414.16 305.969 L
418.581 306.765 L
423.002 306.791 L
427.423 306.845 L
431.844 306.876 L
436.265 310.679 L
440.686 311.56 L
445.107 311.629 L
449.528 311.833 L
453.949 314.045 L
458.37 314.051 L
462.791 314.053 L
467.212 315.774 L
471.632 315.782 L
476.053 321.229 L
480.474 322.8 L
484.895 323.797 L
489.316 324.598 L
493.737 324.657 L
498.158 324.923 L
502.579 325.402 L
507 326.318 L
S
GR
GS
[0.75 0 0 0.75 0 0] CT
0.929 0.694 0.125 RC
1 LJ
0.667 LW
N
179.068 30.959 M
179.85 46.497 L
184.271 78.953 L
188.692 136.965 L
193.113 136.25 L
197.534 140.152 L
201.955 140.195 L
206.376 174.164 L
210.797 174.536 L
215.218 195.775 L
219.639 199.793 L
224.06 200.355 L
228.481 199.645 L
232.902 202.304 L
237.323 206.095 L
241.743 204.825 L
246.164 206.58 L
250.585 205.02 L
255.006 203.454 L
259.427 202.296 L
263.848 207.225 L
268.269 206.401 L
272.69 210.726 L
277.111 209.547 L
281.532 208.005 L
285.953 206.493 L
290.374 205.133 L
294.795 205.285 L
299.216 204.174 L
303.637 202.88 L
308.058 201.378 L
312.479 203.821 L
316.9 202.332 L
321.32 200.81 L
325.741 201.252 L
330.162 200.35 L
334.583 199.403 L
339.004 199.846 L
343.425 198.357 L
347.846 197.47 L
352.267 198.769 L
356.688 197.262 L
361.109 197.196 L
365.53 195.692 L
369.951 194.354 L
374.372 193.077 L
378.793 191.648 L
383.214 190.275 L
387.635 188.798 L
392.056 187.497 L
396.476 186.155 L
400.897 186.939 L
405.318 188.21 L
409.739 186.857 L
414.16 186.868 L
418.581 186.284 L
423.002 184.808 L
427.423 183.365 L
431.844 181.894 L
436.265 184.831 L
440.686 184.364 L
445.107 182.948 L
449.528 181.692 L
453.949 182.796 L
458.37 181.312 L
462.791 179.823 L
467.212 180.366 L
471.632 178.887 L
476.053 183.86 L
480.474 184.249 L
484.895 183.961 L
489.316 183.444 L
493.737 182.044 L
498.158 180.892 L
502.579 179.996 L
507 179.627 L
S
GR
GS
[0.75 0 0 0.75 0 0] CT
1 GC
N
396 97 M
396 44 L
494 44 L
494 97 L
cp
f
GR
GS
[0.75 0 0 0.75 324.75 40.5] CT
/Helvetica 12 F
GS
[1 0 0 1 0 0] CT
0 5 moveto 
1 -1 scale
(Validation) t 
GR
GR
GS
[0.75 0 0 0.75 0 0] CT
0 0.447 0.741 RC
1 LJ
0.667 LW
N
400 54 M
430 54 L
S
GR
GS
[0.75 0 0 0.75 324.75 52.875] CT
/Helvetica 12 F
GS
[1 0 0 1 0 0] CT
0 5 moveto 
1 -1 scale
(Estimation) t 
GR
GR
GS
[0.75 0 0 0.75 0 0] CT
0.851 0.325 0.098 RC
1 LJ
0.667 LW
N
400 70.5 M
430 70.5 L
S
GR
GS
[0.75 0 0 0.75 324.75 65.25] CT
/Helvetica 12 F
GS
[1 0 0 1 0 0] CT
0 5 moveto 
1 -1 scale
(AIC) t 
GR
GR
GS
[0.75 0 0 0.75 0 0] CT
0.929 0.694 0.125 RC
1 LJ
0.667 LW
N
400 87 M
430 87 L
S
GR
GS
[0.75 0 0 0.75 0 0] CT
0.149 GC
10.0 ML
0.667 LW
N
396 97 M
396 44 L
494 44 L
494 97 L
cp
S
GR
%%Trailer
%%Pages: 1
%%EOF
