%!PS-Adobe-3.0 EPSF-3.0
%%Creator: (MATLAB, The Mathworks, Inc. Version 9.1.0.441655 \(R2016b\). Operating System: Linux)
%%Title: (/home/hannes/WIT/SI/session 1/system-identification/Report/aiccost.eps)
%%CreationDate: 2016-11-22T13:07:37
%%Pages: (atend)
%%BoundingBox: 0 0 428 338
%%LanguageLevel: 3
%%EndComments
%%BeginProlog
%%BeginResource: procset (Apache XML Graphics Std ProcSet) 1.2 0
%%Version: 1.2 0
%%Copyright: (Copyright 2001-2003,2010 The Apache Software Foundation. License terms: http://www.apache.org/licenses/LICENSE-2.0)
/bd{bind def}bind def
/ld{load def}bd
/GR/grestore ld
/M/moveto ld
/LJ/setlinejoin ld
/C/curveto ld
/f/fill ld
/LW/setlinewidth ld
/GC/setgray ld
/t/show ld
/N/newpath ld
/CT/concat ld
/cp/closepath ld
/S/stroke ld
/L/lineto ld
/CC/setcmykcolor ld
/A/ashow ld
/GS/gsave ld
/RC/setrgbcolor ld
/RM/rmoveto ld
/ML/setmiterlimit ld
/re {4 2 roll M
1 index 0 rlineto
0 exch rlineto
neg 0 rlineto
cp } bd
/_ctm matrix def
/_tm matrix def
/BT { _ctm currentmatrix pop matrix _tm copy pop 0 0 moveto } bd
/ET { _ctm setmatrix } bd
/iTm { _ctm setmatrix _tm concat } bd
/Tm { _tm astore pop iTm 0 0 moveto } bd
/ux 0.0 def
/uy 0.0 def
/F {
  /Tp exch def
  /Tf exch def
  Tf findfont Tp scalefont setfont
  /cf Tf def  /cs Tp def
} bd
/ULS {currentpoint /uy exch def /ux exch def} bd
/ULE {
  /Tcx currentpoint pop def
  gsave
  newpath
  cf findfont cs scalefont dup
  /FontMatrix get 0 get /Ts exch def /FontInfo get dup
  /UnderlinePosition get Ts mul /To exch def
  /UnderlineThickness get Ts mul /Tt exch def
  ux uy To add moveto  Tcx uy To add lineto
  Tt setlinewidth stroke
  grestore
} bd
/OLE {
  /Tcx currentpoint pop def
  gsave
  newpath
  cf findfont cs scalefont dup
  /FontMatrix get 0 get /Ts exch def /FontInfo get dup
  /UnderlinePosition get Ts mul /To exch def
  /UnderlineThickness get Ts mul /Tt exch def
  ux uy To add cs add moveto Tcx uy To add cs add lineto
  Tt setlinewidth stroke
  grestore
} bd
/SOE {
  /Tcx currentpoint pop def
  gsave
  newpath
  cf findfont cs scalefont dup
  /FontMatrix get 0 get /Ts exch def /FontInfo get dup
  /UnderlinePosition get Ts mul /To exch def
  /UnderlineThickness get Ts mul /Tt exch def
  ux uy To add cs 10 mul 26 idiv add moveto Tcx uy To add cs 10 mul 26 idiv add lineto
  Tt setlinewidth stroke
  grestore
} bd
/QT {
/Y22 exch store
/X22 exch store
/Y21 exch store
/X21 exch store
currentpoint
/Y21 load 2 mul add 3 div exch
/X21 load 2 mul add 3 div exch
/X21 load 2 mul /X22 load add 3 div
/Y21 load 2 mul /Y22 load add 3 div
/X22 load /Y22 load curveto
} bd
/SSPD {
dup length /d exch dict def
{
/v exch def
/k exch def
currentpagedevice k known {
/cpdv currentpagedevice k get def
v cpdv ne {
/upd false def
/nullv v type /nulltype eq def
/nullcpdv cpdv type /nulltype eq def
nullv nullcpdv or
{
/upd true def
} {
/sametype v type cpdv type eq def
sametype {
v type /arraytype eq {
/vlen v length def
/cpdvlen cpdv length def
vlen cpdvlen eq {
0 1 vlen 1 sub {
/i exch def
/obj v i get def
/cpdobj cpdv i get def
obj cpdobj ne {
/upd true def
exit
} if
} for
} {
/upd true def
} ifelse
} {
v type /dicttype eq {
v {
/dv exch def
/dk exch def
/cpddv cpdv dk get def
dv cpddv ne {
/upd true def
exit
} if
} forall
} {
/upd true def
} ifelse
} ifelse
} if
} ifelse
upd true eq {
d k v put
} if
} if
} if
} forall
d length 0 gt {
d setpagedevice
} if
} bd
/RE { % /NewFontName [NewEncodingArray] /FontName RE -
  findfont dup length dict begin
  {
    1 index /FID ne
    {def} {pop pop} ifelse
  } forall
  /Encoding exch def
  /FontName 1 index def
  currentdict definefont pop
  end
} bind def
%%EndResource
%%BeginResource: procset (Apache XML Graphics EPS ProcSet) 1.0 0
%%Version: 1.0 0
%%Copyright: (Copyright 2002-2003 The Apache Software Foundation. License terms: http://www.apache.org/licenses/LICENSE-2.0)
/BeginEPSF { %def
/b4_Inc_state save def         % Save state for cleanup
/dict_count countdictstack def % Count objects on dict stack
/op_count count 1 sub def      % Count objects on operand stack
userdict begin                 % Push userdict on dict stack
/showpage { } def              % Redefine showpage, { } = null proc
0 setgray 0 setlinecap         % Prepare graphics state
1 setlinewidth 0 setlinejoin
10 setmiterlimit [ ] 0 setdash newpath
/languagelevel where           % If level not equal to 1 then
{pop languagelevel             % set strokeadjust and
1 ne                           % overprint to their defaults.
{false setstrokeadjust false setoverprint
} if
} if
} bd
/EndEPSF { %def
count op_count sub {pop} repeat            % Clean up stacks
countdictstack dict_count sub {end} repeat
b4_Inc_state restore
} bd
%%EndResource
%FOPBeginFontDict
%%IncludeResource: font Courier-Bold
%%IncludeResource: font Helvetica
%%IncludeResource: font Courier-BoldOblique
%%IncludeResource: font Courier-Oblique
%%IncludeResource: font Times-Roman
%%IncludeResource: font Helvetica-BoldOblique
%%IncludeResource: font Helvetica-Bold
%%IncludeResource: font Helvetica-Oblique
%%IncludeResource: font Times-BoldItalic
%%IncludeResource: font Courier
%%IncludeResource: font Times-Italic
%%IncludeResource: font Times-Bold
%%IncludeResource: font Symbol
%%IncludeResource: font ZapfDingbats
%FOPEndFontDict
%%BeginResource: encoding WinAnsiEncoding
/WinAnsiEncoding [
/.notdef /.notdef /.notdef /.notdef /.notdef
/.notdef /.notdef /.notdef /.notdef /.notdef
/.notdef /.notdef /.notdef /.notdef /.notdef
/.notdef /.notdef /.notdef /.notdef /.notdef
/.notdef /.notdef /.notdef /.notdef /.notdef
/.notdef /.notdef /.notdef /.notdef /.notdef
/.notdef /.notdef /space /exclam /quotedbl
/numbersign /dollar /percent /ampersand /quotesingle
/parenleft /parenright /asterisk /plus /comma
/hyphen /period /slash /zero /one
/two /three /four /five /six
/seven /eight /nine /colon /semicolon
/less /equal /greater /question /at
/A /B /C /D /E
/F /G /H /I /J
/K /L /M /N /O
/P /Q /R /S /T
/U /V /W /X /Y
/Z /bracketleft /backslash /bracketright /asciicircum
/underscore /quoteleft /a /b /c
/d /e /f /g /h
/i /j /k /l /m
/n /o /p /q /r
/s /t /u /v /w
/x /y /z /braceleft /bar
/braceright /asciitilde /bullet /Euro /bullet
/quotesinglbase /florin /quotedblbase /ellipsis /dagger
/daggerdbl /circumflex /perthousand /Scaron /guilsinglleft
/OE /bullet /Zcaron /bullet /bullet
/quoteleft /quoteright /quotedblleft /quotedblright /bullet
/endash /emdash /asciitilde /trademark /scaron
/guilsinglright /oe /bullet /zcaron /Ydieresis
/space /exclamdown /cent /sterling /currency
/yen /brokenbar /section /dieresis /copyright
/ordfeminine /guillemotleft /logicalnot /sfthyphen /registered
/macron /degree /plusminus /twosuperior /threesuperior
/acute /mu /paragraph /middot /cedilla
/onesuperior /ordmasculine /guillemotright /onequarter /onehalf
/threequarters /questiondown /Agrave /Aacute /Acircumflex
/Atilde /Adieresis /Aring /AE /Ccedilla
/Egrave /Eacute /Ecircumflex /Edieresis /Igrave
/Iacute /Icircumflex /Idieresis /Eth /Ntilde
/Ograve /Oacute /Ocircumflex /Otilde /Odieresis
/multiply /Oslash /Ugrave /Uacute /Ucircumflex
/Udieresis /Yacute /Thorn /germandbls /agrave
/aacute /acircumflex /atilde /adieresis /aring
/ae /ccedilla /egrave /eacute /ecircumflex
/edieresis /igrave /iacute /icircumflex /idieresis
/eth /ntilde /ograve /oacute /ocircumflex
/otilde /odieresis /divide /oslash /ugrave
/uacute /ucircumflex /udieresis /yacute /thorn
/ydieresis
] def
%%EndResource
%FOPBeginFontReencode
/Courier-Bold findfont
dup length dict begin
  {1 index /FID ne {def} {pop pop} ifelse} forall
  /Encoding WinAnsiEncoding def
  currentdict
end
/Courier-Bold exch definefont pop
/Helvetica findfont
dup length dict begin
  {1 index /FID ne {def} {pop pop} ifelse} forall
  /Encoding WinAnsiEncoding def
  currentdict
end
/Helvetica exch definefont pop
/Courier-BoldOblique findfont
dup length dict begin
  {1 index /FID ne {def} {pop pop} ifelse} forall
  /Encoding WinAnsiEncoding def
  currentdict
end
/Courier-BoldOblique exch definefont pop
/Courier-Oblique findfont
dup length dict begin
  {1 index /FID ne {def} {pop pop} ifelse} forall
  /Encoding WinAnsiEncoding def
  currentdict
end
/Courier-Oblique exch definefont pop
/Times-Roman findfont
dup length dict begin
  {1 index /FID ne {def} {pop pop} ifelse} forall
  /Encoding WinAnsiEncoding def
  currentdict
end
/Times-Roman exch definefont pop
/Helvetica-BoldOblique findfont
dup length dict begin
  {1 index /FID ne {def} {pop pop} ifelse} forall
  /Encoding WinAnsiEncoding def
  currentdict
end
/Helvetica-BoldOblique exch definefont pop
/Helvetica-Bold findfont
dup length dict begin
  {1 index /FID ne {def} {pop pop} ifelse} forall
  /Encoding WinAnsiEncoding def
  currentdict
end
/Helvetica-Bold exch definefont pop
/Helvetica-Oblique findfont
dup length dict begin
  {1 index /FID ne {def} {pop pop} ifelse} forall
  /Encoding WinAnsiEncoding def
  currentdict
end
/Helvetica-Oblique exch definefont pop
/Times-BoldItalic findfont
dup length dict begin
  {1 index /FID ne {def} {pop pop} ifelse} forall
  /Encoding WinAnsiEncoding def
  currentdict
end
/Times-BoldItalic exch definefont pop
/Courier findfont
dup length dict begin
  {1 index /FID ne {def} {pop pop} ifelse} forall
  /Encoding WinAnsiEncoding def
  currentdict
end
/Courier exch definefont pop
/Times-Italic findfont
dup length dict begin
  {1 index /FID ne {def} {pop pop} ifelse} forall
  /Encoding WinAnsiEncoding def
  currentdict
end
/Times-Italic exch definefont pop
/Times-Bold findfont
dup length dict begin
  {1 index /FID ne {def} {pop pop} ifelse} forall
  /Encoding WinAnsiEncoding def
  currentdict
end
/Times-Bold exch definefont pop
%FOPEndFontReencode
%%EndProlog
%%Page: 1 1
%%PageBoundingBox: 0 0 428 338
%%BeginPageSetup
[1 0 0 -1 0 338] CT
%%EndPageSetup
GS
[0.75 0 0 0.75 0 0.5] CT
N
0 0 M
570 0 L
570 450 L
0 450 L
0 0 L
cp
clip
1 GC
N
0 0 570 450 re
f
GR
GS
[0.75 0 0 0.75 0 0.5] CT
1 GC
N
0 0 570 450 re
f
GR
GS
[0.75 0 0 0.75 0 0.5] CT
1 GC
N
74 400 M
516 400 L
516 34 L
74 34 L
cp
f
GR
GS
[0.75 0 0 0.75 0 0.5] CT
0.149 GC
2 setlinecap
1 LJ
0.667 LW
N
74 400 M
516 400 L
S
GR
GS
[0.75 0 0 0.75 0 0.5] CT
0.149 GC
2 setlinecap
1 LJ
0.667 LW
N
74 34 M
516 34 L
S
GR
GS
[0.75 0 0 0.75 0 0.5] CT
0.149 GC
2 setlinecap
1 LJ
0.667 LW
N
114.108 400 M
114.108 395.58 L
S
GR
GS
[0.75 0 0 0.75 0 0.5] CT
0.149 GC
2 setlinecap
1 LJ
0.667 LW
N
158.763 400 M
158.763 395.58 L
S
GR
GS
[0.75 0 0 0.75 0 0.5] CT
0.149 GC
2 setlinecap
1 LJ
0.667 LW
N
203.418 400 M
203.418 395.58 L
S
GR
GS
[0.75 0 0 0.75 0 0.5] CT
0.149 GC
2 setlinecap
1 LJ
0.667 LW
N
248.072 400 M
248.072 395.58 L
S
GR
GS
[0.75 0 0 0.75 0 0.5] CT
0.149 GC
2 setlinecap
1 LJ
0.667 LW
N
292.727 400 M
292.727 395.58 L
S
GR
GS
[0.75 0 0 0.75 0 0.5] CT
0.149 GC
2 setlinecap
1 LJ
0.667 LW
N
337.382 400 M
337.382 395.58 L
S
GR
GS
[0.75 0 0 0.75 0 0.5] CT
0.149 GC
2 setlinecap
1 LJ
0.667 LW
N
382.036 400 M
382.036 395.58 L
S
GR
GS
[0.75 0 0 0.75 0 0.5] CT
0.149 GC
2 setlinecap
1 LJ
0.667 LW
N
426.691 400 M
426.691 395.58 L
S
GR
GS
[0.75 0 0 0.75 0 0.5] CT
0.149 GC
2 setlinecap
1 LJ
0.667 LW
N
471.345 400 M
471.345 395.58 L
S
GR
GS
[0.75 0 0 0.75 0 0.5] CT
0.149 GC
2 setlinecap
1 LJ
0.667 LW
N
516 400 M
516 395.58 L
S
GR
GS
[0.75 0 0 0.75 0 0.5] CT
0.149 GC
2 setlinecap
1 LJ
0.667 LW
N
114.108 34 M
114.108 38.42 L
S
GR
GS
[0.75 0 0 0.75 0 0.5] CT
0.149 GC
2 setlinecap
1 LJ
0.667 LW
N
158.763 34 M
158.763 38.42 L
S
GR
GS
[0.75 0 0 0.75 0 0.5] CT
0.149 GC
2 setlinecap
1 LJ
0.667 LW
N
203.418 34 M
203.418 38.42 L
S
GR
GS
[0.75 0 0 0.75 0 0.5] CT
0.149 GC
2 setlinecap
1 LJ
0.667 LW
N
248.072 34 M
248.072 38.42 L
S
GR
GS
[0.75 0 0 0.75 0 0.5] CT
0.149 GC
2 setlinecap
1 LJ
0.667 LW
N
292.727 34 M
292.727 38.42 L
S
GR
GS
[0.75 0 0 0.75 0 0.5] CT
0.149 GC
2 setlinecap
1 LJ
0.667 LW
N
337.382 34 M
337.382 38.42 L
S
GR
GS
[0.75 0 0 0.75 0 0.5] CT
0.149 GC
2 setlinecap
1 LJ
0.667 LW
N
382.036 34 M
382.036 38.42 L
S
GR
GS
[0.75 0 0 0.75 0 0.5] CT
0.149 GC
2 setlinecap
1 LJ
0.667 LW
N
426.691 34 M
426.691 38.42 L
S
GR
GS
[0.75 0 0 0.75 0 0.5] CT
0.149 GC
2 setlinecap
1 LJ
0.667 LW
N
471.345 34 M
471.345 38.42 L
S
GR
GS
[0.75 0 0 0.75 0 0.5] CT
0.149 GC
2 setlinecap
1 LJ
0.667 LW
N
516 34 M
516 38.42 L
S
GR
GS
[0.75 0 0 0.75 85.58126 304.49998] CT
0.149 GC
/Helvetica 13.333 F
GS
[1 0 0 1 0 0] CT
-8.5 13 moveto 
1 -1 scale
(10) t 
GR
GR
GS
[0.75 0 0 0.75 119.07223 304.49998] CT
0.149 GC
/Helvetica 13.333 F
GS
[1 0 0 1 0 0] CT
-8.5 13 moveto 
1 -1 scale
(20) t 
GR
GR
GS
[0.75 0 0 0.75 152.5632 304.49998] CT
0.149 GC
/Helvetica 13.333 F
GS
[1 0 0 1 0 0] CT
-8.5 13 moveto 
1 -1 scale
(30) t 
GR
GR
GS
[0.75 0 0 0.75 186.05418 304.49998] CT
0.149 GC
/Helvetica 13.333 F
GS
[1 0 0 1 0 0] CT
-8.5 13 moveto 
1 -1 scale
(40) t 
GR
GR
GS
[0.75 0 0 0.75 219.54515 304.49998] CT
0.149 GC
/Helvetica 13.333 F
GS
[1 0 0 1 0 0] CT
-8.5 13 moveto 
1 -1 scale
(50) t 
GR
GR
GS
[0.75 0 0 0.75 253.03613 304.49998] CT
0.149 GC
/Helvetica 13.333 F
GS
[1 0 0 1 0 0] CT
-8.5 13 moveto 
1 -1 scale
(60) t 
GR
GR
GS
[0.75 0 0 0.75 286.52708 304.49998] CT
0.149 GC
/Helvetica 13.333 F
GS
[1 0 0 1 0 0] CT
-8.5 13 moveto 
1 -1 scale
(70) t 
GR
GR
GS
[0.75 0 0 0.75 320.01805 304.49998] CT
0.149 GC
/Helvetica 13.333 F
GS
[1 0 0 1 0 0] CT
-8.5 13 moveto 
1 -1 scale
(80) t 
GR
GR
GS
[0.75 0 0 0.75 353.50903 304.49998] CT
0.149 GC
/Helvetica 13.333 F
GS
[1 0 0 1 0 0] CT
-8.5 13 moveto 
1 -1 scale
(90) t 
GR
GR
GS
[0.75 0 0 0.75 387 304.49998] CT
0.149 GC
/Helvetica 13.333 F
GS
[1 0 0 1 0 0] CT
-12.5 13 moveto 
1 -1 scale
(100) t 
GR
GR
GS
[0.75 0 0 0.75 0 0.5] CT
0.149 GC
2 setlinecap
1 LJ
0.667 LW
N
74 400 M
74 34 L
S
GR
GS
[0.75 0 0 0.75 0 0.5] CT
0.149 GC
2 setlinecap
1 LJ
0.667 LW
N
516 400 M
516 34 L
S
GR
GS
[0.75 0 0 0.75 0 0.5] CT
0.149 GC
2 setlinecap
1 LJ
0.667 LW
N
74 400 M
78.42 400 L
S
GR
GS
[0.75 0 0 0.75 0 0.5] CT
0.149 GC
2 setlinecap
1 LJ
0.667 LW
N
74 362.116 M
78.42 362.116 L
S
GR
GS
[0.75 0 0 0.75 0 0.5] CT
0.149 GC
2 setlinecap
1 LJ
0.667 LW
N
74 324.233 M
78.42 324.233 L
S
GR
GS
[0.75 0 0 0.75 0 0.5] CT
0.149 GC
2 setlinecap
1 LJ
0.667 LW
N
74 286.35 M
78.42 286.35 L
S
GR
GS
[0.75 0 0 0.75 0 0.5] CT
0.149 GC
2 setlinecap
1 LJ
0.667 LW
N
74 248.466 M
78.42 248.466 L
S
GR
GS
[0.75 0 0 0.75 0 0.5] CT
0.149 GC
2 setlinecap
1 LJ
0.667 LW
N
74 210.583 M
78.42 210.583 L
S
GR
GS
[0.75 0 0 0.75 0 0.5] CT
0.149 GC
2 setlinecap
1 LJ
0.667 LW
N
74 172.699 M
78.42 172.699 L
S
GR
GS
[0.75 0 0 0.75 0 0.5] CT
0.149 GC
2 setlinecap
1 LJ
0.667 LW
N
74 134.816 M
78.42 134.816 L
S
GR
GS
[0.75 0 0 0.75 0 0.5] CT
0.149 GC
2 setlinecap
1 LJ
0.667 LW
N
74 96.932 M
78.42 96.932 L
S
GR
GS
[0.75 0 0 0.75 0 0.5] CT
0.149 GC
2 setlinecap
1 LJ
0.667 LW
N
74 59.049 M
78.42 59.049 L
S
GR
GS
[0.75 0 0 0.75 0 0.5] CT
0.149 GC
2 setlinecap
1 LJ
0.667 LW
N
516 400 M
511.58 400 L
S
GR
GS
[0.75 0 0 0.75 0 0.5] CT
0.149 GC
2 setlinecap
1 LJ
0.667 LW
N
516 362.116 M
511.58 362.116 L
S
GR
GS
[0.75 0 0 0.75 0 0.5] CT
0.149 GC
2 setlinecap
1 LJ
0.667 LW
N
516 324.233 M
511.58 324.233 L
S
GR
GS
[0.75 0 0 0.75 0 0.5] CT
0.149 GC
2 setlinecap
1 LJ
0.667 LW
N
516 286.35 M
511.58 286.35 L
S
GR
GS
[0.75 0 0 0.75 0 0.5] CT
0.149 GC
2 setlinecap
1 LJ
0.667 LW
N
516 248.466 M
511.58 248.466 L
S
GR
GS
[0.75 0 0 0.75 0 0.5] CT
0.149 GC
2 setlinecap
1 LJ
0.667 LW
N
516 210.583 M
511.58 210.583 L
S
GR
GS
[0.75 0 0 0.75 0 0.5] CT
0.149 GC
2 setlinecap
1 LJ
0.667 LW
N
516 172.699 M
511.58 172.699 L
S
GR
GS
[0.75 0 0 0.75 0 0.5] CT
0.149 GC
2 setlinecap
1 LJ
0.667 LW
N
516 134.816 M
511.58 134.816 L
S
GR
GS
[0.75 0 0 0.75 0 0.5] CT
0.149 GC
2 setlinecap
1 LJ
0.667 LW
N
516 96.932 M
511.58 96.932 L
S
GR
GS
[0.75 0 0 0.75 0 0.5] CT
0.149 GC
2 setlinecap
1 LJ
0.667 LW
N
516 59.049 M
511.58 59.049 L
S
GR
GS
[0.75 0 0 0.75 51.5 300.5] CT
0.149 GC
/Helvetica 13.333 F
GS
[1 0 0 1 0 0] CT
-21 4.5 moveto 
1 -1 scale
(0.8) t 
GR
GR
GS
[0.75 0 0 0.75 51.5 272.08736] CT
0.149 GC
/Helvetica 13.333 F
GS
[1 0 0 1 0 0] CT
-29 4.5 moveto 
1 -1 scale
(0.85) t 
GR
GR
GS
[0.75 0 0 0.75 51.5 243.6748] CT
0.149 GC
/Helvetica 13.333 F
GS
[1 0 0 1 0 0] CT
-21 4.5 moveto 
1 -1 scale
(0.9) t 
GR
GR
GS
[0.75 0 0 0.75 51.5 215.26216] CT
0.149 GC
/Helvetica 13.333 F
GS
[1 0 0 1 0 0] CT
-29 4.5 moveto 
1 -1 scale
(0.95) t 
GR
GR
GS
[0.75 0 0 0.75 51.5 186.84955] CT
0.149 GC
/Helvetica 13.333 F
GS
[1 0 0 1 0 0] CT
-9 4.5 moveto 
1 -1 scale
(1) t 
GR
GR
GS
[0.75 0 0 0.75 51.5 158.43696] CT
0.149 GC
/Helvetica 13.333 F
GS
[1 0 0 1 0 0] CT
-29 4.5 moveto 
1 -1 scale
(1.05) t 
GR
GR
GS
[0.75 0 0 0.75 51.5 130.02431] CT
0.149 GC
/Helvetica 13.333 F
GS
[1 0 0 1 0 0] CT
-21 4.5 moveto 
1 -1 scale
(1.1) t 
GR
GR
GS
[0.75 0 0 0.75 51.5 101.61172] CT
0.149 GC
/Helvetica 13.333 F
GS
[1 0 0 1 0 0] CT
-29 4.5 moveto 
1 -1 scale
(1.15) t 
GR
GR
GS
[0.75 0 0 0.75 51.5 73.19907] CT
0.149 GC
/Helvetica 13.333 F
GS
[1 0 0 1 0 0] CT
-21 4.5 moveto 
1 -1 scale
(1.2) t 
GR
GR
GS
[0.75 0 0 0.75 51.5 44.78648] CT
0.149 GC
/Helvetica 13.333 F
GS
[1 0 0 1 0 0] CT
-29 4.5 moveto 
1 -1 scale
(1.25) t 
GR
GR
GS
[0.75 0 0 0.75 0 0.5] CT
0 0.447 0.741 RC
1 LJ
0.667 LW
N
101.947 33.956 M
105.177 165.258 L
109.643 171.333 L
114.108 184.206 L
118.574 183.37 L
123.039 202.557 L
127.505 202.628 L
131.97 224.02 L
136.436 227.974 L
140.901 229.013 L
145.367 227.672 L
149.832 228.834 L
154.298 239.303 L
158.763 238.119 L
163.228 244.021 L
167.694 244.761 L
172.159 245.169 L
176.625 244.879 L
181.09 245.251 L
185.556 244.462 L
190.021 245.859 L
194.487 246.07 L
198.952 243.726 L
203.418 243.282 L
207.883 240.883 L
212.349 239.314 L
216.814 239.842 L
221.279 237.399 L
225.745 237.114 L
230.21 236.889 L
234.676 235.582 L
239.141 228.014 L
243.607 227.922 L
248.072 227.56 L
252.538 227.277 L
257.003 225.209 L
261.469 224.69 L
265.934 224.763 L
270.4 224.683 L
274.865 225.001 L
279.33 223.726 L
283.796 223.767 L
288.261 223.695 L
292.727 221.733 L
297.192 221.166 L
301.658 219.166 L
306.123 218.959 L
310.589 218.712 L
315.054 218.887 L
319.52 214.733 L
323.985 213.958 L
328.451 213.968 L
332.916 214.266 L
337.382 213.988 L
341.847 213.496 L
346.312 213.291 L
350.778 213.955 L
355.243 213.269 L
359.709 213.106 L
364.174 213.14 L
368.64 213.084 L
373.105 213.391 L
377.571 213.206 L
382.036 212.283 L
386.502 212.337 L
390.967 211.512 L
395.432 211.233 L
399.898 211.163 L
404.363 210.339 L
408.829 208.675 L
413.294 208.588 L
417.76 203.751 L
422.225 202.655 L
426.691 202.625 L
431.156 202.478 L
435.622 202.539 L
440.087 202.403 L
444.553 199.493 L
449.018 199.624 L
453.484 197.661 L
457.949 197.499 L
462.414 197.575 L
466.88 197.392 L
471.345 197.262 L
475.811 196.49 L
480.276 196.373 L
484.742 191.259 L
489.207 190.17 L
493.673 187.951 L
498.138 186.877 L
502.604 187.511 L
507.069 186.434 L
511.535 186.302 L
516 186.282 L
S
GR
GS
[0.75 0 0 0.75 0 0.5] CT
0.851 0.325 0.098 RC
1 LJ
0.667 LW
N
102.326 33.956 M
105.177 139.805 L
109.643 144.475 L
114.108 151.365 L
118.574 151.709 L
123.039 187.179 L
127.505 190.506 L
131.97 221.698 L
136.436 223.968 L
140.901 224.602 L
145.367 225.515 L
149.832 227.785 L
154.298 236.471 L
158.763 237.184 L
163.228 241.355 L
167.694 241.865 L
172.159 242.612 L
176.625 243.204 L
181.09 245.939 L
185.556 248.01 L
190.021 248.546 L
194.487 248.993 L
198.952 250.686 L
203.418 250.843 L
207.883 253.644 L
212.349 255.517 L
216.814 255.633 L
221.279 257.513 L
225.745 257.666 L
230.21 258.189 L
234.676 260.32 L
239.141 266.455 L
243.607 266.627 L
248.072 266.906 L
252.538 266.951 L
257.003 268.619 L
261.469 268.817 L
265.934 268.868 L
270.4 268.959 L
274.865 269.029 L
279.33 269.798 L
283.796 269.816 L
288.261 270.106 L
292.727 273.226 L
297.192 273.59 L
301.658 274.995 L
306.123 275.07 L
310.589 275.251 L
315.054 275.566 L
319.52 278.785 L
323.985 281.022 L
328.451 281.023 L
332.916 281.145 L
337.382 281.969 L
341.847 282.04 L
346.312 282.073 L
350.778 282.266 L
355.243 282.495 L
359.709 282.525 L
364.174 282.541 L
368.64 282.8 L
373.105 282.906 L
377.571 283.052 L
382.036 283.349 L
386.502 283.399 L
390.967 283.678 L
395.432 283.794 L
399.898 283.804 L
404.363 283.996 L
408.829 284.529 L
413.294 284.723 L
417.76 287.27 L
422.225 288.891 L
426.691 288.895 L
431.156 289.466 L
435.622 289.47 L
440.087 289.488 L
444.553 291.111 L
449.018 291.145 L
453.484 291.77 L
457.949 291.867 L
462.414 291.895 L
466.88 292.073 L
471.345 292.217 L
475.811 292.563 L
480.276 292.576 L
484.742 295.444 L
489.207 296.687 L
493.673 298.31 L
498.138 299.155 L
502.604 299.506 L
507.069 299.893 L
511.535 299.993 L
516 299.993 L
S
GR
GS
[0.75 0 0 0.75 0 0.5] CT
0.929 0.694 0.125 RC
1 LJ
0.667 LW
N
102.708 33.956 M
105.177 125.943 L
109.643 128.965 L
114.108 134.27 L
118.574 132.911 L
123.039 167.524 L
127.505 169.299 L
131.97 199.733 L
136.436 200.503 L
140.901 199.593 L
145.367 198.974 L
149.832 199.765 L
154.298 207.224 L
158.763 206.426 L
163.228 209.235 L
167.694 208.237 L
172.159 207.489 L
176.625 206.583 L
181.09 207.929 L
185.556 208.588 L
190.021 207.636 L
194.487 206.593 L
198.952 206.87 L
203.418 205.525 L
207.883 206.99 L
212.349 207.477 L
216.814 206.1 L
221.279 206.607 L
225.745 205.273 L
230.21 204.336 L
234.676 205.129 L
239.141 210.24 L
243.607 208.945 L
248.072 207.768 L
252.538 206.337 L
257.003 206.667 L
261.469 205.408 L
265.934 203.989 L
270.4 202.613 L
274.865 201.215 L
279.33 200.582 L
283.796 199.129 L
288.261 197.975 L
292.727 199.935 L
297.192 198.87 L
301.658 198.956 L
306.123 197.577 L
310.589 196.316 L
315.054 195.203 L
319.52 197.322 L
323.985 198.359 L
328.451 196.91 L
332.916 195.596 L
337.382 195.069 L
341.847 193.7 L
346.312 192.289 L
350.778 191.058 L
355.243 189.868 L
359.709 188.456 L
364.174 187.026 L
368.64 185.873 L
373.105 184.547 L
377.571 183.266 L
382.036 182.159 L
386.502 180.771 L
390.967 179.644 L
395.432 178.333 L
399.898 176.899 L
404.363 175.675 L
408.829 174.844 L
413.294 173.625 L
417.76 175.126 L
422.225 175.567 L
426.691 174.136 L
431.156 173.365 L
435.622 171.936 L
440.087 170.525 L
444.553 170.987 L
449.018 169.596 L
453.484 168.899 L
457.949 167.584 L
462.414 166.189 L
466.88 164.97 L
471.345 163.712 L
475.811 162.693 L
480.276 161.281 L
484.742 163.255 L
489.207 163.311 L
493.673 163.823 L
498.138 163.415 L
502.604 162.419 L
507.069 161.469 L
511.535 160.176 L
516 158.764 L
S
GR
GS
[0.75 0 0 0.75 0 0.5] CT
1 GC
N
433 97 M
433 47 L
503 47 L
503 97 L
cp
f
GR
GS
[0.75 0 0 0.75 352.5 42.875] CT
/Helvetica 12 F
GS
[1 0 0 1 0 0] CT
0 4.5 moveto 
1 -1 scale
(Vval) t 
GR
GR
GS
[0.75 0 0 0.75 0 0.5] CT
0 0.447 0.741 RC
1 LJ
0.667 LW
N
437 56.5 M
467 56.5 L
S
GR
GS
[0.75 0 0 0.75 352.5 54.5] CT
/Helvetica 12 F
GS
[1 0 0 1 0 0] CT
0 4.5 moveto 
1 -1 scale
(Vest) t 
GR
GR
GS
[0.75 0 0 0.75 0 0.5] CT
0.851 0.325 0.098 RC
1 LJ
0.667 LW
N
437 72 M
467 72 L
S
GR
GS
[0.75 0 0 0.75 352.5 66.125] CT
/Helvetica 12 F
GS
[1 0 0 1 0 0] CT
0 4.5 moveto 
1 -1 scale
(VAIC) t 
GR
GR
GS
[0.75 0 0 0.75 0 0.5] CT
0.929 0.694 0.125 RC
1 LJ
0.667 LW
N
437 87.5 M
467 87.5 L
S
GR
GS
[0.75 0 0 0.75 0 0.5] CT
0.149 GC
10.0 ML
0.667 LW
N
433 97 M
433 47 L
503 47 L
503 97 L
cp
S
GR
%%Trailer
%%Pages: 1
%%EOF
