%!PS-Adobe-3.0 EPSF-3.0
%%Creator: (MATLAB, The Mathworks, Inc. Version 9.1.0.441655 \(R2016b\). Operating System: Windows 8)
%%Title: C:/Users/simon/Documents/Unief/M1/System_Identification_and_Modeling/Oefenzittingen/Oefenzitting_1/git/Report/autocorrelation_2122.eps
%%CreationDate: 2016-12-25T16:09:33
%%Pages: (atend)
%%BoundingBox: 0 0 1152 562
%%LanguageLevel: 3
%%EndComments
%%BeginProlog
%%BeginResource: procset (Apache XML Graphics Std ProcSet) 1.2 0
%%Version: 1.2 0
%%Copyright: (Copyright 2001-2003,2010 The Apache Software Foundation. License terms: http://www.apache.org/licenses/LICENSE-2.0)
/bd{bind def}bind def
/ld{load def}bd
/GR/grestore ld
/M/moveto ld
/LJ/setlinejoin ld
/C/curveto ld
/f/fill ld
/LW/setlinewidth ld
/GC/setgray ld
/t/show ld
/N/newpath ld
/CT/concat ld
/cp/closepath ld
/S/stroke ld
/L/lineto ld
/CC/setcmykcolor ld
/A/ashow ld
/GS/gsave ld
/RC/setrgbcolor ld
/RM/rmoveto ld
/ML/setmiterlimit ld
/re {4 2 roll M
1 index 0 rlineto
0 exch rlineto
neg 0 rlineto
cp } bd
/_ctm matrix def
/_tm matrix def
/BT { _ctm currentmatrix pop matrix _tm copy pop 0 0 moveto } bd
/ET { _ctm setmatrix } bd
/iTm { _ctm setmatrix _tm concat } bd
/Tm { _tm astore pop iTm 0 0 moveto } bd
/ux 0.0 def
/uy 0.0 def
/F {
  /Tp exch def
  /Tf exch def
  Tf findfont Tp scalefont setfont
  /cf Tf def  /cs Tp def
} bd
/ULS {currentpoint /uy exch def /ux exch def} bd
/ULE {
  /Tcx currentpoint pop def
  gsave
  newpath
  cf findfont cs scalefont dup
  /FontMatrix get 0 get /Ts exch def /FontInfo get dup
  /UnderlinePosition get Ts mul /To exch def
  /UnderlineThickness get Ts mul /Tt exch def
  ux uy To add moveto  Tcx uy To add lineto
  Tt setlinewidth stroke
  grestore
} bd
/OLE {
  /Tcx currentpoint pop def
  gsave
  newpath
  cf findfont cs scalefont dup
  /FontMatrix get 0 get /Ts exch def /FontInfo get dup
  /UnderlinePosition get Ts mul /To exch def
  /UnderlineThickness get Ts mul /Tt exch def
  ux uy To add cs add moveto Tcx uy To add cs add lineto
  Tt setlinewidth stroke
  grestore
} bd
/SOE {
  /Tcx currentpoint pop def
  gsave
  newpath
  cf findfont cs scalefont dup
  /FontMatrix get 0 get /Ts exch def /FontInfo get dup
  /UnderlinePosition get Ts mul /To exch def
  /UnderlineThickness get Ts mul /Tt exch def
  ux uy To add cs 10 mul 26 idiv add moveto Tcx uy To add cs 10 mul 26 idiv add lineto
  Tt setlinewidth stroke
  grestore
} bd
/QT {
/Y22 exch store
/X22 exch store
/Y21 exch store
/X21 exch store
currentpoint
/Y21 load 2 mul add 3 div exch
/X21 load 2 mul add 3 div exch
/X21 load 2 mul /X22 load add 3 div
/Y21 load 2 mul /Y22 load add 3 div
/X22 load /Y22 load curveto
} bd
/SSPD {
dup length /d exch dict def
{
/v exch def
/k exch def
currentpagedevice k known {
/cpdv currentpagedevice k get def
v cpdv ne {
/upd false def
/nullv v type /nulltype eq def
/nullcpdv cpdv type /nulltype eq def
nullv nullcpdv or
{
/upd true def
} {
/sametype v type cpdv type eq def
sametype {
v type /arraytype eq {
/vlen v length def
/cpdvlen cpdv length def
vlen cpdvlen eq {
0 1 vlen 1 sub {
/i exch def
/obj v i get def
/cpdobj cpdv i get def
obj cpdobj ne {
/upd true def
exit
} if
} for
} {
/upd true def
} ifelse
} {
v type /dicttype eq {
v {
/dv exch def
/dk exch def
/cpddv cpdv dk get def
dv cpddv ne {
/upd true def
exit
} if
} forall
} {
/upd true def
} ifelse
} ifelse
} if
} ifelse
upd true eq {
d k v put
} if
} if
} if
} forall
d length 0 gt {
d setpagedevice
} if
} bd
/RE { % /NewFontName [NewEncodingArray] /FontName RE -
  findfont dup length dict begin
  {
    1 index /FID ne
    {def} {pop pop} ifelse
  } forall
  /Encoding exch def
  /FontName 1 index def
  currentdict definefont pop
  end
} bind def
%%EndResource
%%BeginResource: procset (Apache XML Graphics EPS ProcSet) 1.0 0
%%Version: 1.0 0
%%Copyright: (Copyright 2002-2003 The Apache Software Foundation. License terms: http://www.apache.org/licenses/LICENSE-2.0)
/BeginEPSF { %def
/b4_Inc_state save def         % Save state for cleanup
/dict_count countdictstack def % Count objects on dict stack
/op_count count 1 sub def      % Count objects on operand stack
userdict begin                 % Push userdict on dict stack
/showpage { } def              % Redefine showpage, { } = null proc
0 setgray 0 setlinecap         % Prepare graphics state
1 setlinewidth 0 setlinejoin
10 setmiterlimit [ ] 0 setdash newpath
/languagelevel where           % If level not equal to 1 then
{pop languagelevel             % set strokeadjust and
1 ne                           % overprint to their defaults.
{false setstrokeadjust false setoverprint
} if
} if
} bd
/EndEPSF { %def
count op_count sub {pop} repeat            % Clean up stacks
countdictstack dict_count sub {end} repeat
b4_Inc_state restore
} bd
%%EndResource
%FOPBeginFontDict
%%IncludeResource: font Courier-Bold
%%IncludeResource: font Helvetica
%%IncludeResource: font Courier-BoldOblique
%%IncludeResource: font Courier-Oblique
%%IncludeResource: font Times-Roman
%%IncludeResource: font Helvetica-BoldOblique
%%IncludeResource: font Helvetica-Bold
%%IncludeResource: font Helvetica-Oblique
%%IncludeResource: font Times-BoldItalic
%%IncludeResource: font Courier
%%IncludeResource: font Times-Italic
%%IncludeResource: font Times-Bold
%%IncludeResource: font Symbol
%%IncludeResource: font ZapfDingbats
%FOPEndFontDict
%%BeginResource: encoding WinAnsiEncoding
/WinAnsiEncoding [
/.notdef /.notdef /.notdef /.notdef /.notdef
/.notdef /.notdef /.notdef /.notdef /.notdef
/.notdef /.notdef /.notdef /.notdef /.notdef
/.notdef /.notdef /.notdef /.notdef /.notdef
/.notdef /.notdef /.notdef /.notdef /.notdef
/.notdef /.notdef /.notdef /.notdef /.notdef
/.notdef /.notdef /space /exclam /quotedbl
/numbersign /dollar /percent /ampersand /quotesingle
/parenleft /parenright /asterisk /plus /comma
/hyphen /period /slash /zero /one
/two /three /four /five /six
/seven /eight /nine /colon /semicolon
/less /equal /greater /question /at
/A /B /C /D /E
/F /G /H /I /J
/K /L /M /N /O
/P /Q /R /S /T
/U /V /W /X /Y
/Z /bracketleft /backslash /bracketright /asciicircum
/underscore /quoteleft /a /b /c
/d /e /f /g /h
/i /j /k /l /m
/n /o /p /q /r
/s /t /u /v /w
/x /y /z /braceleft /bar
/braceright /asciitilde /bullet /Euro /bullet
/quotesinglbase /florin /quotedblbase /ellipsis /dagger
/daggerdbl /circumflex /perthousand /Scaron /guilsinglleft
/OE /bullet /Zcaron /bullet /bullet
/quoteleft /quoteright /quotedblleft /quotedblright /bullet
/endash /emdash /asciitilde /trademark /scaron
/guilsinglright /oe /bullet /zcaron /Ydieresis
/space /exclamdown /cent /sterling /currency
/yen /brokenbar /section /dieresis /copyright
/ordfeminine /guillemotleft /logicalnot /sfthyphen /registered
/macron /degree /plusminus /twosuperior /threesuperior
/acute /mu /paragraph /middot /cedilla
/onesuperior /ordmasculine /guillemotright /onequarter /onehalf
/threequarters /questiondown /Agrave /Aacute /Acircumflex
/Atilde /Adieresis /Aring /AE /Ccedilla
/Egrave /Eacute /Ecircumflex /Edieresis /Igrave
/Iacute /Icircumflex /Idieresis /Eth /Ntilde
/Ograve /Oacute /Ocircumflex /Otilde /Odieresis
/multiply /Oslash /Ugrave /Uacute /Ucircumflex
/Udieresis /Yacute /Thorn /germandbls /agrave
/aacute /acircumflex /atilde /adieresis /aring
/ae /ccedilla /egrave /eacute /ecircumflex
/edieresis /igrave /iacute /icircumflex /idieresis
/eth /ntilde /ograve /oacute /ocircumflex
/otilde /odieresis /divide /oslash /ugrave
/uacute /ucircumflex /udieresis /yacute /thorn
/ydieresis
] def
%%EndResource
%FOPBeginFontReencode
/Courier-Bold findfont
dup length dict begin
  {1 index /FID ne {def} {pop pop} ifelse} forall
  /Encoding WinAnsiEncoding def
  currentdict
end
/Courier-Bold exch definefont pop
/Helvetica findfont
dup length dict begin
  {1 index /FID ne {def} {pop pop} ifelse} forall
  /Encoding WinAnsiEncoding def
  currentdict
end
/Helvetica exch definefont pop
/Courier-BoldOblique findfont
dup length dict begin
  {1 index /FID ne {def} {pop pop} ifelse} forall
  /Encoding WinAnsiEncoding def
  currentdict
end
/Courier-BoldOblique exch definefont pop
/Courier-Oblique findfont
dup length dict begin
  {1 index /FID ne {def} {pop pop} ifelse} forall
  /Encoding WinAnsiEncoding def
  currentdict
end
/Courier-Oblique exch definefont pop
/Times-Roman findfont
dup length dict begin
  {1 index /FID ne {def} {pop pop} ifelse} forall
  /Encoding WinAnsiEncoding def
  currentdict
end
/Times-Roman exch definefont pop
/Helvetica-BoldOblique findfont
dup length dict begin
  {1 index /FID ne {def} {pop pop} ifelse} forall
  /Encoding WinAnsiEncoding def
  currentdict
end
/Helvetica-BoldOblique exch definefont pop
/Helvetica-Bold findfont
dup length dict begin
  {1 index /FID ne {def} {pop pop} ifelse} forall
  /Encoding WinAnsiEncoding def
  currentdict
end
/Helvetica-Bold exch definefont pop
/Helvetica-Oblique findfont
dup length dict begin
  {1 index /FID ne {def} {pop pop} ifelse} forall
  /Encoding WinAnsiEncoding def
  currentdict
end
/Helvetica-Oblique exch definefont pop
/Times-BoldItalic findfont
dup length dict begin
  {1 index /FID ne {def} {pop pop} ifelse} forall
  /Encoding WinAnsiEncoding def
  currentdict
end
/Times-BoldItalic exch definefont pop
/Courier findfont
dup length dict begin
  {1 index /FID ne {def} {pop pop} ifelse} forall
  /Encoding WinAnsiEncoding def
  currentdict
end
/Courier exch definefont pop
/Times-Italic findfont
dup length dict begin
  {1 index /FID ne {def} {pop pop} ifelse} forall
  /Encoding WinAnsiEncoding def
  currentdict
end
/Times-Italic exch definefont pop
/Times-Bold findfont
dup length dict begin
  {1 index /FID ne {def} {pop pop} ifelse} forall
  /Encoding WinAnsiEncoding def
  currentdict
end
/Times-Bold exch definefont pop
%FOPEndFontReencode
%%EndProlog
%%Page: 1 1
%%PageBoundingBox: 0 0 1152 562
%%BeginPageSetup
[1 0 0 -1 0 562] CT
%%EndPageSetup
GS
[0.6 0 0 0.6 0 0.39996] CT
1 GC
N
0 0 1920 936 re
f
GR
GS
[0.6 0 0 0.6 0 0.39996] CT
1 GC
N
0 0 1920 936 re
f
GR
GS
[0.6 0 0 0.6 0 0.39996] CT
1 GC
N
250 833 M
659 833 L
659 70 L
250 70 L
cp
f
GR
GS
[0.6 0 0 0.6 0 0.39996] CT
0.149 GC
2 setlinecap
1 LJ
0.833 LW
N
250 833 M
659 833 L
S
GR
GS
[0.6 0 0 0.6 0 0.39996] CT
0.149 GC
2 setlinecap
1 LJ
0.833 LW
N
250 70 M
659 70 L
S
GR
GS
[0.6 0 0 0.6 0 0.39996] CT
0.149 GC
2 setlinecap
1 LJ
0.833 LW
N
250 833 M
250 825.37 L
S
GR
GS
[0.6 0 0 0.6 0 0.39996] CT
0.149 GC
2 setlinecap
1 LJ
0.833 LW
N
331.8 833 M
331.8 825.37 L
S
GR
GS
[0.6 0 0 0.6 0 0.39996] CT
0.149 GC
2 setlinecap
1 LJ
0.833 LW
N
413.6 833 M
413.6 825.37 L
S
GR
GS
[0.6 0 0 0.6 0 0.39996] CT
0.149 GC
2 setlinecap
1 LJ
0.833 LW
N
495.4 833 M
495.4 825.37 L
S
GR
GS
[0.6 0 0 0.6 0 0.39996] CT
0.149 GC
2 setlinecap
1 LJ
0.833 LW
N
577.2 833 M
577.2 825.37 L
S
GR
GS
[0.6 0 0 0.6 0 0.39996] CT
0.149 GC
2 setlinecap
1 LJ
0.833 LW
N
659 833 M
659 825.37 L
S
GR
GS
[0.6 0 0 0.6 0 0.39996] CT
0.149 GC
2 setlinecap
1 LJ
0.833 LW
N
250 70 M
250 77.63 L
S
GR
GS
[0.6 0 0 0.6 0 0.39996] CT
0.149 GC
2 setlinecap
1 LJ
0.833 LW
N
331.8 70 M
331.8 77.63 L
S
GR
GS
[0.6 0 0 0.6 0 0.39996] CT
0.149 GC
2 setlinecap
1 LJ
0.833 LW
N
413.6 70 M
413.6 77.63 L
S
GR
GS
[0.6 0 0 0.6 0 0.39996] CT
0.149 GC
2 setlinecap
1 LJ
0.833 LW
N
495.4 70 M
495.4 77.63 L
S
GR
GS
[0.6 0 0 0.6 0 0.39996] CT
0.149 GC
2 setlinecap
1 LJ
0.833 LW
N
577.2 70 M
577.2 77.63 L
S
GR
GS
[0.6 0 0 0.6 0 0.39996] CT
0.149 GC
2 setlinecap
1 LJ
0.833 LW
N
659 70 M
659 77.63 L
S
GR
GS
[0.6 0 0 0.6 150 504.20001] CT
0.149 GC
/Helvetica 16.667 F
GS
[1 0 0 1 0 0] CT
-5 18 moveto 
1 -1 scale
(0) t 
GR
GR
GS
[0.6 0 0 0.6 199.07999 504.20001] CT
0.149 GC
/Helvetica 16.667 F
GS
[1 0 0 1 0 0] CT
-5 18 moveto 
1 -1 scale
(2) t 
GR
GR
GS
[0.6 0 0 0.6 248.16 504.20001] CT
0.149 GC
/Helvetica 16.667 F
GS
[1 0 0 1 0 0] CT
-5 18 moveto 
1 -1 scale
(4) t 
GR
GR
GS
[0.6 0 0 0.6 297.24 504.20001] CT
0.149 GC
/Helvetica 16.667 F
GS
[1 0 0 1 0 0] CT
-5 18 moveto 
1 -1 scale
(6) t 
GR
GR
GS
[0.6 0 0 0.6 346.32001 504.20001] CT
0.149 GC
/Helvetica 16.667 F
GS
[1 0 0 1 0 0] CT
-5 18 moveto 
1 -1 scale
(8) t 
GR
GR
GS
[0.6 0 0 0.6 395.4 504.20001] CT
0.149 GC
/Helvetica 16.667 F
GS
[1 0 0 1 0 0] CT
-9.5 18 moveto 
1 -1 scale
(10) t 
GR
GR
GS
[0.6 0 0 0.6 272.70011 518.39998] CT
0.149 GC
/Helvetica 18.333 F
GS
[1 0 0 1 0 0] CT
-15.5 19 moveto 
1 -1 scale
(Lag) t 
GR
GR
GS
[0.6 0 0 0.6 0 0.39996] CT
0.149 GC
2 setlinecap
1 LJ
0.833 LW
N
250 833 M
250 70 L
S
GR
GS
[0.6 0 0 0.6 0 0.39996] CT
0.149 GC
2 setlinecap
1 LJ
0.833 LW
N
659 833 M
659 70 L
S
GR
GS
[0.6 0 0 0.6 0 0.39996] CT
0.149 GC
2 setlinecap
1 LJ
0.833 LW
N
250 833 M
257.63 833 L
S
GR
GS
[0.6 0 0 0.6 0 0.39996] CT
0.149 GC
2 setlinecap
1 LJ
0.833 LW
N
250 724 M
257.63 724 L
S
GR
GS
[0.6 0 0 0.6 0 0.39996] CT
0.149 GC
2 setlinecap
1 LJ
0.833 LW
N
250 615 M
257.63 615 L
S
GR
GS
[0.6 0 0 0.6 0 0.39996] CT
0.149 GC
2 setlinecap
1 LJ
0.833 LW
N
250 506 M
257.63 506 L
S
GR
GS
[0.6 0 0 0.6 0 0.39996] CT
0.149 GC
2 setlinecap
1 LJ
0.833 LW
N
250 397 M
257.63 397 L
S
GR
GS
[0.6 0 0 0.6 0 0.39996] CT
0.149 GC
2 setlinecap
1 LJ
0.833 LW
N
250 288 M
257.63 288 L
S
GR
GS
[0.6 0 0 0.6 0 0.39996] CT
0.149 GC
2 setlinecap
1 LJ
0.833 LW
N
250 179 M
257.63 179 L
S
GR
GS
[0.6 0 0 0.6 0 0.39996] CT
0.149 GC
2 setlinecap
1 LJ
0.833 LW
N
250 70 M
257.63 70 L
S
GR
GS
[0.6 0 0 0.6 0 0.39996] CT
0.149 GC
2 setlinecap
1 LJ
0.833 LW
N
659 833 M
651.37 833 L
S
GR
GS
[0.6 0 0 0.6 0 0.39996] CT
0.149 GC
2 setlinecap
1 LJ
0.833 LW
N
659 724 M
651.37 724 L
S
GR
GS
[0.6 0 0 0.6 0 0.39996] CT
0.149 GC
2 setlinecap
1 LJ
0.833 LW
N
659 615 M
651.37 615 L
S
GR
GS
[0.6 0 0 0.6 0 0.39996] CT
0.149 GC
2 setlinecap
1 LJ
0.833 LW
N
659 506 M
651.37 506 L
S
GR
GS
[0.6 0 0 0.6 0 0.39996] CT
0.149 GC
2 setlinecap
1 LJ
0.833 LW
N
659 397 M
651.37 397 L
S
GR
GS
[0.6 0 0 0.6 0 0.39996] CT
0.149 GC
2 setlinecap
1 LJ
0.833 LW
N
659 288 M
651.37 288 L
S
GR
GS
[0.6 0 0 0.6 0 0.39996] CT
0.149 GC
2 setlinecap
1 LJ
0.833 LW
N
659 179 M
651.37 179 L
S
GR
GS
[0.6 0 0 0.6 0 0.39996] CT
0.149 GC
2 setlinecap
1 LJ
0.833 LW
N
659 70 M
651.37 70 L
S
GR
GS
[0.6 0 0 0.6 146 500.2] CT
0.149 GC
/Helvetica 16.667 F
GS
[1 0 0 1 0 0] CT
-16 7 moveto 
1 -1 scale
(-2) t 
GR
GR
GS
[0.6 0 0 0.6 146 434.79999] CT
0.149 GC
/Helvetica 16.667 F
GS
[1 0 0 1 0 0] CT
-10 7 moveto 
1 -1 scale
(0) t 
GR
GR
GS
[0.6 0 0 0.6 146 369.39999] CT
0.149 GC
/Helvetica 16.667 F
GS
[1 0 0 1 0 0] CT
-10 7 moveto 
1 -1 scale
(2) t 
GR
GR
GS
[0.6 0 0 0.6 146 303.99998] CT
0.149 GC
/Helvetica 16.667 F
GS
[1 0 0 1 0 0] CT
-10 7 moveto 
1 -1 scale
(4) t 
GR
GR
GS
[0.6 0 0 0.6 146 238.59998] CT
0.149 GC
/Helvetica 16.667 F
GS
[1 0 0 1 0 0] CT
-10 7 moveto 
1 -1 scale
(6) t 
GR
GR
GS
[0.6 0 0 0.6 146 173.19996] CT
0.149 GC
/Helvetica 16.667 F
GS
[1 0 0 1 0 0] CT
-10 7 moveto 
1 -1 scale
(8) t 
GR
GR
GS
[0.6 0 0 0.6 146 107.79998] CT
0.149 GC
/Helvetica 16.667 F
GS
[1 0 0 1 0 0] CT
-19 7 moveto 
1 -1 scale
(10) t 
GR
GR
GS
[0.6 0 0 0.6 146 42.39996] CT
0.149 GC
/Helvetica 16.667 F
GS
[1 0 0 1 0 0] CT
-19 7 moveto 
1 -1 scale
(12) t 
GR
GR
GS
[0 -0.6 0.6 0 131.6 271.29976] CT
0.149 GC
/Helvetica 18.333 F
GS
[1 0 0 1 0 0] CT
-61 -4 moveto 
1 -1 scale
(Autocorrelation) t 
GR
GR
GS
[0.6 0 0 0.6 150 39.99997] CT
0.149 GC
N
2.5 -0.484 M
2.5 -0.625 2.578 -0.734 QT
6.125 -4.25 L
2.578 -7.781 L
2.5 -7.875 2.5 -8.016 QT
2.5 -8.141 2.602 -8.242 QT
2.703 -8.344 2.844 -8.344 QT
2.953 -8.344 3.094 -8.25 QT
6.609 -4.719 L
10.125 -8.25 L
10.266 -8.344 10.375 -8.344 QT
10.516 -8.344 10.609 -8.25 QT
10.703 -8.156 10.703 -8.016 QT
10.703 -7.875 10.625 -7.781 QT
7.094 -4.25 L
10.625 -0.734 L
10.703 -0.625 10.703 -0.484 QT
10.703 -0.344 10.609 -0.25 QT
10.516 -0.156 10.375 -0.156 QT
10.25 -0.156 10.125 -0.281 QT
6.609 -3.781 L
3.094 -0.281 L
2.969 -0.156 2.844 -0.156 QT
2.703 -0.156 2.602 -0.258 QT
2.5 -0.359 2.5 -0.484 QT
cp
f
GR
GS
[0.6 0 0 0.6 158.4 39.99997] CT
0.149 GC
/Helvetica 16.667 F
GS
[1 0 0 1 0 0] CT
0 0 moveto 
1 -1 scale
(10) t 
GR
GR
GS
[0.6 0 0 0.6 169.8 35.19997] CT
0.149 GC
/Helvetica 13.333 F
GS
[1 0 0 1 0 0] CT
0 0 moveto 
1 -1 scale
(-3) t 
GR
GR
GS
[0.6 0 0 0.6 202.8 32.79997] CT
/Helvetica-Bold 18.333 F
GS
[1 0 0 1 0 0] CT
0 0 moveto 
1 -1 scale
(Autocorrelation of i) t 
GR
GR
GS
[0.6 0 0 0.6 302.4 38.19997] CT
/Helvetica-Bold 14.667 F
GS
[1 0 0 1 0 0] CT
0 0 moveto 
1 -1 scale
(0) t 
GR
GR
GS
[0.6 0 0 0.6 307.8 32.79997] CT
/Helvetica-Bold 18.333 F
GS
[1 0 0 1 0 0] CT
0 0 moveto 
1 -1 scale
( and n) t 
GR
GR
GS
[0.6 0 0 0.6 339.6 38.19997] CT
/Helvetica-Bold 14.667 F
GS
[1 0 0 1 0 0] CT
0 0 moveto 
1 -1 scale
(i) t 
GR
GR
GS
[0.6 0 0 0.6 0 0.39996] CT
0 0.447 0.741 RC
1 LJ
0.833 LW
N
250 179.06 M
290.9 248.99 L
331.8 371.284 L
372.7 464.004 L
413.6 534.856 L
454.5 588.3 L
495.4 629.819 L
536.3 661.046 L
577.2 679.837 L
618.1 691.044 L
659 700.066 L
S
GR
GS
[0.6 0 0 0.6 150 107.83594] CT
0 0.447 0.741 RC
10.0 ML
0.833 LW
N
-3.536 -3.536 M
3.536 3.536 L
-3.536 3.536 M
3.536 -3.536 L
S
GR
GS
[0.6 0 0 0.6 174.54 149.7941] CT
0 0.447 0.741 RC
10.0 ML
0.833 LW
N
-3.536 -3.536 M
3.536 3.536 L
-3.536 3.536 M
3.536 -3.536 L
S
GR
GS
[0.6 0 0 0.6 199.07999 223.1701] CT
0 0.447 0.741 RC
10.0 ML
0.833 LW
N
-3.536 -3.536 M
3.536 3.536 L
-3.536 3.536 M
3.536 -3.536 L
S
GR
GS
[0.6 0 0 0.6 223.62001 278.80227] CT
0 0.447 0.741 RC
10.0 ML
0.833 LW
N
-3.536 -3.536 M
3.536 3.536 L
-3.536 3.536 M
3.536 -3.536 L
S
GR
GS
[0.6 0 0 0.6 248.16 321.31356] CT
0 0.447 0.741 RC
10.0 ML
0.833 LW
N
-3.536 -3.536 M
3.536 3.536 L
-3.536 3.536 M
3.536 -3.536 L
S
GR
GS
[0.6 0 0 0.6 272.7 353.37998] CT
0 0.447 0.741 RC
10.0 ML
0.833 LW
N
-3.536 -3.536 M
3.536 3.536 L
-3.536 3.536 M
3.536 -3.536 L
S
GR
GS
[0.6 0 0 0.6 297.24 378.29133] CT
0 0.447 0.741 RC
10.0 ML
0.833 LW
N
-3.536 -3.536 M
3.536 3.536 L
-3.536 3.536 M
3.536 -3.536 L
S
GR
GS
[0.6 0 0 0.6 321.77999 397.02764] CT
0 0.447 0.741 RC
10.0 ML
0.833 LW
N
-3.536 -3.536 M
3.536 3.536 L
-3.536 3.536 M
3.536 -3.536 L
S
GR
GS
[0.6 0 0 0.6 346.32001 408.3021] CT
0 0.447 0.741 RC
10.0 ML
0.833 LW
N
-3.536 -3.536 M
3.536 3.536 L
-3.536 3.536 M
3.536 -3.536 L
S
GR
GS
[0.6 0 0 0.6 370.85999 415.02665] CT
0 0.447 0.741 RC
10.0 ML
0.833 LW
N
-3.536 -3.536 M
3.536 3.536 L
-3.536 3.536 M
3.536 -3.536 L
S
GR
GS
[0.6 0 0 0.6 395.4 420.43958] CT
0 0.447 0.741 RC
10.0 ML
0.833 LW
N
-3.536 -3.536 M
3.536 3.536 L
-3.536 3.536 M
3.536 -3.536 L
S
GR
GS
[0.6 0 0 0.6 174.54 149.7941] CT
10.0 ML
0.833 LW
N
0 -5 M
0 5 L
-5 0 M
5 0 L
-3.536 -3.536 M
3.536 3.536 L
-3.536 3.536 M
3.536 -3.536 L
S
GR
GS
[0.6 0 0 0.6 0 0.39996] CT
0.851 0.325 0.098 RC
1 LJ
0.833 LW
N
250 178.719 M
290.9 471.554 L
331.8 801.336 L
372.7 765.819 L
413.6 708.132 L
454.5 732.141 L
495.4 733.769 L
536.3 721.556 L
577.2 725.352 L
618.1 740.853 L
659 745.844 L
S
GR
GS
[0.6 0 0 0.6 150 107.63144] CT
0.851 0.325 0.098 RC
10.0 ML
0.833 LW
N
-3.536 -3.536 M
3.536 3.536 L
-3.536 3.536 M
3.536 -3.536 L
S
GR
GS
[0.6 0 0 0.6 174.54 283.33212] CT
0.851 0.325 0.098 RC
10.0 ML
0.833 LW
N
-3.536 -3.536 M
3.536 3.536 L
-3.536 3.536 M
3.536 -3.536 L
S
GR
GS
[0.6 0 0 0.6 199.07999 481.20185] CT
0.851 0.325 0.098 RC
10.0 ML
0.833 LW
N
-3.536 -3.536 M
3.536 3.536 L
-3.536 3.536 M
3.536 -3.536 L
S
GR
GS
[0.6 0 0 0.6 223.62001 459.89141] CT
0.851 0.325 0.098 RC
10.0 ML
0.833 LW
N
-3.536 -3.536 M
3.536 3.536 L
-3.536 3.536 M
3.536 -3.536 L
S
GR
GS
[0.6 0 0 0.6 248.16 425.2792] CT
0.851 0.325 0.098 RC
10.0 ML
0.833 LW
N
-3.536 -3.536 M
3.536 3.536 L
-3.536 3.536 M
3.536 -3.536 L
S
GR
GS
[0.6 0 0 0.6 272.7 439.6847] CT
0.851 0.325 0.098 RC
10.0 ML
0.833 LW
N
-3.536 -3.536 M
3.536 3.536 L
-3.536 3.536 M
3.536 -3.536 L
S
GR
GS
[0.6 0 0 0.6 297.24 440.66123] CT
0.851 0.325 0.098 RC
10.0 ML
0.833 LW
N
-3.536 -3.536 M
3.536 3.536 L
-3.536 3.536 M
3.536 -3.536 L
S
GR
GS
[0.6 0 0 0.6 321.77999 433.33332] CT
0.851 0.325 0.098 RC
10.0 ML
0.833 LW
N
-3.536 -3.536 M
3.536 3.536 L
-3.536 3.536 M
3.536 -3.536 L
S
GR
GS
[0.6 0 0 0.6 346.32001 435.61148] CT
0.851 0.325 0.098 RC
10.0 ML
0.833 LW
N
-3.536 -3.536 M
3.536 3.536 L
-3.536 3.536 M
3.536 -3.536 L
S
GR
GS
[0.6 0 0 0.6 370.85999 444.91203] CT
0.851 0.325 0.098 RC
10.0 ML
0.833 LW
N
-3.536 -3.536 M
3.536 3.536 L
-3.536 3.536 M
3.536 -3.536 L
S
GR
GS
[0.6 0 0 0.6 395.4 447.90661] CT
0.851 0.325 0.098 RC
10.0 ML
0.833 LW
N
-3.536 -3.536 M
3.536 3.536 L
-3.536 3.536 M
3.536 -3.536 L
S
GR
GS
[0.6 0 0 0.6 174.54 283.33212] CT
10.0 ML
0.833 LW
N
0 -5 M
0 5 L
-5 0 M
5 0 L
-3.536 -3.536 M
3.536 3.536 L
-3.536 3.536 M
3.536 -3.536 L
S
GR
GS
[0.6 0 0 0.6 0 0.39996] CT
1 GC
N
579 144 M
579 87 L
642 87 L
642 144 L
cp
f
GR
GS
[0.6 0 0 0.6 375 63.39997] CT
/Helvetica 15 F
GS
[1 0 0 1 0 0] CT
0 0 moveto 
1 -1 scale
(i) t 
GR
GR
GS
[0.6 0 0 0.6 377.4 67.59997] CT
/Helvetica 12 F
GS
[1 0 0 1 0 0] CT
0 0 moveto 
1 -1 scale
(0) t 
GR
GR
GS
[0.6 0 0 0.6 0 0.39996] CT
0 0.447 0.741 RC
1 LJ
0.833 LW
N
583.98 102.332 M
621.332 102.332 L
S
GR
GS
[0.6 0 0 0.6 361.59368 61.7991] CT
0 0.447 0.741 RC
10.0 ML
0.833 LW
N
-3.536 -3.536 M
3.536 3.536 L
-3.536 3.536 M
3.536 -3.536 L
S
GR
GS
[0.6 0 0 0.6 375 79.59997] CT
/Helvetica 15 F
GS
[1 0 0 1 0 0] CT
0 0 moveto 
1 -1 scale
(n) t 
GR
GR
GS
[0.6 0 0 0.6 380.4 83.79997] CT
/Helvetica 12 F
GS
[1 0 0 1 0 0] CT
0 0 moveto 
1 -1 scale
(i) t 
GR
GR
GS
[0.6 0 0 0.6 0 0.39996] CT
0.851 0.325 0.098 RC
1 LJ
0.833 LW
N
583.98 128.668 M
621.332 128.668 L
S
GR
GS
[0.6 0 0 0.6 361.59368 77.60083] CT
0.851 0.325 0.098 RC
10.0 ML
0.833 LW
N
-3.536 -3.536 M
3.536 3.536 L
-3.536 3.536 M
3.536 -3.536 L
S
GR
GS
[0.6 0 0 0.6 0 0.39996] CT
0.149 GC
10.0 ML
0.833 LW
N
579 144 M
579 87 L
642 87 L
642 144 L
cp
S
GR
GS
[0.6 0 0 0.6 0 0.39996] CT
1 GC
N
789 833 M
1198 833 L
1198 70 L
789 70 L
cp
f
GR
GS
[0.6 0 0 0.6 0 0.39996] CT
0.149 GC
2 setlinecap
1 LJ
0.833 LW
N
789 833 M
1198 833 L
S
GR
GS
[0.6 0 0 0.6 0 0.39996] CT
0.149 GC
2 setlinecap
1 LJ
0.833 LW
N
789 70 M
1198 70 L
S
GR
GS
[0.6 0 0 0.6 0 0.39996] CT
0.149 GC
2 setlinecap
1 LJ
0.833 LW
N
789 833 M
789 825.37 L
S
GR
GS
[0.6 0 0 0.6 0 0.39996] CT
0.149 GC
2 setlinecap
1 LJ
0.833 LW
N
870.8 833 M
870.8 825.37 L
S
GR
GS
[0.6 0 0 0.6 0 0.39996] CT
0.149 GC
2 setlinecap
1 LJ
0.833 LW
N
952.6 833 M
952.6 825.37 L
S
GR
GS
[0.6 0 0 0.6 0 0.39996] CT
0.149 GC
2 setlinecap
1 LJ
0.833 LW
N
1034.4 833 M
1034.4 825.37 L
S
GR
GS
[0.6 0 0 0.6 0 0.39996] CT
0.149 GC
2 setlinecap
1 LJ
0.833 LW
N
1116.2 833 M
1116.2 825.37 L
S
GR
GS
[0.6 0 0 0.6 0 0.39996] CT
0.149 GC
2 setlinecap
1 LJ
0.833 LW
N
1198 833 M
1198 825.37 L
S
GR
GS
[0.6 0 0 0.6 0 0.39996] CT
0.149 GC
2 setlinecap
1 LJ
0.833 LW
N
789 70 M
789 77.63 L
S
GR
GS
[0.6 0 0 0.6 0 0.39996] CT
0.149 GC
2 setlinecap
1 LJ
0.833 LW
N
870.8 70 M
870.8 77.63 L
S
GR
GS
[0.6 0 0 0.6 0 0.39996] CT
0.149 GC
2 setlinecap
1 LJ
0.833 LW
N
952.6 70 M
952.6 77.63 L
S
GR
GS
[0.6 0 0 0.6 0 0.39996] CT
0.149 GC
2 setlinecap
1 LJ
0.833 LW
N
1034.4 70 M
1034.4 77.63 L
S
GR
GS
[0.6 0 0 0.6 0 0.39996] CT
0.149 GC
2 setlinecap
1 LJ
0.833 LW
N
1116.2 70 M
1116.2 77.63 L
S
GR
GS
[0.6 0 0 0.6 0 0.39996] CT
0.149 GC
2 setlinecap
1 LJ
0.833 LW
N
1198 70 M
1198 77.63 L
S
GR
GS
[0.6 0 0 0.6 473.4 504.20001] CT
0.149 GC
/Helvetica 16.667 F
GS
[1 0 0 1 0 0] CT
-5 18 moveto 
1 -1 scale
(0) t 
GR
GR
GS
[0.6 0 0 0.6 522.47999 504.20001] CT
0.149 GC
/Helvetica 16.667 F
GS
[1 0 0 1 0 0] CT
-5 18 moveto 
1 -1 scale
(2) t 
GR
GR
GS
[0.6 0 0 0.6 571.55999 504.20001] CT
0.149 GC
/Helvetica 16.667 F
GS
[1 0 0 1 0 0] CT
-5 18 moveto 
1 -1 scale
(4) t 
GR
GR
GS
[0.6 0 0 0.6 620.64001 504.20001] CT
0.149 GC
/Helvetica 16.667 F
GS
[1 0 0 1 0 0] CT
-5 18 moveto 
1 -1 scale
(6) t 
GR
GR
GS
[0.6 0 0 0.6 669.71997 504.20001] CT
0.149 GC
/Helvetica 16.667 F
GS
[1 0 0 1 0 0] CT
-5 18 moveto 
1 -1 scale
(8) t 
GR
GR
GS
[0.6 0 0 0.6 718.8 504.20001] CT
0.149 GC
/Helvetica 16.667 F
GS
[1 0 0 1 0 0] CT
-9.5 18 moveto 
1 -1 scale
(10) t 
GR
GR
GS
[0.6 0 0 0.6 596.10011 518.39998] CT
0.149 GC
/Helvetica 18.333 F
GS
[1 0 0 1 0 0] CT
-15.5 19 moveto 
1 -1 scale
(Lag) t 
GR
GR
GS
[0.6 0 0 0.6 0 0.39996] CT
0.149 GC
2 setlinecap
1 LJ
0.833 LW
N
789 833 M
789 70 L
S
GR
GS
[0.6 0 0 0.6 0 0.39996] CT
0.149 GC
2 setlinecap
1 LJ
0.833 LW
N
1198 833 M
1198 70 L
S
GR
GS
[0.6 0 0 0.6 0 0.39996] CT
0.149 GC
2 setlinecap
1 LJ
0.833 LW
N
789 833 M
796.63 833 L
S
GR
GS
[0.6 0 0 0.6 0 0.39996] CT
0.149 GC
2 setlinecap
1 LJ
0.833 LW
N
789 724 M
796.63 724 L
S
GR
GS
[0.6 0 0 0.6 0 0.39996] CT
0.149 GC
2 setlinecap
1 LJ
0.833 LW
N
789 615 M
796.63 615 L
S
GR
GS
[0.6 0 0 0.6 0 0.39996] CT
0.149 GC
2 setlinecap
1 LJ
0.833 LW
N
789 506 M
796.63 506 L
S
GR
GS
[0.6 0 0 0.6 0 0.39996] CT
0.149 GC
2 setlinecap
1 LJ
0.833 LW
N
789 397 M
796.63 397 L
S
GR
GS
[0.6 0 0 0.6 0 0.39996] CT
0.149 GC
2 setlinecap
1 LJ
0.833 LW
N
789 288 M
796.63 288 L
S
GR
GS
[0.6 0 0 0.6 0 0.39996] CT
0.149 GC
2 setlinecap
1 LJ
0.833 LW
N
789 179 M
796.63 179 L
S
GR
GS
[0.6 0 0 0.6 0 0.39996] CT
0.149 GC
2 setlinecap
1 LJ
0.833 LW
N
789 70 M
796.63 70 L
S
GR
GS
[0.6 0 0 0.6 0 0.39996] CT
0.149 GC
2 setlinecap
1 LJ
0.833 LW
N
1198 833 M
1190.37 833 L
S
GR
GS
[0.6 0 0 0.6 0 0.39996] CT
0.149 GC
2 setlinecap
1 LJ
0.833 LW
N
1198 724 M
1190.37 724 L
S
GR
GS
[0.6 0 0 0.6 0 0.39996] CT
0.149 GC
2 setlinecap
1 LJ
0.833 LW
N
1198 615 M
1190.37 615 L
S
GR
GS
[0.6 0 0 0.6 0 0.39996] CT
0.149 GC
2 setlinecap
1 LJ
0.833 LW
N
1198 506 M
1190.37 506 L
S
GR
GS
[0.6 0 0 0.6 0 0.39996] CT
0.149 GC
2 setlinecap
1 LJ
0.833 LW
N
1198 397 M
1190.37 397 L
S
GR
GS
[0.6 0 0 0.6 0 0.39996] CT
0.149 GC
2 setlinecap
1 LJ
0.833 LW
N
1198 288 M
1190.37 288 L
S
GR
GS
[0.6 0 0 0.6 0 0.39996] CT
0.149 GC
2 setlinecap
1 LJ
0.833 LW
N
1198 179 M
1190.37 179 L
S
GR
GS
[0.6 0 0 0.6 0 0.39996] CT
0.149 GC
2 setlinecap
1 LJ
0.833 LW
N
1198 70 M
1190.37 70 L
S
GR
GS
[0.6 0 0 0.6 469.39999 500.2] CT
0.149 GC
/Helvetica 16.667 F
GS
[1 0 0 1 0 0] CT
-16 7 moveto 
1 -1 scale
(-2) t 
GR
GR
GS
[0.6 0 0 0.6 469.39999 434.79999] CT
0.149 GC
/Helvetica 16.667 F
GS
[1 0 0 1 0 0] CT
-10 7 moveto 
1 -1 scale
(0) t 
GR
GR
GS
[0.6 0 0 0.6 469.39999 369.39999] CT
0.149 GC
/Helvetica 16.667 F
GS
[1 0 0 1 0 0] CT
-10 7 moveto 
1 -1 scale
(2) t 
GR
GR
GS
[0.6 0 0 0.6 469.39999 303.99998] CT
0.149 GC
/Helvetica 16.667 F
GS
[1 0 0 1 0 0] CT
-10 7 moveto 
1 -1 scale
(4) t 
GR
GR
GS
[0.6 0 0 0.6 469.39999 238.59998] CT
0.149 GC
/Helvetica 16.667 F
GS
[1 0 0 1 0 0] CT
-10 7 moveto 
1 -1 scale
(6) t 
GR
GR
GS
[0.6 0 0 0.6 469.39999 173.19996] CT
0.149 GC
/Helvetica 16.667 F
GS
[1 0 0 1 0 0] CT
-10 7 moveto 
1 -1 scale
(8) t 
GR
GR
GS
[0.6 0 0 0.6 469.39999 107.79998] CT
0.149 GC
/Helvetica 16.667 F
GS
[1 0 0 1 0 0] CT
-19 7 moveto 
1 -1 scale
(10) t 
GR
GR
GS
[0.6 0 0 0.6 469.39999 42.39996] CT
0.149 GC
/Helvetica 16.667 F
GS
[1 0 0 1 0 0] CT
-19 7 moveto 
1 -1 scale
(12) t 
GR
GR
GS
[0 -0.6 0.6 0 454.99999 271.29976] CT
0.149 GC
/Helvetica 18.333 F
GS
[1 0 0 1 0 0] CT
-61 -4 moveto 
1 -1 scale
(Autocorrelation) t 
GR
GR
GS
[0.6 0 0 0.6 473.4 39.99997] CT
0.149 GC
N
/f-320005929{2.5 -0.484 M
2.5 -0.625 2.578 -0.734 QT
6.125 -4.25 L
2.578 -7.781 L
2.5 -7.875 2.5 -8.016 QT
2.5 -8.141 2.602 -8.242 QT
2.703 -8.344 2.844 -8.344 QT
2.953 -8.344 3.094 -8.25 QT
6.609 -4.719 L
10.125 -8.25 L
10.266 -8.344 10.375 -8.344 QT
10.516 -8.344 10.609 -8.25 QT
10.703 -8.156 10.703 -8.016 QT
10.703 -7.875 10.625 -7.781 QT
7.094 -4.25 L
10.625 -0.734 L
10.703 -0.625 10.703 -0.484 QT
10.703 -0.344 10.609 -0.25 QT
10.516 -0.156 10.375 -0.156 QT
10.25 -0.156 10.125 -0.281 QT
6.609 -3.781 L
3.094 -0.281 L
2.969 -0.156 2.844 -0.156 QT
2.703 -0.156 2.602 -0.258 QT
2.5 -0.359 2.5 -0.484 QT
cp}def
f-320005929
f
GR
GS
[0.6 0 0 0.6 481.8 39.99997] CT
0.149 GC
/Helvetica 16.667 F
GS
[1 0 0 1 0 0] CT
0 0 moveto 
1 -1 scale
(10) t 
GR
GR
GS
[0.6 0 0 0.6 493.2 35.19997] CT
0.149 GC
/Helvetica 13.333 F
GS
[1 0 0 1 0 0] CT
0 0 moveto 
1 -1 scale
(-3) t 
GR
GR
GS
[0.6 0 0 0.6 526.2 32.79997] CT
/Helvetica-Bold 18.333 F
GS
[1 0 0 1 0 0] CT
0 0 moveto 
1 -1 scale
(Autocorrelation of i) t 
GR
GR
GS
[0.6 0 0 0.6 625.8 38.19997] CT
/Helvetica-Bold 14.667 F
GS
[1 0 0 1 0 0] CT
0 0 moveto 
1 -1 scale
(0) t 
GR
GR
GS
[0.6 0 0 0.6 631.2 32.79997] CT
/Helvetica-Bold 18.333 F
GS
[1 0 0 1 0 0] CT
0 0 moveto 
1 -1 scale
( and n) t 
GR
GR
GS
[0.6 0 0 0.6 663 38.19997] CT
/Helvetica-Bold 14.667 F
GS
[1 0 0 1 0 0] CT
0 0 moveto 
1 -1 scale
(i) t 
GR
GR
GS
[0.6 0 0 0.6 0 0.39996] CT
0 0.447 0.741 RC
1 LJ
0.833 LW
N
789 179.06 M
829.9 248.99 L
870.8 371.284 L
911.7 464.004 L
952.6 534.856 L
993.5 588.3 L
1034.4 629.819 L
1075.3 661.046 L
1116.2 679.837 L
1157.1 691.044 L
1198 700.066 L
S
GR
GS
[0.6 0 0 0.6 473.4 107.83594] CT
0 0.447 0.741 RC
10.0 ML
0.833 LW
N
-3.536 -3.536 M
3.536 3.536 L
-3.536 3.536 M
3.536 -3.536 L
S
GR
GS
[0.6 0 0 0.6 497.94001 149.7941] CT
0 0.447 0.741 RC
10.0 ML
0.833 LW
N
-3.536 -3.536 M
3.536 3.536 L
-3.536 3.536 M
3.536 -3.536 L
S
GR
GS
[0.6 0 0 0.6 522.47999 223.1701] CT
0 0.447 0.741 RC
10.0 ML
0.833 LW
N
-3.536 -3.536 M
3.536 3.536 L
-3.536 3.536 M
3.536 -3.536 L
S
GR
GS
[0.6 0 0 0.6 547.02001 278.80227] CT
0 0.447 0.741 RC
10.0 ML
0.833 LW
N
-3.536 -3.536 M
3.536 3.536 L
-3.536 3.536 M
3.536 -3.536 L
S
GR
GS
[0.6 0 0 0.6 571.55999 321.31356] CT
0 0.447 0.741 RC
10.0 ML
0.833 LW
N
-3.536 -3.536 M
3.536 3.536 L
-3.536 3.536 M
3.536 -3.536 L
S
GR
GS
[0.6 0 0 0.6 596.1 353.37998] CT
0 0.447 0.741 RC
10.0 ML
0.833 LW
N
-3.536 -3.536 M
3.536 3.536 L
-3.536 3.536 M
3.536 -3.536 L
S
GR
GS
[0.6 0 0 0.6 620.64001 378.29133] CT
0 0.447 0.741 RC
10.0 ML
0.833 LW
N
-3.536 -3.536 M
3.536 3.536 L
-3.536 3.536 M
3.536 -3.536 L
S
GR
GS
[0.6 0 0 0.6 645.18003 397.02764] CT
0 0.447 0.741 RC
10.0 ML
0.833 LW
N
-3.536 -3.536 M
3.536 3.536 L
-3.536 3.536 M
3.536 -3.536 L
S
GR
GS
[0.6 0 0 0.6 669.71997 408.3021] CT
0 0.447 0.741 RC
10.0 ML
0.833 LW
N
-3.536 -3.536 M
3.536 3.536 L
-3.536 3.536 M
3.536 -3.536 L
S
GR
GS
[0.6 0 0 0.6 694.25999 415.02665] CT
0 0.447 0.741 RC
10.0 ML
0.833 LW
N
-3.536 -3.536 M
3.536 3.536 L
-3.536 3.536 M
3.536 -3.536 L
S
GR
GS
[0.6 0 0 0.6 718.8 420.43958] CT
0 0.447 0.741 RC
10.0 ML
0.833 LW
N
-3.536 -3.536 M
3.536 3.536 L
-3.536 3.536 M
3.536 -3.536 L
S
GR
GS
[0.6 0 0 0.6 522.47999 223.1701] CT
10.0 ML
0.833 LW
N
0 -5 M
0 5 L
-5 0 M
5 0 L
-3.536 -3.536 M
3.536 3.536 L
-3.536 3.536 M
3.536 -3.536 L
S
GR
GS
[0.6 0 0 0.6 0 0.39996] CT
0.851 0.325 0.098 RC
1 LJ
0.833 LW
N
789 178.719 M
829.9 471.554 L
870.8 801.336 L
911.7 765.819 L
952.6 708.132 L
993.5 732.141 L
1034.4 733.769 L
1075.3 721.556 L
1116.2 725.352 L
1157.1 740.853 L
1198 745.844 L
S
GR
GS
[0.6 0 0 0.6 473.4 107.63144] CT
0.851 0.325 0.098 RC
10.0 ML
0.833 LW
N
-3.536 -3.536 M
3.536 3.536 L
-3.536 3.536 M
3.536 -3.536 L
S
GR
GS
[0.6 0 0 0.6 497.94001 283.33212] CT
0.851 0.325 0.098 RC
10.0 ML
0.833 LW
N
-3.536 -3.536 M
3.536 3.536 L
-3.536 3.536 M
3.536 -3.536 L
S
GR
GS
[0.6 0 0 0.6 522.47999 481.20185] CT
0.851 0.325 0.098 RC
10.0 ML
0.833 LW
N
-3.536 -3.536 M
3.536 3.536 L
-3.536 3.536 M
3.536 -3.536 L
S
GR
GS
[0.6 0 0 0.6 547.02001 459.89141] CT
0.851 0.325 0.098 RC
10.0 ML
0.833 LW
N
-3.536 -3.536 M
3.536 3.536 L
-3.536 3.536 M
3.536 -3.536 L
S
GR
GS
[0.6 0 0 0.6 571.55999 425.2792] CT
0.851 0.325 0.098 RC
10.0 ML
0.833 LW
N
-3.536 -3.536 M
3.536 3.536 L
-3.536 3.536 M
3.536 -3.536 L
S
GR
GS
[0.6 0 0 0.6 596.1 439.6847] CT
0.851 0.325 0.098 RC
10.0 ML
0.833 LW
N
-3.536 -3.536 M
3.536 3.536 L
-3.536 3.536 M
3.536 -3.536 L
S
GR
GS
[0.6 0 0 0.6 620.64001 440.66123] CT
0.851 0.325 0.098 RC
10.0 ML
0.833 LW
N
-3.536 -3.536 M
3.536 3.536 L
-3.536 3.536 M
3.536 -3.536 L
S
GR
GS
[0.6 0 0 0.6 645.18003 433.33332] CT
0.851 0.325 0.098 RC
10.0 ML
0.833 LW
N
-3.536 -3.536 M
3.536 3.536 L
-3.536 3.536 M
3.536 -3.536 L
S
GR
GS
[0.6 0 0 0.6 669.71997 435.61148] CT
0.851 0.325 0.098 RC
10.0 ML
0.833 LW
N
-3.536 -3.536 M
3.536 3.536 L
-3.536 3.536 M
3.536 -3.536 L
S
GR
GS
[0.6 0 0 0.6 694.25999 444.91203] CT
0.851 0.325 0.098 RC
10.0 ML
0.833 LW
N
-3.536 -3.536 M
3.536 3.536 L
-3.536 3.536 M
3.536 -3.536 L
S
GR
GS
[0.6 0 0 0.6 718.8 447.90661] CT
0.851 0.325 0.098 RC
10.0 ML
0.833 LW
N
-3.536 -3.536 M
3.536 3.536 L
-3.536 3.536 M
3.536 -3.536 L
S
GR
GS
[0.6 0 0 0.6 522.47999 481.20185] CT
10.0 ML
0.833 LW
N
0 -5 M
0 5 L
-5 0 M
5 0 L
-3.536 -3.536 M
3.536 3.536 L
-3.536 3.536 M
3.536 -3.536 L
S
GR
GS
[0.6 0 0 0.6 0 0.39996] CT
1 GC
N
1118 144 M
1118 87 L
1181 87 L
1181 144 L
cp
f
GR
GS
[0.6 0 0 0.6 698.4 63.39997] CT
/Helvetica 15 F
GS
[1 0 0 1 0 0] CT
0 0 moveto 
1 -1 scale
(i) t 
GR
GR
GS
[0.6 0 0 0.6 700.8 67.59997] CT
/Helvetica 12 F
GS
[1 0 0 1 0 0] CT
0 0 moveto 
1 -1 scale
(0) t 
GR
GR
GS
[0.6 0 0 0.6 0 0.39996] CT
0 0.447 0.741 RC
1 LJ
0.833 LW
N
1122.98 102.332 M
1160.332 102.332 L
S
GR
GS
[0.6 0 0 0.6 684.99368 61.7991] CT
0 0.447 0.741 RC
10.0 ML
0.833 LW
N
-3.536 -3.536 M
3.536 3.536 L
-3.536 3.536 M
3.536 -3.536 L
S
GR
GS
[0.6 0 0 0.6 698.4 79.59997] CT
/Helvetica 15 F
GS
[1 0 0 1 0 0] CT
0 0 moveto 
1 -1 scale
(n) t 
GR
GR
GS
[0.6 0 0 0.6 703.8 83.79997] CT
/Helvetica 12 F
GS
[1 0 0 1 0 0] CT
0 0 moveto 
1 -1 scale
(i) t 
GR
GR
GS
[0.6 0 0 0.6 0 0.39996] CT
0.851 0.325 0.098 RC
1 LJ
0.833 LW
N
1122.98 128.668 M
1160.332 128.668 L
S
GR
GS
[0.6 0 0 0.6 684.99368 77.60083] CT
0.851 0.325 0.098 RC
10.0 ML
0.833 LW
N
-3.536 -3.536 M
3.536 3.536 L
-3.536 3.536 M
3.536 -3.536 L
S
GR
GS
[0.6 0 0 0.6 0 0.39996] CT
0.149 GC
10.0 ML
0.833 LW
N
1118 144 M
1118 87 L
1181 87 L
1181 144 L
cp
S
GR
GS
[0.6 0 0 0.6 0 0.39996] CT
1 GC
N
1328 833 M
1738 833 L
1738 70 L
1328 70 L
cp
f
GR
GS
[0.6 0 0 0.6 0 0.39996] CT
0.149 GC
2 setlinecap
1 LJ
0.833 LW
N
1328 833 M
1738 833 L
S
GR
GS
[0.6 0 0 0.6 0 0.39996] CT
0.149 GC
2 setlinecap
1 LJ
0.833 LW
N
1328 70 M
1738 70 L
S
GR
GS
[0.6 0 0 0.6 0 0.39996] CT
0.149 GC
2 setlinecap
1 LJ
0.833 LW
N
1328 833 M
1328 825.37 L
S
GR
GS
[0.6 0 0 0.6 0 0.39996] CT
0.149 GC
2 setlinecap
1 LJ
0.833 LW
N
1410 833 M
1410 825.37 L
S
GR
GS
[0.6 0 0 0.6 0 0.39996] CT
0.149 GC
2 setlinecap
1 LJ
0.833 LW
N
1492 833 M
1492 825.37 L
S
GR
GS
[0.6 0 0 0.6 0 0.39996] CT
0.149 GC
2 setlinecap
1 LJ
0.833 LW
N
1574 833 M
1574 825.37 L
S
GR
GS
[0.6 0 0 0.6 0 0.39996] CT
0.149 GC
2 setlinecap
1 LJ
0.833 LW
N
1656 833 M
1656 825.37 L
S
GR
GS
[0.6 0 0 0.6 0 0.39996] CT
0.149 GC
2 setlinecap
1 LJ
0.833 LW
N
1738 833 M
1738 825.37 L
S
GR
GS
[0.6 0 0 0.6 0 0.39996] CT
0.149 GC
2 setlinecap
1 LJ
0.833 LW
N
1328 70 M
1328 77.63 L
S
GR
GS
[0.6 0 0 0.6 0 0.39996] CT
0.149 GC
2 setlinecap
1 LJ
0.833 LW
N
1410 70 M
1410 77.63 L
S
GR
GS
[0.6 0 0 0.6 0 0.39996] CT
0.149 GC
2 setlinecap
1 LJ
0.833 LW
N
1492 70 M
1492 77.63 L
S
GR
GS
[0.6 0 0 0.6 0 0.39996] CT
0.149 GC
2 setlinecap
1 LJ
0.833 LW
N
1574 70 M
1574 77.63 L
S
GR
GS
[0.6 0 0 0.6 0 0.39996] CT
0.149 GC
2 setlinecap
1 LJ
0.833 LW
N
1656 70 M
1656 77.63 L
S
GR
GS
[0.6 0 0 0.6 0 0.39996] CT
0.149 GC
2 setlinecap
1 LJ
0.833 LW
N
1738 70 M
1738 77.63 L
S
GR
GS
[0.6 0 0 0.6 796.8 504.20001] CT
0.149 GC
/Helvetica 16.667 F
GS
[1 0 0 1 0 0] CT
-5 18 moveto 
1 -1 scale
(0) t 
GR
GR
GS
[0.6 0 0 0.6 846 504.20001] CT
0.149 GC
/Helvetica 16.667 F
GS
[1 0 0 1 0 0] CT
-5 18 moveto 
1 -1 scale
(2) t 
GR
GR
GS
[0.6 0 0 0.6 895.2 504.20001] CT
0.149 GC
/Helvetica 16.667 F
GS
[1 0 0 1 0 0] CT
-5 18 moveto 
1 -1 scale
(4) t 
GR
GR
GS
[0.6 0 0 0.6 944.4 504.20001] CT
0.149 GC
/Helvetica 16.667 F
GS
[1 0 0 1 0 0] CT
-5 18 moveto 
1 -1 scale
(6) t 
GR
GR
GS
[0.6 0 0 0.6 993.6 504.20001] CT
0.149 GC
/Helvetica 16.667 F
GS
[1 0 0 1 0 0] CT
-5 18 moveto 
1 -1 scale
(8) t 
GR
GR
GS
[0.6 0 0 0.6 1042.8 504.20001] CT
0.149 GC
/Helvetica 16.667 F
GS
[1 0 0 1 0 0] CT
-9.5 18 moveto 
1 -1 scale
(10) t 
GR
GR
GS
[0.6 0 0 0.6 919.80015 518.39998] CT
0.149 GC
/Helvetica 18.333 F
GS
[1 0 0 1 0 0] CT
-15.5 19 moveto 
1 -1 scale
(Lag) t 
GR
GR
GS
[0.6 0 0 0.6 0 0.39996] CT
0.149 GC
2 setlinecap
1 LJ
0.833 LW
N
1328 833 M
1328 70 L
S
GR
GS
[0.6 0 0 0.6 0 0.39996] CT
0.149 GC
2 setlinecap
1 LJ
0.833 LW
N
1738 833 M
1738 70 L
S
GR
GS
[0.6 0 0 0.6 0 0.39996] CT
0.149 GC
2 setlinecap
1 LJ
0.833 LW
N
1328 833 M
1335.63 833 L
S
GR
GS
[0.6 0 0 0.6 0 0.39996] CT
0.149 GC
2 setlinecap
1 LJ
0.833 LW
N
1328 724 M
1335.63 724 L
S
GR
GS
[0.6 0 0 0.6 0 0.39996] CT
0.149 GC
2 setlinecap
1 LJ
0.833 LW
N
1328 615 M
1335.63 615 L
S
GR
GS
[0.6 0 0 0.6 0 0.39996] CT
0.149 GC
2 setlinecap
1 LJ
0.833 LW
N
1328 506 M
1335.63 506 L
S
GR
GS
[0.6 0 0 0.6 0 0.39996] CT
0.149 GC
2 setlinecap
1 LJ
0.833 LW
N
1328 397 M
1335.63 397 L
S
GR
GS
[0.6 0 0 0.6 0 0.39996] CT
0.149 GC
2 setlinecap
1 LJ
0.833 LW
N
1328 288 M
1335.63 288 L
S
GR
GS
[0.6 0 0 0.6 0 0.39996] CT
0.149 GC
2 setlinecap
1 LJ
0.833 LW
N
1328 179 M
1335.63 179 L
S
GR
GS
[0.6 0 0 0.6 0 0.39996] CT
0.149 GC
2 setlinecap
1 LJ
0.833 LW
N
1328 70 M
1335.63 70 L
S
GR
GS
[0.6 0 0 0.6 0 0.39996] CT
0.149 GC
2 setlinecap
1 LJ
0.833 LW
N
1738 833 M
1730.37 833 L
S
GR
GS
[0.6 0 0 0.6 0 0.39996] CT
0.149 GC
2 setlinecap
1 LJ
0.833 LW
N
1738 724 M
1730.37 724 L
S
GR
GS
[0.6 0 0 0.6 0 0.39996] CT
0.149 GC
2 setlinecap
1 LJ
0.833 LW
N
1738 615 M
1730.37 615 L
S
GR
GS
[0.6 0 0 0.6 0 0.39996] CT
0.149 GC
2 setlinecap
1 LJ
0.833 LW
N
1738 506 M
1730.37 506 L
S
GR
GS
[0.6 0 0 0.6 0 0.39996] CT
0.149 GC
2 setlinecap
1 LJ
0.833 LW
N
1738 397 M
1730.37 397 L
S
GR
GS
[0.6 0 0 0.6 0 0.39996] CT
0.149 GC
2 setlinecap
1 LJ
0.833 LW
N
1738 288 M
1730.37 288 L
S
GR
GS
[0.6 0 0 0.6 0 0.39996] CT
0.149 GC
2 setlinecap
1 LJ
0.833 LW
N
1738 179 M
1730.37 179 L
S
GR
GS
[0.6 0 0 0.6 0 0.39996] CT
0.149 GC
2 setlinecap
1 LJ
0.833 LW
N
1738 70 M
1730.37 70 L
S
GR
GS
[0.6 0 0 0.6 792.80002 500.2] CT
0.149 GC
/Helvetica 16.667 F
GS
[1 0 0 1 0 0] CT
-16 7 moveto 
1 -1 scale
(-2) t 
GR
GR
GS
[0.6 0 0 0.6 792.80002 434.79999] CT
0.149 GC
/Helvetica 16.667 F
GS
[1 0 0 1 0 0] CT
-10 7 moveto 
1 -1 scale
(0) t 
GR
GR
GS
[0.6 0 0 0.6 792.80002 369.39999] CT
0.149 GC
/Helvetica 16.667 F
GS
[1 0 0 1 0 0] CT
-10 7 moveto 
1 -1 scale
(2) t 
GR
GR
GS
[0.6 0 0 0.6 792.80002 303.99998] CT
0.149 GC
/Helvetica 16.667 F
GS
[1 0 0 1 0 0] CT
-10 7 moveto 
1 -1 scale
(4) t 
GR
GR
GS
[0.6 0 0 0.6 792.80002 238.59998] CT
0.149 GC
/Helvetica 16.667 F
GS
[1 0 0 1 0 0] CT
-10 7 moveto 
1 -1 scale
(6) t 
GR
GR
GS
[0.6 0 0 0.6 792.80002 173.19996] CT
0.149 GC
/Helvetica 16.667 F
GS
[1 0 0 1 0 0] CT
-10 7 moveto 
1 -1 scale
(8) t 
GR
GR
GS
[0.6 0 0 0.6 792.80002 107.79998] CT
0.149 GC
/Helvetica 16.667 F
GS
[1 0 0 1 0 0] CT
-19 7 moveto 
1 -1 scale
(10) t 
GR
GR
GS
[0.6 0 0 0.6 792.80002 42.39996] CT
0.149 GC
/Helvetica 16.667 F
GS
[1 0 0 1 0 0] CT
-19 7 moveto 
1 -1 scale
(12) t 
GR
GR
GS
[0 -0.6 0.6 0 778.40002 271.29976] CT
0.149 GC
/Helvetica 18.333 F
GS
[1 0 0 1 0 0] CT
-61 -4 moveto 
1 -1 scale
(Autocorrelation) t 
GR
GR
GS
[0.6 0 0 0.6 796.8 39.99997] CT
0.149 GC
N
f-320005929
f
GR
GS
[0.6 0 0 0.6 805.2 39.99997] CT
0.149 GC
/Helvetica 16.667 F
GS
[1 0 0 1 0 0] CT
0 0 moveto 
1 -1 scale
(10) t 
GR
GR
GS
[0.6 0 0 0.6 816.6 35.19997] CT
0.149 GC
/Helvetica 13.333 F
GS
[1 0 0 1 0 0] CT
0 0 moveto 
1 -1 scale
(-3) t 
GR
GR
GS
[0.6 0 0 0.6 849.6 32.79997] CT
/Helvetica-Bold 18.333 F
GS
[1 0 0 1 0 0] CT
0 0 moveto 
1 -1 scale
(Autocorrelation of i) t 
GR
GR
GS
[0.6 0 0 0.6 949.2 38.19997] CT
/Helvetica-Bold 14.667 F
GS
[1 0 0 1 0 0] CT
0 0 moveto 
1 -1 scale
(0) t 
GR
GR
GS
[0.6 0 0 0.6 954.6 32.79997] CT
/Helvetica-Bold 18.333 F
GS
[1 0 0 1 0 0] CT
0 0 moveto 
1 -1 scale
( and n) t 
GR
GR
GS
[0.6 0 0 0.6 986.4 38.19997] CT
/Helvetica-Bold 14.667 F
GS
[1 0 0 1 0 0] CT
0 0 moveto 
1 -1 scale
(i) t 
GR
GR
GS
[0.6 0 0 0.6 0 0.39996] CT
0 0.447 0.741 RC
1 LJ
0.833 LW
N
1328 179.06 M
1369 248.99 L
1410 371.284 L
1451 464.004 L
1492 534.856 L
1533 588.3 L
1574 629.819 L
1615 661.046 L
1656 679.837 L
1697 691.044 L
1738 700.066 L
S
GR
GS
[0.6 0 0 0.6 796.8 107.83594] CT
0 0.447 0.741 RC
10.0 ML
0.833 LW
N
-3.536 -3.536 M
3.536 3.536 L
-3.536 3.536 M
3.536 -3.536 L
S
GR
GS
[0.6 0 0 0.6 821.4 149.7941] CT
0 0.447 0.741 RC
10.0 ML
0.833 LW
N
-3.536 -3.536 M
3.536 3.536 L
-3.536 3.536 M
3.536 -3.536 L
S
GR
GS
[0.6 0 0 0.6 846 223.1701] CT
0 0.447 0.741 RC
10.0 ML
0.833 LW
N
-3.536 -3.536 M
3.536 3.536 L
-3.536 3.536 M
3.536 -3.536 L
S
GR
GS
[0.6 0 0 0.6 870.6 278.80227] CT
0 0.447 0.741 RC
10.0 ML
0.833 LW
N
-3.536 -3.536 M
3.536 3.536 L
-3.536 3.536 M
3.536 -3.536 L
S
GR
GS
[0.6 0 0 0.6 895.2 321.31356] CT
0 0.447 0.741 RC
10.0 ML
0.833 LW
N
-3.536 -3.536 M
3.536 3.536 L
-3.536 3.536 M
3.536 -3.536 L
S
GR
GS
[0.6 0 0 0.6 919.8 353.37998] CT
0 0.447 0.741 RC
10.0 ML
0.833 LW
N
-3.536 -3.536 M
3.536 3.536 L
-3.536 3.536 M
3.536 -3.536 L
S
GR
GS
[0.6 0 0 0.6 944.4 378.29133] CT
0 0.447 0.741 RC
10.0 ML
0.833 LW
N
-3.536 -3.536 M
3.536 3.536 L
-3.536 3.536 M
3.536 -3.536 L
S
GR
GS
[0.6 0 0 0.6 969 397.02764] CT
0 0.447 0.741 RC
10.0 ML
0.833 LW
N
-3.536 -3.536 M
3.536 3.536 L
-3.536 3.536 M
3.536 -3.536 L
S
GR
GS
[0.6 0 0 0.6 993.6 408.3021] CT
0 0.447 0.741 RC
10.0 ML
0.833 LW
N
-3.536 -3.536 M
3.536 3.536 L
-3.536 3.536 M
3.536 -3.536 L
S
GR
GS
[0.6 0 0 0.6 1018.2 415.02665] CT
0 0.447 0.741 RC
10.0 ML
0.833 LW
N
-3.536 -3.536 M
3.536 3.536 L
-3.536 3.536 M
3.536 -3.536 L
S
GR
GS
[0.6 0 0 0.6 1042.8 420.43958] CT
0 0.447 0.741 RC
10.0 ML
0.833 LW
N
-3.536 -3.536 M
3.536 3.536 L
-3.536 3.536 M
3.536 -3.536 L
S
GR
GS
[0.6 0 0 0.6 919.8 353.37998] CT
10.0 ML
0.833 LW
N
0 -5 M
0 5 L
-5 0 M
5 0 L
-3.536 -3.536 M
3.536 3.536 L
-3.536 3.536 M
3.536 -3.536 L
S
GR
GS
[0.6 0 0 0.6 0 0.39996] CT
0.851 0.325 0.098 RC
1 LJ
0.833 LW
N
1328 178.719 M
1369 471.554 L
1410 801.336 L
1451 765.819 L
1492 708.132 L
1533 732.141 L
1574 733.769 L
1615 721.556 L
1656 725.352 L
1697 740.853 L
1738 745.844 L
S
GR
GS
[0.6 0 0 0.6 796.8 107.63144] CT
0.851 0.325 0.098 RC
10.0 ML
0.833 LW
N
-3.536 -3.536 M
3.536 3.536 L
-3.536 3.536 M
3.536 -3.536 L
S
GR
GS
[0.6 0 0 0.6 821.4 283.33212] CT
0.851 0.325 0.098 RC
10.0 ML
0.833 LW
N
-3.536 -3.536 M
3.536 3.536 L
-3.536 3.536 M
3.536 -3.536 L
S
GR
GS
[0.6 0 0 0.6 846 481.20185] CT
0.851 0.325 0.098 RC
10.0 ML
0.833 LW
N
-3.536 -3.536 M
3.536 3.536 L
-3.536 3.536 M
3.536 -3.536 L
S
GR
GS
[0.6 0 0 0.6 870.6 459.89141] CT
0.851 0.325 0.098 RC
10.0 ML
0.833 LW
N
-3.536 -3.536 M
3.536 3.536 L
-3.536 3.536 M
3.536 -3.536 L
S
GR
GS
[0.6 0 0 0.6 895.2 425.2792] CT
0.851 0.325 0.098 RC
10.0 ML
0.833 LW
N
-3.536 -3.536 M
3.536 3.536 L
-3.536 3.536 M
3.536 -3.536 L
S
GR
GS
[0.6 0 0 0.6 919.8 439.6847] CT
0.851 0.325 0.098 RC
10.0 ML
0.833 LW
N
-3.536 -3.536 M
3.536 3.536 L
-3.536 3.536 M
3.536 -3.536 L
S
GR
GS
[0.6 0 0 0.6 944.4 440.66123] CT
0.851 0.325 0.098 RC
10.0 ML
0.833 LW
N
-3.536 -3.536 M
3.536 3.536 L
-3.536 3.536 M
3.536 -3.536 L
S
GR
GS
[0.6 0 0 0.6 969 433.33332] CT
0.851 0.325 0.098 RC
10.0 ML
0.833 LW
N
-3.536 -3.536 M
3.536 3.536 L
-3.536 3.536 M
3.536 -3.536 L
S
GR
GS
[0.6 0 0 0.6 993.6 435.61148] CT
0.851 0.325 0.098 RC
10.0 ML
0.833 LW
N
-3.536 -3.536 M
3.536 3.536 L
-3.536 3.536 M
3.536 -3.536 L
S
GR
GS
[0.6 0 0 0.6 1018.2 444.91203] CT
0.851 0.325 0.098 RC
10.0 ML
0.833 LW
N
-3.536 -3.536 M
3.536 3.536 L
-3.536 3.536 M
3.536 -3.536 L
S
GR
GS
[0.6 0 0 0.6 1042.8 447.90661] CT
0.851 0.325 0.098 RC
10.0 ML
0.833 LW
N
-3.536 -3.536 M
3.536 3.536 L
-3.536 3.536 M
3.536 -3.536 L
S
GR
GS
[0.6 0 0 0.6 919.8 439.6847] CT
10.0 ML
0.833 LW
N
0 -5 M
0 5 L
-5 0 M
5 0 L
-3.536 -3.536 M
3.536 3.536 L
-3.536 3.536 M
3.536 -3.536 L
S
GR
GS
[0.6 0 0 0.6 0 0.39996] CT
1 GC
N
1658 144 M
1658 87 L
1721 87 L
1721 144 L
cp
f
GR
GS
[0.6 0 0 0.6 1022.4 63.39997] CT
/Helvetica 15 F
GS
[1 0 0 1 0 0] CT
0 0 moveto 
1 -1 scale
(i) t 
GR
GR
GS
[0.6 0 0 0.6 1024.8 67.59997] CT
/Helvetica 12 F
GS
[1 0 0 1 0 0] CT
0 0 moveto 
1 -1 scale
(0) t 
GR
GR
GS
[0.6 0 0 0.6 0 0.39996] CT
0 0.447 0.741 RC
1 LJ
0.833 LW
N
1662.98 102.332 M
1700.332 102.332 L
S
GR
GS
[0.6 0 0 0.6 1008.99368 61.7991] CT
0 0.447 0.741 RC
10.0 ML
0.833 LW
N
-3.536 -3.536 M
3.536 3.536 L
-3.536 3.536 M
3.536 -3.536 L
S
GR
GS
[0.6 0 0 0.6 1022.4 79.59997] CT
/Helvetica 15 F
GS
[1 0 0 1 0 0] CT
0 0 moveto 
1 -1 scale
(n) t 
GR
GR
GS
[0.6 0 0 0.6 1027.8 83.79997] CT
/Helvetica 12 F
GS
[1 0 0 1 0 0] CT
0 0 moveto 
1 -1 scale
(i) t 
GR
GR
GS
[0.6 0 0 0.6 0 0.39996] CT
0.851 0.325 0.098 RC
1 LJ
0.833 LW
N
1662.98 128.668 M
1700.332 128.668 L
S
GR
GS
[0.6 0 0 0.6 1008.99368 77.60083] CT
0.851 0.325 0.098 RC
10.0 ML
0.833 LW
N
-3.536 -3.536 M
3.536 3.536 L
-3.536 3.536 M
3.536 -3.536 L
S
GR
GS
[0.6 0 0 0.6 0 0.39996] CT
0.149 GC
10.0 ML
0.833 LW
N
1658 144 M
1658 87 L
1721 87 L
1721 144 L
cp
S
GR
%%Trailer
%%Pages: 1
%%EOF
