%!PS-Adobe-3.0 EPSF-3.0
%%Creator: (MATLAB, The Mathworks, Inc. Version 9.1.0.441655 \(R2016b\). Operating System: Windows 8)
%%Title: C:/Users/simon/Documents/Unief/M1/System_Identification_and_Modeling/Oefenzittingen/Oefenzitting_1/git/Report/cost_functions_0.05.eps
%%CreationDate: 2016-11-24T13:50:11
%%Pages: (atend)
%%BoundingBox: 0 0 1152 562
%%LanguageLevel: 3
%%EndComments
%%BeginProlog
%%BeginResource: procset (Apache XML Graphics Std ProcSet) 1.2 0
%%Version: 1.2 0
%%Copyright: (Copyright 2001-2003,2010 The Apache Software Foundation. License terms: http://www.apache.org/licenses/LICENSE-2.0)
/bd{bind def}bind def
/ld{load def}bd
/GR/grestore ld
/M/moveto ld
/LJ/setlinejoin ld
/C/curveto ld
/f/fill ld
/LW/setlinewidth ld
/GC/setgray ld
/t/show ld
/N/newpath ld
/CT/concat ld
/cp/closepath ld
/S/stroke ld
/L/lineto ld
/CC/setcmykcolor ld
/A/ashow ld
/GS/gsave ld
/RC/setrgbcolor ld
/RM/rmoveto ld
/ML/setmiterlimit ld
/re {4 2 roll M
1 index 0 rlineto
0 exch rlineto
neg 0 rlineto
cp } bd
/_ctm matrix def
/_tm matrix def
/BT { _ctm currentmatrix pop matrix _tm copy pop 0 0 moveto } bd
/ET { _ctm setmatrix } bd
/iTm { _ctm setmatrix _tm concat } bd
/Tm { _tm astore pop iTm 0 0 moveto } bd
/ux 0.0 def
/uy 0.0 def
/F {
  /Tp exch def
  /Tf exch def
  Tf findfont Tp scalefont setfont
  /cf Tf def  /cs Tp def
} bd
/ULS {currentpoint /uy exch def /ux exch def} bd
/ULE {
  /Tcx currentpoint pop def
  gsave
  newpath
  cf findfont cs scalefont dup
  /FontMatrix get 0 get /Ts exch def /FontInfo get dup
  /UnderlinePosition get Ts mul /To exch def
  /UnderlineThickness get Ts mul /Tt exch def
  ux uy To add moveto  Tcx uy To add lineto
  Tt setlinewidth stroke
  grestore
} bd
/OLE {
  /Tcx currentpoint pop def
  gsave
  newpath
  cf findfont cs scalefont dup
  /FontMatrix get 0 get /Ts exch def /FontInfo get dup
  /UnderlinePosition get Ts mul /To exch def
  /UnderlineThickness get Ts mul /Tt exch def
  ux uy To add cs add moveto Tcx uy To add cs add lineto
  Tt setlinewidth stroke
  grestore
} bd
/SOE {
  /Tcx currentpoint pop def
  gsave
  newpath
  cf findfont cs scalefont dup
  /FontMatrix get 0 get /Ts exch def /FontInfo get dup
  /UnderlinePosition get Ts mul /To exch def
  /UnderlineThickness get Ts mul /Tt exch def
  ux uy To add cs 10 mul 26 idiv add moveto Tcx uy To add cs 10 mul 26 idiv add lineto
  Tt setlinewidth stroke
  grestore
} bd
/QT {
/Y22 exch store
/X22 exch store
/Y21 exch store
/X21 exch store
currentpoint
/Y21 load 2 mul add 3 div exch
/X21 load 2 mul add 3 div exch
/X21 load 2 mul /X22 load add 3 div
/Y21 load 2 mul /Y22 load add 3 div
/X22 load /Y22 load curveto
} bd
/SSPD {
dup length /d exch dict def
{
/v exch def
/k exch def
currentpagedevice k known {
/cpdv currentpagedevice k get def
v cpdv ne {
/upd false def
/nullv v type /nulltype eq def
/nullcpdv cpdv type /nulltype eq def
nullv nullcpdv or
{
/upd true def
} {
/sametype v type cpdv type eq def
sametype {
v type /arraytype eq {
/vlen v length def
/cpdvlen cpdv length def
vlen cpdvlen eq {
0 1 vlen 1 sub {
/i exch def
/obj v i get def
/cpdobj cpdv i get def
obj cpdobj ne {
/upd true def
exit
} if
} for
} {
/upd true def
} ifelse
} {
v type /dicttype eq {
v {
/dv exch def
/dk exch def
/cpddv cpdv dk get def
dv cpddv ne {
/upd true def
exit
} if
} forall
} {
/upd true def
} ifelse
} ifelse
} if
} ifelse
upd true eq {
d k v put
} if
} if
} if
} forall
d length 0 gt {
d setpagedevice
} if
} bd
/RE { % /NewFontName [NewEncodingArray] /FontName RE -
  findfont dup length dict begin
  {
    1 index /FID ne
    {def} {pop pop} ifelse
  } forall
  /Encoding exch def
  /FontName 1 index def
  currentdict definefont pop
  end
} bind def
%%EndResource
%%BeginResource: procset (Apache XML Graphics EPS ProcSet) 1.0 0
%%Version: 1.0 0
%%Copyright: (Copyright 2002-2003 The Apache Software Foundation. License terms: http://www.apache.org/licenses/LICENSE-2.0)
/BeginEPSF { %def
/b4_Inc_state save def         % Save state for cleanup
/dict_count countdictstack def % Count objects on dict stack
/op_count count 1 sub def      % Count objects on operand stack
userdict begin                 % Push userdict on dict stack
/showpage { } def              % Redefine showpage, { } = null proc
0 setgray 0 setlinecap         % Prepare graphics state
1 setlinewidth 0 setlinejoin
10 setmiterlimit [ ] 0 setdash newpath
/languagelevel where           % If level not equal to 1 then
{pop languagelevel             % set strokeadjust and
1 ne                           % overprint to their defaults.
{false setstrokeadjust false setoverprint
} if
} if
} bd
/EndEPSF { %def
count op_count sub {pop} repeat            % Clean up stacks
countdictstack dict_count sub {end} repeat
b4_Inc_state restore
} bd
%%EndResource
%FOPBeginFontDict
%%IncludeResource: font Courier-Bold
%%IncludeResource: font Helvetica
%%IncludeResource: font Courier-BoldOblique
%%IncludeResource: font Courier-Oblique
%%IncludeResource: font Times-Roman
%%IncludeResource: font Helvetica-BoldOblique
%%IncludeResource: font Helvetica-Bold
%%IncludeResource: font Helvetica-Oblique
%%IncludeResource: font Times-BoldItalic
%%IncludeResource: font Courier
%%IncludeResource: font Times-Italic
%%IncludeResource: font Times-Bold
%%IncludeResource: font Symbol
%%IncludeResource: font ZapfDingbats
%FOPEndFontDict
%%BeginResource: encoding WinAnsiEncoding
/WinAnsiEncoding [
/.notdef /.notdef /.notdef /.notdef /.notdef
/.notdef /.notdef /.notdef /.notdef /.notdef
/.notdef /.notdef /.notdef /.notdef /.notdef
/.notdef /.notdef /.notdef /.notdef /.notdef
/.notdef /.notdef /.notdef /.notdef /.notdef
/.notdef /.notdef /.notdef /.notdef /.notdef
/.notdef /.notdef /space /exclam /quotedbl
/numbersign /dollar /percent /ampersand /quotesingle
/parenleft /parenright /asterisk /plus /comma
/hyphen /period /slash /zero /one
/two /three /four /five /six
/seven /eight /nine /colon /semicolon
/less /equal /greater /question /at
/A /B /C /D /E
/F /G /H /I /J
/K /L /M /N /O
/P /Q /R /S /T
/U /V /W /X /Y
/Z /bracketleft /backslash /bracketright /asciicircum
/underscore /quoteleft /a /b /c
/d /e /f /g /h
/i /j /k /l /m
/n /o /p /q /r
/s /t /u /v /w
/x /y /z /braceleft /bar
/braceright /asciitilde /bullet /Euro /bullet
/quotesinglbase /florin /quotedblbase /ellipsis /dagger
/daggerdbl /circumflex /perthousand /Scaron /guilsinglleft
/OE /bullet /Zcaron /bullet /bullet
/quoteleft /quoteright /quotedblleft /quotedblright /bullet
/endash /emdash /asciitilde /trademark /scaron
/guilsinglright /oe /bullet /zcaron /Ydieresis
/space /exclamdown /cent /sterling /currency
/yen /brokenbar /section /dieresis /copyright
/ordfeminine /guillemotleft /logicalnot /sfthyphen /registered
/macron /degree /plusminus /twosuperior /threesuperior
/acute /mu /paragraph /middot /cedilla
/onesuperior /ordmasculine /guillemotright /onequarter /onehalf
/threequarters /questiondown /Agrave /Aacute /Acircumflex
/Atilde /Adieresis /Aring /AE /Ccedilla
/Egrave /Eacute /Ecircumflex /Edieresis /Igrave
/Iacute /Icircumflex /Idieresis /Eth /Ntilde
/Ograve /Oacute /Ocircumflex /Otilde /Odieresis
/multiply /Oslash /Ugrave /Uacute /Ucircumflex
/Udieresis /Yacute /Thorn /germandbls /agrave
/aacute /acircumflex /atilde /adieresis /aring
/ae /ccedilla /egrave /eacute /ecircumflex
/edieresis /igrave /iacute /icircumflex /idieresis
/eth /ntilde /ograve /oacute /ocircumflex
/otilde /odieresis /divide /oslash /ugrave
/uacute /ucircumflex /udieresis /yacute /thorn
/ydieresis
] def
%%EndResource
%FOPBeginFontReencode
/Courier-Bold findfont
dup length dict begin
  {1 index /FID ne {def} {pop pop} ifelse} forall
  /Encoding WinAnsiEncoding def
  currentdict
end
/Courier-Bold exch definefont pop
/Helvetica findfont
dup length dict begin
  {1 index /FID ne {def} {pop pop} ifelse} forall
  /Encoding WinAnsiEncoding def
  currentdict
end
/Helvetica exch definefont pop
/Courier-BoldOblique findfont
dup length dict begin
  {1 index /FID ne {def} {pop pop} ifelse} forall
  /Encoding WinAnsiEncoding def
  currentdict
end
/Courier-BoldOblique exch definefont pop
/Courier-Oblique findfont
dup length dict begin
  {1 index /FID ne {def} {pop pop} ifelse} forall
  /Encoding WinAnsiEncoding def
  currentdict
end
/Courier-Oblique exch definefont pop
/Times-Roman findfont
dup length dict begin
  {1 index /FID ne {def} {pop pop} ifelse} forall
  /Encoding WinAnsiEncoding def
  currentdict
end
/Times-Roman exch definefont pop
/Helvetica-BoldOblique findfont
dup length dict begin
  {1 index /FID ne {def} {pop pop} ifelse} forall
  /Encoding WinAnsiEncoding def
  currentdict
end
/Helvetica-BoldOblique exch definefont pop
/Helvetica-Bold findfont
dup length dict begin
  {1 index /FID ne {def} {pop pop} ifelse} forall
  /Encoding WinAnsiEncoding def
  currentdict
end
/Helvetica-Bold exch definefont pop
/Helvetica-Oblique findfont
dup length dict begin
  {1 index /FID ne {def} {pop pop} ifelse} forall
  /Encoding WinAnsiEncoding def
  currentdict
end
/Helvetica-Oblique exch definefont pop
/Times-BoldItalic findfont
dup length dict begin
  {1 index /FID ne {def} {pop pop} ifelse} forall
  /Encoding WinAnsiEncoding def
  currentdict
end
/Times-BoldItalic exch definefont pop
/Courier findfont
dup length dict begin
  {1 index /FID ne {def} {pop pop} ifelse} forall
  /Encoding WinAnsiEncoding def
  currentdict
end
/Courier exch definefont pop
/Times-Italic findfont
dup length dict begin
  {1 index /FID ne {def} {pop pop} ifelse} forall
  /Encoding WinAnsiEncoding def
  currentdict
end
/Times-Italic exch definefont pop
/Times-Bold findfont
dup length dict begin
  {1 index /FID ne {def} {pop pop} ifelse} forall
  /Encoding WinAnsiEncoding def
  currentdict
end
/Times-Bold exch definefont pop
%FOPEndFontReencode
%%EndProlog
%%Page: 1 1
%%PageBoundingBox: 0 0 1152 562
%%BeginPageSetup
[1 0 0 -1 0 562] CT
%%EndPageSetup
GS
[0.6 0 0 0.6 0 0.39996] CT
1 GC
N
0 0 1920 936 re
f
GR
GS
[0.6 0 0 0.6 0 0.39996] CT
1 GC
N
0 0 1920 936 re
f
GR
GS
[0.6 0 0 0.6 0 0.39996] CT
1 GC
N
250 833 M
1738 833 L
1738 70 L
250 70 L
cp
f
GR
GS
[0.6 0 0 0.6 0 0.39996] CT
0.149 GC
2 setlinecap
1 LJ
0.833 LW
N
250 833 M
1738 833 L
S
GR
GS
[0.6 0 0 0.6 0 0.39996] CT
0.149 GC
2 setlinecap
1 LJ
0.833 LW
N
250 70 M
1738 70 L
S
GR
GS
[0.6 0 0 0.6 0 0.39996] CT
0.149 GC
2 setlinecap
1 LJ
0.833 LW
N
250 833 M
250 818.12 L
S
GR
GS
[0.6 0 0 0.6 0 0.39996] CT
0.149 GC
2 setlinecap
1 LJ
0.833 LW
N
398.8 833 M
398.8 818.12 L
S
GR
GS
[0.6 0 0 0.6 0 0.39996] CT
0.149 GC
2 setlinecap
1 LJ
0.833 LW
N
547.6 833 M
547.6 818.12 L
S
GR
GS
[0.6 0 0 0.6 0 0.39996] CT
0.149 GC
2 setlinecap
1 LJ
0.833 LW
N
696.4 833 M
696.4 818.12 L
S
GR
GS
[0.6 0 0 0.6 0 0.39996] CT
0.149 GC
2 setlinecap
1 LJ
0.833 LW
N
845.2 833 M
845.2 818.12 L
S
GR
GS
[0.6 0 0 0.6 0 0.39996] CT
0.149 GC
2 setlinecap
1 LJ
0.833 LW
N
994 833 M
994 818.12 L
S
GR
GS
[0.6 0 0 0.6 0 0.39996] CT
0.149 GC
2 setlinecap
1 LJ
0.833 LW
N
1142.8 833 M
1142.8 818.12 L
S
GR
GS
[0.6 0 0 0.6 0 0.39996] CT
0.149 GC
2 setlinecap
1 LJ
0.833 LW
N
1291.6 833 M
1291.6 818.12 L
S
GR
GS
[0.6 0 0 0.6 0 0.39996] CT
0.149 GC
2 setlinecap
1 LJ
0.833 LW
N
1440.4 833 M
1440.4 818.12 L
S
GR
GS
[0.6 0 0 0.6 0 0.39996] CT
0.149 GC
2 setlinecap
1 LJ
0.833 LW
N
1589.2 833 M
1589.2 818.12 L
S
GR
GS
[0.6 0 0 0.6 0 0.39996] CT
0.149 GC
2 setlinecap
1 LJ
0.833 LW
N
1738 833 M
1738 818.12 L
S
GR
GS
[0.6 0 0 0.6 0 0.39996] CT
0.149 GC
2 setlinecap
1 LJ
0.833 LW
N
250 70 M
250 84.88 L
S
GR
GS
[0.6 0 0 0.6 0 0.39996] CT
0.149 GC
2 setlinecap
1 LJ
0.833 LW
N
398.8 70 M
398.8 84.88 L
S
GR
GS
[0.6 0 0 0.6 0 0.39996] CT
0.149 GC
2 setlinecap
1 LJ
0.833 LW
N
547.6 70 M
547.6 84.88 L
S
GR
GS
[0.6 0 0 0.6 0 0.39996] CT
0.149 GC
2 setlinecap
1 LJ
0.833 LW
N
696.4 70 M
696.4 84.88 L
S
GR
GS
[0.6 0 0 0.6 0 0.39996] CT
0.149 GC
2 setlinecap
1 LJ
0.833 LW
N
845.2 70 M
845.2 84.88 L
S
GR
GS
[0.6 0 0 0.6 0 0.39996] CT
0.149 GC
2 setlinecap
1 LJ
0.833 LW
N
994 70 M
994 84.88 L
S
GR
GS
[0.6 0 0 0.6 0 0.39996] CT
0.149 GC
2 setlinecap
1 LJ
0.833 LW
N
1142.8 70 M
1142.8 84.88 L
S
GR
GS
[0.6 0 0 0.6 0 0.39996] CT
0.149 GC
2 setlinecap
1 LJ
0.833 LW
N
1291.6 70 M
1291.6 84.88 L
S
GR
GS
[0.6 0 0 0.6 0 0.39996] CT
0.149 GC
2 setlinecap
1 LJ
0.833 LW
N
1440.4 70 M
1440.4 84.88 L
S
GR
GS
[0.6 0 0 0.6 0 0.39996] CT
0.149 GC
2 setlinecap
1 LJ
0.833 LW
N
1589.2 70 M
1589.2 84.88 L
S
GR
GS
[0.6 0 0 0.6 0 0.39996] CT
0.149 GC
2 setlinecap
1 LJ
0.833 LW
N
1738 70 M
1738 84.88 L
S
GR
GS
[0.6 0 0 0.6 150 504.20001] CT
0.149 GC
/Helvetica 16.667 F
GS
[1 0 0 1 0 0] CT
-5 18 moveto 
1 -1 scale
(0) t 
GR
GR
GS
[0.6 0 0 0.6 239.27999 504.20001] CT
0.149 GC
/Helvetica 16.667 F
GS
[1 0 0 1 0 0] CT
-9.5 18 moveto 
1 -1 scale
(10) t 
GR
GR
GS
[0.6 0 0 0.6 328.55999 504.20001] CT
0.149 GC
/Helvetica 16.667 F
GS
[1 0 0 1 0 0] CT
-9.5 18 moveto 
1 -1 scale
(20) t 
GR
GR
GS
[0.6 0 0 0.6 417.84001 504.20001] CT
0.149 GC
/Helvetica 16.667 F
GS
[1 0 0 1 0 0] CT
-9.5 18 moveto 
1 -1 scale
(30) t 
GR
GR
GS
[0.6 0 0 0.6 507.12001 504.20001] CT
0.149 GC
/Helvetica 16.667 F
GS
[1 0 0 1 0 0] CT
-9.5 18 moveto 
1 -1 scale
(40) t 
GR
GR
GS
[0.6 0 0 0.6 596.4 504.20001] CT
0.149 GC
/Helvetica 16.667 F
GS
[1 0 0 1 0 0] CT
-9.5 18 moveto 
1 -1 scale
(50) t 
GR
GR
GS
[0.6 0 0 0.6 685.68003 504.20001] CT
0.149 GC
/Helvetica 16.667 F
GS
[1 0 0 1 0 0] CT
-9.5 18 moveto 
1 -1 scale
(60) t 
GR
GR
GS
[0.6 0 0 0.6 774.95999 504.20001] CT
0.149 GC
/Helvetica 16.667 F
GS
[1 0 0 1 0 0] CT
-9.5 18 moveto 
1 -1 scale
(70) t 
GR
GR
GS
[0.6 0 0 0.6 864.24001 504.20001] CT
0.149 GC
/Helvetica 16.667 F
GS
[1 0 0 1 0 0] CT
-9.5 18 moveto 
1 -1 scale
(80) t 
GR
GR
GS
[0.6 0 0 0.6 953.51997 504.20001] CT
0.149 GC
/Helvetica 16.667 F
GS
[1 0 0 1 0 0] CT
-9.5 18 moveto 
1 -1 scale
(90) t 
GR
GR
GS
[0.6 0 0 0.6 1042.8 504.20001] CT
0.149 GC
/Helvetica 16.667 F
GS
[1 0 0 1 0 0] CT
-14.5 18 moveto 
1 -1 scale
(100) t 
GR
GR
GS
[0.6 0 0 0.6 596.4004 518.40002] CT
0.149 GC
/Helvetica 18.333 F
GS
[1 0 0 1 0 0] CT
-23.5 19 moveto 
1 -1 scale
(Order) t 
GR
GR
GS
[0.6 0 0 0.6 0 0.39996] CT
0.149 GC
2 setlinecap
1 LJ
0.833 LW
N
250 833 M
250 70 L
S
GR
GS
[0.6 0 0 0.6 0 0.39996] CT
0.149 GC
2 setlinecap
1 LJ
0.833 LW
N
1738 833 M
1738 70 L
S
GR
GS
[0.6 0 0 0.6 0 0.39996] CT
0.149 GC
2 setlinecap
1 LJ
0.833 LW
N
250 833 M
264.88 833 L
S
GR
GS
[0.6 0 0 0.6 0 0.39996] CT
0.149 GC
2 setlinecap
1 LJ
0.833 LW
N
250 756.7 M
264.88 756.7 L
S
GR
GS
[0.6 0 0 0.6 0 0.39996] CT
0.149 GC
2 setlinecap
1 LJ
0.833 LW
N
250 680.4 M
264.88 680.4 L
S
GR
GS
[0.6 0 0 0.6 0 0.39996] CT
0.149 GC
2 setlinecap
1 LJ
0.833 LW
N
250 604.1 M
264.88 604.1 L
S
GR
GS
[0.6 0 0 0.6 0 0.39996] CT
0.149 GC
2 setlinecap
1 LJ
0.833 LW
N
250 527.8 M
264.88 527.8 L
S
GR
GS
[0.6 0 0 0.6 0 0.39996] CT
0.149 GC
2 setlinecap
1 LJ
0.833 LW
N
250 451.5 M
264.88 451.5 L
S
GR
GS
[0.6 0 0 0.6 0 0.39996] CT
0.149 GC
2 setlinecap
1 LJ
0.833 LW
N
250 375.2 M
264.88 375.2 L
S
GR
GS
[0.6 0 0 0.6 0 0.39996] CT
0.149 GC
2 setlinecap
1 LJ
0.833 LW
N
250 298.9 M
264.88 298.9 L
S
GR
GS
[0.6 0 0 0.6 0 0.39996] CT
0.149 GC
2 setlinecap
1 LJ
0.833 LW
N
250 222.6 M
264.88 222.6 L
S
GR
GS
[0.6 0 0 0.6 0 0.39996] CT
0.149 GC
2 setlinecap
1 LJ
0.833 LW
N
250 146.3 M
264.88 146.3 L
S
GR
GS
[0.6 0 0 0.6 0 0.39996] CT
0.149 GC
2 setlinecap
1 LJ
0.833 LW
N
250 70 M
264.88 70 L
S
GR
GS
[0.6 0 0 0.6 0 0.39996] CT
0.149 GC
2 setlinecap
1 LJ
0.833 LW
N
1738 833 M
1723.12 833 L
S
GR
GS
[0.6 0 0 0.6 0 0.39996] CT
0.149 GC
2 setlinecap
1 LJ
0.833 LW
N
1738 756.7 M
1723.12 756.7 L
S
GR
GS
[0.6 0 0 0.6 0 0.39996] CT
0.149 GC
2 setlinecap
1 LJ
0.833 LW
N
1738 680.4 M
1723.12 680.4 L
S
GR
GS
[0.6 0 0 0.6 0 0.39996] CT
0.149 GC
2 setlinecap
1 LJ
0.833 LW
N
1738 604.1 M
1723.12 604.1 L
S
GR
GS
[0.6 0 0 0.6 0 0.39996] CT
0.149 GC
2 setlinecap
1 LJ
0.833 LW
N
1738 527.8 M
1723.12 527.8 L
S
GR
GS
[0.6 0 0 0.6 0 0.39996] CT
0.149 GC
2 setlinecap
1 LJ
0.833 LW
N
1738 451.5 M
1723.12 451.5 L
S
GR
GS
[0.6 0 0 0.6 0 0.39996] CT
0.149 GC
2 setlinecap
1 LJ
0.833 LW
N
1738 375.2 M
1723.12 375.2 L
S
GR
GS
[0.6 0 0 0.6 0 0.39996] CT
0.149 GC
2 setlinecap
1 LJ
0.833 LW
N
1738 298.9 M
1723.12 298.9 L
S
GR
GS
[0.6 0 0 0.6 0 0.39996] CT
0.149 GC
2 setlinecap
1 LJ
0.833 LW
N
1738 222.6 M
1723.12 222.6 L
S
GR
GS
[0.6 0 0 0.6 0 0.39996] CT
0.149 GC
2 setlinecap
1 LJ
0.833 LW
N
1738 146.3 M
1723.12 146.3 L
S
GR
GS
[0.6 0 0 0.6 0 0.39996] CT
0.149 GC
2 setlinecap
1 LJ
0.833 LW
N
1738 70 M
1723.12 70 L
S
GR
GS
[0.6 0 0 0.6 146 500.2] CT
0.149 GC
/Helvetica 16.667 F
GS
[1 0 0 1 0 0] CT
-24 7 moveto 
1 -1 scale
(0.7) t 
GR
GR
GS
[0.6 0 0 0.6 146 454.42] CT
0.149 GC
/Helvetica 16.667 F
GS
[1 0 0 1 0 0] CT
-34 7 moveto 
1 -1 scale
(0.75) t 
GR
GR
GS
[0.6 0 0 0.6 146 408.63997] CT
0.149 GC
/Helvetica 16.667 F
GS
[1 0 0 1 0 0] CT
-24 7 moveto 
1 -1 scale
(0.8) t 
GR
GR
GS
[0.6 0 0 0.6 146 362.85997] CT
0.149 GC
/Helvetica 16.667 F
GS
[1 0 0 1 0 0] CT
-34 7 moveto 
1 -1 scale
(0.85) t 
GR
GR
GS
[0.6 0 0 0.6 146 317.08001] CT
0.149 GC
/Helvetica 16.667 F
GS
[1 0 0 1 0 0] CT
-24 7 moveto 
1 -1 scale
(0.9) t 
GR
GR
GS
[0.6 0 0 0.6 146 271.3] CT
0.149 GC
/Helvetica 16.667 F
GS
[1 0 0 1 0 0] CT
-34 7 moveto 
1 -1 scale
(0.95) t 
GR
GR
GS
[0.6 0 0 0.6 146 225.51999] CT
0.149 GC
/Helvetica 16.667 F
GS
[1 0 0 1 0 0] CT
-10 7 moveto 
1 -1 scale
(1) t 
GR
GR
GS
[0.6 0 0 0.6 146 179.74003] CT
0.149 GC
/Helvetica 16.667 F
GS
[1 0 0 1 0 0] CT
-34 7 moveto 
1 -1 scale
(1.05) t 
GR
GR
GS
[0.6 0 0 0.6 146 133.95995] CT
0.149 GC
/Helvetica 16.667 F
GS
[1 0 0 1 0 0] CT
-24 7 moveto 
1 -1 scale
(1.1) t 
GR
GR
GS
[0.6 0 0 0.6 146 88.17999] CT
0.149 GC
/Helvetica 16.667 F
GS
[1 0 0 1 0 0] CT
-34 7 moveto 
1 -1 scale
(1.15) t 
GR
GR
GS
[0.6 0 0 0.6 146 42.39992] CT
0.149 GC
/Helvetica 16.667 F
GS
[1 0 0 1 0 0] CT
-24 7 moveto 
1 -1 scale
(1.2) t 
GR
GR
GS
[0 -0.6 0.6 0 122.6 271.29972] CT
0.149 GC
/Helvetica 18.333 F
GS
[1 0 0 1 0 0] CT
-19 -4 moveto 
1 -1 scale
(Cost) t 
GR
GR
GS
[0.6 0 0 0.6 509.4 32.79997] CT
/Helvetica-Bold 18.333 F
GS
[1 0 0 1 0 0] CT
0 0 moveto 
1 -1 scale
(Cost functions V) t 
GR
GR
GS
[0.6 0 0 0.6 595.2 38.19997] CT
/Helvetica-Bold 14.667 F
GS
[1 0 0 1 0 0] CT
0 0 moveto 
1 -1 scale
(est) t 
GR
GR
GS
[0.6 0 0 0.6 608.4 32.79997] CT
/Helvetica-Bold 18.333 F
GS
[1 0 0 1 0 0] CT
0 0 moveto 
1 -1 scale
(, V) t 
GR
GR
GS
[0.6 0 0 0.6 622.2 38.19997] CT
/Helvetica-Bold 14.667 F
GS
[1 0 0 1 0 0] CT
0 0 moveto 
1 -1 scale
(val) t 
GR
GR
GS
[0.6 0 0 0.6 634.8 32.79997] CT
/Helvetica-Bold 18.333 F
GS
[1 0 0 1 0 0] CT
0 0 moveto 
1 -1 scale
( and V) t 
GR
GR
GS
[0.6 0 0 0.6 667.8 38.19997] CT
/Helvetica-Bold 14.667 F
GS
[1 0 0 1 0 0] CT
0 0 moveto 
1 -1 scale
(AIC) t 
GR
GR
GS
[0.6 0 0 0.6 0 0.39996] CT
0 0.447 0.741 RC
1 LJ
0.833 LW
N
647.041 69.909 M
651.76 93.727 L
666.64 195.168 L
681.52 195.705 L
696.4 197.089 L
711.28 199.235 L
726.16 280.285 L
741.04 281.467 L
755.92 295.491 L
770.8 304.963 L
785.68 299.93 L
800.56 300.392 L
815.44 306.098 L
830.32 319.447 L
845.2 318.553 L
860.08 322.642 L
874.96 324.397 L
889.84 325.579 L
904.72 325.027 L
919.6 327.646 L
934.48 328.534 L
949.36 328.098 L
964.24 328.334 L
979.12 322.295 L
994 316.729 L
1008.88 317.214 L
1023.76 320.542 L
1038.64 320.54 L
1053.52 317.854 L
1068.4 315.893 L
1083.28 312.249 L
1098.16 312.261 L
1113.04 309.048 L
1127.92 310.018 L
1142.8 309.577 L
1157.68 308.553 L
1172.56 308.867 L
1187.44 307.903 L
1202.32 304.055 L
1217.2 303.732 L
1232.08 303.041 L
1246.96 301.537 L
1261.84 301.766 L
1276.72 301.777 L
1291.6 299.976 L
1306.48 293.12 L
1321.36 292.507 L
1336.24 288.18 L
1351.12 288.266 L
1366 287.075 L
1380.88 285.354 L
1395.76 281.817 L
1410.64 281.264 L
1425.52 278.817 L
1440.4 276.802 L
1455.28 272.336 L
1470.16 269.152 L
1485.04 269.043 L
1499.92 268.348 L
1514.8 262.973 L
1529.68 260.901 L
1544.56 261.766 L
1559.44 258.865 L
1574.32 255.827 L
1589.2 255.196 L
1604.08 247.179 L
1618.96 247.208 L
1633.84 248.556 L
1648.72 246.17 L
1663.6 247.712 L
1678.48 238.286 L
1693.36 238.576 L
1708.24 238.569 L
1723.12 238.579 L
1738 238.177 L
S
GR
GS
[0.6 0 0 0.6 0 0.39996] CT
0.851 0.325 0.098 RC
1 LJ
0.833 LW
N
630.478 69.909 M
636.88 124.267 L
651.76 165.932 L
666.64 227.742 L
681.52 227.832 L
696.4 228.182 L
711.28 228.42 L
726.16 301.842 L
741.04 315.348 L
755.92 348.604 L
770.8 357.544 L
785.68 358.851 L
800.56 359.461 L
815.44 360.558 L
830.32 374.467 L
845.2 374.954 L
860.08 378.907 L
874.96 380.123 L
889.84 390.922 L
904.72 391.192 L
919.6 394.88 L
934.48 396.641 L
949.36 397.194 L
964.24 397.317 L
979.12 400.673 L
994 405.256 L
1008.88 405.282 L
1023.76 407.764 L
1038.64 407.768 L
1053.52 408.432 L
1068.4 409.174 L
1083.28 413.296 L
1098.16 414.83 L
1113.04 417.28 L
1127.92 417.393 L
1142.8 417.578 L
1157.68 419.444 L
1172.56 420.257 L
1187.44 420.455 L
1202.32 423.621 L
1217.2 423.855 L
1232.08 425.338 L
1246.96 426.891 L
1261.84 426.95 L
1276.72 426.951 L
1291.6 427.678 L
1306.48 432.007 L
1321.36 432.17 L
1336.24 434.367 L
1351.12 434.434 L
1366 435.852 L
1380.88 436.341 L
1395.76 437.895 L
1410.64 438.143 L
1425.52 439.616 L
1440.4 440.327 L
1455.28 446.889 L
1470.16 447.547 L
1485.04 448.05 L
1499.92 449.993 L
1514.8 452.578 L
1529.68 453.343 L
1544.56 453.758 L
1559.44 455.343 L
1574.32 456.479 L
1589.2 457.239 L
1604.08 461.165 L
1618.96 462.017 L
1633.84 462.668 L
1648.72 463.53 L
1663.6 464.899 L
1678.48 470.387 L
1693.36 471 L
1708.24 471.002 L
1723.12 471.015 L
1738 471.179 L
S
GR
GS
[0.6 0 0 0.6 0 0.39996] CT
0.929 0.694 0.125 RC
1 LJ
0.833 LW
N
650.905 69.909 M
651.76 72.228 L
666.64 134.029 L
681.52 130.777 L
696.4 127.801 L
711.28 124.708 L
726.16 199.483 L
741.04 210.682 L
755.92 243.027 L
770.8 249.488 L
785.68 247.801 L
800.56 245.372 L
815.44 243.469 L
830.32 255.382 L
845.2 252.855 L
860.08 254.079 L
874.96 252.353 L
889.84 261.038 L
904.72 258.312 L
919.6 259.311 L
934.48 258.222 L
949.36 255.818 L
964.24 252.944 L
979.12 253.621 L
994 255.661 L
1008.88 252.699 L
1023.76 252.446 L
1038.64 249.464 L
1053.52 247.213 L
1068.4 245.052 L
1083.28 246.651 L
1098.16 245.384 L
1113.04 245.145 L
1127.92 242.304 L
1142.8 239.543 L
1157.68 238.67 L
1172.56 236.62 L
1187.44 233.882 L
1202.32 234.491 L
1217.2 231.8 L
1232.08 230.524 L
1246.96 229.334 L
1261.84 226.452 L
1276.72 223.504 L
1291.6 221.385 L
1306.48 223.382 L
1321.36 220.63 L
1336.24 220.209 L
1351.12 217.352 L
1366 216.05 L
1380.88 213.683 L
1395.76 212.547 L
1410.64 209.906 L
1425.52 208.686 L
1440.4 206.587 L
1455.28 211.29 L
1470.16 209.148 L
1485.04 206.827 L
1499.92 206.19 L
1514.8 206.312 L
1529.68 204.312 L
1544.56 201.903 L
1559.44 200.873 L
1574.32 199.319 L
1589.2 197.326 L
1604.08 199.079 L
1618.96 197.207 L
1633.84 195.101 L
1648.72 193.248 L
1663.6 192.002 L
1678.48 195.671 L
1693.36 193.541 L
1708.24 190.683 L
1723.12 187.838 L
1738 185.175 L
S
GR
GS
[0.6 0 0 0.6 0 0.39996] CT
1 GC
N
1638 171 M
1638 87 L
1721 87 L
1721 171 L
cp
f
GR
GS
[0.6 0 0 0.6 1010.4 63.39997] CT
/Helvetica 15 F
GS
[1 0 0 1 0 0] CT
0 0 moveto 
1 -1 scale
(V) t 
GR
GR
GS
[0.6 0 0 0.6 1017 67.59997] CT
/Helvetica 12 F
GS
[1 0 0 1 0 0] CT
0 0 moveto 
1 -1 scale
(val) t 
GR
GR
GS
[0.6 0 0 0.6 0 0.39996] CT
0 0.447 0.741 RC
1 LJ
0.833 LW
N
1642.985 102.454 M
1680.372 102.454 L
S
GR
GS
[0.6 0 0 0.6 1010.4 79.59997] CT
/Helvetica 15 F
GS
[1 0 0 1 0 0] CT
0 0 moveto 
1 -1 scale
(V) t 
GR
GR
GS
[0.6 0 0 0.6 1017 83.79997] CT
/Helvetica 12 F
GS
[1 0 0 1 0 0] CT
0 0 moveto 
1 -1 scale
(est) t 
GR
GR
GS
[0.6 0 0 0.6 0 0.39996] CT
0.851 0.325 0.098 RC
1 LJ
0.833 LW
N
1642.985 129 M
1680.372 129 L
S
GR
GS
[0.6 0 0 0.6 1010.4 95.79997] CT
/Helvetica 15 F
GS
[1 0 0 1 0 0] CT
0 0 moveto 
1 -1 scale
(V) t 
GR
GR
GS
[0.6 0 0 0.6 1017 99.99997] CT
/Helvetica 12 F
GS
[1 0 0 1 0 0] CT
0 0 moveto 
1 -1 scale
(AIC) t 
GR
GR
GS
[0.6 0 0 0.6 0 0.39996] CT
0.929 0.694 0.125 RC
1 LJ
0.833 LW
N
1642.985 155.546 M
1680.372 155.546 L
S
GR
GS
[0.6 0 0 0.6 0 0.39996] CT
0.149 GC
10.0 ML
0.833 LW
N
1638 171 M
1638 87 L
1721 87 L
1721 171 L
cp
S
GR
%%Trailer
%%Pages: 1
%%EOF
