%!PS-Adobe-3.0 EPSF-3.0
%%Creator: (MATLAB, The Mathworks, Inc. Version 9.1.0.441655 \(R2016b\). Operating System: Windows 8)
%%Title: C:/Users/simon/Documents/Unief/M1/System_Identification_and_Modeling/Oefenzittingen/Oefenzitting_1/git/Report/cost_functions.eps
%%CreationDate: 2016-11-24T13:46:11
%%Pages: (atend)
%%BoundingBox: 0 0 1152 562
%%LanguageLevel: 3
%%EndComments
%%BeginProlog
%%BeginResource: procset (Apache XML Graphics Std ProcSet) 1.2 0
%%Version: 1.2 0
%%Copyright: (Copyright 2001-2003,2010 The Apache Software Foundation. License terms: http://www.apache.org/licenses/LICENSE-2.0)
/bd{bind def}bind def
/ld{load def}bd
/GR/grestore ld
/M/moveto ld
/LJ/setlinejoin ld
/C/curveto ld
/f/fill ld
/LW/setlinewidth ld
/GC/setgray ld
/t/show ld
/N/newpath ld
/CT/concat ld
/cp/closepath ld
/S/stroke ld
/L/lineto ld
/CC/setcmykcolor ld
/A/ashow ld
/GS/gsave ld
/RC/setrgbcolor ld
/RM/rmoveto ld
/ML/setmiterlimit ld
/re {4 2 roll M
1 index 0 rlineto
0 exch rlineto
neg 0 rlineto
cp } bd
/_ctm matrix def
/_tm matrix def
/BT { _ctm currentmatrix pop matrix _tm copy pop 0 0 moveto } bd
/ET { _ctm setmatrix } bd
/iTm { _ctm setmatrix _tm concat } bd
/Tm { _tm astore pop iTm 0 0 moveto } bd
/ux 0.0 def
/uy 0.0 def
/F {
  /Tp exch def
  /Tf exch def
  Tf findfont Tp scalefont setfont
  /cf Tf def  /cs Tp def
} bd
/ULS {currentpoint /uy exch def /ux exch def} bd
/ULE {
  /Tcx currentpoint pop def
  gsave
  newpath
  cf findfont cs scalefont dup
  /FontMatrix get 0 get /Ts exch def /FontInfo get dup
  /UnderlinePosition get Ts mul /To exch def
  /UnderlineThickness get Ts mul /Tt exch def
  ux uy To add moveto  Tcx uy To add lineto
  Tt setlinewidth stroke
  grestore
} bd
/OLE {
  /Tcx currentpoint pop def
  gsave
  newpath
  cf findfont cs scalefont dup
  /FontMatrix get 0 get /Ts exch def /FontInfo get dup
  /UnderlinePosition get Ts mul /To exch def
  /UnderlineThickness get Ts mul /Tt exch def
  ux uy To add cs add moveto Tcx uy To add cs add lineto
  Tt setlinewidth stroke
  grestore
} bd
/SOE {
  /Tcx currentpoint pop def
  gsave
  newpath
  cf findfont cs scalefont dup
  /FontMatrix get 0 get /Ts exch def /FontInfo get dup
  /UnderlinePosition get Ts mul /To exch def
  /UnderlineThickness get Ts mul /Tt exch def
  ux uy To add cs 10 mul 26 idiv add moveto Tcx uy To add cs 10 mul 26 idiv add lineto
  Tt setlinewidth stroke
  grestore
} bd
/QT {
/Y22 exch store
/X22 exch store
/Y21 exch store
/X21 exch store
currentpoint
/Y21 load 2 mul add 3 div exch
/X21 load 2 mul add 3 div exch
/X21 load 2 mul /X22 load add 3 div
/Y21 load 2 mul /Y22 load add 3 div
/X22 load /Y22 load curveto
} bd
/SSPD {
dup length /d exch dict def
{
/v exch def
/k exch def
currentpagedevice k known {
/cpdv currentpagedevice k get def
v cpdv ne {
/upd false def
/nullv v type /nulltype eq def
/nullcpdv cpdv type /nulltype eq def
nullv nullcpdv or
{
/upd true def
} {
/sametype v type cpdv type eq def
sametype {
v type /arraytype eq {
/vlen v length def
/cpdvlen cpdv length def
vlen cpdvlen eq {
0 1 vlen 1 sub {
/i exch def
/obj v i get def
/cpdobj cpdv i get def
obj cpdobj ne {
/upd true def
exit
} if
} for
} {
/upd true def
} ifelse
} {
v type /dicttype eq {
v {
/dv exch def
/dk exch def
/cpddv cpdv dk get def
dv cpddv ne {
/upd true def
exit
} if
} forall
} {
/upd true def
} ifelse
} ifelse
} if
} ifelse
upd true eq {
d k v put
} if
} if
} if
} forall
d length 0 gt {
d setpagedevice
} if
} bd
/RE { % /NewFontName [NewEncodingArray] /FontName RE -
  findfont dup length dict begin
  {
    1 index /FID ne
    {def} {pop pop} ifelse
  } forall
  /Encoding exch def
  /FontName 1 index def
  currentdict definefont pop
  end
} bind def
%%EndResource
%%BeginResource: procset (Apache XML Graphics EPS ProcSet) 1.0 0
%%Version: 1.0 0
%%Copyright: (Copyright 2002-2003 The Apache Software Foundation. License terms: http://www.apache.org/licenses/LICENSE-2.0)
/BeginEPSF { %def
/b4_Inc_state save def         % Save state for cleanup
/dict_count countdictstack def % Count objects on dict stack
/op_count count 1 sub def      % Count objects on operand stack
userdict begin                 % Push userdict on dict stack
/showpage { } def              % Redefine showpage, { } = null proc
0 setgray 0 setlinecap         % Prepare graphics state
1 setlinewidth 0 setlinejoin
10 setmiterlimit [ ] 0 setdash newpath
/languagelevel where           % If level not equal to 1 then
{pop languagelevel             % set strokeadjust and
1 ne                           % overprint to their defaults.
{false setstrokeadjust false setoverprint
} if
} if
} bd
/EndEPSF { %def
count op_count sub {pop} repeat            % Clean up stacks
countdictstack dict_count sub {end} repeat
b4_Inc_state restore
} bd
%%EndResource
%FOPBeginFontDict
%%IncludeResource: font Courier-Bold
%%IncludeResource: font Helvetica
%%IncludeResource: font Courier-BoldOblique
%%IncludeResource: font Courier-Oblique
%%IncludeResource: font Times-Roman
%%IncludeResource: font Helvetica-BoldOblique
%%IncludeResource: font Helvetica-Bold
%%IncludeResource: font Helvetica-Oblique
%%IncludeResource: font Times-BoldItalic
%%IncludeResource: font Courier
%%IncludeResource: font Times-Italic
%%IncludeResource: font Times-Bold
%%IncludeResource: font Symbol
%%IncludeResource: font ZapfDingbats
%FOPEndFontDict
%%BeginResource: encoding WinAnsiEncoding
/WinAnsiEncoding [
/.notdef /.notdef /.notdef /.notdef /.notdef
/.notdef /.notdef /.notdef /.notdef /.notdef
/.notdef /.notdef /.notdef /.notdef /.notdef
/.notdef /.notdef /.notdef /.notdef /.notdef
/.notdef /.notdef /.notdef /.notdef /.notdef
/.notdef /.notdef /.notdef /.notdef /.notdef
/.notdef /.notdef /space /exclam /quotedbl
/numbersign /dollar /percent /ampersand /quotesingle
/parenleft /parenright /asterisk /plus /comma
/hyphen /period /slash /zero /one
/two /three /four /five /six
/seven /eight /nine /colon /semicolon
/less /equal /greater /question /at
/A /B /C /D /E
/F /G /H /I /J
/K /L /M /N /O
/P /Q /R /S /T
/U /V /W /X /Y
/Z /bracketleft /backslash /bracketright /asciicircum
/underscore /quoteleft /a /b /c
/d /e /f /g /h
/i /j /k /l /m
/n /o /p /q /r
/s /t /u /v /w
/x /y /z /braceleft /bar
/braceright /asciitilde /bullet /Euro /bullet
/quotesinglbase /florin /quotedblbase /ellipsis /dagger
/daggerdbl /circumflex /perthousand /Scaron /guilsinglleft
/OE /bullet /Zcaron /bullet /bullet
/quoteleft /quoteright /quotedblleft /quotedblright /bullet
/endash /emdash /asciitilde /trademark /scaron
/guilsinglright /oe /bullet /zcaron /Ydieresis
/space /exclamdown /cent /sterling /currency
/yen /brokenbar /section /dieresis /copyright
/ordfeminine /guillemotleft /logicalnot /sfthyphen /registered
/macron /degree /plusminus /twosuperior /threesuperior
/acute /mu /paragraph /middot /cedilla
/onesuperior /ordmasculine /guillemotright /onequarter /onehalf
/threequarters /questiondown /Agrave /Aacute /Acircumflex
/Atilde /Adieresis /Aring /AE /Ccedilla
/Egrave /Eacute /Ecircumflex /Edieresis /Igrave
/Iacute /Icircumflex /Idieresis /Eth /Ntilde
/Ograve /Oacute /Ocircumflex /Otilde /Odieresis
/multiply /Oslash /Ugrave /Uacute /Ucircumflex
/Udieresis /Yacute /Thorn /germandbls /agrave
/aacute /acircumflex /atilde /adieresis /aring
/ae /ccedilla /egrave /eacute /ecircumflex
/edieresis /igrave /iacute /icircumflex /idieresis
/eth /ntilde /ograve /oacute /ocircumflex
/otilde /odieresis /divide /oslash /ugrave
/uacute /ucircumflex /udieresis /yacute /thorn
/ydieresis
] def
%%EndResource
%FOPBeginFontReencode
/Courier-Bold findfont
dup length dict begin
  {1 index /FID ne {def} {pop pop} ifelse} forall
  /Encoding WinAnsiEncoding def
  currentdict
end
/Courier-Bold exch definefont pop
/Helvetica findfont
dup length dict begin
  {1 index /FID ne {def} {pop pop} ifelse} forall
  /Encoding WinAnsiEncoding def
  currentdict
end
/Helvetica exch definefont pop
/Courier-BoldOblique findfont
dup length dict begin
  {1 index /FID ne {def} {pop pop} ifelse} forall
  /Encoding WinAnsiEncoding def
  currentdict
end
/Courier-BoldOblique exch definefont pop
/Courier-Oblique findfont
dup length dict begin
  {1 index /FID ne {def} {pop pop} ifelse} forall
  /Encoding WinAnsiEncoding def
  currentdict
end
/Courier-Oblique exch definefont pop
/Times-Roman findfont
dup length dict begin
  {1 index /FID ne {def} {pop pop} ifelse} forall
  /Encoding WinAnsiEncoding def
  currentdict
end
/Times-Roman exch definefont pop
/Helvetica-BoldOblique findfont
dup length dict begin
  {1 index /FID ne {def} {pop pop} ifelse} forall
  /Encoding WinAnsiEncoding def
  currentdict
end
/Helvetica-BoldOblique exch definefont pop
/Helvetica-Bold findfont
dup length dict begin
  {1 index /FID ne {def} {pop pop} ifelse} forall
  /Encoding WinAnsiEncoding def
  currentdict
end
/Helvetica-Bold exch definefont pop
/Helvetica-Oblique findfont
dup length dict begin
  {1 index /FID ne {def} {pop pop} ifelse} forall
  /Encoding WinAnsiEncoding def
  currentdict
end
/Helvetica-Oblique exch definefont pop
/Times-BoldItalic findfont
dup length dict begin
  {1 index /FID ne {def} {pop pop} ifelse} forall
  /Encoding WinAnsiEncoding def
  currentdict
end
/Times-BoldItalic exch definefont pop
/Courier findfont
dup length dict begin
  {1 index /FID ne {def} {pop pop} ifelse} forall
  /Encoding WinAnsiEncoding def
  currentdict
end
/Courier exch definefont pop
/Times-Italic findfont
dup length dict begin
  {1 index /FID ne {def} {pop pop} ifelse} forall
  /Encoding WinAnsiEncoding def
  currentdict
end
/Times-Italic exch definefont pop
/Times-Bold findfont
dup length dict begin
  {1 index /FID ne {def} {pop pop} ifelse} forall
  /Encoding WinAnsiEncoding def
  currentdict
end
/Times-Bold exch definefont pop
%FOPEndFontReencode
%%EndProlog
%%Page: 1 1
%%PageBoundingBox: 0 0 1152 562
%%BeginPageSetup
[1 0 0 -1 0 562] CT
%%EndPageSetup
GS
[0.6 0 0 0.6 0 0.39996] CT
1 GC
N
0 0 1920 936 re
f
GR
GS
[0.6 0 0 0.6 0 0.39996] CT
1 GC
N
0 0 1920 936 re
f
GR
GS
[0.6 0 0 0.6 0 0.39996] CT
1 GC
N
250 833 M
1738 833 L
1738 70 L
250 70 L
cp
f
GR
GS
[0.6 0 0 0.6 0 0.39996] CT
0.149 GC
2 setlinecap
1 LJ
0.833 LW
N
250 833 M
1738 833 L
S
GR
GS
[0.6 0 0 0.6 0 0.39996] CT
0.149 GC
2 setlinecap
1 LJ
0.833 LW
N
250 70 M
1738 70 L
S
GR
GS
[0.6 0 0 0.6 0 0.39996] CT
0.149 GC
2 setlinecap
1 LJ
0.833 LW
N
250 833 M
250 818.12 L
S
GR
GS
[0.6 0 0 0.6 0 0.39996] CT
0.149 GC
2 setlinecap
1 LJ
0.833 LW
N
398.8 833 M
398.8 818.12 L
S
GR
GS
[0.6 0 0 0.6 0 0.39996] CT
0.149 GC
2 setlinecap
1 LJ
0.833 LW
N
547.6 833 M
547.6 818.12 L
S
GR
GS
[0.6 0 0 0.6 0 0.39996] CT
0.149 GC
2 setlinecap
1 LJ
0.833 LW
N
696.4 833 M
696.4 818.12 L
S
GR
GS
[0.6 0 0 0.6 0 0.39996] CT
0.149 GC
2 setlinecap
1 LJ
0.833 LW
N
845.2 833 M
845.2 818.12 L
S
GR
GS
[0.6 0 0 0.6 0 0.39996] CT
0.149 GC
2 setlinecap
1 LJ
0.833 LW
N
994 833 M
994 818.12 L
S
GR
GS
[0.6 0 0 0.6 0 0.39996] CT
0.149 GC
2 setlinecap
1 LJ
0.833 LW
N
1142.8 833 M
1142.8 818.12 L
S
GR
GS
[0.6 0 0 0.6 0 0.39996] CT
0.149 GC
2 setlinecap
1 LJ
0.833 LW
N
1291.6 833 M
1291.6 818.12 L
S
GR
GS
[0.6 0 0 0.6 0 0.39996] CT
0.149 GC
2 setlinecap
1 LJ
0.833 LW
N
1440.4 833 M
1440.4 818.12 L
S
GR
GS
[0.6 0 0 0.6 0 0.39996] CT
0.149 GC
2 setlinecap
1 LJ
0.833 LW
N
1589.2 833 M
1589.2 818.12 L
S
GR
GS
[0.6 0 0 0.6 0 0.39996] CT
0.149 GC
2 setlinecap
1 LJ
0.833 LW
N
1738 833 M
1738 818.12 L
S
GR
GS
[0.6 0 0 0.6 0 0.39996] CT
0.149 GC
2 setlinecap
1 LJ
0.833 LW
N
250 70 M
250 84.88 L
S
GR
GS
[0.6 0 0 0.6 0 0.39996] CT
0.149 GC
2 setlinecap
1 LJ
0.833 LW
N
398.8 70 M
398.8 84.88 L
S
GR
GS
[0.6 0 0 0.6 0 0.39996] CT
0.149 GC
2 setlinecap
1 LJ
0.833 LW
N
547.6 70 M
547.6 84.88 L
S
GR
GS
[0.6 0 0 0.6 0 0.39996] CT
0.149 GC
2 setlinecap
1 LJ
0.833 LW
N
696.4 70 M
696.4 84.88 L
S
GR
GS
[0.6 0 0 0.6 0 0.39996] CT
0.149 GC
2 setlinecap
1 LJ
0.833 LW
N
845.2 70 M
845.2 84.88 L
S
GR
GS
[0.6 0 0 0.6 0 0.39996] CT
0.149 GC
2 setlinecap
1 LJ
0.833 LW
N
994 70 M
994 84.88 L
S
GR
GS
[0.6 0 0 0.6 0 0.39996] CT
0.149 GC
2 setlinecap
1 LJ
0.833 LW
N
1142.8 70 M
1142.8 84.88 L
S
GR
GS
[0.6 0 0 0.6 0 0.39996] CT
0.149 GC
2 setlinecap
1 LJ
0.833 LW
N
1291.6 70 M
1291.6 84.88 L
S
GR
GS
[0.6 0 0 0.6 0 0.39996] CT
0.149 GC
2 setlinecap
1 LJ
0.833 LW
N
1440.4 70 M
1440.4 84.88 L
S
GR
GS
[0.6 0 0 0.6 0 0.39996] CT
0.149 GC
2 setlinecap
1 LJ
0.833 LW
N
1589.2 70 M
1589.2 84.88 L
S
GR
GS
[0.6 0 0 0.6 0 0.39996] CT
0.149 GC
2 setlinecap
1 LJ
0.833 LW
N
1738 70 M
1738 84.88 L
S
GR
GS
[0.6 0 0 0.6 150 504.20001] CT
0.149 GC
/Helvetica 16.667 F
GS
[1 0 0 1 0 0] CT
-5 18 moveto 
1 -1 scale
(0) t 
GR
GR
GS
[0.6 0 0 0.6 239.27999 504.20001] CT
0.149 GC
/Helvetica 16.667 F
GS
[1 0 0 1 0 0] CT
-9.5 18 moveto 
1 -1 scale
(10) t 
GR
GR
GS
[0.6 0 0 0.6 328.55999 504.20001] CT
0.149 GC
/Helvetica 16.667 F
GS
[1 0 0 1 0 0] CT
-9.5 18 moveto 
1 -1 scale
(20) t 
GR
GR
GS
[0.6 0 0 0.6 417.84001 504.20001] CT
0.149 GC
/Helvetica 16.667 F
GS
[1 0 0 1 0 0] CT
-9.5 18 moveto 
1 -1 scale
(30) t 
GR
GR
GS
[0.6 0 0 0.6 507.12001 504.20001] CT
0.149 GC
/Helvetica 16.667 F
GS
[1 0 0 1 0 0] CT
-9.5 18 moveto 
1 -1 scale
(40) t 
GR
GR
GS
[0.6 0 0 0.6 596.4 504.20001] CT
0.149 GC
/Helvetica 16.667 F
GS
[1 0 0 1 0 0] CT
-9.5 18 moveto 
1 -1 scale
(50) t 
GR
GR
GS
[0.6 0 0 0.6 685.68003 504.20001] CT
0.149 GC
/Helvetica 16.667 F
GS
[1 0 0 1 0 0] CT
-9.5 18 moveto 
1 -1 scale
(60) t 
GR
GR
GS
[0.6 0 0 0.6 774.95999 504.20001] CT
0.149 GC
/Helvetica 16.667 F
GS
[1 0 0 1 0 0] CT
-9.5 18 moveto 
1 -1 scale
(70) t 
GR
GR
GS
[0.6 0 0 0.6 864.24001 504.20001] CT
0.149 GC
/Helvetica 16.667 F
GS
[1 0 0 1 0 0] CT
-9.5 18 moveto 
1 -1 scale
(80) t 
GR
GR
GS
[0.6 0 0 0.6 953.51997 504.20001] CT
0.149 GC
/Helvetica 16.667 F
GS
[1 0 0 1 0 0] CT
-9.5 18 moveto 
1 -1 scale
(90) t 
GR
GR
GS
[0.6 0 0 0.6 1042.8 504.20001] CT
0.149 GC
/Helvetica 16.667 F
GS
[1 0 0 1 0 0] CT
-14.5 18 moveto 
1 -1 scale
(100) t 
GR
GR
GS
[0.6 0 0 0.6 596.4004 518.40002] CT
0.149 GC
/Helvetica 18.333 F
GS
[1 0 0 1 0 0] CT
-23.5 19 moveto 
1 -1 scale
(Order) t 
GR
GR
GS
[0.6 0 0 0.6 0 0.39996] CT
0.149 GC
2 setlinecap
1 LJ
0.833 LW
N
250 833 M
250 70 L
S
GR
GS
[0.6 0 0 0.6 0 0.39996] CT
0.149 GC
2 setlinecap
1 LJ
0.833 LW
N
1738 833 M
1738 70 L
S
GR
GS
[0.6 0 0 0.6 0 0.39996] CT
0.149 GC
2 setlinecap
1 LJ
0.833 LW
N
250 833 M
264.88 833 L
S
GR
GS
[0.6 0 0 0.6 0 0.39996] CT
0.149 GC
2 setlinecap
1 LJ
0.833 LW
N
250 756.7 M
264.88 756.7 L
S
GR
GS
[0.6 0 0 0.6 0 0.39996] CT
0.149 GC
2 setlinecap
1 LJ
0.833 LW
N
250 680.4 M
264.88 680.4 L
S
GR
GS
[0.6 0 0 0.6 0 0.39996] CT
0.149 GC
2 setlinecap
1 LJ
0.833 LW
N
250 604.1 M
264.88 604.1 L
S
GR
GS
[0.6 0 0 0.6 0 0.39996] CT
0.149 GC
2 setlinecap
1 LJ
0.833 LW
N
250 527.8 M
264.88 527.8 L
S
GR
GS
[0.6 0 0 0.6 0 0.39996] CT
0.149 GC
2 setlinecap
1 LJ
0.833 LW
N
250 451.5 M
264.88 451.5 L
S
GR
GS
[0.6 0 0 0.6 0 0.39996] CT
0.149 GC
2 setlinecap
1 LJ
0.833 LW
N
250 375.2 M
264.88 375.2 L
S
GR
GS
[0.6 0 0 0.6 0 0.39996] CT
0.149 GC
2 setlinecap
1 LJ
0.833 LW
N
250 298.9 M
264.88 298.9 L
S
GR
GS
[0.6 0 0 0.6 0 0.39996] CT
0.149 GC
2 setlinecap
1 LJ
0.833 LW
N
250 222.6 M
264.88 222.6 L
S
GR
GS
[0.6 0 0 0.6 0 0.39996] CT
0.149 GC
2 setlinecap
1 LJ
0.833 LW
N
250 146.3 M
264.88 146.3 L
S
GR
GS
[0.6 0 0 0.6 0 0.39996] CT
0.149 GC
2 setlinecap
1 LJ
0.833 LW
N
250 70 M
264.88 70 L
S
GR
GS
[0.6 0 0 0.6 0 0.39996] CT
0.149 GC
2 setlinecap
1 LJ
0.833 LW
N
1738 833 M
1723.12 833 L
S
GR
GS
[0.6 0 0 0.6 0 0.39996] CT
0.149 GC
2 setlinecap
1 LJ
0.833 LW
N
1738 756.7 M
1723.12 756.7 L
S
GR
GS
[0.6 0 0 0.6 0 0.39996] CT
0.149 GC
2 setlinecap
1 LJ
0.833 LW
N
1738 680.4 M
1723.12 680.4 L
S
GR
GS
[0.6 0 0 0.6 0 0.39996] CT
0.149 GC
2 setlinecap
1 LJ
0.833 LW
N
1738 604.1 M
1723.12 604.1 L
S
GR
GS
[0.6 0 0 0.6 0 0.39996] CT
0.149 GC
2 setlinecap
1 LJ
0.833 LW
N
1738 527.8 M
1723.12 527.8 L
S
GR
GS
[0.6 0 0 0.6 0 0.39996] CT
0.149 GC
2 setlinecap
1 LJ
0.833 LW
N
1738 451.5 M
1723.12 451.5 L
S
GR
GS
[0.6 0 0 0.6 0 0.39996] CT
0.149 GC
2 setlinecap
1 LJ
0.833 LW
N
1738 375.2 M
1723.12 375.2 L
S
GR
GS
[0.6 0 0 0.6 0 0.39996] CT
0.149 GC
2 setlinecap
1 LJ
0.833 LW
N
1738 298.9 M
1723.12 298.9 L
S
GR
GS
[0.6 0 0 0.6 0 0.39996] CT
0.149 GC
2 setlinecap
1 LJ
0.833 LW
N
1738 222.6 M
1723.12 222.6 L
S
GR
GS
[0.6 0 0 0.6 0 0.39996] CT
0.149 GC
2 setlinecap
1 LJ
0.833 LW
N
1738 146.3 M
1723.12 146.3 L
S
GR
GS
[0.6 0 0 0.6 0 0.39996] CT
0.149 GC
2 setlinecap
1 LJ
0.833 LW
N
1738 70 M
1723.12 70 L
S
GR
GS
[0.6 0 0 0.6 146 500.2] CT
0.149 GC
/Helvetica 16.667 F
GS
[1 0 0 1 0 0] CT
-24 7 moveto 
1 -1 scale
(0.7) t 
GR
GR
GS
[0.6 0 0 0.6 146 454.42] CT
0.149 GC
/Helvetica 16.667 F
GS
[1 0 0 1 0 0] CT
-34 7 moveto 
1 -1 scale
(0.75) t 
GR
GR
GS
[0.6 0 0 0.6 146 408.63997] CT
0.149 GC
/Helvetica 16.667 F
GS
[1 0 0 1 0 0] CT
-24 7 moveto 
1 -1 scale
(0.8) t 
GR
GR
GS
[0.6 0 0 0.6 146 362.85997] CT
0.149 GC
/Helvetica 16.667 F
GS
[1 0 0 1 0 0] CT
-34 7 moveto 
1 -1 scale
(0.85) t 
GR
GR
GS
[0.6 0 0 0.6 146 317.08001] CT
0.149 GC
/Helvetica 16.667 F
GS
[1 0 0 1 0 0] CT
-24 7 moveto 
1 -1 scale
(0.9) t 
GR
GR
GS
[0.6 0 0 0.6 146 271.3] CT
0.149 GC
/Helvetica 16.667 F
GS
[1 0 0 1 0 0] CT
-34 7 moveto 
1 -1 scale
(0.95) t 
GR
GR
GS
[0.6 0 0 0.6 146 225.51999] CT
0.149 GC
/Helvetica 16.667 F
GS
[1 0 0 1 0 0] CT
-10 7 moveto 
1 -1 scale
(1) t 
GR
GR
GS
[0.6 0 0 0.6 146 179.74003] CT
0.149 GC
/Helvetica 16.667 F
GS
[1 0 0 1 0 0] CT
-34 7 moveto 
1 -1 scale
(1.05) t 
GR
GR
GS
[0.6 0 0 0.6 146 133.95995] CT
0.149 GC
/Helvetica 16.667 F
GS
[1 0 0 1 0 0] CT
-24 7 moveto 
1 -1 scale
(1.1) t 
GR
GR
GS
[0.6 0 0 0.6 146 88.17999] CT
0.149 GC
/Helvetica 16.667 F
GS
[1 0 0 1 0 0] CT
-34 7 moveto 
1 -1 scale
(1.15) t 
GR
GR
GS
[0.6 0 0 0.6 146 42.39992] CT
0.149 GC
/Helvetica 16.667 F
GS
[1 0 0 1 0 0] CT
-24 7 moveto 
1 -1 scale
(1.2) t 
GR
GR
GS
[0 -0.6 0.6 0 122.6 271.29972] CT
0.149 GC
/Helvetica 18.333 F
GS
[1 0 0 1 0 0] CT
-19 -4 moveto 
1 -1 scale
(Cost) t 
GR
GR
GS
[0.6 0 0 0.6 509.4 32.79997] CT
/Helvetica-Bold 18.333 F
GS
[1 0 0 1 0 0] CT
0 0 moveto 
1 -1 scale
(Cost functions V) t 
GR
GR
GS
[0.6 0 0 0.6 595.2 38.19997] CT
/Helvetica-Bold 14.667 F
GS
[1 0 0 1 0 0] CT
0 0 moveto 
1 -1 scale
(est) t 
GR
GR
GS
[0.6 0 0 0.6 608.4 32.79997] CT
/Helvetica-Bold 18.333 F
GS
[1 0 0 1 0 0] CT
0 0 moveto 
1 -1 scale
(, V) t 
GR
GR
GS
[0.6 0 0 0.6 622.2 38.19997] CT
/Helvetica-Bold 14.667 F
GS
[1 0 0 1 0 0] CT
0 0 moveto 
1 -1 scale
(val) t 
GR
GR
GS
[0.6 0 0 0.6 634.8 32.79997] CT
/Helvetica-Bold 18.333 F
GS
[1 0 0 1 0 0] CT
0 0 moveto 
1 -1 scale
( and V) t 
GR
GR
GS
[0.6 0 0 0.6 667.8 38.19997] CT
/Helvetica-Bold 14.667 F
GS
[1 0 0 1 0 0] CT
0 0 moveto 
1 -1 scale
(AIC) t 
GR
GR
GS
[0.6 0 0 0.6 0 0.39996] CT
0 0.447 0.741 RC
1 LJ
0.833 LW
N
363.4 69.909 M
369.04 201.764 L
383.92 219.084 L
398.8 243.571 L
413.68 241.847 L
428.56 282.178 L
443.44 287.611 L
458.32 323.374 L
473.2 327.588 L
488.08 327.979 L
502.96 327.313 L
517.84 327.515 L
532.72 343.69 L
547.6 342.339 L
562.48 348.956 L
577.36 348.117 L
592.24 348.155 L
607.12 347.137 L
622 349.109 L
636.88 349.679 L
651.76 349.834 L
666.64 347.971 L
681.52 343.274 L
696.4 342.852 L
711.28 342.847 L
726.16 341.416 L
741.04 341.45 L
755.92 334.746 L
770.8 332.943 L
785.68 332.871 L
800.56 329.363 L
815.44 326.689 L
830.32 327.007 L
845.2 324.929 L
860.08 324.221 L
874.96 324.27 L
889.84 322.952 L
904.72 322.765 L
919.6 322.744 L
934.48 322.7 L
949.36 322.681 L
964.24 323.377 L
979.12 322.784 L
994 309.495 L
1008.88 309.538 L
1023.76 309.218 L
1038.64 307.777 L
1053.52 304.851 L
1068.4 295.703 L
1083.28 285.747 L
1098.16 285.873 L
1113.04 285.084 L
1127.92 285.149 L
1142.8 281.661 L
1157.68 280.744 L
1172.56 263.321 L
1187.44 259.644 L
1202.32 259.358 L
1217.2 259.499 L
1232.08 259.513 L
1246.96 257.091 L
1261.84 256.277 L
1276.72 255.308 L
1291.6 255.888 L
1306.48 240.619 L
1321.36 234.199 L
1336.24 233.684 L
1351.12 233.117 L
1366 232.802 L
1380.88 232.906 L
1395.76 230.927 L
1410.64 230.452 L
1425.52 228.478 L
1440.4 224.857 L
1455.28 223.26 L
1470.16 222.646 L
1485.04 223.994 L
1499.92 223.792 L
1514.8 221.806 L
1529.68 221.824 L
1544.56 213.332 L
1559.44 214.596 L
1574.32 203.894 L
1589.2 203.365 L
1604.08 200.051 L
1618.96 199.853 L
1633.84 200.595 L
1648.72 200.82 L
1663.6 200.357 L
1678.48 199.835 L
1693.36 199.856 L
1708.24 199.927 L
1723.12 200.071 L
1738 200.355 L
S
GR
GS
[0.6 0 0 0.6 0 0.39996] CT
0.851 0.325 0.098 RC
1 LJ
0.833 LW
N
365.973 69.909 M
369.04 145.109 L
383.92 154.568 L
398.8 173.478 L
413.68 174.028 L
428.56 203.937 L
443.44 206.663 L
458.32 260.872 L
473.2 271.392 L
488.08 271.411 L
502.96 272.552 L
517.84 272.562 L
532.72 295.566 L
547.6 299.728 L
562.48 307.557 L
577.36 308.22 L
592.24 308.226 L
607.12 309.059 L
622 310.321 L
636.88 310.357 L
651.76 310.366 L
666.64 310.667 L
681.52 314.089 L
696.4 314.347 L
711.28 314.363 L
726.16 316.493 L
741.04 316.518 L
755.92 320.308 L
770.8 321.194 L
785.68 321.621 L
800.56 326.413 L
815.44 329.228 L
830.32 329.395 L
845.2 331.268 L
860.08 332.113 L
874.96 333.435 L
889.84 334.386 L
904.72 335.663 L
919.6 335.713 L
934.48 335.72 L
949.36 335.808 L
964.24 336.458 L
979.12 338.613 L
994 348.672 L
1008.88 348.682 L
1023.76 348.926 L
1038.64 350.251 L
1053.52 354.418 L
1068.4 359.699 L
1083.28 365.907 L
1098.16 365.954 L
1113.04 367.711 L
1127.92 367.715 L
1142.8 369.657 L
1157.68 370.093 L
1172.56 382.211 L
1187.44 385.3 L
1202.32 386.032 L
1217.2 386.137 L
1232.08 386.147 L
1246.96 390.072 L
1261.84 390.917 L
1276.72 391.495 L
1291.6 392.29 L
1306.48 405.139 L
1321.36 409.46 L
1336.24 409.553 L
1351.12 410.176 L
1366 410.508 L
1380.88 410.535 L
1395.76 411.954 L
1410.64 412.372 L
1425.52 417.209 L
1440.4 420.701 L
1455.28 422.493 L
1470.16 422.605 L
1485.04 422.976 L
1499.92 423.242 L
1514.8 425.213 L
1529.68 425.214 L
1544.56 430.681 L
1559.44 431.217 L
1574.32 438.541 L
1589.2 438.632 L
1604.08 439.537 L
1618.96 439.79 L
1633.84 440.898 L
1648.72 440.965 L
1663.6 441.098 L
1678.48 443.636 L
1693.36 443.644 L
1708.24 443.982 L
1723.12 445.31 L
1738 445.371 L
S
GR
GS
[0.6 0 0 0.6 0 0.39996] CT
0.929 0.694 0.125 RC
1 LJ
0.833 LW
N
367.127 69.909 M
369.04 117.011 L
383.92 123.129 L
398.8 138.924 L
413.68 136.03 L
428.56 163.203 L
443.44 162.605 L
458.32 214.943 L
473.2 222.498 L
488.08 219.258 L
502.96 217.177 L
517.84 213.931 L
532.72 234.552 L
547.6 235.67 L
562.48 240.624 L
577.36 238.129 L
592.24 234.949 L
607.12 232.637 L
622 230.778 L
636.88 227.633 L
651.76 224.461 L
666.64 221.597 L
681.52 222.037 L
696.4 219.136 L
711.28 215.98 L
726.16 215.072 L
741.04 211.929 L
755.92 212.808 L
770.8 210.593 L
785.68 207.892 L
800.56 209.879 L
815.44 209.758 L
830.32 206.794 L
845.2 205.673 L
860.08 203.447 L
874.96 201.743 L
889.84 199.64 L
904.72 197.896 L
919.6 194.819 L
934.48 191.696 L
949.36 188.661 L
964.24 186.243 L
979.12 185.479 L
994 193.419 L
1008.88 190.325 L
1023.76 187.489 L
1038.64 185.85 L
1053.52 187.366 L
1068.4 190.134 L
1083.28 193.954 L
1098.16 190.935 L
1113.04 189.826 L
1127.92 186.763 L
1142.8 185.872 L
1157.68 183.298 L
1172.56 193.857 L
1187.44 194.297 L
1202.32 192.091 L
1217.2 189.178 L
1232.08 186.16 L
1246.96 187.581 L
1261.84 185.519 L
1276.72 183.156 L
1291.6 181.043 L
1306.48 192.699 L
1321.36 194.65 L
1336.24 191.773 L
1351.12 189.504 L
1366 186.904 L
1380.88 183.954 L
1395.76 182.61 L
1410.64 180.115 L
1425.52 182.738 L
1440.4 183.821 L
1455.28 182.943 L
1470.16 180.115 L
1485.04 177.591 L
1499.92 174.946 L
1514.8 174.295 L
1529.68 171.344 L
1544.56 174.811 L
1559.44 172.5 L
1574.32 178.188 L
1589.2 175.369 L
1604.08 173.515 L
1618.96 170.891 L
1633.84 169.282 L
1648.72 166.441 L
1663.6 163.678 L
1678.48 163.783 L
1693.36 160.878 L
1708.24 158.367 L
1723.12 157.044 L
1738 154.206 L
S
GR
GS
[0.6 0 0 0.6 0 0.39996] CT
1 GC
N
1638 171 M
1638 87 L
1721 87 L
1721 171 L
cp
f
GR
GS
[0.6 0 0 0.6 1010.4 63.39997] CT
/Helvetica 15 F
GS
[1 0 0 1 0 0] CT
0 0 moveto 
1 -1 scale
(V) t 
GR
GR
GS
[0.6 0 0 0.6 1017 67.59997] CT
/Helvetica 12 F
GS
[1 0 0 1 0 0] CT
0 0 moveto 
1 -1 scale
(val) t 
GR
GR
GS
[0.6 0 0 0.6 0 0.39996] CT
0 0.447 0.741 RC
1 LJ
0.833 LW
N
1642.985 102.454 M
1680.372 102.454 L
S
GR
GS
[0.6 0 0 0.6 1010.4 79.59997] CT
/Helvetica 15 F
GS
[1 0 0 1 0 0] CT
0 0 moveto 
1 -1 scale
(V) t 
GR
GR
GS
[0.6 0 0 0.6 1017 83.79997] CT
/Helvetica 12 F
GS
[1 0 0 1 0 0] CT
0 0 moveto 
1 -1 scale
(est) t 
GR
GR
GS
[0.6 0 0 0.6 0 0.39996] CT
0.851 0.325 0.098 RC
1 LJ
0.833 LW
N
1642.985 129 M
1680.372 129 L
S
GR
GS
[0.6 0 0 0.6 1010.4 95.79997] CT
/Helvetica 15 F
GS
[1 0 0 1 0 0] CT
0 0 moveto 
1 -1 scale
(V) t 
GR
GR
GS
[0.6 0 0 0.6 1017 99.99997] CT
/Helvetica 12 F
GS
[1 0 0 1 0 0] CT
0 0 moveto 
1 -1 scale
(AIC) t 
GR
GR
GS
[0.6 0 0 0.6 0 0.39996] CT
0.929 0.694 0.125 RC
1 LJ
0.833 LW
N
1642.985 155.546 M
1680.372 155.546 L
S
GR
GS
[0.6 0 0 0.6 0 0.39996] CT
0.149 GC
10.0 ML
0.833 LW
N
1638 171 M
1638 87 L
1721 87 L
1721 171 L
cp
S
GR
%%Trailer
%%Pages: 1
%%EOF
