%!PS-Adobe-3.0 EPSF-3.0
%%Creator: (MATLAB, The Mathworks, Inc. Version 9.1.0.441655 \(R2016b\). Operating System: Linux)
%%Title: (/home/hannes/WIT/SI/session 1/system-identification/Report/frfexp2.eps)
%%CreationDate: 2016-11-22T11:21:47
%%Pages: (atend)
%%BoundingBox: 0 0 571 398
%%LanguageLevel: 3
%%EndComments
%%BeginProlog
%%BeginResource: procset (Apache XML Graphics Std ProcSet) 1.2 0
%%Version: 1.2 0
%%Copyright: (Copyright 2001-2003,2010 The Apache Software Foundation. License terms: http://www.apache.org/licenses/LICENSE-2.0)
/bd{bind def}bind def
/ld{load def}bd
/GR/grestore ld
/M/moveto ld
/LJ/setlinejoin ld
/C/curveto ld
/f/fill ld
/LW/setlinewidth ld
/GC/setgray ld
/t/show ld
/N/newpath ld
/CT/concat ld
/cp/closepath ld
/S/stroke ld
/L/lineto ld
/CC/setcmykcolor ld
/A/ashow ld
/GS/gsave ld
/RC/setrgbcolor ld
/RM/rmoveto ld
/ML/setmiterlimit ld
/re {4 2 roll M
1 index 0 rlineto
0 exch rlineto
neg 0 rlineto
cp } bd
/_ctm matrix def
/_tm matrix def
/BT { _ctm currentmatrix pop matrix _tm copy pop 0 0 moveto } bd
/ET { _ctm setmatrix } bd
/iTm { _ctm setmatrix _tm concat } bd
/Tm { _tm astore pop iTm 0 0 moveto } bd
/ux 0.0 def
/uy 0.0 def
/F {
  /Tp exch def
  /Tf exch def
  Tf findfont Tp scalefont setfont
  /cf Tf def  /cs Tp def
} bd
/ULS {currentpoint /uy exch def /ux exch def} bd
/ULE {
  /Tcx currentpoint pop def
  gsave
  newpath
  cf findfont cs scalefont dup
  /FontMatrix get 0 get /Ts exch def /FontInfo get dup
  /UnderlinePosition get Ts mul /To exch def
  /UnderlineThickness get Ts mul /Tt exch def
  ux uy To add moveto  Tcx uy To add lineto
  Tt setlinewidth stroke
  grestore
} bd
/OLE {
  /Tcx currentpoint pop def
  gsave
  newpath
  cf findfont cs scalefont dup
  /FontMatrix get 0 get /Ts exch def /FontInfo get dup
  /UnderlinePosition get Ts mul /To exch def
  /UnderlineThickness get Ts mul /Tt exch def
  ux uy To add cs add moveto Tcx uy To add cs add lineto
  Tt setlinewidth stroke
  grestore
} bd
/SOE {
  /Tcx currentpoint pop def
  gsave
  newpath
  cf findfont cs scalefont dup
  /FontMatrix get 0 get /Ts exch def /FontInfo get dup
  /UnderlinePosition get Ts mul /To exch def
  /UnderlineThickness get Ts mul /Tt exch def
  ux uy To add cs 10 mul 26 idiv add moveto Tcx uy To add cs 10 mul 26 idiv add lineto
  Tt setlinewidth stroke
  grestore
} bd
/QT {
/Y22 exch store
/X22 exch store
/Y21 exch store
/X21 exch store
currentpoint
/Y21 load 2 mul add 3 div exch
/X21 load 2 mul add 3 div exch
/X21 load 2 mul /X22 load add 3 div
/Y21 load 2 mul /Y22 load add 3 div
/X22 load /Y22 load curveto
} bd
/SSPD {
dup length /d exch dict def
{
/v exch def
/k exch def
currentpagedevice k known {
/cpdv currentpagedevice k get def
v cpdv ne {
/upd false def
/nullv v type /nulltype eq def
/nullcpdv cpdv type /nulltype eq def
nullv nullcpdv or
{
/upd true def
} {
/sametype v type cpdv type eq def
sametype {
v type /arraytype eq {
/vlen v length def
/cpdvlen cpdv length def
vlen cpdvlen eq {
0 1 vlen 1 sub {
/i exch def
/obj v i get def
/cpdobj cpdv i get def
obj cpdobj ne {
/upd true def
exit
} if
} for
} {
/upd true def
} ifelse
} {
v type /dicttype eq {
v {
/dv exch def
/dk exch def
/cpddv cpdv dk get def
dv cpddv ne {
/upd true def
exit
} if
} forall
} {
/upd true def
} ifelse
} ifelse
} if
} ifelse
upd true eq {
d k v put
} if
} if
} if
} forall
d length 0 gt {
d setpagedevice
} if
} bd
/RE { % /NewFontName [NewEncodingArray] /FontName RE -
  findfont dup length dict begin
  {
    1 index /FID ne
    {def} {pop pop} ifelse
  } forall
  /Encoding exch def
  /FontName 1 index def
  currentdict definefont pop
  end
} bind def
%%EndResource
%%BeginResource: procset (Apache XML Graphics EPS ProcSet) 1.0 0
%%Version: 1.0 0
%%Copyright: (Copyright 2002-2003 The Apache Software Foundation. License terms: http://www.apache.org/licenses/LICENSE-2.0)
/BeginEPSF { %def
/b4_Inc_state save def         % Save state for cleanup
/dict_count countdictstack def % Count objects on dict stack
/op_count count 1 sub def      % Count objects on operand stack
userdict begin                 % Push userdict on dict stack
/showpage { } def              % Redefine showpage, { } = null proc
0 setgray 0 setlinecap         % Prepare graphics state
1 setlinewidth 0 setlinejoin
10 setmiterlimit [ ] 0 setdash newpath
/languagelevel where           % If level not equal to 1 then
{pop languagelevel             % set strokeadjust and
1 ne                           % overprint to their defaults.
{false setstrokeadjust false setoverprint
} if
} if
} bd
/EndEPSF { %def
count op_count sub {pop} repeat            % Clean up stacks
countdictstack dict_count sub {end} repeat
b4_Inc_state restore
} bd
%%EndResource
%FOPBeginFontDict
%%IncludeResource: font Courier-Bold
%%IncludeResource: font Helvetica
%%IncludeResource: font Courier-BoldOblique
%%IncludeResource: font Courier-Oblique
%%IncludeResource: font Times-Roman
%%IncludeResource: font Helvetica-BoldOblique
%%IncludeResource: font Helvetica-Bold
%%IncludeResource: font Helvetica-Oblique
%%IncludeResource: font Times-BoldItalic
%%IncludeResource: font Courier
%%IncludeResource: font Times-Italic
%%IncludeResource: font Times-Bold
%%IncludeResource: font Symbol
%%IncludeResource: font ZapfDingbats
%FOPEndFontDict
%%BeginResource: encoding WinAnsiEncoding
/WinAnsiEncoding [
/.notdef /.notdef /.notdef /.notdef /.notdef
/.notdef /.notdef /.notdef /.notdef /.notdef
/.notdef /.notdef /.notdef /.notdef /.notdef
/.notdef /.notdef /.notdef /.notdef /.notdef
/.notdef /.notdef /.notdef /.notdef /.notdef
/.notdef /.notdef /.notdef /.notdef /.notdef
/.notdef /.notdef /space /exclam /quotedbl
/numbersign /dollar /percent /ampersand /quotesingle
/parenleft /parenright /asterisk /plus /comma
/hyphen /period /slash /zero /one
/two /three /four /five /six
/seven /eight /nine /colon /semicolon
/less /equal /greater /question /at
/A /B /C /D /E
/F /G /H /I /J
/K /L /M /N /O
/P /Q /R /S /T
/U /V /W /X /Y
/Z /bracketleft /backslash /bracketright /asciicircum
/underscore /quoteleft /a /b /c
/d /e /f /g /h
/i /j /k /l /m
/n /o /p /q /r
/s /t /u /v /w
/x /y /z /braceleft /bar
/braceright /asciitilde /bullet /Euro /bullet
/quotesinglbase /florin /quotedblbase /ellipsis /dagger
/daggerdbl /circumflex /perthousand /Scaron /guilsinglleft
/OE /bullet /Zcaron /bullet /bullet
/quoteleft /quoteright /quotedblleft /quotedblright /bullet
/endash /emdash /asciitilde /trademark /scaron
/guilsinglright /oe /bullet /zcaron /Ydieresis
/space /exclamdown /cent /sterling /currency
/yen /brokenbar /section /dieresis /copyright
/ordfeminine /guillemotleft /logicalnot /sfthyphen /registered
/macron /degree /plusminus /twosuperior /threesuperior
/acute /mu /paragraph /middot /cedilla
/onesuperior /ordmasculine /guillemotright /onequarter /onehalf
/threequarters /questiondown /Agrave /Aacute /Acircumflex
/Atilde /Adieresis /Aring /AE /Ccedilla
/Egrave /Eacute /Ecircumflex /Edieresis /Igrave
/Iacute /Icircumflex /Idieresis /Eth /Ntilde
/Ograve /Oacute /Ocircumflex /Otilde /Odieresis
/multiply /Oslash /Ugrave /Uacute /Ucircumflex
/Udieresis /Yacute /Thorn /germandbls /agrave
/aacute /acircumflex /atilde /adieresis /aring
/ae /ccedilla /egrave /eacute /ecircumflex
/edieresis /igrave /iacute /icircumflex /idieresis
/eth /ntilde /ograve /oacute /ocircumflex
/otilde /odieresis /divide /oslash /ugrave
/uacute /ucircumflex /udieresis /yacute /thorn
/ydieresis
] def
%%EndResource
%FOPBeginFontReencode
/Courier-Bold findfont
dup length dict begin
  {1 index /FID ne {def} {pop pop} ifelse} forall
  /Encoding WinAnsiEncoding def
  currentdict
end
/Courier-Bold exch definefont pop
/Helvetica findfont
dup length dict begin
  {1 index /FID ne {def} {pop pop} ifelse} forall
  /Encoding WinAnsiEncoding def
  currentdict
end
/Helvetica exch definefont pop
/Courier-BoldOblique findfont
dup length dict begin
  {1 index /FID ne {def} {pop pop} ifelse} forall
  /Encoding WinAnsiEncoding def
  currentdict
end
/Courier-BoldOblique exch definefont pop
/Courier-Oblique findfont
dup length dict begin
  {1 index /FID ne {def} {pop pop} ifelse} forall
  /Encoding WinAnsiEncoding def
  currentdict
end
/Courier-Oblique exch definefont pop
/Times-Roman findfont
dup length dict begin
  {1 index /FID ne {def} {pop pop} ifelse} forall
  /Encoding WinAnsiEncoding def
  currentdict
end
/Times-Roman exch definefont pop
/Helvetica-BoldOblique findfont
dup length dict begin
  {1 index /FID ne {def} {pop pop} ifelse} forall
  /Encoding WinAnsiEncoding def
  currentdict
end
/Helvetica-BoldOblique exch definefont pop
/Helvetica-Bold findfont
dup length dict begin
  {1 index /FID ne {def} {pop pop} ifelse} forall
  /Encoding WinAnsiEncoding def
  currentdict
end
/Helvetica-Bold exch definefont pop
/Helvetica-Oblique findfont
dup length dict begin
  {1 index /FID ne {def} {pop pop} ifelse} forall
  /Encoding WinAnsiEncoding def
  currentdict
end
/Helvetica-Oblique exch definefont pop
/Times-BoldItalic findfont
dup length dict begin
  {1 index /FID ne {def} {pop pop} ifelse} forall
  /Encoding WinAnsiEncoding def
  currentdict
end
/Times-BoldItalic exch definefont pop
/Courier findfont
dup length dict begin
  {1 index /FID ne {def} {pop pop} ifelse} forall
  /Encoding WinAnsiEncoding def
  currentdict
end
/Courier exch definefont pop
/Times-Italic findfont
dup length dict begin
  {1 index /FID ne {def} {pop pop} ifelse} forall
  /Encoding WinAnsiEncoding def
  currentdict
end
/Times-Italic exch definefont pop
/Times-Bold findfont
dup length dict begin
  {1 index /FID ne {def} {pop pop} ifelse} forall
  /Encoding WinAnsiEncoding def
  currentdict
end
/Times-Bold exch definefont pop
%FOPEndFontReencode
%%EndProlog
%%Page: 1 1
%%PageBoundingBox: 0 0 571 398
%%BeginPageSetup
[1 0 0 -1 0 398] CT
%%EndPageSetup
GS
[0.75 0 0 0.75 0 -0.25] CT
1 GC
N
0 0 761 531 re
f
GR
GS
[0.75 0 0 0.75 0 -0.25] CT
1 GC
N
0 0 761 531 re
f
GR
GS
[0.75 0 0 0.75 0 -0.25] CT
1 GC
N
99 473 M
689 473 L
689 40 L
99 40 L
cp
f
GR
GS
[0.75 0 0 0.75 0 -0.25] CT
0.149 GC
2 setlinecap
1 LJ
0.667 LW
N
99 473 M
689 473 L
S
GR
GS
[0.75 0 0 0.75 0 -0.25] CT
0.149 GC
2 setlinecap
1 LJ
0.667 LW
N
99 40 M
689 40 L
S
GR
GS
[0.75 0 0 0.75 0 -0.25] CT
0.149 GC
2 setlinecap
1 LJ
0.667 LW
N
99 473 M
99 467.1 L
S
GR
GS
[0.75 0 0 0.75 0 -0.25] CT
0.149 GC
2 setlinecap
1 LJ
0.667 LW
N
158 473 M
158 467.1 L
S
GR
GS
[0.75 0 0 0.75 0 -0.25] CT
0.149 GC
2 setlinecap
1 LJ
0.667 LW
N
217 473 M
217 467.1 L
S
GR
GS
[0.75 0 0 0.75 0 -0.25] CT
0.149 GC
2 setlinecap
1 LJ
0.667 LW
N
276 473 M
276 467.1 L
S
GR
GS
[0.75 0 0 0.75 0 -0.25] CT
0.149 GC
2 setlinecap
1 LJ
0.667 LW
N
335 473 M
335 467.1 L
S
GR
GS
[0.75 0 0 0.75 0 -0.25] CT
0.149 GC
2 setlinecap
1 LJ
0.667 LW
N
394 473 M
394 467.1 L
S
GR
GS
[0.75 0 0 0.75 0 -0.25] CT
0.149 GC
2 setlinecap
1 LJ
0.667 LW
N
453 473 M
453 467.1 L
S
GR
GS
[0.75 0 0 0.75 0 -0.25] CT
0.149 GC
2 setlinecap
1 LJ
0.667 LW
N
512 473 M
512 467.1 L
S
GR
GS
[0.75 0 0 0.75 0 -0.25] CT
0.149 GC
2 setlinecap
1 LJ
0.667 LW
N
571 473 M
571 467.1 L
S
GR
GS
[0.75 0 0 0.75 0 -0.25] CT
0.149 GC
2 setlinecap
1 LJ
0.667 LW
N
630 473 M
630 467.1 L
S
GR
GS
[0.75 0 0 0.75 0 -0.25] CT
0.149 GC
2 setlinecap
1 LJ
0.667 LW
N
689 473 M
689 467.1 L
S
GR
GS
[0.75 0 0 0.75 0 -0.25] CT
0.149 GC
2 setlinecap
1 LJ
0.667 LW
N
99 40 M
99 45.9 L
S
GR
GS
[0.75 0 0 0.75 0 -0.25] CT
0.149 GC
2 setlinecap
1 LJ
0.667 LW
N
158 40 M
158 45.9 L
S
GR
GS
[0.75 0 0 0.75 0 -0.25] CT
0.149 GC
2 setlinecap
1 LJ
0.667 LW
N
217 40 M
217 45.9 L
S
GR
GS
[0.75 0 0 0.75 0 -0.25] CT
0.149 GC
2 setlinecap
1 LJ
0.667 LW
N
276 40 M
276 45.9 L
S
GR
GS
[0.75 0 0 0.75 0 -0.25] CT
0.149 GC
2 setlinecap
1 LJ
0.667 LW
N
335 40 M
335 45.9 L
S
GR
GS
[0.75 0 0 0.75 0 -0.25] CT
0.149 GC
2 setlinecap
1 LJ
0.667 LW
N
394 40 M
394 45.9 L
S
GR
GS
[0.75 0 0 0.75 0 -0.25] CT
0.149 GC
2 setlinecap
1 LJ
0.667 LW
N
453 40 M
453 45.9 L
S
GR
GS
[0.75 0 0 0.75 0 -0.25] CT
0.149 GC
2 setlinecap
1 LJ
0.667 LW
N
512 40 M
512 45.9 L
S
GR
GS
[0.75 0 0 0.75 0 -0.25] CT
0.149 GC
2 setlinecap
1 LJ
0.667 LW
N
571 40 M
571 45.9 L
S
GR
GS
[0.75 0 0 0.75 0 -0.25] CT
0.149 GC
2 setlinecap
1 LJ
0.667 LW
N
630 40 M
630 45.9 L
S
GR
GS
[0.75 0 0 0.75 0 -0.25] CT
0.149 GC
2 setlinecap
1 LJ
0.667 LW
N
689 40 M
689 45.9 L
S
GR
GS
[0.75 0 0 0.75 74.25 358.50001] CT
0.149 GC
/Helvetica 13.333 F
GS
[1 0 0 1 0 0] CT
-4.5 13 moveto 
1 -1 scale
(0) t 
GR
GR
GS
[0.75 0 0 0.75 118.5 358.50001] CT
0.149 GC
/Helvetica 13.333 F
GS
[1 0 0 1 0 0] CT
-14.5 13 moveto 
1 -1 scale
(0.05) t 
GR
GR
GS
[0.75 0 0 0.75 162.75 358.50001] CT
0.149 GC
/Helvetica 13.333 F
GS
[1 0 0 1 0 0] CT
-10.5 13 moveto 
1 -1 scale
(0.1) t 
GR
GR
GS
[0.75 0 0 0.75 207 358.50001] CT
0.149 GC
/Helvetica 13.333 F
GS
[1 0 0 1 0 0] CT
-14.5 13 moveto 
1 -1 scale
(0.15) t 
GR
GR
GS
[0.75 0 0 0.75 251.25 358.50001] CT
0.149 GC
/Helvetica 13.333 F
GS
[1 0 0 1 0 0] CT
-10.5 13 moveto 
1 -1 scale
(0.2) t 
GR
GR
GS
[0.75 0 0 0.75 295.5 358.50001] CT
0.149 GC
/Helvetica 13.333 F
GS
[1 0 0 1 0 0] CT
-14.5 13 moveto 
1 -1 scale
(0.25) t 
GR
GR
GS
[0.75 0 0 0.75 339.75 358.50001] CT
0.149 GC
/Helvetica 13.333 F
GS
[1 0 0 1 0 0] CT
-10.5 13 moveto 
1 -1 scale
(0.3) t 
GR
GR
GS
[0.75 0 0 0.75 384 358.50001] CT
0.149 GC
/Helvetica 13.333 F
GS
[1 0 0 1 0 0] CT
-14.5 13 moveto 
1 -1 scale
(0.35) t 
GR
GR
GS
[0.75 0 0 0.75 428.25 358.50001] CT
0.149 GC
/Helvetica 13.333 F
GS
[1 0 0 1 0 0] CT
-10.5 13 moveto 
1 -1 scale
(0.4) t 
GR
GR
GS
[0.75 0 0 0.75 472.5 358.50001] CT
0.149 GC
/Helvetica 13.333 F
GS
[1 0 0 1 0 0] CT
-14.5 13 moveto 
1 -1 scale
(0.45) t 
GR
GR
GS
[0.75 0 0 0.75 516.75 358.50001] CT
0.149 GC
/Helvetica 13.333 F
GS
[1 0 0 1 0 0] CT
-10.5 13 moveto 
1 -1 scale
(0.5) t 
GR
GR
GS
[0.75 0 0 0.75 286.5 383] CT
0.149 GC
/Helvetica 14.667 F
GS
[1 0 0 1 0 0] CT
0 0 moveto 
1 -1 scale
(f/f) t 
GR
GR
GS
[0.75 0 0 0.75 298.5 388.25] CT
0.149 GC
/Helvetica 11.733 F
GS
[1 0 0 1 0 0] CT
0 0 moveto 
1 -1 scale
(s) t 
GR
GR
GS
[0.75 0 0 0.75 0 -0.25] CT
0.149 GC
2 setlinecap
1 LJ
0.667 LW
N
99 473 M
99 40 L
S
GR
GS
[0.75 0 0 0.75 0 -0.25] CT
0.149 GC
2 setlinecap
1 LJ
0.667 LW
N
689 473 M
689 40 L
S
GR
GS
[0.75 0 0 0.75 0 -0.25] CT
0.149 GC
2 setlinecap
1 LJ
0.667 LW
N
99 473 M
104.9 473 L
S
GR
GS
[0.75 0 0 0.75 0 -0.25] CT
0.149 GC
2 setlinecap
1 LJ
0.667 LW
N
99 433.636 M
104.9 433.636 L
S
GR
GS
[0.75 0 0 0.75 0 -0.25] CT
0.149 GC
2 setlinecap
1 LJ
0.667 LW
N
99 394.273 M
104.9 394.273 L
S
GR
GS
[0.75 0 0 0.75 0 -0.25] CT
0.149 GC
2 setlinecap
1 LJ
0.667 LW
N
99 354.909 M
104.9 354.909 L
S
GR
GS
[0.75 0 0 0.75 0 -0.25] CT
0.149 GC
2 setlinecap
1 LJ
0.667 LW
N
99 315.545 M
104.9 315.545 L
S
GR
GS
[0.75 0 0 0.75 0 -0.25] CT
0.149 GC
2 setlinecap
1 LJ
0.667 LW
N
99 276.182 M
104.9 276.182 L
S
GR
GS
[0.75 0 0 0.75 0 -0.25] CT
0.149 GC
2 setlinecap
1 LJ
0.667 LW
N
99 236.818 M
104.9 236.818 L
S
GR
GS
[0.75 0 0 0.75 0 -0.25] CT
0.149 GC
2 setlinecap
1 LJ
0.667 LW
N
99 197.455 M
104.9 197.455 L
S
GR
GS
[0.75 0 0 0.75 0 -0.25] CT
0.149 GC
2 setlinecap
1 LJ
0.667 LW
N
99 158.091 M
104.9 158.091 L
S
GR
GS
[0.75 0 0 0.75 0 -0.25] CT
0.149 GC
2 setlinecap
1 LJ
0.667 LW
N
99 118.727 M
104.9 118.727 L
S
GR
GS
[0.75 0 0 0.75 0 -0.25] CT
0.149 GC
2 setlinecap
1 LJ
0.667 LW
N
99 79.364 M
104.9 79.364 L
S
GR
GS
[0.75 0 0 0.75 0 -0.25] CT
0.149 GC
2 setlinecap
1 LJ
0.667 LW
N
99 40 M
104.9 40 L
S
GR
GS
[0.75 0 0 0.75 0 -0.25] CT
0.149 GC
2 setlinecap
1 LJ
0.667 LW
N
689 473 M
683.1 473 L
S
GR
GS
[0.75 0 0 0.75 0 -0.25] CT
0.149 GC
2 setlinecap
1 LJ
0.667 LW
N
689 433.636 M
683.1 433.636 L
S
GR
GS
[0.75 0 0 0.75 0 -0.25] CT
0.149 GC
2 setlinecap
1 LJ
0.667 LW
N
689 394.273 M
683.1 394.273 L
S
GR
GS
[0.75 0 0 0.75 0 -0.25] CT
0.149 GC
2 setlinecap
1 LJ
0.667 LW
N
689 354.909 M
683.1 354.909 L
S
GR
GS
[0.75 0 0 0.75 0 -0.25] CT
0.149 GC
2 setlinecap
1 LJ
0.667 LW
N
689 315.545 M
683.1 315.545 L
S
GR
GS
[0.75 0 0 0.75 0 -0.25] CT
0.149 GC
2 setlinecap
1 LJ
0.667 LW
N
689 276.182 M
683.1 276.182 L
S
GR
GS
[0.75 0 0 0.75 0 -0.25] CT
0.149 GC
2 setlinecap
1 LJ
0.667 LW
N
689 236.818 M
683.1 236.818 L
S
GR
GS
[0.75 0 0 0.75 0 -0.25] CT
0.149 GC
2 setlinecap
1 LJ
0.667 LW
N
689 197.455 M
683.1 197.455 L
S
GR
GS
[0.75 0 0 0.75 0 -0.25] CT
0.149 GC
2 setlinecap
1 LJ
0.667 LW
N
689 158.091 M
683.1 158.091 L
S
GR
GS
[0.75 0 0 0.75 0 -0.25] CT
0.149 GC
2 setlinecap
1 LJ
0.667 LW
N
689 118.727 M
683.1 118.727 L
S
GR
GS
[0.75 0 0 0.75 0 -0.25] CT
0.149 GC
2 setlinecap
1 LJ
0.667 LW
N
689 79.364 M
683.1 79.364 L
S
GR
GS
[0.75 0 0 0.75 0 -0.25] CT
0.149 GC
2 setlinecap
1 LJ
0.667 LW
N
689 40 M
683.1 40 L
S
GR
GS
[0.75 0 0 0.75 70.25 354.5] CT
0.149 GC
/Helvetica 13.333 F
GS
[1 0 0 1 0 0] CT
-22 4.5 moveto 
1 -1 scale
(-50) t 
GR
GR
GS
[0.75 0 0 0.75 70.25 324.97726] CT
0.149 GC
/Helvetica 13.333 F
GS
[1 0 0 1 0 0] CT
-22 4.5 moveto 
1 -1 scale
(-45) t 
GR
GR
GS
[0.75 0 0 0.75 70.25 295.45455] CT
0.149 GC
/Helvetica 13.333 F
GS
[1 0 0 1 0 0] CT
-22 4.5 moveto 
1 -1 scale
(-40) t 
GR
GR
GS
[0.75 0 0 0.75 70.25 265.93182] CT
0.149 GC
/Helvetica 13.333 F
GS
[1 0 0 1 0 0] CT
-22 4.5 moveto 
1 -1 scale
(-35) t 
GR
GR
GS
[0.75 0 0 0.75 70.25 236.40908] CT
0.149 GC
/Helvetica 13.333 F
GS
[1 0 0 1 0 0] CT
-22 4.5 moveto 
1 -1 scale
(-30) t 
GR
GR
GS
[0.75 0 0 0.75 70.25 206.88637] CT
0.149 GC
/Helvetica 13.333 F
GS
[1 0 0 1 0 0] CT
-22 4.5 moveto 
1 -1 scale
(-25) t 
GR
GR
GS
[0.75 0 0 0.75 70.25 177.36363] CT
0.149 GC
/Helvetica 13.333 F
GS
[1 0 0 1 0 0] CT
-22 4.5 moveto 
1 -1 scale
(-20) t 
GR
GR
GS
[0.75 0 0 0.75 70.25 147.84091] CT
0.149 GC
/Helvetica 13.333 F
GS
[1 0 0 1 0 0] CT
-22 4.5 moveto 
1 -1 scale
(-15) t 
GR
GR
GS
[0.75 0 0 0.75 70.25 118.31818] CT
0.149 GC
/Helvetica 13.333 F
GS
[1 0 0 1 0 0] CT
-22 4.5 moveto 
1 -1 scale
(-10) t 
GR
GR
GS
[0.75 0 0 0.75 70.25 88.79545] CT
0.149 GC
/Helvetica 13.333 F
GS
[1 0 0 1 0 0] CT
-13 4.5 moveto 
1 -1 scale
(-5) t 
GR
GR
GS
[0.75 0 0 0.75 70.25 59.27273] CT
0.149 GC
/Helvetica 13.333 F
GS
[1 0 0 1 0 0] CT
-9 4.5 moveto 
1 -1 scale
(0) t 
GR
GR
GS
[0.75 0 0 0.75 70.25 29.75] CT
0.149 GC
/Helvetica 13.333 F
GS
[1 0 0 1 0 0] CT
-9 4.5 moveto 
1 -1 scale
(5) t 
GR
GR
GS
[0 -0.75 0.75 0 50.75 192.12484] CT
0.149 GC
/Helvetica 14.667 F
GS
[1 0 0 1 0 0] CT
-36.5 -4 moveto 
1 -1 scale
(Filter |dB|) t 
GR
GR
GS
[0.75 0 0 0.75 153 20] CT
/Helvetica-Bold 14.667 F
GS
[1 0 0 1 0 0] CT
0 0 moveto 
1 -1 scale
(Filter characteristics of i) t 
GR
GR
GS
[0.75 0 0 0.75 309 25.25] CT
/Helvetica-Bold 11.733 F
GS
[1 0 0 1 0 0] CT
0 0 moveto 
1 -1 scale
(0) t 
GR
GR
GS
[0.75 0 0 0.75 315.75 20] CT
/Helvetica-Bold 14.667 F
GS
[1 0 0 1 0 0] CT
0 0 moveto 
1 -1 scale
( and n) t 
GR
GR
GS
[0.75 0 0 0.75 355.5 25.25] CT
/Helvetica-Bold 11.733 F
GS
[1 0 0 1 0 0] CT
0 0 moveto 
1 -1 scale
(i) t 
GR
GR
GS
[0.75 0 0 0.75 359.25 20] CT
/Helvetica-Bold 14.667 F
GS
[1 0 0 1 0 0] CT
0 0 moveto 
1 -1 scale
(, f) t 
GR
GR
GS
[0.75 0 0 0.75 372.75 25.25] CT
/Helvetica-Bold 11.733 F
GS
[1 0 0 1 0 0] CT
0 0 moveto 
1 -1 scale
(noise) t 
GR
GR
GS
[0.75 0 0 0.75 400.5 20] CT
/Helvetica-Bold 14.667 F
GS
[1 0 0 1 0 0] CT
0 0 moveto 
1 -1 scale
( = 0.6) t 
GR
GR
GS
[0.75 0 0 0.75 0 -0.25] CT
0 0.447 0.741 RC
1 LJ
0.667 LW
N
99 79.364 M
101.305 79.415 L
103.609 79.568 L
105.914 79.822 L
108.219 80.175 L
110.523 80.624 L
112.828 81.164 L
115.133 81.793 L
117.438 82.504 L
119.742 83.294 L
122.047 84.156 L
124.352 85.085 L
126.656 86.076 L
128.961 87.122 L
131.266 88.219 L
133.57 89.36 L
135.875 90.541 L
138.18 91.758 L
140.484 93.004 L
142.789 94.276 L
145.094 95.57 L
147.398 96.882 L
149.703 98.209 L
152.008 99.548 L
154.313 100.895 L
156.617 102.249 L
158.922 103.606 L
161.227 104.966 L
163.531 106.325 L
165.836 107.683 L
168.141 109.037 L
170.445 110.388 L
172.75 111.733 L
175.055 113.071 L
177.359 114.403 L
179.664 115.727 L
181.969 117.042 L
184.273 118.348 L
186.578 119.644 L
188.883 120.931 L
191.188 122.208 L
193.492 123.475 L
195.797 124.731 L
198.102 125.976 L
200.406 127.211 L
202.711 128.435 L
205.016 129.649 L
207.32 130.852 L
209.625 132.044 L
211.93 133.226 L
214.234 134.397 L
216.539 135.558 L
218.844 136.708 L
221.148 137.848 L
223.453 138.979 L
225.758 140.099 L
228.063 141.21 L
230.367 142.312 L
232.672 143.404 L
234.977 144.486 L
237.281 145.56 L
239.586 146.625 L
241.891 147.681 L
244.195 148.729 L
246.5 149.768 L
248.805 150.8 L
251.109 151.823 L
253.414 152.839 L
255.719 153.847 L
258.023 154.848 L
260.328 155.841 L
262.633 156.827 L
264.938 157.807 L
267.242 158.78 L
269.547 159.746 L
271.852 160.706 L
274.156 161.66 L
276.461 162.607 L
278.766 163.549 L
281.07 164.485 L
283.375 165.416 L
285.68 166.341 L
287.984 167.261 L
290.289 168.175 L
292.594 169.085 L
294.898 169.99 L
297.203 170.891 L
299.508 171.787 L
301.813 172.678 L
304.117 173.566 L
306.422 174.449 L
308.727 175.328 L
311.031 176.204 L
313.336 177.075 L
315.641 177.944 L
317.945 178.809 L
320.25 179.67 L
322.555 180.529 L
324.859 181.384 L
327.164 182.236 L
329.469 183.086 L
331.773 183.933 L
334.078 184.778 L
336.383 185.62 L
338.688 186.46 L
340.992 187.297 L
343.297 188.133 L
345.602 188.966 L
347.906 189.798 L
350.211 190.628 L
352.516 191.457 L
354.82 192.284 L
357.125 193.109 L
359.43 193.933 L
361.734 194.756 L
364.039 195.578 L
366.344 196.4 L
368.648 197.22 L
370.953 198.039 L
373.258 198.858 L
375.563 199.677 L
377.867 200.495 L
380.172 201.313 L
382.477 202.13 L
384.781 202.948 L
387.086 203.765 L
389.391 204.583 L
391.695 205.401 L
394 206.22 L
396.305 207.039 L
398.609 207.858 L
400.914 208.678 L
403.219 209.499 L
405.523 210.321 L
407.828 211.144 L
410.133 211.969 L
412.438 212.794 L
414.742 213.621 L
417.047 214.449 L
419.352 215.28 L
421.656 216.111 L
423.961 216.945 L
426.266 217.781 L
428.57 218.619 L
430.875 219.459 L
433.18 220.302 L
435.484 221.147 L
437.789 221.995 L
440.094 222.845 L
442.398 223.699 L
444.703 224.556 L
447.008 225.416 L
449.313 226.279 L
451.617 227.146 L
453.922 228.016 L
456.227 228.89 L
458.531 229.769 L
460.836 230.651 L
463.141 231.538 L
465.445 232.429 L
467.75 233.325 L
470.055 234.225 L
472.359 235.131 L
474.664 236.042 L
476.969 236.958 L
479.273 237.88 L
481.578 238.808 L
483.883 239.742 L
486.188 240.681 L
488.492 241.628 L
490.797 242.581 L
493.102 243.54 L
495.406 244.507 L
497.711 245.482 L
500.016 246.463 L
502.32 247.453 L
504.625 248.451 L
506.93 249.457 L
509.234 250.473 L
511.539 251.497 L
513.844 252.53 L
516.148 253.573 L
518.453 254.626 L
520.758 255.689 L
523.063 256.764 L
525.367 257.849 L
527.672 258.945 L
529.977 260.054 L
532.281 261.174 L
534.586 262.308 L
536.891 263.454 L
539.195 264.615 L
541.5 265.789 L
543.805 266.978 L
546.109 268.183 L
548.414 269.403 L
550.719 270.639 L
553.023 271.893 L
555.328 273.164 L
557.633 274.454 L
559.938 275.762 L
562.242 277.091 L
564.547 278.44 L
566.852 279.811 L
569.156 281.205 L
571.461 282.621 L
573.766 284.062 L
576.07 285.529 L
578.375 287.022 L
580.68 288.543 L
582.984 290.094 L
585.289 291.674 L
587.594 293.287 L
589.898 294.933 L
592.203 296.615 L
594.508 298.333 L
596.813 300.09 L
599.117 301.889 L
601.422 303.73 L
603.727 305.617 L
606.031 307.552 L
608.336 309.538 L
610.641 311.579 L
612.945 313.677 L
615.25 315.835 L
617.555 318.059 L
619.859 320.353 L
622.164 322.72 L
624.469 325.168 L
626.773 327.7 L
629.078 330.326 L
631.383 333.05 L
633.688 335.882 L
635.992 338.832 L
638.297 341.909 L
640.602 345.126 L
642.906 348.496 L
645.211 352.036 L
647.516 355.764 L
649.82 359.702 L
652.125 363.875 L
654.43 368.314 L
656.734 373.056 L
659.039 378.146 L
661.344 383.64 L
663.648 389.609 L
665.953 396.144 L
668.258 403.364 L
670.563 411.432 L
672.867 420.576 L
675.172 431.128 L
677.477 443.604 L
679.781 458.871 L
681.442 473.052 L
S
GR
GS
[0.75 0 0 0.75 0 -0.25] CT
0.851 0.325 0.098 RC
1 LJ
0.667 LW
N
99 79.364 M
101.305 79.364 L
103.609 79.364 L
105.914 79.364 L
108.219 79.364 L
110.523 79.364 L
112.828 79.364 L
115.133 79.364 L
117.438 79.364 L
119.742 79.364 L
122.047 79.364 L
124.352 79.364 L
126.656 79.364 L
128.961 79.364 L
131.266 79.364 L
133.57 79.364 L
135.875 79.365 L
138.18 79.365 L
140.484 79.365 L
142.789 79.365 L
145.094 79.366 L
147.398 79.366 L
149.703 79.367 L
152.008 79.368 L
154.313 79.368 L
156.617 79.369 L
158.922 79.37 L
161.227 79.371 L
163.531 79.372 L
165.836 79.374 L
168.141 79.375 L
170.445 79.377 L
172.75 79.379 L
175.055 79.381 L
177.359 79.383 L
179.664 79.385 L
181.969 79.388 L
184.273 79.391 L
186.578 79.394 L
188.883 79.397 L
191.188 79.401 L
193.492 79.405 L
195.797 79.41 L
198.102 79.414 L
200.406 79.419 L
202.711 79.425 L
205.016 79.431 L
207.32 79.437 L
209.625 79.444 L
211.93 79.452 L
214.234 79.459 L
216.539 79.468 L
218.844 79.477 L
221.148 79.487 L
223.453 79.497 L
225.758 79.508 L
228.063 79.519 L
230.367 79.532 L
232.672 79.545 L
234.977 79.559 L
237.281 79.574 L
239.586 79.59 L
241.891 79.606 L
244.195 79.624 L
246.5 79.643 L
248.805 79.663 L
251.109 79.684 L
253.414 79.706 L
255.719 79.729 L
258.023 79.754 L
260.328 79.78 L
262.633 79.808 L
264.938 79.837 L
267.242 79.868 L
269.547 79.9 L
271.852 79.934 L
274.156 79.97 L
276.461 80.007 L
278.766 80.047 L
281.07 80.089 L
283.375 80.133 L
285.68 80.179 L
287.984 80.227 L
290.289 80.278 L
292.594 80.331 L
294.898 80.387 L
297.203 80.446 L
299.508 80.507 L
301.813 80.572 L
304.117 80.639 L
306.422 80.71 L
308.727 80.784 L
311.031 80.862 L
313.336 80.944 L
315.641 81.029 L
317.945 81.118 L
320.25 81.212 L
322.555 81.31 L
324.859 81.412 L
327.164 81.519 L
329.469 81.631 L
331.773 81.748 L
334.078 81.87 L
336.383 81.998 L
338.688 82.131 L
340.992 82.27 L
343.297 82.416 L
345.602 82.568 L
347.906 82.726 L
350.211 82.892 L
352.516 83.065 L
354.82 83.245 L
357.125 83.433 L
359.43 83.629 L
361.734 83.834 L
364.039 84.047 L
366.344 84.269 L
368.648 84.501 L
370.953 84.742 L
373.258 84.993 L
375.563 85.255 L
377.867 85.527 L
380.172 85.81 L
382.477 86.105 L
384.781 86.412 L
387.086 86.732 L
389.391 87.064 L
391.695 87.409 L
394 87.768 L
396.305 88.14 L
398.609 88.528 L
400.914 88.93 L
403.219 89.348 L
405.523 89.781 L
407.828 90.231 L
410.133 90.698 L
412.438 91.182 L
414.742 91.684 L
417.047 92.204 L
419.352 92.743 L
421.656 93.301 L
423.961 93.879 L
426.266 94.477 L
428.57 95.096 L
430.875 95.737 L
433.18 96.399 L
435.484 97.083 L
437.789 97.79 L
440.094 98.521 L
442.398 99.275 L
444.703 100.053 L
447.008 100.856 L
449.313 101.684 L
451.617 102.538 L
453.922 103.418 L
456.227 104.324 L
458.531 105.257 L
460.836 106.218 L
463.141 107.206 L
465.445 108.222 L
467.75 109.267 L
470.055 110.34 L
472.359 111.443 L
474.664 112.575 L
476.969 113.737 L
479.273 114.93 L
481.578 116.153 L
483.883 117.406 L
486.188 118.691 L
488.492 120.008 L
490.797 121.356 L
493.102 122.736 L
495.406 124.148 L
497.711 125.593 L
500.016 127.071 L
502.32 128.582 L
504.625 130.127 L
506.93 131.705 L
509.234 133.317 L
511.539 134.963 L
513.844 136.644 L
516.148 138.36 L
518.453 140.111 L
520.758 141.897 L
523.063 143.72 L
525.367 145.579 L
527.672 147.474 L
529.977 149.407 L
532.281 151.378 L
534.586 153.386 L
536.891 155.434 L
539.195 157.52 L
541.5 159.647 L
543.805 161.814 L
546.109 164.022 L
548.414 166.273 L
550.719 168.566 L
553.023 170.904 L
555.328 173.286 L
557.633 175.714 L
559.938 178.188 L
562.242 180.711 L
564.547 183.283 L
566.852 185.906 L
569.156 188.582 L
571.461 191.311 L
573.766 194.096 L
576.07 196.938 L
578.375 199.839 L
580.68 202.802 L
582.984 205.829 L
585.289 208.922 L
587.594 212.084 L
589.898 215.317 L
592.203 218.626 L
594.508 222.013 L
596.813 225.481 L
599.117 229.035 L
601.422 232.68 L
603.727 236.419 L
606.031 240.257 L
608.336 244.2 L
610.641 248.255 L
612.945 252.426 L
615.25 256.723 L
617.555 261.152 L
619.859 265.721 L
622.164 270.442 L
624.469 275.323 L
626.773 280.377 L
629.078 285.617 L
631.383 291.058 L
633.688 296.715 L
635.992 302.607 L
638.297 308.757 L
640.602 315.186 L
642.906 321.923 L
645.211 329.001 L
647.516 336.454 L
649.82 344.328 L
652.125 352.673 L
654.43 361.55 L
656.734 371.034 L
659.039 381.214 L
661.344 392.202 L
663.648 404.141 L
665.953 417.211 L
668.258 431.653 L
670.563 447.79 L
672.867 466.077 L
673.629 473.052 L
S
GR
GS
[0.75 0 0 0.75 0 -0.25] CT
1 GC
N
589 100 M
589 53 L
676 53 L
676 100 L
cp
f
GR
GS
[0.75 0 0 0.75 469.5 50.75] CT
/Helvetica 12 F
GS
[1 0 0 1 0 0] CT
0 0 moveto 
1 -1 scale
(Filter i) t 
GR
GR
GS
[0.75 0 0 0.75 498 55.25] CT
/Helvetica 9.6 F
GS
[1 0 0 1 0 0] CT
0 0 moveto 
1 -1 scale
(0) t 
GR
GR
GS
[0.75 0 0 0.75 0 -0.25] CT
0 0.447 0.741 RC
1 LJ
0.667 LW
N
593 65.634 M
623 65.634 L
S
GR
GS
[0.75 0 0 0.75 469.5 66.5] CT
/Helvetica 12 F
GS
[1 0 0 1 0 0] CT
0 0 moveto 
1 -1 scale
(Filter n) t 
GR
GR
GS
[0.75 0 0 0.75 501.75 71] CT
/Helvetica 9.6 F
GS
[1 0 0 1 0 0] CT
0 0 moveto 
1 -1 scale
(i) t 
GR
GR
GS
[0.75 0 0 0.75 0 -0.25] CT
0.851 0.325 0.098 RC
1 LJ
0.667 LW
N
593 87.366 M
623 87.366 L
S
GR
GS
[0.75 0 0 0.75 0 -0.25] CT
0.149 GC
10.0 ML
0.667 LW
N
589 100 M
589 53 L
676 53 L
676 100 L
cp
S
GR
%%Trailer
%%Pages: 1
%%EOF
