%!PS-Adobe-3.0 EPSF-3.0
%%Creator: (MATLAB, The Mathworks, Inc. Version 9.1.0.441655 \(R2016b\). Operating System: Windows 8)
%%Title: C:/Users/simon/Documents/Unief/M1/System_Identification_and_Modeling/Oefenzittingen/Oefenzitting_1/git/Report/frfexp1.eps
%%CreationDate: 2016-12-25T16:10:53
%%Pages: (atend)
%%BoundingBox: 0 0 1152 562
%%LanguageLevel: 3
%%EndComments
%%BeginProlog
%%BeginResource: procset (Apache XML Graphics Std ProcSet) 1.2 0
%%Version: 1.2 0
%%Copyright: (Copyright 2001-2003,2010 The Apache Software Foundation. License terms: http://www.apache.org/licenses/LICENSE-2.0)
/bd{bind def}bind def
/ld{load def}bd
/GR/grestore ld
/M/moveto ld
/LJ/setlinejoin ld
/C/curveto ld
/f/fill ld
/LW/setlinewidth ld
/GC/setgray ld
/t/show ld
/N/newpath ld
/CT/concat ld
/cp/closepath ld
/S/stroke ld
/L/lineto ld
/CC/setcmykcolor ld
/A/ashow ld
/GS/gsave ld
/RC/setrgbcolor ld
/RM/rmoveto ld
/ML/setmiterlimit ld
/re {4 2 roll M
1 index 0 rlineto
0 exch rlineto
neg 0 rlineto
cp } bd
/_ctm matrix def
/_tm matrix def
/BT { _ctm currentmatrix pop matrix _tm copy pop 0 0 moveto } bd
/ET { _ctm setmatrix } bd
/iTm { _ctm setmatrix _tm concat } bd
/Tm { _tm astore pop iTm 0 0 moveto } bd
/ux 0.0 def
/uy 0.0 def
/F {
  /Tp exch def
  /Tf exch def
  Tf findfont Tp scalefont setfont
  /cf Tf def  /cs Tp def
} bd
/ULS {currentpoint /uy exch def /ux exch def} bd
/ULE {
  /Tcx currentpoint pop def
  gsave
  newpath
  cf findfont cs scalefont dup
  /FontMatrix get 0 get /Ts exch def /FontInfo get dup
  /UnderlinePosition get Ts mul /To exch def
  /UnderlineThickness get Ts mul /Tt exch def
  ux uy To add moveto  Tcx uy To add lineto
  Tt setlinewidth stroke
  grestore
} bd
/OLE {
  /Tcx currentpoint pop def
  gsave
  newpath
  cf findfont cs scalefont dup
  /FontMatrix get 0 get /Ts exch def /FontInfo get dup
  /UnderlinePosition get Ts mul /To exch def
  /UnderlineThickness get Ts mul /Tt exch def
  ux uy To add cs add moveto Tcx uy To add cs add lineto
  Tt setlinewidth stroke
  grestore
} bd
/SOE {
  /Tcx currentpoint pop def
  gsave
  newpath
  cf findfont cs scalefont dup
  /FontMatrix get 0 get /Ts exch def /FontInfo get dup
  /UnderlinePosition get Ts mul /To exch def
  /UnderlineThickness get Ts mul /Tt exch def
  ux uy To add cs 10 mul 26 idiv add moveto Tcx uy To add cs 10 mul 26 idiv add lineto
  Tt setlinewidth stroke
  grestore
} bd
/QT {
/Y22 exch store
/X22 exch store
/Y21 exch store
/X21 exch store
currentpoint
/Y21 load 2 mul add 3 div exch
/X21 load 2 mul add 3 div exch
/X21 load 2 mul /X22 load add 3 div
/Y21 load 2 mul /Y22 load add 3 div
/X22 load /Y22 load curveto
} bd
/SSPD {
dup length /d exch dict def
{
/v exch def
/k exch def
currentpagedevice k known {
/cpdv currentpagedevice k get def
v cpdv ne {
/upd false def
/nullv v type /nulltype eq def
/nullcpdv cpdv type /nulltype eq def
nullv nullcpdv or
{
/upd true def
} {
/sametype v type cpdv type eq def
sametype {
v type /arraytype eq {
/vlen v length def
/cpdvlen cpdv length def
vlen cpdvlen eq {
0 1 vlen 1 sub {
/i exch def
/obj v i get def
/cpdobj cpdv i get def
obj cpdobj ne {
/upd true def
exit
} if
} for
} {
/upd true def
} ifelse
} {
v type /dicttype eq {
v {
/dv exch def
/dk exch def
/cpddv cpdv dk get def
dv cpddv ne {
/upd true def
exit
} if
} forall
} {
/upd true def
} ifelse
} ifelse
} if
} ifelse
upd true eq {
d k v put
} if
} if
} if
} forall
d length 0 gt {
d setpagedevice
} if
} bd
/RE { % /NewFontName [NewEncodingArray] /FontName RE -
  findfont dup length dict begin
  {
    1 index /FID ne
    {def} {pop pop} ifelse
  } forall
  /Encoding exch def
  /FontName 1 index def
  currentdict definefont pop
  end
} bind def
%%EndResource
%%BeginResource: procset (Apache XML Graphics EPS ProcSet) 1.0 0
%%Version: 1.0 0
%%Copyright: (Copyright 2002-2003 The Apache Software Foundation. License terms: http://www.apache.org/licenses/LICENSE-2.0)
/BeginEPSF { %def
/b4_Inc_state save def         % Save state for cleanup
/dict_count countdictstack def % Count objects on dict stack
/op_count count 1 sub def      % Count objects on operand stack
userdict begin                 % Push userdict on dict stack
/showpage { } def              % Redefine showpage, { } = null proc
0 setgray 0 setlinecap         % Prepare graphics state
1 setlinewidth 0 setlinejoin
10 setmiterlimit [ ] 0 setdash newpath
/languagelevel where           % If level not equal to 1 then
{pop languagelevel             % set strokeadjust and
1 ne                           % overprint to their defaults.
{false setstrokeadjust false setoverprint
} if
} if
} bd
/EndEPSF { %def
count op_count sub {pop} repeat            % Clean up stacks
countdictstack dict_count sub {end} repeat
b4_Inc_state restore
} bd
%%EndResource
%FOPBeginFontDict
%%IncludeResource: font Courier-Bold
%%IncludeResource: font Helvetica
%%IncludeResource: font Courier-BoldOblique
%%IncludeResource: font Courier-Oblique
%%IncludeResource: font Times-Roman
%%IncludeResource: font Helvetica-BoldOblique
%%IncludeResource: font Helvetica-Bold
%%IncludeResource: font Helvetica-Oblique
%%IncludeResource: font Times-BoldItalic
%%IncludeResource: font Courier
%%IncludeResource: font Times-Italic
%%IncludeResource: font Times-Bold
%%IncludeResource: font Symbol
%%IncludeResource: font ZapfDingbats
%FOPEndFontDict
%%BeginResource: encoding WinAnsiEncoding
/WinAnsiEncoding [
/.notdef /.notdef /.notdef /.notdef /.notdef
/.notdef /.notdef /.notdef /.notdef /.notdef
/.notdef /.notdef /.notdef /.notdef /.notdef
/.notdef /.notdef /.notdef /.notdef /.notdef
/.notdef /.notdef /.notdef /.notdef /.notdef
/.notdef /.notdef /.notdef /.notdef /.notdef
/.notdef /.notdef /space /exclam /quotedbl
/numbersign /dollar /percent /ampersand /quotesingle
/parenleft /parenright /asterisk /plus /comma
/hyphen /period /slash /zero /one
/two /three /four /five /six
/seven /eight /nine /colon /semicolon
/less /equal /greater /question /at
/A /B /C /D /E
/F /G /H /I /J
/K /L /M /N /O
/P /Q /R /S /T
/U /V /W /X /Y
/Z /bracketleft /backslash /bracketright /asciicircum
/underscore /quoteleft /a /b /c
/d /e /f /g /h
/i /j /k /l /m
/n /o /p /q /r
/s /t /u /v /w
/x /y /z /braceleft /bar
/braceright /asciitilde /bullet /Euro /bullet
/quotesinglbase /florin /quotedblbase /ellipsis /dagger
/daggerdbl /circumflex /perthousand /Scaron /guilsinglleft
/OE /bullet /Zcaron /bullet /bullet
/quoteleft /quoteright /quotedblleft /quotedblright /bullet
/endash /emdash /asciitilde /trademark /scaron
/guilsinglright /oe /bullet /zcaron /Ydieresis
/space /exclamdown /cent /sterling /currency
/yen /brokenbar /section /dieresis /copyright
/ordfeminine /guillemotleft /logicalnot /sfthyphen /registered
/macron /degree /plusminus /twosuperior /threesuperior
/acute /mu /paragraph /middot /cedilla
/onesuperior /ordmasculine /guillemotright /onequarter /onehalf
/threequarters /questiondown /Agrave /Aacute /Acircumflex
/Atilde /Adieresis /Aring /AE /Ccedilla
/Egrave /Eacute /Ecircumflex /Edieresis /Igrave
/Iacute /Icircumflex /Idieresis /Eth /Ntilde
/Ograve /Oacute /Ocircumflex /Otilde /Odieresis
/multiply /Oslash /Ugrave /Uacute /Ucircumflex
/Udieresis /Yacute /Thorn /germandbls /agrave
/aacute /acircumflex /atilde /adieresis /aring
/ae /ccedilla /egrave /eacute /ecircumflex
/edieresis /igrave /iacute /icircumflex /idieresis
/eth /ntilde /ograve /oacute /ocircumflex
/otilde /odieresis /divide /oslash /ugrave
/uacute /ucircumflex /udieresis /yacute /thorn
/ydieresis
] def
%%EndResource
%FOPBeginFontReencode
/Courier-Bold findfont
dup length dict begin
  {1 index /FID ne {def} {pop pop} ifelse} forall
  /Encoding WinAnsiEncoding def
  currentdict
end
/Courier-Bold exch definefont pop
/Helvetica findfont
dup length dict begin
  {1 index /FID ne {def} {pop pop} ifelse} forall
  /Encoding WinAnsiEncoding def
  currentdict
end
/Helvetica exch definefont pop
/Courier-BoldOblique findfont
dup length dict begin
  {1 index /FID ne {def} {pop pop} ifelse} forall
  /Encoding WinAnsiEncoding def
  currentdict
end
/Courier-BoldOblique exch definefont pop
/Courier-Oblique findfont
dup length dict begin
  {1 index /FID ne {def} {pop pop} ifelse} forall
  /Encoding WinAnsiEncoding def
  currentdict
end
/Courier-Oblique exch definefont pop
/Times-Roman findfont
dup length dict begin
  {1 index /FID ne {def} {pop pop} ifelse} forall
  /Encoding WinAnsiEncoding def
  currentdict
end
/Times-Roman exch definefont pop
/Helvetica-BoldOblique findfont
dup length dict begin
  {1 index /FID ne {def} {pop pop} ifelse} forall
  /Encoding WinAnsiEncoding def
  currentdict
end
/Helvetica-BoldOblique exch definefont pop
/Helvetica-Bold findfont
dup length dict begin
  {1 index /FID ne {def} {pop pop} ifelse} forall
  /Encoding WinAnsiEncoding def
  currentdict
end
/Helvetica-Bold exch definefont pop
/Helvetica-Oblique findfont
dup length dict begin
  {1 index /FID ne {def} {pop pop} ifelse} forall
  /Encoding WinAnsiEncoding def
  currentdict
end
/Helvetica-Oblique exch definefont pop
/Times-BoldItalic findfont
dup length dict begin
  {1 index /FID ne {def} {pop pop} ifelse} forall
  /Encoding WinAnsiEncoding def
  currentdict
end
/Times-BoldItalic exch definefont pop
/Courier findfont
dup length dict begin
  {1 index /FID ne {def} {pop pop} ifelse} forall
  /Encoding WinAnsiEncoding def
  currentdict
end
/Courier exch definefont pop
/Times-Italic findfont
dup length dict begin
  {1 index /FID ne {def} {pop pop} ifelse} forall
  /Encoding WinAnsiEncoding def
  currentdict
end
/Times-Italic exch definefont pop
/Times-Bold findfont
dup length dict begin
  {1 index /FID ne {def} {pop pop} ifelse} forall
  /Encoding WinAnsiEncoding def
  currentdict
end
/Times-Bold exch definefont pop
%FOPEndFontReencode
%%EndProlog
%%Page: 1 1
%%PageBoundingBox: 0 0 1152 562
%%BeginPageSetup
[1 0 0 -1 0 562] CT
%%EndPageSetup
GS
[0.6 0 0 0.6 0 0.39996] CT
1 GC
N
0 0 1920 936 re
f
GR
GS
[0.6 0 0 0.6 0 0.39996] CT
1 GC
N
0 0 1920 936 re
f
GR
GS
[0.6 0 0 0.6 0 0.39996] CT
1 GC
N
250 833 M
659 833 L
659 70 L
250 70 L
cp
f
GR
GS
[0.6 0 0 0.6 0 0.39996] CT
0.149 GC
2 setlinecap
1 LJ
0.833 LW
N
250 833 M
659 833 L
S
GR
GS
[0.6 0 0 0.6 0 0.39996] CT
0.149 GC
2 setlinecap
1 LJ
0.833 LW
N
250 70 M
659 70 L
S
GR
GS
[0.6 0 0 0.6 0 0.39996] CT
0.149 GC
2 setlinecap
1 LJ
0.833 LW
N
250 833 M
250 825.37 L
S
GR
GS
[0.6 0 0 0.6 0 0.39996] CT
0.149 GC
2 setlinecap
1 LJ
0.833 LW
N
331.8 833 M
331.8 825.37 L
S
GR
GS
[0.6 0 0 0.6 0 0.39996] CT
0.149 GC
2 setlinecap
1 LJ
0.833 LW
N
413.6 833 M
413.6 825.37 L
S
GR
GS
[0.6 0 0 0.6 0 0.39996] CT
0.149 GC
2 setlinecap
1 LJ
0.833 LW
N
495.4 833 M
495.4 825.37 L
S
GR
GS
[0.6 0 0 0.6 0 0.39996] CT
0.149 GC
2 setlinecap
1 LJ
0.833 LW
N
577.2 833 M
577.2 825.37 L
S
GR
GS
[0.6 0 0 0.6 0 0.39996] CT
0.149 GC
2 setlinecap
1 LJ
0.833 LW
N
659 833 M
659 825.37 L
S
GR
GS
[0.6 0 0 0.6 0 0.39996] CT
0.149 GC
2 setlinecap
1 LJ
0.833 LW
N
250 70 M
250 77.63 L
S
GR
GS
[0.6 0 0 0.6 0 0.39996] CT
0.149 GC
2 setlinecap
1 LJ
0.833 LW
N
331.8 70 M
331.8 77.63 L
S
GR
GS
[0.6 0 0 0.6 0 0.39996] CT
0.149 GC
2 setlinecap
1 LJ
0.833 LW
N
413.6 70 M
413.6 77.63 L
S
GR
GS
[0.6 0 0 0.6 0 0.39996] CT
0.149 GC
2 setlinecap
1 LJ
0.833 LW
N
495.4 70 M
495.4 77.63 L
S
GR
GS
[0.6 0 0 0.6 0 0.39996] CT
0.149 GC
2 setlinecap
1 LJ
0.833 LW
N
577.2 70 M
577.2 77.63 L
S
GR
GS
[0.6 0 0 0.6 0 0.39996] CT
0.149 GC
2 setlinecap
1 LJ
0.833 LW
N
659 70 M
659 77.63 L
S
GR
GS
[0.6 0 0 0.6 150 504.20001] CT
0.149 GC
/Helvetica 16.667 F
GS
[1 0 0 1 0 0] CT
-5 18 moveto 
1 -1 scale
(0) t 
GR
GR
GS
[0.6 0 0 0.6 199.07999 504.20001] CT
0.149 GC
/Helvetica 16.667 F
GS
[1 0 0 1 0 0] CT
-12 18 moveto 
1 -1 scale
(0.1) t 
GR
GR
GS
[0.6 0 0 0.6 248.16 504.20001] CT
0.149 GC
/Helvetica 16.667 F
GS
[1 0 0 1 0 0] CT
-12 18 moveto 
1 -1 scale
(0.2) t 
GR
GR
GS
[0.6 0 0 0.6 297.24001 504.20001] CT
0.149 GC
/Helvetica 16.667 F
GS
[1 0 0 1 0 0] CT
-12 18 moveto 
1 -1 scale
(0.3) t 
GR
GR
GS
[0.6 0 0 0.6 346.32001 504.20001] CT
0.149 GC
/Helvetica 16.667 F
GS
[1 0 0 1 0 0] CT
-12 18 moveto 
1 -1 scale
(0.4) t 
GR
GR
GS
[0.6 0 0 0.6 395.4 504.20001] CT
0.149 GC
/Helvetica 16.667 F
GS
[1 0 0 1 0 0] CT
-12 18 moveto 
1 -1 scale
(0.5) t 
GR
GR
GS
[0.6 0 0 0.6 265.8 529.6] CT
0.149 GC
/Helvetica 18.333 F
GS
[1 0 0 1 0 0] CT
0 0 moveto 
1 -1 scale
(f/f) t 
GR
GR
GS
[0.6 0 0 0.6 275.4 535] CT
0.149 GC
/Helvetica 14.667 F
GS
[1 0 0 1 0 0] CT
0 0 moveto 
1 -1 scale
(s) t 
GR
GR
GS
[0.6 0 0 0.6 0 0.39996] CT
0.149 GC
2 setlinecap
1 LJ
0.833 LW
N
250 833 M
250 70 L
S
GR
GS
[0.6 0 0 0.6 0 0.39996] CT
0.149 GC
2 setlinecap
1 LJ
0.833 LW
N
659 833 M
659 70 L
S
GR
GS
[0.6 0 0 0.6 0 0.39996] CT
0.149 GC
2 setlinecap
1 LJ
0.833 LW
N
250 833 M
257.63 833 L
S
GR
GS
[0.6 0 0 0.6 0 0.39996] CT
0.149 GC
2 setlinecap
1 LJ
0.833 LW
N
250 763.636 M
257.63 763.636 L
S
GR
GS
[0.6 0 0 0.6 0 0.39996] CT
0.149 GC
2 setlinecap
1 LJ
0.833 LW
N
250 694.273 M
257.63 694.273 L
S
GR
GS
[0.6 0 0 0.6 0 0.39996] CT
0.149 GC
2 setlinecap
1 LJ
0.833 LW
N
250 624.909 M
257.63 624.909 L
S
GR
GS
[0.6 0 0 0.6 0 0.39996] CT
0.149 GC
2 setlinecap
1 LJ
0.833 LW
N
250 555.545 M
257.63 555.545 L
S
GR
GS
[0.6 0 0 0.6 0 0.39996] CT
0.149 GC
2 setlinecap
1 LJ
0.833 LW
N
250 486.182 M
257.63 486.182 L
S
GR
GS
[0.6 0 0 0.6 0 0.39996] CT
0.149 GC
2 setlinecap
1 LJ
0.833 LW
N
250 416.818 M
257.63 416.818 L
S
GR
GS
[0.6 0 0 0.6 0 0.39996] CT
0.149 GC
2 setlinecap
1 LJ
0.833 LW
N
250 347.455 M
257.63 347.455 L
S
GR
GS
[0.6 0 0 0.6 0 0.39996] CT
0.149 GC
2 setlinecap
1 LJ
0.833 LW
N
250 278.091 M
257.63 278.091 L
S
GR
GS
[0.6 0 0 0.6 0 0.39996] CT
0.149 GC
2 setlinecap
1 LJ
0.833 LW
N
250 208.727 M
257.63 208.727 L
S
GR
GS
[0.6 0 0 0.6 0 0.39996] CT
0.149 GC
2 setlinecap
1 LJ
0.833 LW
N
250 139.364 M
257.63 139.364 L
S
GR
GS
[0.6 0 0 0.6 0 0.39996] CT
0.149 GC
2 setlinecap
1 LJ
0.833 LW
N
250 70 M
257.63 70 L
S
GR
GS
[0.6 0 0 0.6 0 0.39996] CT
0.149 GC
2 setlinecap
1 LJ
0.833 LW
N
659 833 M
651.37 833 L
S
GR
GS
[0.6 0 0 0.6 0 0.39996] CT
0.149 GC
2 setlinecap
1 LJ
0.833 LW
N
659 763.636 M
651.37 763.636 L
S
GR
GS
[0.6 0 0 0.6 0 0.39996] CT
0.149 GC
2 setlinecap
1 LJ
0.833 LW
N
659 694.273 M
651.37 694.273 L
S
GR
GS
[0.6 0 0 0.6 0 0.39996] CT
0.149 GC
2 setlinecap
1 LJ
0.833 LW
N
659 624.909 M
651.37 624.909 L
S
GR
GS
[0.6 0 0 0.6 0 0.39996] CT
0.149 GC
2 setlinecap
1 LJ
0.833 LW
N
659 555.545 M
651.37 555.545 L
S
GR
GS
[0.6 0 0 0.6 0 0.39996] CT
0.149 GC
2 setlinecap
1 LJ
0.833 LW
N
659 486.182 M
651.37 486.182 L
S
GR
GS
[0.6 0 0 0.6 0 0.39996] CT
0.149 GC
2 setlinecap
1 LJ
0.833 LW
N
659 416.818 M
651.37 416.818 L
S
GR
GS
[0.6 0 0 0.6 0 0.39996] CT
0.149 GC
2 setlinecap
1 LJ
0.833 LW
N
659 347.455 M
651.37 347.455 L
S
GR
GS
[0.6 0 0 0.6 0 0.39996] CT
0.149 GC
2 setlinecap
1 LJ
0.833 LW
N
659 278.091 M
651.37 278.091 L
S
GR
GS
[0.6 0 0 0.6 0 0.39996] CT
0.149 GC
2 setlinecap
1 LJ
0.833 LW
N
659 208.727 M
651.37 208.727 L
S
GR
GS
[0.6 0 0 0.6 0 0.39996] CT
0.149 GC
2 setlinecap
1 LJ
0.833 LW
N
659 139.364 M
651.37 139.364 L
S
GR
GS
[0.6 0 0 0.6 0 0.39996] CT
0.149 GC
2 setlinecap
1 LJ
0.833 LW
N
659 70 M
651.37 70 L
S
GR
GS
[0.6 0 0 0.6 146 500.2] CT
0.149 GC
/Helvetica 16.667 F
GS
[1 0 0 1 0 0] CT
-25 7 moveto 
1 -1 scale
(-50) t 
GR
GR
GS
[0.6 0 0 0.6 146 458.5818] CT
0.149 GC
/Helvetica 16.667 F
GS
[1 0 0 1 0 0] CT
-25 7 moveto 
1 -1 scale
(-45) t 
GR
GR
GS
[0.6 0 0 0.6 146 416.96361] CT
0.149 GC
/Helvetica 16.667 F
GS
[1 0 0 1 0 0] CT
-25 7 moveto 
1 -1 scale
(-40) t 
GR
GR
GS
[0.6 0 0 0.6 146 375.34546] CT
0.149 GC
/Helvetica 16.667 F
GS
[1 0 0 1 0 0] CT
-25 7 moveto 
1 -1 scale
(-35) t 
GR
GR
GS
[0.6 0 0 0.6 146 333.72727] CT
0.149 GC
/Helvetica 16.667 F
GS
[1 0 0 1 0 0] CT
-25 7 moveto 
1 -1 scale
(-30) t 
GR
GR
GS
[0.6 0 0 0.6 146 292.10908] CT
0.149 GC
/Helvetica 16.667 F
GS
[1 0 0 1 0 0] CT
-25 7 moveto 
1 -1 scale
(-25) t 
GR
GR
GS
[0.6 0 0 0.6 146 250.49089] CT
0.149 GC
/Helvetica 16.667 F
GS
[1 0 0 1 0 0] CT
-25 7 moveto 
1 -1 scale
(-20) t 
GR
GR
GS
[0.6 0 0 0.6 146 208.87271] CT
0.149 GC
/Helvetica 16.667 F
GS
[1 0 0 1 0 0] CT
-25 7 moveto 
1 -1 scale
(-15) t 
GR
GR
GS
[0.6 0 0 0.6 146 167.25452] CT
0.149 GC
/Helvetica 16.667 F
GS
[1 0 0 1 0 0] CT
-25 7 moveto 
1 -1 scale
(-10) t 
GR
GR
GS
[0.6 0 0 0.6 146 125.63634] CT
0.149 GC
/Helvetica 16.667 F
GS
[1 0 0 1 0 0] CT
-16 7 moveto 
1 -1 scale
(-5) t 
GR
GR
GS
[0.6 0 0 0.6 146 84.01815] CT
0.149 GC
/Helvetica 16.667 F
GS
[1 0 0 1 0 0] CT
-10 7 moveto 
1 -1 scale
(0) t 
GR
GR
GS
[0.6 0 0 0.6 146 42.39997] CT
0.149 GC
/Helvetica 16.667 F
GS
[1 0 0 1 0 0] CT
-10 7 moveto 
1 -1 scale
(5) t 
GR
GR
GS
[0 -0.6 0.6 0 128 271.29976] CT
0.149 GC
/Helvetica 18.333 F
GS
[1 0 0 1 0 0] CT
-38.5 -4 moveto 
1 -1 scale
(Filter |dB|) t 
GR
GR
GS
[0.6 0 0 0.6 153.6 32.79997] CT
/Helvetica-Bold 18.333 F
GS
[1 0 0 1 0 0] CT
0 0 moveto 
1 -1 scale
(Filter characteristics of i) t 
GR
GR
GS
[0.6 0 0 0.6 279 38.19997] CT
/Helvetica-Bold 14.667 F
GS
[1 0 0 1 0 0] CT
0 0 moveto 
1 -1 scale
(0) t 
GR
GR
GS
[0.6 0 0 0.6 284.4 32.79997] CT
/Helvetica-Bold 18.333 F
GS
[1 0 0 1 0 0] CT
0 0 moveto 
1 -1 scale
( and n) t 
GR
GR
GS
[0.6 0 0 0.6 316.2 38.19997] CT
/Helvetica-Bold 14.667 F
GS
[1 0 0 1 0 0] CT
0 0 moveto 
1 -1 scale
(i) t 
GR
GR
GS
[0.6 0 0 0.6 319.2 32.79997] CT
/Helvetica-Bold 18.333 F
GS
[1 0 0 1 0 0] CT
0 0 moveto 
1 -1 scale
(, f) t 
GR
GR
GS
[0.6 0 0 0.6 328.8 38.19997] CT
/Helvetica-Bold 14.667 F
GS
[1 0 0 1 0 0] CT
0 0 moveto 
1 -1 scale
(noise) t 
GR
GR
GS
[0.6 0 0 0.6 352.8 32.79997] CT
/Helvetica-Bold 18.333 F
GS
[1 0 0 1 0 0] CT
0 0 moveto 
1 -1 scale
( = 0.999) t 
GR
GR
GS
[0.6 0 0 0.6 0 0.39996] CT
0 0.447 0.741 RC
1 LJ
0.833 LW
N
250 139.364 M
251.598 139.454 L
253.195 139.724 L
254.793 140.172 L
256.391 140.794 L
257.988 141.584 L
259.586 142.537 L
261.184 143.644 L
262.781 144.898 L
264.379 146.289 L
265.977 147.808 L
267.574 149.446 L
269.172 151.191 L
270.77 153.035 L
272.367 154.967 L
273.965 156.979 L
275.563 159.06 L
277.16 161.203 L
278.758 163.4 L
280.355 165.641 L
281.953 167.922 L
283.551 170.234 L
285.148 172.572 L
286.746 174.931 L
288.344 177.305 L
289.941 179.69 L
291.539 182.082 L
293.137 184.477 L
294.734 186.873 L
296.332 189.265 L
297.93 191.652 L
299.527 194.032 L
301.125 196.402 L
302.723 198.761 L
304.32 201.107 L
305.918 203.44 L
307.516 205.757 L
309.113 208.059 L
310.711 210.343 L
312.309 212.611 L
313.906 214.861 L
315.504 217.093 L
317.102 219.306 L
318.699 221.501 L
320.297 223.677 L
321.895 225.834 L
323.492 227.973 L
325.09 230.092 L
326.688 232.193 L
328.285 234.275 L
329.883 236.339 L
331.48 238.384 L
333.078 240.412 L
334.676 242.421 L
336.273 244.413 L
337.871 246.388 L
339.469 248.345 L
341.066 250.286 L
342.664 252.21 L
344.262 254.118 L
345.859 256.01 L
347.457 257.886 L
349.055 259.748 L
350.652 261.594 L
352.25 263.426 L
353.848 265.243 L
355.445 267.046 L
357.043 268.836 L
358.641 270.613 L
360.238 272.376 L
361.836 274.126 L
363.434 275.864 L
365.031 277.59 L
366.629 279.305 L
368.227 281.007 L
369.824 282.699 L
371.422 284.379 L
373.02 286.049 L
374.617 287.709 L
376.215 289.358 L
377.813 290.998 L
379.41 292.628 L
381.008 294.249 L
382.605 295.861 L
384.203 297.464 L
385.801 299.059 L
387.398 300.646 L
388.996 302.224 L
390.594 303.796 L
392.191 305.359 L
393.789 306.915 L
395.387 308.465 L
396.984 310.008 L
398.582 311.544 L
400.18 313.074 L
401.777 314.598 L
403.375 316.116 L
404.973 317.629 L
406.57 319.136 L
408.168 320.638 L
409.766 322.136 L
411.363 323.628 L
412.961 325.116 L
414.559 326.6 L
416.156 328.08 L
417.754 329.556 L
419.352 331.028 L
420.949 332.497 L
422.547 333.963 L
424.145 335.426 L
425.742 336.885 L
427.34 338.343 L
428.938 339.797 L
430.535 341.25 L
432.133 342.7 L
433.73 344.149 L
435.328 345.596 L
436.926 347.041 L
438.523 348.485 L
440.121 349.928 L
441.719 351.371 L
443.316 352.812 L
444.914 354.253 L
446.512 355.694 L
448.109 357.134 L
449.707 358.575 L
451.305 360.016 L
452.902 361.458 L
454.5 362.9 L
456.098 364.343 L
457.695 365.787 L
459.293 367.232 L
460.891 368.679 L
462.488 370.127 L
464.086 371.578 L
465.684 373.03 L
467.281 374.485 L
468.879 375.942 L
470.477 377.402 L
472.074 378.865 L
473.672 380.33 L
475.27 381.8 L
476.867 383.272 L
478.465 384.749 L
480.063 386.229 L
481.66 387.714 L
483.258 389.204 L
484.855 390.698 L
486.453 392.196 L
488.051 393.701 L
489.648 395.21 L
491.246 396.725 L
492.844 398.246 L
494.441 399.774 L
496.039 401.308 L
497.637 402.848 L
499.234 404.396 L
500.832 405.951 L
502.43 407.513 L
504.027 409.084 L
505.625 410.662 L
507.223 412.25 L
508.82 413.846 L
510.418 415.451 L
512.016 417.065 L
513.613 418.69 L
515.211 420.324 L
516.809 421.97 L
518.406 423.626 L
520.004 425.293 L
521.602 426.972 L
523.199 428.664 L
524.797 430.367 L
526.395 432.084 L
527.992 433.814 L
529.59 435.559 L
531.188 437.317 L
532.785 439.09 L
534.383 440.879 L
535.98 442.683 L
537.578 444.504 L
539.176 446.342 L
540.773 448.198 L
542.371 450.072 L
543.969 451.964 L
545.566 453.877 L
547.164 455.809 L
548.762 457.762 L
550.359 459.737 L
551.957 461.734 L
553.555 463.755 L
555.152 465.799 L
556.75 467.869 L
558.348 469.964 L
559.945 472.086 L
561.543 474.236 L
563.141 476.415 L
564.738 478.624 L
566.336 480.864 L
567.934 483.137 L
569.531 485.443 L
571.129 487.784 L
572.727 490.162 L
574.324 492.577 L
575.922 495.033 L
577.52 497.529 L
579.117 500.069 L
580.715 502.653 L
582.313 505.284 L
583.91 507.965 L
585.508 510.696 L
587.105 513.482 L
588.703 516.324 L
590.301 519.224 L
591.898 522.187 L
593.496 525.215 L
595.094 528.312 L
596.691 531.48 L
598.289 534.725 L
599.887 538.05 L
601.484 541.46 L
603.082 544.96 L
604.68 548.556 L
606.277 552.252 L
607.875 556.056 L
609.473 559.975 L
611.07 564.016 L
612.668 568.188 L
614.266 572.501 L
615.863 576.964 L
617.461 581.59 L
619.059 586.391 L
620.656 591.382 L
622.254 596.579 L
623.852 602.001 L
625.449 607.67 L
627.047 613.609 L
628.645 619.847 L
630.242 626.416 L
631.84 633.355 L
633.438 640.708 L
635.035 648.53 L
636.633 656.886 L
638.23 665.855 L
639.828 675.536 L
641.426 686.054 L
643.023 697.57 L
644.621 710.293 L
646.219 724.51 L
647.816 740.622 L
649.414 759.216 L
651.012 781.201 L
652.609 808.102 L
653.761 833.091 L
S
GR
GS
[0.6 0 0 0.6 0 0.39996] CT
0.851 0.325 0.098 RC
1 LJ
0.833 LW
N
250 139.364 M
251.598 139.364 L
253.195 139.364 L
254.793 139.364 L
256.391 139.364 L
257.988 139.364 L
259.586 139.364 L
261.184 139.364 L
262.781 139.364 L
264.379 139.364 L
265.977 139.364 L
267.574 139.364 L
269.172 139.364 L
270.77 139.364 L
272.367 139.364 L
273.965 139.364 L
275.563 139.364 L
277.16 139.364 L
278.758 139.364 L
280.355 139.364 L
281.953 139.364 L
283.551 139.364 L
285.148 139.364 L
286.746 139.364 L
288.344 139.364 L
289.941 139.364 L
291.539 139.364 L
293.137 139.364 L
294.734 139.364 L
296.332 139.364 L
297.93 139.364 L
299.527 139.364 L
301.125 139.364 L
302.723 139.364 L
304.32 139.364 L
305.918 139.364 L
307.516 139.364 L
309.113 139.364 L
310.711 139.364 L
312.309 139.364 L
313.906 139.364 L
315.504 139.364 L
317.102 139.364 L
318.699 139.364 L
320.297 139.364 L
321.895 139.364 L
323.492 139.364 L
325.09 139.364 L
326.688 139.364 L
328.285 139.364 L
329.883 139.364 L
331.48 139.364 L
333.078 139.364 L
334.676 139.364 L
336.273 139.364 L
337.871 139.364 L
339.469 139.364 L
341.066 139.364 L
342.664 139.364 L
344.262 139.364 L
345.859 139.364 L
347.457 139.364 L
349.055 139.364 L
350.652 139.364 L
352.25 139.364 L
353.848 139.364 L
355.445 139.364 L
357.043 139.364 L
358.641 139.364 L
360.238 139.364 L
361.836 139.364 L
363.434 139.364 L
365.031 139.364 L
366.629 139.364 L
368.227 139.364 L
369.824 139.364 L
371.422 139.364 L
373.02 139.364 L
374.617 139.364 L
376.215 139.364 L
377.813 139.364 L
379.41 139.364 L
381.008 139.364 L
382.605 139.364 L
384.203 139.364 L
385.801 139.364 L
387.398 139.364 L
388.996 139.364 L
390.594 139.364 L
392.191 139.364 L
393.789 139.364 L
395.387 139.364 L
396.984 139.364 L
398.582 139.364 L
400.18 139.364 L
401.777 139.364 L
403.375 139.364 L
404.973 139.364 L
406.57 139.364 L
408.168 139.364 L
409.766 139.364 L
411.363 139.364 L
412.961 139.364 L
414.559 139.364 L
416.156 139.364 L
417.754 139.364 L
419.352 139.364 L
420.949 139.364 L
422.547 139.364 L
424.145 139.364 L
425.742 139.364 L
427.34 139.364 L
428.938 139.364 L
430.535 139.364 L
432.133 139.364 L
433.73 139.364 L
435.328 139.364 L
436.926 139.364 L
438.523 139.364 L
440.121 139.364 L
441.719 139.364 L
443.316 139.364 L
444.914 139.364 L
446.512 139.364 L
448.109 139.364 L
449.707 139.364 L
451.305 139.364 L
452.902 139.364 L
454.5 139.364 L
456.098 139.364 L
457.695 139.364 L
459.293 139.364 L
460.891 139.364 L
462.488 139.364 L
464.086 139.364 L
465.684 139.364 L
467.281 139.364 L
468.879 139.364 L
470.477 139.364 L
472.074 139.364 L
473.672 139.364 L
475.27 139.364 L
476.867 139.364 L
478.465 139.364 L
480.063 139.364 L
481.66 139.364 L
483.258 139.364 L
484.855 139.364 L
486.453 139.364 L
488.051 139.364 L
489.648 139.364 L
491.246 139.364 L
492.844 139.364 L
494.441 139.364 L
496.039 139.364 L
497.637 139.364 L
499.234 139.364 L
500.832 139.364 L
502.43 139.364 L
504.027 139.364 L
505.625 139.364 L
507.223 139.364 L
508.82 139.364 L
510.418 139.364 L
512.016 139.364 L
513.613 139.364 L
515.211 139.364 L
516.809 139.364 L
518.406 139.364 L
520.004 139.364 L
521.602 139.364 L
523.199 139.364 L
524.797 139.364 L
526.395 139.364 L
527.992 139.364 L
529.59 139.364 L
531.188 139.364 L
532.785 139.364 L
534.383 139.364 L
535.98 139.364 L
537.578 139.364 L
539.176 139.364 L
540.773 139.364 L
542.371 139.364 L
543.969 139.364 L
545.566 139.364 L
547.164 139.364 L
548.762 139.364 L
550.359 139.364 L
551.957 139.364 L
553.555 139.364 L
555.152 139.364 L
556.75 139.364 L
558.348 139.364 L
559.945 139.364 L
561.543 139.364 L
563.141 139.364 L
564.738 139.364 L
566.336 139.364 L
567.934 139.364 L
569.531 139.364 L
571.129 139.364 L
572.727 139.364 L
574.324 139.364 L
575.922 139.364 L
577.52 139.364 L
579.117 139.364 L
580.715 139.364 L
582.313 139.364 L
583.91 139.364 L
585.508 139.364 L
587.105 139.364 L
588.703 139.364 L
590.301 139.364 L
591.898 139.364 L
593.496 139.364 L
595.094 139.364 L
596.691 139.364 L
598.289 139.364 L
599.887 139.364 L
601.484 139.364 L
603.082 139.364 L
604.68 139.364 L
606.277 139.364 L
607.875 139.364 L
609.473 139.364 L
611.07 139.364 L
612.668 139.364 L
614.266 139.364 L
615.863 139.364 L
617.461 139.364 L
619.059 139.364 L
620.656 139.364 L
622.254 139.364 L
623.852 139.364 L
625.449 139.364 L
627.047 139.364 L
628.645 139.364 L
630.242 139.364 L
631.84 139.364 L
633.438 139.364 L
635.035 139.364 L
636.633 139.364 L
638.23 139.364 L
639.828 139.364 L
641.426 139.364 L
643.023 139.364 L
644.621 139.364 L
646.219 139.364 L
647.816 139.364 L
649.414 139.364 L
651.012 139.364 L
652.609 139.365 L
654.207 139.367 L
655.805 139.38 L
657.402 139.622 L
S
GR
GS
[0.6 0 0 0.6 0 0.39996] CT
1 GC
N
542 144 M
542 87 L
642 87 L
642 144 L
cp
f
GR
GS
[0.6 0 0 0.6 352.8 63.39997] CT
/Helvetica 15 F
GS
[1 0 0 1 0 0] CT
0 0 moveto 
1 -1 scale
(Filter i) t 
GR
GR
GS
[0.6 0 0 0.6 377.4 67.59997] CT
/Helvetica 12 F
GS
[1 0 0 1 0 0] CT
0 0 moveto 
1 -1 scale
(0) t 
GR
GR
GS
[0.6 0 0 0.6 0 0.39996] CT
0 0.447 0.741 RC
1 LJ
0.833 LW
N
546.988 102.332 M
584.394 102.332 L
S
GR
GS
[0.6 0 0 0.6 352.8 79.59997] CT
/Helvetica 15 F
GS
[1 0 0 1 0 0] CT
0 0 moveto 
1 -1 scale
(Filter n) t 
GR
GR
GS
[0.6 0 0 0.6 380.4 83.79997] CT
/Helvetica 12 F
GS
[1 0 0 1 0 0] CT
0 0 moveto 
1 -1 scale
(i) t 
GR
GR
GS
[0.6 0 0 0.6 0 0.39996] CT
0.851 0.325 0.098 RC
1 LJ
0.833 LW
N
546.988 128.668 M
584.394 128.668 L
S
GR
GS
[0.6 0 0 0.6 0 0.39996] CT
0.149 GC
10.0 ML
0.833 LW
N
542 144 M
542 87 L
642 87 L
642 144 L
cp
S
GR
GS
[0.6 0 0 0.6 0 0.39996] CT
1 GC
N
789 833 M
1198 833 L
1198 70 L
789 70 L
cp
f
GR
GS
[0.6 0 0 0.6 0 0.39996] CT
0.149 GC
2 setlinecap
1 LJ
0.833 LW
N
789 833 M
1198 833 L
S
GR
GS
[0.6 0 0 0.6 0 0.39996] CT
0.149 GC
2 setlinecap
1 LJ
0.833 LW
N
789 70 M
1198 70 L
S
GR
GS
[0.6 0 0 0.6 0 0.39996] CT
0.149 GC
2 setlinecap
1 LJ
0.833 LW
N
789 833 M
789 825.37 L
S
GR
GS
[0.6 0 0 0.6 0 0.39996] CT
0.149 GC
2 setlinecap
1 LJ
0.833 LW
N
870.8 833 M
870.8 825.37 L
S
GR
GS
[0.6 0 0 0.6 0 0.39996] CT
0.149 GC
2 setlinecap
1 LJ
0.833 LW
N
952.6 833 M
952.6 825.37 L
S
GR
GS
[0.6 0 0 0.6 0 0.39996] CT
0.149 GC
2 setlinecap
1 LJ
0.833 LW
N
1034.4 833 M
1034.4 825.37 L
S
GR
GS
[0.6 0 0 0.6 0 0.39996] CT
0.149 GC
2 setlinecap
1 LJ
0.833 LW
N
1116.2 833 M
1116.2 825.37 L
S
GR
GS
[0.6 0 0 0.6 0 0.39996] CT
0.149 GC
2 setlinecap
1 LJ
0.833 LW
N
1198 833 M
1198 825.37 L
S
GR
GS
[0.6 0 0 0.6 0 0.39996] CT
0.149 GC
2 setlinecap
1 LJ
0.833 LW
N
789 70 M
789 77.63 L
S
GR
GS
[0.6 0 0 0.6 0 0.39996] CT
0.149 GC
2 setlinecap
1 LJ
0.833 LW
N
870.8 70 M
870.8 77.63 L
S
GR
GS
[0.6 0 0 0.6 0 0.39996] CT
0.149 GC
2 setlinecap
1 LJ
0.833 LW
N
952.6 70 M
952.6 77.63 L
S
GR
GS
[0.6 0 0 0.6 0 0.39996] CT
0.149 GC
2 setlinecap
1 LJ
0.833 LW
N
1034.4 70 M
1034.4 77.63 L
S
GR
GS
[0.6 0 0 0.6 0 0.39996] CT
0.149 GC
2 setlinecap
1 LJ
0.833 LW
N
1116.2 70 M
1116.2 77.63 L
S
GR
GS
[0.6 0 0 0.6 0 0.39996] CT
0.149 GC
2 setlinecap
1 LJ
0.833 LW
N
1198 70 M
1198 77.63 L
S
GR
GS
[0.6 0 0 0.6 473.4 504.20001] CT
0.149 GC
/Helvetica 16.667 F
GS
[1 0 0 1 0 0] CT
-5 18 moveto 
1 -1 scale
(0) t 
GR
GR
GS
[0.6 0 0 0.6 522.47999 504.20001] CT
0.149 GC
/Helvetica 16.667 F
GS
[1 0 0 1 0 0] CT
-12 18 moveto 
1 -1 scale
(0.1) t 
GR
GR
GS
[0.6 0 0 0.6 571.55999 504.20001] CT
0.149 GC
/Helvetica 16.667 F
GS
[1 0 0 1 0 0] CT
-12 18 moveto 
1 -1 scale
(0.2) t 
GR
GR
GS
[0.6 0 0 0.6 620.64001 504.20001] CT
0.149 GC
/Helvetica 16.667 F
GS
[1 0 0 1 0 0] CT
-12 18 moveto 
1 -1 scale
(0.3) t 
GR
GR
GS
[0.6 0 0 0.6 669.71997 504.20001] CT
0.149 GC
/Helvetica 16.667 F
GS
[1 0 0 1 0 0] CT
-12 18 moveto 
1 -1 scale
(0.4) t 
GR
GR
GS
[0.6 0 0 0.6 718.8 504.20001] CT
0.149 GC
/Helvetica 16.667 F
GS
[1 0 0 1 0 0] CT
-12 18 moveto 
1 -1 scale
(0.5) t 
GR
GR
GS
[0.6 0 0 0.6 589.2 529.6] CT
0.149 GC
/Helvetica 18.333 F
GS
[1 0 0 1 0 0] CT
0 0 moveto 
1 -1 scale
(f/f) t 
GR
GR
GS
[0.6 0 0 0.6 598.8 535] CT
0.149 GC
/Helvetica 14.667 F
GS
[1 0 0 1 0 0] CT
0 0 moveto 
1 -1 scale
(s) t 
GR
GR
GS
[0.6 0 0 0.6 0 0.39996] CT
0.149 GC
2 setlinecap
1 LJ
0.833 LW
N
789 833 M
789 70 L
S
GR
GS
[0.6 0 0 0.6 0 0.39996] CT
0.149 GC
2 setlinecap
1 LJ
0.833 LW
N
1198 833 M
1198 70 L
S
GR
GS
[0.6 0 0 0.6 0 0.39996] CT
0.149 GC
2 setlinecap
1 LJ
0.833 LW
N
789 833 M
796.63 833 L
S
GR
GS
[0.6 0 0 0.6 0 0.39996] CT
0.149 GC
2 setlinecap
1 LJ
0.833 LW
N
789 763.636 M
796.63 763.636 L
S
GR
GS
[0.6 0 0 0.6 0 0.39996] CT
0.149 GC
2 setlinecap
1 LJ
0.833 LW
N
789 694.273 M
796.63 694.273 L
S
GR
GS
[0.6 0 0 0.6 0 0.39996] CT
0.149 GC
2 setlinecap
1 LJ
0.833 LW
N
789 624.909 M
796.63 624.909 L
S
GR
GS
[0.6 0 0 0.6 0 0.39996] CT
0.149 GC
2 setlinecap
1 LJ
0.833 LW
N
789 555.545 M
796.63 555.545 L
S
GR
GS
[0.6 0 0 0.6 0 0.39996] CT
0.149 GC
2 setlinecap
1 LJ
0.833 LW
N
789 486.182 M
796.63 486.182 L
S
GR
GS
[0.6 0 0 0.6 0 0.39996] CT
0.149 GC
2 setlinecap
1 LJ
0.833 LW
N
789 416.818 M
796.63 416.818 L
S
GR
GS
[0.6 0 0 0.6 0 0.39996] CT
0.149 GC
2 setlinecap
1 LJ
0.833 LW
N
789 347.455 M
796.63 347.455 L
S
GR
GS
[0.6 0 0 0.6 0 0.39996] CT
0.149 GC
2 setlinecap
1 LJ
0.833 LW
N
789 278.091 M
796.63 278.091 L
S
GR
GS
[0.6 0 0 0.6 0 0.39996] CT
0.149 GC
2 setlinecap
1 LJ
0.833 LW
N
789 208.727 M
796.63 208.727 L
S
GR
GS
[0.6 0 0 0.6 0 0.39996] CT
0.149 GC
2 setlinecap
1 LJ
0.833 LW
N
789 139.364 M
796.63 139.364 L
S
GR
GS
[0.6 0 0 0.6 0 0.39996] CT
0.149 GC
2 setlinecap
1 LJ
0.833 LW
N
789 70 M
796.63 70 L
S
GR
GS
[0.6 0 0 0.6 0 0.39996] CT
0.149 GC
2 setlinecap
1 LJ
0.833 LW
N
1198 833 M
1190.37 833 L
S
GR
GS
[0.6 0 0 0.6 0 0.39996] CT
0.149 GC
2 setlinecap
1 LJ
0.833 LW
N
1198 763.636 M
1190.37 763.636 L
S
GR
GS
[0.6 0 0 0.6 0 0.39996] CT
0.149 GC
2 setlinecap
1 LJ
0.833 LW
N
1198 694.273 M
1190.37 694.273 L
S
GR
GS
[0.6 0 0 0.6 0 0.39996] CT
0.149 GC
2 setlinecap
1 LJ
0.833 LW
N
1198 624.909 M
1190.37 624.909 L
S
GR
GS
[0.6 0 0 0.6 0 0.39996] CT
0.149 GC
2 setlinecap
1 LJ
0.833 LW
N
1198 555.545 M
1190.37 555.545 L
S
GR
GS
[0.6 0 0 0.6 0 0.39996] CT
0.149 GC
2 setlinecap
1 LJ
0.833 LW
N
1198 486.182 M
1190.37 486.182 L
S
GR
GS
[0.6 0 0 0.6 0 0.39996] CT
0.149 GC
2 setlinecap
1 LJ
0.833 LW
N
1198 416.818 M
1190.37 416.818 L
S
GR
GS
[0.6 0 0 0.6 0 0.39996] CT
0.149 GC
2 setlinecap
1 LJ
0.833 LW
N
1198 347.455 M
1190.37 347.455 L
S
GR
GS
[0.6 0 0 0.6 0 0.39996] CT
0.149 GC
2 setlinecap
1 LJ
0.833 LW
N
1198 278.091 M
1190.37 278.091 L
S
GR
GS
[0.6 0 0 0.6 0 0.39996] CT
0.149 GC
2 setlinecap
1 LJ
0.833 LW
N
1198 208.727 M
1190.37 208.727 L
S
GR
GS
[0.6 0 0 0.6 0 0.39996] CT
0.149 GC
2 setlinecap
1 LJ
0.833 LW
N
1198 139.364 M
1190.37 139.364 L
S
GR
GS
[0.6 0 0 0.6 0 0.39996] CT
0.149 GC
2 setlinecap
1 LJ
0.833 LW
N
1198 70 M
1190.37 70 L
S
GR
GS
[0.6 0 0 0.6 469.39999 500.2] CT
0.149 GC
/Helvetica 16.667 F
GS
[1 0 0 1 0 0] CT
-25 7 moveto 
1 -1 scale
(-50) t 
GR
GR
GS
[0.6 0 0 0.6 469.39999 458.5818] CT
0.149 GC
/Helvetica 16.667 F
GS
[1 0 0 1 0 0] CT
-25 7 moveto 
1 -1 scale
(-45) t 
GR
GR
GS
[0.6 0 0 0.6 469.39999 416.96361] CT
0.149 GC
/Helvetica 16.667 F
GS
[1 0 0 1 0 0] CT
-25 7 moveto 
1 -1 scale
(-40) t 
GR
GR
GS
[0.6 0 0 0.6 469.39999 375.34546] CT
0.149 GC
/Helvetica 16.667 F
GS
[1 0 0 1 0 0] CT
-25 7 moveto 
1 -1 scale
(-35) t 
GR
GR
GS
[0.6 0 0 0.6 469.39999 333.72727] CT
0.149 GC
/Helvetica 16.667 F
GS
[1 0 0 1 0 0] CT
-25 7 moveto 
1 -1 scale
(-30) t 
GR
GR
GS
[0.6 0 0 0.6 469.39999 292.10908] CT
0.149 GC
/Helvetica 16.667 F
GS
[1 0 0 1 0 0] CT
-25 7 moveto 
1 -1 scale
(-25) t 
GR
GR
GS
[0.6 0 0 0.6 469.39999 250.49089] CT
0.149 GC
/Helvetica 16.667 F
GS
[1 0 0 1 0 0] CT
-25 7 moveto 
1 -1 scale
(-20) t 
GR
GR
GS
[0.6 0 0 0.6 469.39999 208.87271] CT
0.149 GC
/Helvetica 16.667 F
GS
[1 0 0 1 0 0] CT
-25 7 moveto 
1 -1 scale
(-15) t 
GR
GR
GS
[0.6 0 0 0.6 469.39999 167.25452] CT
0.149 GC
/Helvetica 16.667 F
GS
[1 0 0 1 0 0] CT
-25 7 moveto 
1 -1 scale
(-10) t 
GR
GR
GS
[0.6 0 0 0.6 469.39999 125.63634] CT
0.149 GC
/Helvetica 16.667 F
GS
[1 0 0 1 0 0] CT
-16 7 moveto 
1 -1 scale
(-5) t 
GR
GR
GS
[0.6 0 0 0.6 469.39999 84.01815] CT
0.149 GC
/Helvetica 16.667 F
GS
[1 0 0 1 0 0] CT
-10 7 moveto 
1 -1 scale
(0) t 
GR
GR
GS
[0.6 0 0 0.6 469.39999 42.39997] CT
0.149 GC
/Helvetica 16.667 F
GS
[1 0 0 1 0 0] CT
-10 7 moveto 
1 -1 scale
(5) t 
GR
GR
GS
[0 -0.6 0.6 0 451.39999 271.29976] CT
0.149 GC
/Helvetica 18.333 F
GS
[1 0 0 1 0 0] CT
-38.5 -4 moveto 
1 -1 scale
(Filter |dB|) t 
GR
GR
GS
[0.6 0 0 0.6 480 32.79997] CT
/Helvetica-Bold 18.333 F
GS
[1 0 0 1 0 0] CT
0 0 moveto 
1 -1 scale
(Filter characteristics of i) t 
GR
GR
GS
[0.6 0 0 0.6 605.4 38.19997] CT
/Helvetica-Bold 14.667 F
GS
[1 0 0 1 0 0] CT
0 0 moveto 
1 -1 scale
(0) t 
GR
GR
GS
[0.6 0 0 0.6 610.8 32.79997] CT
/Helvetica-Bold 18.333 F
GS
[1 0 0 1 0 0] CT
0 0 moveto 
1 -1 scale
( and n) t 
GR
GR
GS
[0.6 0 0 0.6 642.6 38.19997] CT
/Helvetica-Bold 14.667 F
GS
[1 0 0 1 0 0] CT
0 0 moveto 
1 -1 scale
(i) t 
GR
GR
GS
[0.6 0 0 0.6 645.6 32.79997] CT
/Helvetica-Bold 18.333 F
GS
[1 0 0 1 0 0] CT
0 0 moveto 
1 -1 scale
(, f) t 
GR
GR
GS
[0.6 0 0 0.6 655.2 38.19997] CT
/Helvetica-Bold 14.667 F
GS
[1 0 0 1 0 0] CT
0 0 moveto 
1 -1 scale
(noise) t 
GR
GR
GS
[0.6 0 0 0.6 679.2 32.79997] CT
/Helvetica-Bold 18.333 F
GS
[1 0 0 1 0 0] CT
0 0 moveto 
1 -1 scale
( = 0.95) t 
GR
GR
GS
[0.6 0 0 0.6 0 0.39996] CT
0 0.447 0.741 RC
1 LJ
0.833 LW
N
789 139.364 M
790.598 139.454 L
792.195 139.724 L
793.793 140.172 L
795.391 140.794 L
796.988 141.584 L
798.586 142.537 L
800.184 143.644 L
801.781 144.898 L
803.379 146.289 L
804.977 147.808 L
806.574 149.446 L
808.172 151.191 L
809.77 153.035 L
811.367 154.967 L
812.965 156.979 L
814.563 159.06 L
816.16 161.203 L
817.758 163.4 L
819.355 165.641 L
820.953 167.922 L
822.551 170.234 L
824.148 172.572 L
825.746 174.931 L
827.344 177.305 L
828.941 179.69 L
830.539 182.082 L
832.137 184.477 L
833.734 186.873 L
835.332 189.265 L
836.93 191.652 L
838.527 194.032 L
840.125 196.402 L
841.723 198.761 L
843.32 201.107 L
844.918 203.44 L
846.516 205.757 L
848.113 208.059 L
849.711 210.343 L
851.309 212.611 L
852.906 214.861 L
854.504 217.093 L
856.102 219.306 L
857.699 221.501 L
859.297 223.677 L
860.895 225.834 L
862.492 227.973 L
864.09 230.092 L
865.688 232.193 L
867.285 234.275 L
868.883 236.339 L
870.48 238.384 L
872.078 240.412 L
873.676 242.421 L
875.273 244.413 L
876.871 246.388 L
878.469 248.345 L
880.066 250.286 L
881.664 252.21 L
883.262 254.118 L
884.859 256.01 L
886.457 257.886 L
888.055 259.748 L
889.652 261.594 L
891.25 263.426 L
892.848 265.243 L
894.445 267.046 L
896.043 268.836 L
897.641 270.613 L
899.238 272.376 L
900.836 274.126 L
902.434 275.864 L
904.031 277.59 L
905.629 279.305 L
907.227 281.007 L
908.824 282.699 L
910.422 284.379 L
912.02 286.049 L
913.617 287.709 L
915.215 289.358 L
916.813 290.998 L
918.41 292.628 L
920.008 294.249 L
921.605 295.861 L
923.203 297.464 L
924.801 299.059 L
926.398 300.646 L
927.996 302.224 L
929.594 303.796 L
931.191 305.359 L
932.789 306.915 L
934.387 308.465 L
935.984 310.008 L
937.582 311.544 L
939.18 313.074 L
940.777 314.598 L
942.375 316.116 L
943.973 317.629 L
945.57 319.136 L
947.168 320.638 L
948.766 322.136 L
950.363 323.628 L
951.961 325.116 L
953.559 326.6 L
955.156 328.08 L
956.754 329.556 L
958.352 331.028 L
959.949 332.497 L
961.547 333.963 L
963.145 335.426 L
964.742 336.885 L
966.34 338.343 L
967.938 339.797 L
969.535 341.25 L
971.133 342.7 L
972.73 344.149 L
974.328 345.596 L
975.926 347.041 L
977.523 348.485 L
979.121 349.928 L
980.719 351.371 L
982.316 352.812 L
983.914 354.253 L
985.512 355.694 L
987.109 357.134 L
988.707 358.575 L
990.305 360.016 L
991.902 361.458 L
993.5 362.9 L
995.098 364.343 L
996.695 365.787 L
998.293 367.232 L
999.891 368.679 L
1001.488 370.127 L
1003.086 371.578 L
1004.684 373.03 L
1006.281 374.485 L
1007.879 375.942 L
1009.477 377.402 L
1011.074 378.865 L
1012.672 380.33 L
1014.27 381.8 L
1015.867 383.272 L
1017.465 384.749 L
1019.063 386.229 L
1020.66 387.714 L
1022.258 389.204 L
1023.855 390.698 L
1025.453 392.196 L
1027.051 393.701 L
1028.648 395.21 L
1030.246 396.725 L
1031.844 398.246 L
1033.441 399.774 L
1035.039 401.308 L
1036.637 402.848 L
1038.234 404.396 L
1039.832 405.951 L
1041.43 407.513 L
1043.027 409.084 L
1044.625 410.662 L
1046.223 412.25 L
1047.82 413.846 L
1049.418 415.451 L
1051.016 417.065 L
1052.613 418.69 L
1054.211 420.324 L
1055.809 421.97 L
1057.406 423.626 L
1059.004 425.293 L
1060.602 426.972 L
1062.199 428.664 L
1063.797 430.367 L
1065.395 432.084 L
1066.992 433.814 L
1068.59 435.559 L
1070.188 437.317 L
1071.785 439.09 L
1073.383 440.879 L
1074.98 442.683 L
1076.578 444.504 L
1078.176 446.342 L
1079.773 448.198 L
1081.371 450.072 L
1082.969 451.964 L
1084.566 453.877 L
1086.164 455.809 L
1087.762 457.762 L
1089.359 459.737 L
1090.957 461.734 L
1092.555 463.755 L
1094.152 465.799 L
1095.75 467.869 L
1097.348 469.964 L
1098.945 472.086 L
1100.543 474.236 L
1102.141 476.415 L
1103.738 478.624 L
1105.336 480.864 L
1106.934 483.137 L
1108.531 485.443 L
1110.129 487.784 L
1111.727 490.162 L
1113.324 492.577 L
1114.922 495.033 L
1116.52 497.529 L
1118.117 500.069 L
1119.715 502.653 L
1121.313 505.284 L
1122.91 507.965 L
1124.508 510.696 L
1126.105 513.482 L
1127.703 516.324 L
1129.301 519.224 L
1130.898 522.187 L
1132.496 525.215 L
1134.094 528.312 L
1135.691 531.48 L
1137.289 534.725 L
1138.887 538.05 L
1140.484 541.46 L
1142.082 544.96 L
1143.68 548.556 L
1145.277 552.252 L
1146.875 556.056 L
1148.473 559.975 L
1150.07 564.016 L
1151.668 568.188 L
1153.266 572.501 L
1154.863 576.964 L
1156.461 581.59 L
1158.059 586.391 L
1159.656 591.382 L
1161.254 596.579 L
1162.852 602.001 L
1164.449 607.67 L
1166.047 613.609 L
1167.645 619.847 L
1169.242 626.416 L
1170.84 633.355 L
1172.438 640.708 L
1174.035 648.53 L
1175.633 656.886 L
1177.23 665.855 L
1178.828 675.536 L
1180.426 686.054 L
1182.023 697.57 L
1183.621 710.293 L
1185.219 724.51 L
1186.816 740.622 L
1188.414 759.216 L
1190.012 781.201 L
1191.609 808.102 L
1192.761 833.091 L
S
GR
GS
[0.6 0 0 0.6 0 0.39996] CT
0.851 0.325 0.098 RC
1 LJ
0.833 LW
N
789 139.364 M
790.598 139.364 L
792.195 139.364 L
793.793 139.364 L
795.391 139.364 L
796.988 139.364 L
798.586 139.364 L
800.184 139.364 L
801.781 139.364 L
803.379 139.364 L
804.977 139.364 L
806.574 139.364 L
808.172 139.364 L
809.77 139.364 L
811.367 139.364 L
812.965 139.364 L
814.563 139.364 L
816.16 139.364 L
817.758 139.364 L
819.355 139.364 L
820.953 139.364 L
822.551 139.364 L
824.148 139.364 L
825.746 139.364 L
827.344 139.364 L
828.941 139.364 L
830.539 139.364 L
832.137 139.364 L
833.734 139.364 L
835.332 139.364 L
836.93 139.364 L
838.527 139.364 L
840.125 139.364 L
841.723 139.364 L
843.32 139.364 L
844.918 139.364 L
846.516 139.364 L
848.113 139.364 L
849.711 139.364 L
851.309 139.364 L
852.906 139.364 L
854.504 139.364 L
856.102 139.364 L
857.699 139.364 L
859.297 139.364 L
860.895 139.364 L
862.492 139.364 L
864.09 139.364 L
865.688 139.364 L
867.285 139.364 L
868.883 139.364 L
870.48 139.364 L
872.078 139.364 L
873.676 139.364 L
875.273 139.364 L
876.871 139.364 L
878.469 139.364 L
880.066 139.364 L
881.664 139.364 L
883.262 139.364 L
884.859 139.364 L
886.457 139.364 L
888.055 139.364 L
889.652 139.364 L
891.25 139.364 L
892.848 139.364 L
894.445 139.364 L
896.043 139.364 L
897.641 139.364 L
899.238 139.364 L
900.836 139.364 L
902.434 139.364 L
904.031 139.364 L
905.629 139.364 L
907.227 139.364 L
908.824 139.364 L
910.422 139.364 L
912.02 139.364 L
913.617 139.364 L
915.215 139.364 L
916.813 139.364 L
918.41 139.364 L
920.008 139.364 L
921.605 139.364 L
923.203 139.364 L
924.801 139.364 L
926.398 139.364 L
927.996 139.364 L
929.594 139.364 L
931.191 139.364 L
932.789 139.364 L
934.387 139.364 L
935.984 139.364 L
937.582 139.364 L
939.18 139.364 L
940.777 139.364 L
942.375 139.364 L
943.973 139.364 L
945.57 139.364 L
947.168 139.364 L
948.766 139.364 L
950.363 139.364 L
951.961 139.364 L
953.559 139.364 L
955.156 139.364 L
956.754 139.364 L
958.352 139.364 L
959.949 139.364 L
961.547 139.364 L
963.145 139.365 L
964.742 139.365 L
966.34 139.365 L
967.938 139.365 L
969.535 139.365 L
971.133 139.365 L
972.73 139.365 L
974.328 139.365 L
975.926 139.365 L
977.523 139.365 L
979.121 139.365 L
980.719 139.365 L
982.316 139.365 L
983.914 139.365 L
985.512 139.365 L
987.109 139.366 L
988.707 139.366 L
990.305 139.366 L
991.902 139.366 L
993.5 139.366 L
995.098 139.366 L
996.695 139.366 L
998.293 139.366 L
999.891 139.366 L
1001.488 139.367 L
1003.086 139.367 L
1004.684 139.367 L
1006.281 139.367 L
1007.879 139.367 L
1009.477 139.367 L
1011.074 139.368 L
1012.672 139.368 L
1014.27 139.368 L
1015.867 139.368 L
1017.465 139.368 L
1019.063 139.369 L
1020.66 139.369 L
1022.258 139.369 L
1023.855 139.37 L
1025.453 139.37 L
1027.051 139.37 L
1028.648 139.371 L
1030.246 139.371 L
1031.844 139.371 L
1033.441 139.372 L
1035.039 139.372 L
1036.637 139.373 L
1038.234 139.373 L
1039.832 139.374 L
1041.43 139.374 L
1043.027 139.375 L
1044.625 139.375 L
1046.223 139.376 L
1047.82 139.377 L
1049.418 139.377 L
1051.016 139.378 L
1052.613 139.379 L
1054.211 139.38 L
1055.809 139.381 L
1057.406 139.382 L
1059.004 139.383 L
1060.602 139.384 L
1062.199 139.385 L
1063.797 139.386 L
1065.395 139.387 L
1066.992 139.389 L
1068.59 139.39 L
1070.188 139.392 L
1071.785 139.394 L
1073.383 139.396 L
1074.98 139.398 L
1076.578 139.4 L
1078.176 139.402 L
1079.773 139.404 L
1081.371 139.407 L
1082.969 139.41 L
1084.566 139.413 L
1086.164 139.416 L
1087.762 139.42 L
1089.359 139.423 L
1090.957 139.428 L
1092.555 139.432 L
1094.152 139.437 L
1095.75 139.442 L
1097.348 139.448 L
1098.945 139.454 L
1100.543 139.461 L
1102.141 139.468 L
1103.738 139.476 L
1105.336 139.485 L
1106.934 139.494 L
1108.531 139.505 L
1110.129 139.516 L
1111.727 139.528 L
1113.324 139.542 L
1114.922 139.557 L
1116.52 139.574 L
1118.117 139.593 L
1119.715 139.613 L
1121.313 139.636 L
1122.91 139.661 L
1124.508 139.69 L
1126.105 139.721 L
1127.703 139.756 L
1129.301 139.796 L
1130.898 139.841 L
1132.496 139.891 L
1134.094 139.948 L
1135.691 140.012 L
1137.289 140.086 L
1138.887 140.17 L
1140.484 140.266 L
1142.082 140.376 L
1143.68 140.504 L
1145.277 140.651 L
1146.875 140.822 L
1148.473 141.022 L
1150.07 141.257 L
1151.668 141.534 L
1153.266 141.861 L
1154.863 142.251 L
1156.461 142.717 L
1158.059 143.278 L
1159.656 143.958 L
1161.254 144.786 L
1162.852 145.8 L
1164.449 147.052 L
1166.047 148.605 L
1167.645 150.546 L
1169.242 152.984 L
1170.84 156.062 L
1172.438 159.966 L
1174.035 164.931 L
1175.633 171.249 L
1177.23 179.278 L
1178.828 189.436 L
1180.426 202.196 L
1182.023 218.074 L
1183.621 237.623 L
1185.219 261.45 L
1186.816 290.293 L
1188.414 325.172 L
1190.012 367.697 L
1191.609 420.691 L
1193.207 489.655 L
1194.805 587.24 L
1196.402 754.26 L
S
GR
GS
[0.6 0 0 0.6 0 0.39996] CT
1 GC
N
1081 144 M
1081 87 L
1181 87 L
1181 144 L
cp
f
GR
GS
[0.6 0 0 0.6 676.2 63.39997] CT
/Helvetica 15 F
GS
[1 0 0 1 0 0] CT
0 0 moveto 
1 -1 scale
(Filter i) t 
GR
GR
GS
[0.6 0 0 0.6 700.8 67.59997] CT
/Helvetica 12 F
GS
[1 0 0 1 0 0] CT
0 0 moveto 
1 -1 scale
(0) t 
GR
GR
GS
[0.6 0 0 0.6 0 0.39996] CT
0 0.447 0.741 RC
1 LJ
0.833 LW
N
1085.988 102.332 M
1123.394 102.332 L
S
GR
GS
[0.6 0 0 0.6 676.2 79.59997] CT
/Helvetica 15 F
GS
[1 0 0 1 0 0] CT
0 0 moveto 
1 -1 scale
(Filter n) t 
GR
GR
GS
[0.6 0 0 0.6 703.8 83.79997] CT
/Helvetica 12 F
GS
[1 0 0 1 0 0] CT
0 0 moveto 
1 -1 scale
(i) t 
GR
GR
GS
[0.6 0 0 0.6 0 0.39996] CT
0.851 0.325 0.098 RC
1 LJ
0.833 LW
N
1085.988 128.668 M
1123.394 128.668 L
S
GR
GS
[0.6 0 0 0.6 0 0.39996] CT
0.149 GC
10.0 ML
0.833 LW
N
1081 144 M
1081 87 L
1181 87 L
1181 144 L
cp
S
GR
GS
[0.6 0 0 0.6 0 0.39996] CT
1 GC
N
1328 833 M
1738 833 L
1738 70 L
1328 70 L
cp
f
GR
GS
[0.6 0 0 0.6 0 0.39996] CT
0.149 GC
2 setlinecap
1 LJ
0.833 LW
N
1328 833 M
1738 833 L
S
GR
GS
[0.6 0 0 0.6 0 0.39996] CT
0.149 GC
2 setlinecap
1 LJ
0.833 LW
N
1328 70 M
1738 70 L
S
GR
GS
[0.6 0 0 0.6 0 0.39996] CT
0.149 GC
2 setlinecap
1 LJ
0.833 LW
N
1328 833 M
1328 825.37 L
S
GR
GS
[0.6 0 0 0.6 0 0.39996] CT
0.149 GC
2 setlinecap
1 LJ
0.833 LW
N
1410 833 M
1410 825.37 L
S
GR
GS
[0.6 0 0 0.6 0 0.39996] CT
0.149 GC
2 setlinecap
1 LJ
0.833 LW
N
1492 833 M
1492 825.37 L
S
GR
GS
[0.6 0 0 0.6 0 0.39996] CT
0.149 GC
2 setlinecap
1 LJ
0.833 LW
N
1574 833 M
1574 825.37 L
S
GR
GS
[0.6 0 0 0.6 0 0.39996] CT
0.149 GC
2 setlinecap
1 LJ
0.833 LW
N
1656 833 M
1656 825.37 L
S
GR
GS
[0.6 0 0 0.6 0 0.39996] CT
0.149 GC
2 setlinecap
1 LJ
0.833 LW
N
1738 833 M
1738 825.37 L
S
GR
GS
[0.6 0 0 0.6 0 0.39996] CT
0.149 GC
2 setlinecap
1 LJ
0.833 LW
N
1328 70 M
1328 77.63 L
S
GR
GS
[0.6 0 0 0.6 0 0.39996] CT
0.149 GC
2 setlinecap
1 LJ
0.833 LW
N
1410 70 M
1410 77.63 L
S
GR
GS
[0.6 0 0 0.6 0 0.39996] CT
0.149 GC
2 setlinecap
1 LJ
0.833 LW
N
1492 70 M
1492 77.63 L
S
GR
GS
[0.6 0 0 0.6 0 0.39996] CT
0.149 GC
2 setlinecap
1 LJ
0.833 LW
N
1574 70 M
1574 77.63 L
S
GR
GS
[0.6 0 0 0.6 0 0.39996] CT
0.149 GC
2 setlinecap
1 LJ
0.833 LW
N
1656 70 M
1656 77.63 L
S
GR
GS
[0.6 0 0 0.6 0 0.39996] CT
0.149 GC
2 setlinecap
1 LJ
0.833 LW
N
1738 70 M
1738 77.63 L
S
GR
GS
[0.6 0 0 0.6 796.8 504.20001] CT
0.149 GC
/Helvetica 16.667 F
GS
[1 0 0 1 0 0] CT
-5 18 moveto 
1 -1 scale
(0) t 
GR
GR
GS
[0.6 0 0 0.6 846 504.20001] CT
0.149 GC
/Helvetica 16.667 F
GS
[1 0 0 1 0 0] CT
-12 18 moveto 
1 -1 scale
(0.1) t 
GR
GR
GS
[0.6 0 0 0.6 895.2 504.20001] CT
0.149 GC
/Helvetica 16.667 F
GS
[1 0 0 1 0 0] CT
-12 18 moveto 
1 -1 scale
(0.2) t 
GR
GR
GS
[0.6 0 0 0.6 944.4 504.20001] CT
0.149 GC
/Helvetica 16.667 F
GS
[1 0 0 1 0 0] CT
-12 18 moveto 
1 -1 scale
(0.3) t 
GR
GR
GS
[0.6 0 0 0.6 993.6 504.20001] CT
0.149 GC
/Helvetica 16.667 F
GS
[1 0 0 1 0 0] CT
-12 18 moveto 
1 -1 scale
(0.4) t 
GR
GR
GS
[0.6 0 0 0.6 1042.8 504.20001] CT
0.149 GC
/Helvetica 16.667 F
GS
[1 0 0 1 0 0] CT
-12 18 moveto 
1 -1 scale
(0.5) t 
GR
GR
GS
[0.6 0 0 0.6 912.6 529.6] CT
0.149 GC
/Helvetica 18.333 F
GS
[1 0 0 1 0 0] CT
0 0 moveto 
1 -1 scale
(f/f) t 
GR
GR
GS
[0.6 0 0 0.6 922.2 535] CT
0.149 GC
/Helvetica 14.667 F
GS
[1 0 0 1 0 0] CT
0 0 moveto 
1 -1 scale
(s) t 
GR
GR
GS
[0.6 0 0 0.6 0 0.39996] CT
0.149 GC
2 setlinecap
1 LJ
0.833 LW
N
1328 833 M
1328 70 L
S
GR
GS
[0.6 0 0 0.6 0 0.39996] CT
0.149 GC
2 setlinecap
1 LJ
0.833 LW
N
1738 833 M
1738 70 L
S
GR
GS
[0.6 0 0 0.6 0 0.39996] CT
0.149 GC
2 setlinecap
1 LJ
0.833 LW
N
1328 833 M
1335.63 833 L
S
GR
GS
[0.6 0 0 0.6 0 0.39996] CT
0.149 GC
2 setlinecap
1 LJ
0.833 LW
N
1328 763.636 M
1335.63 763.636 L
S
GR
GS
[0.6 0 0 0.6 0 0.39996] CT
0.149 GC
2 setlinecap
1 LJ
0.833 LW
N
1328 694.273 M
1335.63 694.273 L
S
GR
GS
[0.6 0 0 0.6 0 0.39996] CT
0.149 GC
2 setlinecap
1 LJ
0.833 LW
N
1328 624.909 M
1335.63 624.909 L
S
GR
GS
[0.6 0 0 0.6 0 0.39996] CT
0.149 GC
2 setlinecap
1 LJ
0.833 LW
N
1328 555.545 M
1335.63 555.545 L
S
GR
GS
[0.6 0 0 0.6 0 0.39996] CT
0.149 GC
2 setlinecap
1 LJ
0.833 LW
N
1328 486.182 M
1335.63 486.182 L
S
GR
GS
[0.6 0 0 0.6 0 0.39996] CT
0.149 GC
2 setlinecap
1 LJ
0.833 LW
N
1328 416.818 M
1335.63 416.818 L
S
GR
GS
[0.6 0 0 0.6 0 0.39996] CT
0.149 GC
2 setlinecap
1 LJ
0.833 LW
N
1328 347.455 M
1335.63 347.455 L
S
GR
GS
[0.6 0 0 0.6 0 0.39996] CT
0.149 GC
2 setlinecap
1 LJ
0.833 LW
N
1328 278.091 M
1335.63 278.091 L
S
GR
GS
[0.6 0 0 0.6 0 0.39996] CT
0.149 GC
2 setlinecap
1 LJ
0.833 LW
N
1328 208.727 M
1335.63 208.727 L
S
GR
GS
[0.6 0 0 0.6 0 0.39996] CT
0.149 GC
2 setlinecap
1 LJ
0.833 LW
N
1328 139.364 M
1335.63 139.364 L
S
GR
GS
[0.6 0 0 0.6 0 0.39996] CT
0.149 GC
2 setlinecap
1 LJ
0.833 LW
N
1328 70 M
1335.63 70 L
S
GR
GS
[0.6 0 0 0.6 0 0.39996] CT
0.149 GC
2 setlinecap
1 LJ
0.833 LW
N
1738 833 M
1730.37 833 L
S
GR
GS
[0.6 0 0 0.6 0 0.39996] CT
0.149 GC
2 setlinecap
1 LJ
0.833 LW
N
1738 763.636 M
1730.37 763.636 L
S
GR
GS
[0.6 0 0 0.6 0 0.39996] CT
0.149 GC
2 setlinecap
1 LJ
0.833 LW
N
1738 694.273 M
1730.37 694.273 L
S
GR
GS
[0.6 0 0 0.6 0 0.39996] CT
0.149 GC
2 setlinecap
1 LJ
0.833 LW
N
1738 624.909 M
1730.37 624.909 L
S
GR
GS
[0.6 0 0 0.6 0 0.39996] CT
0.149 GC
2 setlinecap
1 LJ
0.833 LW
N
1738 555.545 M
1730.37 555.545 L
S
GR
GS
[0.6 0 0 0.6 0 0.39996] CT
0.149 GC
2 setlinecap
1 LJ
0.833 LW
N
1738 486.182 M
1730.37 486.182 L
S
GR
GS
[0.6 0 0 0.6 0 0.39996] CT
0.149 GC
2 setlinecap
1 LJ
0.833 LW
N
1738 416.818 M
1730.37 416.818 L
S
GR
GS
[0.6 0 0 0.6 0 0.39996] CT
0.149 GC
2 setlinecap
1 LJ
0.833 LW
N
1738 347.455 M
1730.37 347.455 L
S
GR
GS
[0.6 0 0 0.6 0 0.39996] CT
0.149 GC
2 setlinecap
1 LJ
0.833 LW
N
1738 278.091 M
1730.37 278.091 L
S
GR
GS
[0.6 0 0 0.6 0 0.39996] CT
0.149 GC
2 setlinecap
1 LJ
0.833 LW
N
1738 208.727 M
1730.37 208.727 L
S
GR
GS
[0.6 0 0 0.6 0 0.39996] CT
0.149 GC
2 setlinecap
1 LJ
0.833 LW
N
1738 139.364 M
1730.37 139.364 L
S
GR
GS
[0.6 0 0 0.6 0 0.39996] CT
0.149 GC
2 setlinecap
1 LJ
0.833 LW
N
1738 70 M
1730.37 70 L
S
GR
GS
[0.6 0 0 0.6 792.80002 500.2] CT
0.149 GC
/Helvetica 16.667 F
GS
[1 0 0 1 0 0] CT
-25 7 moveto 
1 -1 scale
(-50) t 
GR
GR
GS
[0.6 0 0 0.6 792.80002 458.5818] CT
0.149 GC
/Helvetica 16.667 F
GS
[1 0 0 1 0 0] CT
-25 7 moveto 
1 -1 scale
(-45) t 
GR
GR
GS
[0.6 0 0 0.6 792.80002 416.96361] CT
0.149 GC
/Helvetica 16.667 F
GS
[1 0 0 1 0 0] CT
-25 7 moveto 
1 -1 scale
(-40) t 
GR
GR
GS
[0.6 0 0 0.6 792.80002 375.34546] CT
0.149 GC
/Helvetica 16.667 F
GS
[1 0 0 1 0 0] CT
-25 7 moveto 
1 -1 scale
(-35) t 
GR
GR
GS
[0.6 0 0 0.6 792.80002 333.72727] CT
0.149 GC
/Helvetica 16.667 F
GS
[1 0 0 1 0 0] CT
-25 7 moveto 
1 -1 scale
(-30) t 
GR
GR
GS
[0.6 0 0 0.6 792.80002 292.10908] CT
0.149 GC
/Helvetica 16.667 F
GS
[1 0 0 1 0 0] CT
-25 7 moveto 
1 -1 scale
(-25) t 
GR
GR
GS
[0.6 0 0 0.6 792.80002 250.49089] CT
0.149 GC
/Helvetica 16.667 F
GS
[1 0 0 1 0 0] CT
-25 7 moveto 
1 -1 scale
(-20) t 
GR
GR
GS
[0.6 0 0 0.6 792.80002 208.87271] CT
0.149 GC
/Helvetica 16.667 F
GS
[1 0 0 1 0 0] CT
-25 7 moveto 
1 -1 scale
(-15) t 
GR
GR
GS
[0.6 0 0 0.6 792.80002 167.25452] CT
0.149 GC
/Helvetica 16.667 F
GS
[1 0 0 1 0 0] CT
-25 7 moveto 
1 -1 scale
(-10) t 
GR
GR
GS
[0.6 0 0 0.6 792.80002 125.63634] CT
0.149 GC
/Helvetica 16.667 F
GS
[1 0 0 1 0 0] CT
-16 7 moveto 
1 -1 scale
(-5) t 
GR
GR
GS
[0.6 0 0 0.6 792.80002 84.01815] CT
0.149 GC
/Helvetica 16.667 F
GS
[1 0 0 1 0 0] CT
-10 7 moveto 
1 -1 scale
(0) t 
GR
GR
GS
[0.6 0 0 0.6 792.80002 42.39997] CT
0.149 GC
/Helvetica 16.667 F
GS
[1 0 0 1 0 0] CT
-10 7 moveto 
1 -1 scale
(5) t 
GR
GR
GS
[0 -0.6 0.6 0 774.80002 271.29976] CT
0.149 GC
/Helvetica 18.333 F
GS
[1 0 0 1 0 0] CT
-38.5 -4 moveto 
1 -1 scale
(Filter |dB|) t 
GR
GR
GS
[0.6 0 0 0.6 806.4 32.79997] CT
/Helvetica-Bold 18.333 F
GS
[1 0 0 1 0 0] CT
0 0 moveto 
1 -1 scale
(Filter characteristics of i) t 
GR
GR
GS
[0.6 0 0 0.6 931.8 38.19997] CT
/Helvetica-Bold 14.667 F
GS
[1 0 0 1 0 0] CT
0 0 moveto 
1 -1 scale
(0) t 
GR
GR
GS
[0.6 0 0 0.6 937.2 32.79997] CT
/Helvetica-Bold 18.333 F
GS
[1 0 0 1 0 0] CT
0 0 moveto 
1 -1 scale
( and n) t 
GR
GR
GS
[0.6 0 0 0.6 969 38.19997] CT
/Helvetica-Bold 14.667 F
GS
[1 0 0 1 0 0] CT
0 0 moveto 
1 -1 scale
(i) t 
GR
GR
GS
[0.6 0 0 0.6 972 32.79997] CT
/Helvetica-Bold 18.333 F
GS
[1 0 0 1 0 0] CT
0 0 moveto 
1 -1 scale
(, f) t 
GR
GR
GS
[0.6 0 0 0.6 981.6 38.19997] CT
/Helvetica-Bold 14.667 F
GS
[1 0 0 1 0 0] CT
0 0 moveto 
1 -1 scale
(noise) t 
GR
GR
GS
[0.6 0 0 0.6 1005.6 32.79997] CT
/Helvetica-Bold 18.333 F
GS
[1 0 0 1 0 0] CT
0 0 moveto 
1 -1 scale
( = 0.6) t 
GR
GR
GS
[0.6 0 0 0.6 0 0.39996] CT
0 0.447 0.741 RC
1 LJ
0.833 LW
N
1328 139.364 M
1329.602 139.454 L
1331.203 139.724 L
1332.805 140.172 L
1334.406 140.794 L
1336.008 141.584 L
1337.609 142.537 L
1339.211 143.644 L
1340.813 144.898 L
1342.414 146.289 L
1344.016 147.808 L
1345.617 149.446 L
1347.219 151.191 L
1348.82 153.035 L
1350.422 154.967 L
1352.023 156.979 L
1353.625 159.06 L
1355.227 161.203 L
1356.828 163.4 L
1358.43 165.641 L
1360.031 167.922 L
1361.633 170.234 L
1363.234 172.572 L
1364.836 174.931 L
1366.438 177.305 L
1368.039 179.69 L
1369.641 182.082 L
1371.242 184.477 L
1372.844 186.873 L
1374.445 189.265 L
1376.047 191.652 L
1377.648 194.032 L
1379.25 196.402 L
1380.852 198.761 L
1382.453 201.107 L
1384.055 203.44 L
1385.656 205.757 L
1387.258 208.059 L
1388.859 210.343 L
1390.461 212.611 L
1392.063 214.861 L
1393.664 217.093 L
1395.266 219.306 L
1396.867 221.501 L
1398.469 223.677 L
1400.07 225.834 L
1401.672 227.973 L
1403.273 230.092 L
1404.875 232.193 L
1406.477 234.275 L
1408.078 236.339 L
1409.68 238.384 L
1411.281 240.412 L
1412.883 242.421 L
1414.484 244.413 L
1416.086 246.388 L
1417.688 248.345 L
1419.289 250.286 L
1420.891 252.21 L
1422.492 254.118 L
1424.094 256.01 L
1425.695 257.886 L
1427.297 259.748 L
1428.898 261.594 L
1430.5 263.426 L
1432.102 265.243 L
1433.703 267.046 L
1435.305 268.836 L
1436.906 270.613 L
1438.508 272.376 L
1440.109 274.126 L
1441.711 275.864 L
1443.313 277.59 L
1444.914 279.305 L
1446.516 281.007 L
1448.117 282.699 L
1449.719 284.379 L
1451.32 286.049 L
1452.922 287.709 L
1454.523 289.358 L
1456.125 290.998 L
1457.727 292.628 L
1459.328 294.249 L
1460.93 295.861 L
1462.531 297.464 L
1464.133 299.059 L
1465.734 300.646 L
1467.336 302.224 L
1468.938 303.796 L
1470.539 305.359 L
1472.141 306.915 L
1473.742 308.465 L
1475.344 310.008 L
1476.945 311.544 L
1478.547 313.074 L
1480.148 314.598 L
1481.75 316.116 L
1483.352 317.629 L
1484.953 319.136 L
1486.555 320.638 L
1488.156 322.136 L
1489.758 323.628 L
1491.359 325.116 L
1492.961 326.6 L
1494.563 328.08 L
1496.164 329.556 L
1497.766 331.028 L
1499.367 332.497 L
1500.969 333.963 L
1502.57 335.426 L
1504.172 336.885 L
1505.773 338.343 L
1507.375 339.797 L
1508.977 341.25 L
1510.578 342.7 L
1512.18 344.149 L
1513.781 345.596 L
1515.383 347.041 L
1516.984 348.485 L
1518.586 349.928 L
1520.188 351.371 L
1521.789 352.812 L
1523.391 354.253 L
1524.992 355.694 L
1526.594 357.134 L
1528.195 358.575 L
1529.797 360.016 L
1531.398 361.458 L
1533 362.9 L
1534.602 364.343 L
1536.203 365.787 L
1537.805 367.232 L
1539.406 368.679 L
1541.008 370.127 L
1542.609 371.578 L
1544.211 373.03 L
1545.813 374.485 L
1547.414 375.942 L
1549.016 377.402 L
1550.617 378.865 L
1552.219 380.33 L
1553.82 381.8 L
1555.422 383.272 L
1557.023 384.749 L
1558.625 386.229 L
1560.227 387.714 L
1561.828 389.204 L
1563.43 390.698 L
1565.031 392.196 L
1566.633 393.701 L
1568.234 395.21 L
1569.836 396.725 L
1571.438 398.246 L
1573.039 399.774 L
1574.641 401.308 L
1576.242 402.848 L
1577.844 404.396 L
1579.445 405.951 L
1581.047 407.513 L
1582.648 409.084 L
1584.25 410.662 L
1585.852 412.25 L
1587.453 413.846 L
1589.055 415.451 L
1590.656 417.065 L
1592.258 418.69 L
1593.859 420.324 L
1595.461 421.97 L
1597.063 423.626 L
1598.664 425.293 L
1600.266 426.972 L
1601.867 428.664 L
1603.469 430.367 L
1605.07 432.084 L
1606.672 433.814 L
1608.273 435.559 L
1609.875 437.317 L
1611.477 439.09 L
1613.078 440.879 L
1614.68 442.683 L
1616.281 444.504 L
1617.883 446.342 L
1619.484 448.198 L
1621.086 450.072 L
1622.688 451.964 L
1624.289 453.877 L
1625.891 455.809 L
1627.492 457.762 L
1629.094 459.737 L
1630.695 461.734 L
1632.297 463.755 L
1633.898 465.799 L
1635.5 467.869 L
1637.102 469.964 L
1638.703 472.086 L
1640.305 474.236 L
1641.906 476.415 L
1643.508 478.624 L
1645.109 480.864 L
1646.711 483.137 L
1648.313 485.443 L
1649.914 487.784 L
1651.516 490.162 L
1653.117 492.577 L
1654.719 495.033 L
1656.32 497.529 L
1657.922 500.069 L
1659.523 502.653 L
1661.125 505.284 L
1662.727 507.965 L
1664.328 510.696 L
1665.93 513.482 L
1667.531 516.324 L
1669.133 519.224 L
1670.734 522.187 L
1672.336 525.215 L
1673.938 528.312 L
1675.539 531.48 L
1677.141 534.725 L
1678.742 538.05 L
1680.344 541.46 L
1681.945 544.96 L
1683.547 548.556 L
1685.148 552.252 L
1686.75 556.056 L
1688.352 559.975 L
1689.953 564.016 L
1691.555 568.188 L
1693.156 572.501 L
1694.758 576.964 L
1696.359 581.59 L
1697.961 586.391 L
1699.563 591.382 L
1701.164 596.579 L
1702.766 602.001 L
1704.367 607.67 L
1705.969 613.609 L
1707.57 619.847 L
1709.172 626.416 L
1710.773 633.355 L
1712.375 640.708 L
1713.977 648.53 L
1715.578 656.886 L
1717.18 665.855 L
1718.781 675.536 L
1720.383 686.054 L
1721.984 697.57 L
1723.586 710.293 L
1725.188 724.51 L
1726.789 740.622 L
1728.391 759.216 L
1729.992 781.201 L
1731.594 808.102 L
1732.748 833.091 L
S
GR
GS
[0.6 0 0 0.6 0 0.39996] CT
0.851 0.325 0.098 RC
1 LJ
0.833 LW
N
1328 139.364 M
1329.602 139.364 L
1331.203 139.364 L
1332.805 139.364 L
1334.406 139.364 L
1336.008 139.364 L
1337.609 139.364 L
1339.211 139.364 L
1340.813 139.364 L
1342.414 139.364 L
1344.016 139.364 L
1345.617 139.364 L
1347.219 139.364 L
1348.82 139.364 L
1350.422 139.365 L
1352.023 139.365 L
1353.625 139.365 L
1355.227 139.366 L
1356.828 139.366 L
1358.43 139.367 L
1360.031 139.368 L
1361.633 139.368 L
1363.234 139.369 L
1364.836 139.37 L
1366.438 139.372 L
1368.039 139.373 L
1369.641 139.375 L
1371.242 139.377 L
1372.844 139.379 L
1374.445 139.381 L
1376.047 139.384 L
1377.648 139.387 L
1379.25 139.39 L
1380.852 139.393 L
1382.453 139.397 L
1384.055 139.402 L
1385.656 139.406 L
1387.258 139.411 L
1388.859 139.417 L
1390.461 139.423 L
1392.063 139.43 L
1393.664 139.437 L
1395.266 139.445 L
1396.867 139.453 L
1398.469 139.462 L
1400.07 139.472 L
1401.672 139.482 L
1403.273 139.494 L
1404.875 139.506 L
1406.477 139.519 L
1408.078 139.532 L
1409.68 139.547 L
1411.281 139.563 L
1412.883 139.58 L
1414.484 139.598 L
1416.086 139.618 L
1417.688 139.638 L
1419.289 139.66 L
1420.891 139.683 L
1422.492 139.708 L
1424.094 139.734 L
1425.695 139.762 L
1427.297 139.791 L
1428.898 139.823 L
1430.5 139.856 L
1432.102 139.891 L
1433.703 139.928 L
1435.305 139.967 L
1436.906 140.008 L
1438.508 140.052 L
1440.109 140.098 L
1441.711 140.147 L
1443.313 140.198 L
1444.914 140.252 L
1446.516 140.309 L
1448.117 140.369 L
1449.719 140.432 L
1451.32 140.498 L
1452.922 140.568 L
1454.523 140.641 L
1456.125 140.719 L
1457.727 140.8 L
1459.328 140.885 L
1460.93 140.974 L
1462.531 141.068 L
1464.133 141.167 L
1465.734 141.27 L
1467.336 141.379 L
1468.938 141.492 L
1470.539 141.611 L
1472.141 141.736 L
1473.742 141.867 L
1475.344 142.004 L
1476.945 142.148 L
1478.547 142.298 L
1480.148 142.456 L
1481.75 142.62 L
1483.352 142.793 L
1484.953 142.973 L
1486.555 143.161 L
1488.156 143.358 L
1489.758 143.564 L
1491.359 143.78 L
1492.961 144.005 L
1494.563 144.24 L
1496.164 144.486 L
1497.766 144.742 L
1499.367 145.01 L
1500.969 145.289 L
1502.57 145.581 L
1504.172 145.886 L
1505.773 146.203 L
1507.375 146.535 L
1508.977 146.88 L
1510.578 147.241 L
1512.18 147.616 L
1513.781 148.008 L
1515.383 148.416 L
1516.984 148.841 L
1518.586 149.283 L
1520.188 149.744 L
1521.789 150.224 L
1523.391 150.724 L
1524.992 151.243 L
1526.594 151.784 L
1528.195 152.347 L
1529.797 152.932 L
1531.398 153.54 L
1533 154.173 L
1534.602 154.83 L
1536.203 155.512 L
1537.805 156.221 L
1539.406 156.957 L
1541.008 157.721 L
1542.609 158.514 L
1544.211 159.336 L
1545.813 160.189 L
1547.414 161.073 L
1549.016 161.99 L
1550.617 162.94 L
1552.219 163.923 L
1553.82 164.942 L
1555.422 165.996 L
1557.023 167.087 L
1558.625 168.215 L
1560.227 169.382 L
1561.828 170.588 L
1563.43 171.834 L
1565.031 173.121 L
1566.633 174.45 L
1568.234 175.821 L
1569.836 177.236 L
1571.438 178.696 L
1573.039 180.2 L
1574.641 181.75 L
1576.242 183.347 L
1577.844 184.991 L
1579.445 186.684 L
1581.047 188.425 L
1582.648 190.216 L
1584.25 192.056 L
1585.852 193.948 L
1587.453 195.891 L
1589.055 197.886 L
1590.656 199.934 L
1592.258 202.035 L
1593.859 204.19 L
1595.461 206.4 L
1597.063 208.664 L
1598.664 210.984 L
1600.266 213.359 L
1601.867 215.791 L
1603.469 218.28 L
1605.07 220.826 L
1606.672 223.431 L
1608.273 226.093 L
1609.875 228.814 L
1611.477 231.595 L
1613.078 234.436 L
1614.68 237.337 L
1616.281 240.299 L
1617.883 243.322 L
1619.484 246.408 L
1621.086 249.556 L
1622.688 252.767 L
1624.289 256.043 L
1625.891 259.383 L
1627.492 262.789 L
1629.094 266.261 L
1630.695 269.801 L
1632.297 273.408 L
1633.898 277.085 L
1635.5 280.833 L
1637.102 284.651 L
1638.703 288.543 L
1640.305 292.509 L
1641.906 296.55 L
1643.508 300.669 L
1645.109 304.866 L
1646.711 309.144 L
1648.313 313.505 L
1649.914 317.951 L
1651.516 322.483 L
1653.117 327.105 L
1654.719 331.82 L
1656.32 336.629 L
1657.922 341.536 L
1659.523 346.544 L
1661.125 351.656 L
1662.727 356.877 L
1664.328 362.211 L
1665.93 367.661 L
1667.531 373.233 L
1669.133 378.931 L
1670.734 384.761 L
1672.336 390.729 L
1673.938 396.841 L
1675.539 403.104 L
1677.141 409.526 L
1678.742 416.114 L
1680.344 422.878 L
1681.945 429.826 L
1683.547 436.971 L
1685.148 444.322 L
1686.75 451.893 L
1688.352 459.697 L
1689.953 467.749 L
1691.555 476.067 L
1693.156 484.669 L
1694.758 493.575 L
1696.359 502.808 L
1697.961 512.395 L
1699.563 522.364 L
1701.164 532.747 L
1702.766 543.583 L
1704.367 554.912 L
1705.969 566.784 L
1707.57 579.255 L
1709.172 592.39 L
1710.773 606.264 L
1712.375 620.969 L
1713.977 636.612 L
1715.578 653.323 L
1717.18 671.261 L
1718.781 690.625 L
1720.383 711.662 L
1721.984 734.693 L
1723.586 760.141 L
1725.188 788.576 L
1726.789 820.802 L
1727.318 833.091 L
S
GR
GS
[0.6 0 0 0.6 0 0.39996] CT
1 GC
N
1621 144 M
1621 87 L
1721 87 L
1721 144 L
cp
f
GR
GS
[0.6 0 0 0.6 1000.2 63.39997] CT
/Helvetica 15 F
GS
[1 0 0 1 0 0] CT
0 0 moveto 
1 -1 scale
(Filter i) t 
GR
GR
GS
[0.6 0 0 0.6 1024.8 67.59997] CT
/Helvetica 12 F
GS
[1 0 0 1 0 0] CT
0 0 moveto 
1 -1 scale
(0) t 
GR
GR
GS
[0.6 0 0 0.6 0 0.39996] CT
0 0.447 0.741 RC
1 LJ
0.833 LW
N
1625.988 102.332 M
1663.394 102.332 L
S
GR
GS
[0.6 0 0 0.6 1000.2 79.59997] CT
/Helvetica 15 F
GS
[1 0 0 1 0 0] CT
0 0 moveto 
1 -1 scale
(Filter n) t 
GR
GR
GS
[0.6 0 0 0.6 1027.8 83.79997] CT
/Helvetica 12 F
GS
[1 0 0 1 0 0] CT
0 0 moveto 
1 -1 scale
(i) t 
GR
GR
GS
[0.6 0 0 0.6 0 0.39996] CT
0.851 0.325 0.098 RC
1 LJ
0.833 LW
N
1625.988 128.668 M
1663.394 128.668 L
S
GR
GS
[0.6 0 0 0.6 0 0.39996] CT
0.149 GC
10.0 ML
0.833 LW
N
1621 144 M
1621 87 L
1721 87 L
1721 144 L
cp
S
GR
%%Trailer
%%Pages: 1
%%EOF
