\relax 
\providecommand\hyper@newdestlabel[2]{}
\providecommand\HyperFirstAtBeginDocument{\AtBeginDocument}
\HyperFirstAtBeginDocument{\ifx\hyper@anchor\@undefined
\global\let\oldcontentsline\contentsline
\gdef\contentsline#1#2#3#4{\oldcontentsline{#1}{#2}{#3}}
\global\let\oldnewlabel\newlabel
\gdef\newlabel#1#2{\newlabelxx{#1}#2}
\gdef\newlabelxx#1#2#3#4#5#6{\oldnewlabel{#1}{{#2}{#3}}}
\AtEndDocument{\ifx\hyper@anchor\@undefined
\let\contentsline\oldcontentsline
\let\newlabel\oldnewlabel
\fi}
\fi}
\global\let\hyper@last\relax 
\gdef\HyperFirstAtBeginDocument#1{#1}
\providecommand\HyField@AuxAddToFields[1]{}
\providecommand\HyField@AuxAddToCoFields[2]{}
\select@language{english}
\@writefile{toc}{\select@language{english}}
\@writefile{lof}{\select@language{english}}
\@writefile{lot}{\select@language{english}}
\pgfsyspdfmark {pgfid2}{0}{0}
\pgfsyspdfmark {pgfid1}{6577079}{47493192}
\@writefile{toc}{\contentsline {section}{\numberline {1}Exercise session 1: Noise on Input and Output}{1}{section.1}}
\@writefile{toc}{\contentsline {subsection}{\numberline {1.1}Experiment 1}{1}{subsection.1.1}}
\@writefile{toc}{\contentsline {paragraph}{Bias of Least Squares Estimator}{1}{section*.2}}
\@writefile{lof}{\contentsline {figure}{\numberline {1}{\ignorespaces The probability density functions of $\mathaccentV {hat}05E{R}_{LS}$ and $\mathaccentV {hat}05E{R}_{IV}$ for $f_{noise} = \{0.999, 0.95, 0.6\}$, with fixed shift parameter $s = 1$.\relax }}{2}{figure.caption.3}}
\providecommand*\caption@xref[2]{\@setref\relax\@undefined{#1}}
\newlabel{fig:pdf_estimator}{{1}{2}{The probability density functions of $\hat {R}_{LS}$ and $\hat {R}_{IV}$ for $f_{noise} = \{0.999, 0.95, 0.6\}$, with fixed shift parameter $s = 1$.\relax }{figure.caption.3}{}}
\@writefile{toc}{\contentsline {paragraph}{Bias of Instrument Variables Estimator}{2}{section*.4}}
\newlabel{eqq}{{1.1}{2}{Bias of Instrument Variables Estimator}{section*.4}{}}
\@writefile{lof}{\contentsline {figure}{\numberline {2}{\ignorespaces The autocorrelation of $i_0$ and $n_i$ for different noise filters, with $f_{noise} = \{0.999, 0.95, 0.6\}$.\relax }}{3}{figure.caption.5}}
\newlabel{fig:autocorrelation_fig1}{{2}{3}{The autocorrelation of $i_0$ and $n_i$ for different noise filters, with $f_{noise} = \{0.999, 0.95, 0.6\}$.\relax }{figure.caption.5}{}}
\@writefile{lot}{\contentsline {table}{\numberline {1}{\ignorespaces The autocorrelation for $i_0$ and $n_i$, as well as the resulting IV-estimator $\mathaccentV {hat}05E{R}_{IV}$.\relax }}{3}{table.caption.8}}
\newlabel{tab:autocorrelations_shift}{{1}{3}{The autocorrelation for $i_0$ and $n_i$, as well as the resulting IV-estimator $\hat {R}_{IV}$.\relax }{table.caption.8}{}}
\@writefile{toc}{\contentsline {subsection}{\numberline {1.2}Observations and analysis experiment 2}{3}{subsection.1.2}}
\@writefile{lof}{\contentsline {figure}{\numberline {3}{\ignorespaces The frequency responses of $i_0$ and $n_i$ for different noise filters, with $f_{noise} = \{0.999, 0.95, 0.6\}$.\relax }}{4}{figure.caption.6}}
\newlabel{fig:exp1freq}{{3}{4}{The frequency responses of $i_0$ and $n_i$ for different noise filters, with $f_{noise} = \{0.999, 0.95, 0.6\}$.\relax }{figure.caption.6}{}}
\@writefile{lof}{\contentsline {figure}{\numberline {4}{\ignorespaces The probability density functions of $\mathaccentV {hat}05E{R}_{LS}$ and $\mathaccentV {hat}05E{R}_{IV}$ for shift parameter $s = \{1, 2,5\}$, with fixed noise frequency $f_{noise} = 0.6$.\relax }}{4}{figure.caption.7}}
\newlabel{fig:pdf_estimators_2122}{{4}{4}{The probability density functions of $\hat {R}_{LS}$ and $\hat {R}_{IV}$ for shift parameter $s = \{1, 2,5\}$, with fixed noise frequency $f_{noise} = 0.6$.\relax }{figure.caption.7}{}}
\@writefile{lof}{\contentsline {figure}{\numberline {5}{\ignorespaces The autocorrelation of $i_0$ and $n_i$, with the three different shift parameters ($s = 1, 2, 5$) marked. (Note: the autocorrelation remains constant)\relax }}{5}{figure.caption.9}}
\newlabel{fig:autocorrelation_2122}{{5}{5}{The autocorrelation of $i_0$ and $n_i$, with the three different shift parameters ($s = 1, 2, 5$) marked. (Note: the autocorrelation remains constant)\relax }{figure.caption.9}{}}
\@writefile{toc}{\contentsline {subsection}{\numberline {1.3}Experiment 3}{5}{subsection.1.3}}
\@writefile{toc}{\contentsline {subsubsection}{\numberline {1.3.1}Bias of the Errors-In-Variables method}{5}{subsubsection.1.3.1}}
\@writefile{lof}{\contentsline {figure}{\numberline {6}{\ignorespaces The frequency responses of $i_0$ and $n_i$ for the second experiment and noise filter with $f_{noise} = 0.6$.\relax }}{6}{figure.caption.10}}
\newlabel{fig:exp2freq}{{6}{6}{The frequency responses of $i_0$ and $n_i$ for the second experiment and noise filter with $f_{noise} = 0.6$.\relax }{figure.caption.10}{}}
\@writefile{lof}{\contentsline {figure}{\numberline {7}{\ignorespaces The PDF for the LS and EIV estimator for the resistor problem.\relax }}{6}{figure.caption.11}}
\newlabel{fig:pdfeiv}{{7}{6}{The PDF for the LS and EIV estimator for the resistor problem.\relax }{figure.caption.11}{}}
\@writefile{toc}{\contentsline {section}{\numberline {2}Exercise session 2: Model selection using AIC}{7}{section.2}}
\@writefile{toc}{\contentsline {subsection}{\numberline {2.1}Model Selection using the AIC criterion}{7}{subsection.2.1}}
\@writefile{toc}{\contentsline {subsubsection}{\numberline {2.1.1}Behaviour cost function based on estimation data}{7}{subsubsection.2.1.1}}
\@writefile{toc}{\contentsline {subsubsection}{\numberline {2.1.2}Behaviour cost funtion based on validation data}{7}{subsubsection.2.1.2}}
\newlabel{fig:cost_functions_0.5}{{8a}{8}{Cost functions on the estimation and validation data and the AIC cost function for $\sigma _{n_y}=0.5$\relax }{figure.caption.12}{}}
\newlabel{sub@fig:cost_functions_0.5}{{a}{8}{Cost functions on the estimation and validation data and the AIC cost function for $\sigma _{n_y}=0.5$\relax }{figure.caption.12}{}}
\newlabel{fig:cost_function_005}{{8b}{8}{Cost functions on the estimation and validation data and the AIC cost function for $\sigma _{n_y}=0.05$\relax }{figure.caption.12}{}}
\newlabel{sub@fig:cost_function_005}{{b}{8}{Cost functions on the estimation and validation data and the AIC cost function for $\sigma _{n_y}=0.05$\relax }{figure.caption.12}{}}
\@writefile{lof}{\contentsline {figure}{\numberline {8}{\ignorespaces Cost functions on the estimation and validation data and the AIC cost function on the for $\sigma _{n_y} = 0.5, 0.05$\relax }}{8}{figure.caption.12}}
\newlabel{fig:cost_functions}{{8}{8}{Cost functions on the estimation and validation data and the AIC cost function on the for $\sigma _{n_y} = 0.5, 0.05$\relax }{figure.caption.12}{}}
\newlabel{fig:frfs}{{\caption@xref {fig:frfs}{ on input line 235}}{9}{Behaviour cost function based on estimation data}{figure.caption.13}{}}
\@writefile{toc}{\contentsline {subsubsection}{\numberline {2.1.3}Behaviour cost function based on the Akaike Information Criterion}{9}{subsubsection.2.1.3}}
\@writefile{toc}{\contentsline {subsubsection}{\numberline {2.1.4}Comparison of the cost functions for two different noise variances}{9}{subsubsection.2.1.4}}
\@writefile{toc}{\contentsline {subsubsection}{\numberline {2.1.5}Cost function based on the undisturbed output}{9}{subsubsection.2.1.5}}
\newlabel{fig:v005}{{10a}{10}{Normalized cost of the undisturbed output for \\$\sigma _{n_y}=0.5$.\relax }{figure.caption.14}{}}
\newlabel{sub@fig:v005}{{a}{10}{Normalized cost of the undisturbed output for \\$\sigma _{n_y}=0.5$.\relax }{figure.caption.14}{}}
\newlabel{fig:v0005}{{10b}{10}{Normalized cost of the undisturbed output for \\$\sigma _{n_y}=0.05$.\relax }{figure.caption.14}{}}
\newlabel{sub@fig:v0005}{{b}{10}{Normalized cost of the undisturbed output for \\$\sigma _{n_y}=0.05$.\relax }{figure.caption.14}{}}
\@writefile{lof}{\contentsline {figure}{\numberline {10}{\ignorespaces Normalized cost of the undisturbed output for $\sigma _{n_y}=0.5, 0.05$.\relax }}{10}{figure.caption.14}}
\newlabel{fig:v_cost}{{10}{10}{Normalized cost of the undisturbed output for $\sigma _{n_y}=0.5, 0.05$.\relax }{figure.caption.14}{}}
\newlabel{LastPage}{{}{10}{}{page.10}{}}
\xdef\lastpage@lastpage{10}
\xdef\lastpage@lastpageHy{10}
