%!PS-Adobe-3.0 EPSF-3.0
%%Creator: (MATLAB, The Mathworks, Inc. Version 9.1.0.441655 \(R2016b\). Operating System: Windows 8)
%%Title: C:/Users/simon/Documents/Unief/M1/System_Identification_and_Modeling/Oefenzittingen/Oefenzitting_1/git/Report/v0005.eps
%%CreationDate: 2016-12-25T19:00:29
%%Pages: (atend)
%%BoundingBox: 0 0 575 521
%%LanguageLevel: 3
%%EndComments
%%BeginProlog
%%BeginResource: procset (Apache XML Graphics Std ProcSet) 1.2 0
%%Version: 1.2 0
%%Copyright: (Copyright 2001-2003,2010 The Apache Software Foundation. License terms: http://www.apache.org/licenses/LICENSE-2.0)
/bd{bind def}bind def
/ld{load def}bd
/GR/grestore ld
/M/moveto ld
/LJ/setlinejoin ld
/C/curveto ld
/f/fill ld
/LW/setlinewidth ld
/GC/setgray ld
/t/show ld
/N/newpath ld
/CT/concat ld
/cp/closepath ld
/S/stroke ld
/L/lineto ld
/CC/setcmykcolor ld
/A/ashow ld
/GS/gsave ld
/RC/setrgbcolor ld
/RM/rmoveto ld
/ML/setmiterlimit ld
/re {4 2 roll M
1 index 0 rlineto
0 exch rlineto
neg 0 rlineto
cp } bd
/_ctm matrix def
/_tm matrix def
/BT { _ctm currentmatrix pop matrix _tm copy pop 0 0 moveto } bd
/ET { _ctm setmatrix } bd
/iTm { _ctm setmatrix _tm concat } bd
/Tm { _tm astore pop iTm 0 0 moveto } bd
/ux 0.0 def
/uy 0.0 def
/F {
  /Tp exch def
  /Tf exch def
  Tf findfont Tp scalefont setfont
  /cf Tf def  /cs Tp def
} bd
/ULS {currentpoint /uy exch def /ux exch def} bd
/ULE {
  /Tcx currentpoint pop def
  gsave
  newpath
  cf findfont cs scalefont dup
  /FontMatrix get 0 get /Ts exch def /FontInfo get dup
  /UnderlinePosition get Ts mul /To exch def
  /UnderlineThickness get Ts mul /Tt exch def
  ux uy To add moveto  Tcx uy To add lineto
  Tt setlinewidth stroke
  grestore
} bd
/OLE {
  /Tcx currentpoint pop def
  gsave
  newpath
  cf findfont cs scalefont dup
  /FontMatrix get 0 get /Ts exch def /FontInfo get dup
  /UnderlinePosition get Ts mul /To exch def
  /UnderlineThickness get Ts mul /Tt exch def
  ux uy To add cs add moveto Tcx uy To add cs add lineto
  Tt setlinewidth stroke
  grestore
} bd
/SOE {
  /Tcx currentpoint pop def
  gsave
  newpath
  cf findfont cs scalefont dup
  /FontMatrix get 0 get /Ts exch def /FontInfo get dup
  /UnderlinePosition get Ts mul /To exch def
  /UnderlineThickness get Ts mul /Tt exch def
  ux uy To add cs 10 mul 26 idiv add moveto Tcx uy To add cs 10 mul 26 idiv add lineto
  Tt setlinewidth stroke
  grestore
} bd
/QT {
/Y22 exch store
/X22 exch store
/Y21 exch store
/X21 exch store
currentpoint
/Y21 load 2 mul add 3 div exch
/X21 load 2 mul add 3 div exch
/X21 load 2 mul /X22 load add 3 div
/Y21 load 2 mul /Y22 load add 3 div
/X22 load /Y22 load curveto
} bd
/SSPD {
dup length /d exch dict def
{
/v exch def
/k exch def
currentpagedevice k known {
/cpdv currentpagedevice k get def
v cpdv ne {
/upd false def
/nullv v type /nulltype eq def
/nullcpdv cpdv type /nulltype eq def
nullv nullcpdv or
{
/upd true def
} {
/sametype v type cpdv type eq def
sametype {
v type /arraytype eq {
/vlen v length def
/cpdvlen cpdv length def
vlen cpdvlen eq {
0 1 vlen 1 sub {
/i exch def
/obj v i get def
/cpdobj cpdv i get def
obj cpdobj ne {
/upd true def
exit
} if
} for
} {
/upd true def
} ifelse
} {
v type /dicttype eq {
v {
/dv exch def
/dk exch def
/cpddv cpdv dk get def
dv cpddv ne {
/upd true def
exit
} if
} forall
} {
/upd true def
} ifelse
} ifelse
} if
} ifelse
upd true eq {
d k v put
} if
} if
} if
} forall
d length 0 gt {
d setpagedevice
} if
} bd
/RE { % /NewFontName [NewEncodingArray] /FontName RE -
  findfont dup length dict begin
  {
    1 index /FID ne
    {def} {pop pop} ifelse
  } forall
  /Encoding exch def
  /FontName 1 index def
  currentdict definefont pop
  end
} bind def
%%EndResource
%%BeginResource: procset (Apache XML Graphics EPS ProcSet) 1.0 0
%%Version: 1.0 0
%%Copyright: (Copyright 2002-2003 The Apache Software Foundation. License terms: http://www.apache.org/licenses/LICENSE-2.0)
/BeginEPSF { %def
/b4_Inc_state save def         % Save state for cleanup
/dict_count countdictstack def % Count objects on dict stack
/op_count count 1 sub def      % Count objects on operand stack
userdict begin                 % Push userdict on dict stack
/showpage { } def              % Redefine showpage, { } = null proc
0 setgray 0 setlinecap         % Prepare graphics state
1 setlinewidth 0 setlinejoin
10 setmiterlimit [ ] 0 setdash newpath
/languagelevel where           % If level not equal to 1 then
{pop languagelevel             % set strokeadjust and
1 ne                           % overprint to their defaults.
{false setstrokeadjust false setoverprint
} if
} if
} bd
/EndEPSF { %def
count op_count sub {pop} repeat            % Clean up stacks
countdictstack dict_count sub {end} repeat
b4_Inc_state restore
} bd
%%EndResource
%FOPBeginFontDict
%%IncludeResource: font Courier-Bold
%%IncludeResource: font Helvetica
%%IncludeResource: font Courier-BoldOblique
%%IncludeResource: font Courier-Oblique
%%IncludeResource: font Times-Roman
%%IncludeResource: font Helvetica-BoldOblique
%%IncludeResource: font Helvetica-Bold
%%IncludeResource: font Helvetica-Oblique
%%IncludeResource: font Times-BoldItalic
%%IncludeResource: font Courier
%%IncludeResource: font Times-Italic
%%IncludeResource: font Times-Bold
%%IncludeResource: font Symbol
%%IncludeResource: font ZapfDingbats
%FOPEndFontDict
%%BeginResource: encoding WinAnsiEncoding
/WinAnsiEncoding [
/.notdef /.notdef /.notdef /.notdef /.notdef
/.notdef /.notdef /.notdef /.notdef /.notdef
/.notdef /.notdef /.notdef /.notdef /.notdef
/.notdef /.notdef /.notdef /.notdef /.notdef
/.notdef /.notdef /.notdef /.notdef /.notdef
/.notdef /.notdef /.notdef /.notdef /.notdef
/.notdef /.notdef /space /exclam /quotedbl
/numbersign /dollar /percent /ampersand /quotesingle
/parenleft /parenright /asterisk /plus /comma
/hyphen /period /slash /zero /one
/two /three /four /five /six
/seven /eight /nine /colon /semicolon
/less /equal /greater /question /at
/A /B /C /D /E
/F /G /H /I /J
/K /L /M /N /O
/P /Q /R /S /T
/U /V /W /X /Y
/Z /bracketleft /backslash /bracketright /asciicircum
/underscore /quoteleft /a /b /c
/d /e /f /g /h
/i /j /k /l /m
/n /o /p /q /r
/s /t /u /v /w
/x /y /z /braceleft /bar
/braceright /asciitilde /bullet /Euro /bullet
/quotesinglbase /florin /quotedblbase /ellipsis /dagger
/daggerdbl /circumflex /perthousand /Scaron /guilsinglleft
/OE /bullet /Zcaron /bullet /bullet
/quoteleft /quoteright /quotedblleft /quotedblright /bullet
/endash /emdash /asciitilde /trademark /scaron
/guilsinglright /oe /bullet /zcaron /Ydieresis
/space /exclamdown /cent /sterling /currency
/yen /brokenbar /section /dieresis /copyright
/ordfeminine /guillemotleft /logicalnot /sfthyphen /registered
/macron /degree /plusminus /twosuperior /threesuperior
/acute /mu /paragraph /middot /cedilla
/onesuperior /ordmasculine /guillemotright /onequarter /onehalf
/threequarters /questiondown /Agrave /Aacute /Acircumflex
/Atilde /Adieresis /Aring /AE /Ccedilla
/Egrave /Eacute /Ecircumflex /Edieresis /Igrave
/Iacute /Icircumflex /Idieresis /Eth /Ntilde
/Ograve /Oacute /Ocircumflex /Otilde /Odieresis
/multiply /Oslash /Ugrave /Uacute /Ucircumflex
/Udieresis /Yacute /Thorn /germandbls /agrave
/aacute /acircumflex /atilde /adieresis /aring
/ae /ccedilla /egrave /eacute /ecircumflex
/edieresis /igrave /iacute /icircumflex /idieresis
/eth /ntilde /ograve /oacute /ocircumflex
/otilde /odieresis /divide /oslash /ugrave
/uacute /ucircumflex /udieresis /yacute /thorn
/ydieresis
] def
%%EndResource
%FOPBeginFontReencode
/Courier-Bold findfont
dup length dict begin
  {1 index /FID ne {def} {pop pop} ifelse} forall
  /Encoding WinAnsiEncoding def
  currentdict
end
/Courier-Bold exch definefont pop
/Helvetica findfont
dup length dict begin
  {1 index /FID ne {def} {pop pop} ifelse} forall
  /Encoding WinAnsiEncoding def
  currentdict
end
/Helvetica exch definefont pop
/Courier-BoldOblique findfont
dup length dict begin
  {1 index /FID ne {def} {pop pop} ifelse} forall
  /Encoding WinAnsiEncoding def
  currentdict
end
/Courier-BoldOblique exch definefont pop
/Courier-Oblique findfont
dup length dict begin
  {1 index /FID ne {def} {pop pop} ifelse} forall
  /Encoding WinAnsiEncoding def
  currentdict
end
/Courier-Oblique exch definefont pop
/Times-Roman findfont
dup length dict begin
  {1 index /FID ne {def} {pop pop} ifelse} forall
  /Encoding WinAnsiEncoding def
  currentdict
end
/Times-Roman exch definefont pop
/Helvetica-BoldOblique findfont
dup length dict begin
  {1 index /FID ne {def} {pop pop} ifelse} forall
  /Encoding WinAnsiEncoding def
  currentdict
end
/Helvetica-BoldOblique exch definefont pop
/Helvetica-Bold findfont
dup length dict begin
  {1 index /FID ne {def} {pop pop} ifelse} forall
  /Encoding WinAnsiEncoding def
  currentdict
end
/Helvetica-Bold exch definefont pop
/Helvetica-Oblique findfont
dup length dict begin
  {1 index /FID ne {def} {pop pop} ifelse} forall
  /Encoding WinAnsiEncoding def
  currentdict
end
/Helvetica-Oblique exch definefont pop
/Times-BoldItalic findfont
dup length dict begin
  {1 index /FID ne {def} {pop pop} ifelse} forall
  /Encoding WinAnsiEncoding def
  currentdict
end
/Times-BoldItalic exch definefont pop
/Courier findfont
dup length dict begin
  {1 index /FID ne {def} {pop pop} ifelse} forall
  /Encoding WinAnsiEncoding def
  currentdict
end
/Courier exch definefont pop
/Times-Italic findfont
dup length dict begin
  {1 index /FID ne {def} {pop pop} ifelse} forall
  /Encoding WinAnsiEncoding def
  currentdict
end
/Times-Italic exch definefont pop
/Times-Bold findfont
dup length dict begin
  {1 index /FID ne {def} {pop pop} ifelse} forall
  /Encoding WinAnsiEncoding def
  currentdict
end
/Times-Bold exch definefont pop
%FOPEndFontReencode
%%EndProlog
%%Page: 1 1
%%PageBoundingBox: 0 0 575 521
%%BeginPageSetup
[1 0 0 -1 0 521] CT
%%EndPageSetup
GS
[0.60063 0 0 0.60069 0 -0.40002] CT
1 GC
N
0 0 957 868 re
f
GR
GS
[0.60063 0 0 0.60069 0 -0.40002] CT
1 GC
N
0 0 957 868 re
f
GR
GS
[0.60063 0 0 0.60069 0 -0.40002] CT
1 GC
N
125 773 M
867 773 L
867 65 L
125 65 L
cp
f
GR
GS
[0.60063 0 0 0.60069 0 -0.40002] CT
0.149 GC
2 setlinecap
1 LJ
0.833 LW
N
125 773 M
867 773 L
S
GR
GS
[0.60063 0 0 0.60069 0 -0.40002] CT
0.149 GC
2 setlinecap
1 LJ
0.833 LW
N
125 65 M
867 65 L
S
GR
GS
[0.60063 0 0 0.60069 0 -0.40002] CT
0.149 GC
2 setlinecap
1 LJ
0.833 LW
N
125 773 M
125 765.58 L
S
GR
GS
[0.60063 0 0 0.60069 0 -0.40002] CT
0.149 GC
2 setlinecap
1 LJ
0.833 LW
N
199.2 773 M
199.2 765.58 L
S
GR
GS
[0.60063 0 0 0.60069 0 -0.40002] CT
0.149 GC
2 setlinecap
1 LJ
0.833 LW
N
273.4 773 M
273.4 765.58 L
S
GR
GS
[0.60063 0 0 0.60069 0 -0.40002] CT
0.149 GC
2 setlinecap
1 LJ
0.833 LW
N
347.6 773 M
347.6 765.58 L
S
GR
GS
[0.60063 0 0 0.60069 0 -0.40002] CT
0.149 GC
2 setlinecap
1 LJ
0.833 LW
N
421.8 773 M
421.8 765.58 L
S
GR
GS
[0.60063 0 0 0.60069 0 -0.40002] CT
0.149 GC
2 setlinecap
1 LJ
0.833 LW
N
496 773 M
496 765.58 L
S
GR
GS
[0.60063 0 0 0.60069 0 -0.40002] CT
0.149 GC
2 setlinecap
1 LJ
0.833 LW
N
570.2 773 M
570.2 765.58 L
S
GR
GS
[0.60063 0 0 0.60069 0 -0.40002] CT
0.149 GC
2 setlinecap
1 LJ
0.833 LW
N
644.4 773 M
644.4 765.58 L
S
GR
GS
[0.60063 0 0 0.60069 0 -0.40002] CT
0.149 GC
2 setlinecap
1 LJ
0.833 LW
N
718.6 773 M
718.6 765.58 L
S
GR
GS
[0.60063 0 0 0.60069 0 -0.40002] CT
0.149 GC
2 setlinecap
1 LJ
0.833 LW
N
792.8 773 M
792.8 765.58 L
S
GR
GS
[0.60063 0 0 0.60069 0 -0.40002] CT
0.149 GC
2 setlinecap
1 LJ
0.833 LW
N
867 773 M
867 765.58 L
S
GR
GS
[0.60063 0 0 0.60069 0 -0.40002] CT
0.149 GC
2 setlinecap
1 LJ
0.833 LW
N
125 65 M
125 72.42 L
S
GR
GS
[0.60063 0 0 0.60069 0 -0.40002] CT
0.149 GC
2 setlinecap
1 LJ
0.833 LW
N
199.2 65 M
199.2 72.42 L
S
GR
GS
[0.60063 0 0 0.60069 0 -0.40002] CT
0.149 GC
2 setlinecap
1 LJ
0.833 LW
N
273.4 65 M
273.4 72.42 L
S
GR
GS
[0.60063 0 0 0.60069 0 -0.40002] CT
0.149 GC
2 setlinecap
1 LJ
0.833 LW
N
347.6 65 M
347.6 72.42 L
S
GR
GS
[0.60063 0 0 0.60069 0 -0.40002] CT
0.149 GC
2 setlinecap
1 LJ
0.833 LW
N
421.8 65 M
421.8 72.42 L
S
GR
GS
[0.60063 0 0 0.60069 0 -0.40002] CT
0.149 GC
2 setlinecap
1 LJ
0.833 LW
N
496 65 M
496 72.42 L
S
GR
GS
[0.60063 0 0 0.60069 0 -0.40002] CT
0.149 GC
2 setlinecap
1 LJ
0.833 LW
N
570.2 65 M
570.2 72.42 L
S
GR
GS
[0.60063 0 0 0.60069 0 -0.40002] CT
0.149 GC
2 setlinecap
1 LJ
0.833 LW
N
644.4 65 M
644.4 72.42 L
S
GR
GS
[0.60063 0 0 0.60069 0 -0.40002] CT
0.149 GC
2 setlinecap
1 LJ
0.833 LW
N
718.6 65 M
718.6 72.42 L
S
GR
GS
[0.60063 0 0 0.60069 0 -0.40002] CT
0.149 GC
2 setlinecap
1 LJ
0.833 LW
N
792.8 65 M
792.8 72.42 L
S
GR
GS
[0.60063 0 0 0.60069 0 -0.40002] CT
0.149 GC
2 setlinecap
1 LJ
0.833 LW
N
867 65 M
867 72.42 L
S
GR
GS
[0.60063 0 0 0.60069 75.07837 467.93895] CT
0.149 GC
/Helvetica 16.667 F
GS
[1 0 0 1 0 0] CT
-5 18 moveto 
1 -1 scale
(0) t 
GR
GR
GS
[0.60063 0 0 0.60069 119.64489 467.93895] CT
0.149 GC
/Helvetica 16.667 F
GS
[1 0 0 1 0 0] CT
-9.5 18 moveto 
1 -1 scale
(10) t 
GR
GR
GS
[0.60063 0 0 0.60069 164.2114 467.93895] CT
0.149 GC
/Helvetica 16.667 F
GS
[1 0 0 1 0 0] CT
-9.5 18 moveto 
1 -1 scale
(20) t 
GR
GR
GS
[0.60063 0 0 0.60069 208.77793 467.93895] CT
0.149 GC
/Helvetica 16.667 F
GS
[1 0 0 1 0 0] CT
-9.5 18 moveto 
1 -1 scale
(30) t 
GR
GR
GS
[0.60063 0 0 0.60069 253.34444 467.93895] CT
0.149 GC
/Helvetica 16.667 F
GS
[1 0 0 1 0 0] CT
-9.5 18 moveto 
1 -1 scale
(40) t 
GR
GR
GS
[0.60063 0 0 0.60069 297.91097 467.93895] CT
0.149 GC
/Helvetica 16.667 F
GS
[1 0 0 1 0 0] CT
-9.5 18 moveto 
1 -1 scale
(50) t 
GR
GR
GS
[0.60063 0 0 0.60069 342.47749 467.93895] CT
0.149 GC
/Helvetica 16.667 F
GS
[1 0 0 1 0 0] CT
-9.5 18 moveto 
1 -1 scale
(60) t 
GR
GR
GS
[0.60063 0 0 0.60069 387.04402 467.93895] CT
0.149 GC
/Helvetica 16.667 F
GS
[1 0 0 1 0 0] CT
-9.5 18 moveto 
1 -1 scale
(70) t 
GR
GR
GS
[0.60063 0 0 0.60069 431.61051 467.93895] CT
0.149 GC
/Helvetica 16.667 F
GS
[1 0 0 1 0 0] CT
-9.5 18 moveto 
1 -1 scale
(80) t 
GR
GR
GS
[0.60063 0 0 0.60069 476.17704 467.93895] CT
0.149 GC
/Helvetica 16.667 F
GS
[1 0 0 1 0 0] CT
-9.5 18 moveto 
1 -1 scale
(90) t 
GR
GR
GS
[0.60063 0 0 0.60069 520.74356 467.93895] CT
0.149 GC
/Helvetica 16.667 F
GS
[1 0 0 1 0 0] CT
-14.5 18 moveto 
1 -1 scale
(100) t 
GR
GR
GS
[0.60063 0 0 0.60069 297.91117 482.15529] CT
0.149 GC
/Helvetica 18.333 F
GS
[1 0 0 1 0 0] CT
-48.5 19 moveto 
1 -1 scale
(Model order) t 
GR
GR
GS
[0.60063 0 0 0.60069 0 -0.40002] CT
0.149 GC
2 setlinecap
1 LJ
0.833 LW
N
125 773 M
125 65 L
S
GR
GS
[0.60063 0 0 0.60069 0 -0.40002] CT
0.149 GC
2 setlinecap
1 LJ
0.833 LW
N
867 773 M
867 65 L
S
GR
GS
[0.60063 0 0 0.60069 0 -0.40002] CT
0.149 GC
2 setlinecap
1 LJ
0.833 LW
N
125 773 M
132.42 773 L
S
GR
GS
[0.60063 0 0 0.60069 0 -0.40002] CT
0.149 GC
2 setlinecap
1 LJ
0.833 LW
N
125 684.5 M
132.42 684.5 L
S
GR
GS
[0.60063 0 0 0.60069 0 -0.40002] CT
0.149 GC
2 setlinecap
1 LJ
0.833 LW
N
125 596 M
132.42 596 L
S
GR
GS
[0.60063 0 0 0.60069 0 -0.40002] CT
0.149 GC
2 setlinecap
1 LJ
0.833 LW
N
125 507.5 M
132.42 507.5 L
S
GR
GS
[0.60063 0 0 0.60069 0 -0.40002] CT
0.149 GC
2 setlinecap
1 LJ
0.833 LW
N
125 419 M
132.42 419 L
S
GR
GS
[0.60063 0 0 0.60069 0 -0.40002] CT
0.149 GC
2 setlinecap
1 LJ
0.833 LW
N
125 330.5 M
132.42 330.5 L
S
GR
GS
[0.60063 0 0 0.60069 0 -0.40002] CT
0.149 GC
2 setlinecap
1 LJ
0.833 LW
N
125 242 M
132.42 242 L
S
GR
GS
[0.60063 0 0 0.60069 0 -0.40002] CT
0.149 GC
2 setlinecap
1 LJ
0.833 LW
N
125 153.5 M
132.42 153.5 L
S
GR
GS
[0.60063 0 0 0.60069 0 -0.40002] CT
0.149 GC
2 setlinecap
1 LJ
0.833 LW
N
125 65 M
132.42 65 L
S
GR
GS
[0.60063 0 0 0.60069 0 -0.40002] CT
0.149 GC
2 setlinecap
1 LJ
0.833 LW
N
867 773 M
859.58 773 L
S
GR
GS
[0.60063 0 0 0.60069 0 -0.40002] CT
0.149 GC
2 setlinecap
1 LJ
0.833 LW
N
867 684.5 M
859.58 684.5 L
S
GR
GS
[0.60063 0 0 0.60069 0 -0.40002] CT
0.149 GC
2 setlinecap
1 LJ
0.833 LW
N
867 596 M
859.58 596 L
S
GR
GS
[0.60063 0 0 0.60069 0 -0.40002] CT
0.149 GC
2 setlinecap
1 LJ
0.833 LW
N
867 507.5 M
859.58 507.5 L
S
GR
GS
[0.60063 0 0 0.60069 0 -0.40002] CT
0.149 GC
2 setlinecap
1 LJ
0.833 LW
N
867 419 M
859.58 419 L
S
GR
GS
[0.60063 0 0 0.60069 0 -0.40002] CT
0.149 GC
2 setlinecap
1 LJ
0.833 LW
N
867 330.5 M
859.58 330.5 L
S
GR
GS
[0.60063 0 0 0.60069 0 -0.40002] CT
0.149 GC
2 setlinecap
1 LJ
0.833 LW
N
867 242 M
859.58 242 L
S
GR
GS
[0.60063 0 0 0.60069 0 -0.40002] CT
0.149 GC
2 setlinecap
1 LJ
0.833 LW
N
867 153.5 M
859.58 153.5 L
S
GR
GS
[0.60063 0 0 0.60069 0 -0.40002] CT
0.149 GC
2 setlinecap
1 LJ
0.833 LW
N
867 65 M
859.58 65 L
S
GR
GS
[0.60063 0 0 0.60069 71.07419 463.93433] CT
0.149 GC
/Helvetica 16.667 F
GS
[1 0 0 1 0 0] CT
-10 7 moveto 
1 -1 scale
(0) t 
GR
GR
GS
[0.60063 0 0 0.60069 71.07419 410.77315] CT
0.149 GC
/Helvetica 16.667 F
GS
[1 0 0 1 0 0] CT
-24 7 moveto 
1 -1 scale
(0.2) t 
GR
GR
GS
[0.60063 0 0 0.60069 71.07419 357.61197] CT
0.149 GC
/Helvetica 16.667 F
GS
[1 0 0 1 0 0] CT
-24 7 moveto 
1 -1 scale
(0.4) t 
GR
GR
GS
[0.60063 0 0 0.60069 71.07419 304.4508] CT
0.149 GC
/Helvetica 16.667 F
GS
[1 0 0 1 0 0] CT
-24 7 moveto 
1 -1 scale
(0.6) t 
GR
GR
GS
[0.60063 0 0 0.60069 71.07419 251.28962] CT
0.149 GC
/Helvetica 16.667 F
GS
[1 0 0 1 0 0] CT
-24 7 moveto 
1 -1 scale
(0.8) t 
GR
GR
GS
[0.60063 0 0 0.60069 71.07419 198.12844] CT
0.149 GC
/Helvetica 16.667 F
GS
[1 0 0 1 0 0] CT
-10 7 moveto 
1 -1 scale
(1) t 
GR
GR
GS
[0.60063 0 0 0.60069 71.07419 144.96725] CT
0.149 GC
/Helvetica 16.667 F
GS
[1 0 0 1 0 0] CT
-24 7 moveto 
1 -1 scale
(1.2) t 
GR
GR
GS
[0.60063 0 0 0.60069 71.07419 91.8061] CT
0.149 GC
/Helvetica 16.667 F
GS
[1 0 0 1 0 0] CT
-24 7 moveto 
1 -1 scale
(1.4) t 
GR
GR
GS
[0.60063 0 0 0.60069 71.07419 38.6449] CT
0.149 GC
/Helvetica 16.667 F
GS
[1 0 0 1 0 0] CT
-24 7 moveto 
1 -1 scale
(1.6) t 
GR
GR
GS
[0 -0.60069 0.60063 0 53.65601 251.28942] CT
0.149 GC
/Helvetica 18.333 F
GS
[1 0 0 1 0 0] CT
-53 -4 moveto 
1 -1 scale
(Cost function) t 
GR
GR
GS
[0.60063 0 0 0.60069 231.24137 29.03385] CT
/Helvetica-Bold 18.333 F
GS
[1 0 0 1 0 0] CT
0 0 moveto 
1 -1 scale
(V) t 
GR
GR
GS
[0.60063 0 0 0.60069 239.04952 34.44007] CT
/Helvetica-Bold 14.667 F
GS
[1 0 0 1 0 0] CT
0 0 moveto 
1 -1 scale
(0) t 
GR
GR
GS
[0.60063 0 0 0.60069 244.45517 29.03385] CT
/Helvetica-Bold 18.333 F
GS
[1 0 0 1 0 0] CT
0 0 moveto 
1 -1 scale
( for noise variance 0.05) t 
GR
GR
GS
[0.60063 0 0 0.60069 0 -0.40002] CT
0 0.447 0.741 RC
1 LJ
0.833 LW
N
233.161 64.916 M
236.3 97.065 L
243.72 108.244 L
251.14 110.771 L
258.56 139.763 L
265.98 308.792 L
273.4 314.015 L
280.82 467.274 L
288.24 474.812 L
295.66 475.016 L
303.08 474.116 L
310.5 524.174 L
317.92 562.667 L
325.34 584.031 L
332.76 619.702 L
340.18 619.993 L
347.6 621.55 L
355.02 623.449 L
362.44 651.664 L
369.86 653.605 L
377.28 666.381 L
384.7 669.525 L
392.12 667.607 L
399.54 668.434 L
406.96 670.366 L
414.38 675.915 L
421.8 673.881 L
429.22 675.634 L
436.64 675.718 L
444.06 674.553 L
451.48 674.464 L
458.9 675.75 L
466.32 669.978 L
473.74 669.978 L
481.16 670.305 L
488.58 667.941 L
496 667.143 L
503.42 666.369 L
510.84 664.801 L
518.26 664.766 L
525.68 661.485 L
533.1 661.289 L
540.52 660.261 L
547.94 660.093 L
555.36 660.128 L
562.78 660.155 L
570.2 658.809 L
577.62 657.574 L
585.04 657.68 L
592.46 656.49 L
599.88 655.872 L
607.3 654.371 L
614.72 654.188 L
622.14 654.217 L
629.56 654.142 L
636.98 654.299 L
644.4 653.926 L
651.82 651.882 L
659.24 648.117 L
666.66 648.544 L
674.08 647.884 L
681.5 647.889 L
688.92 647.179 L
696.34 647.126 L
703.76 647.139 L
711.18 647.196 L
718.6 647.179 L
726.02 644.456 L
733.44 643.478 L
740.86 642.369 L
748.28 642.403 L
755.7 640.628 L
763.12 640.622 L
770.54 639.313 L
777.96 638.637 L
785.38 637.803 L
792.8 637.54 L
800.22 637.384 L
807.64 633.705 L
815.06 633.871 L
822.48 628.739 L
829.9 627.567 L
837.32 627.499 L
844.74 626.669 L
852.16 626.742 L
859.58 624.092 L
867 623.281 L
S
GR
GS
[0.60063 0 0 0.60069 0 -0.40002] CT
1 GC
N
781 113 M
781 82 L
850 82 L
850 113 L
cp
f
GR
GS
[0.60063 0 0 0.60069 496.71848 60.26979] CT
/Helvetica 15 F
GS
[1 0 0 1 0 0] CT
0 0 moveto 
1 -1 scale
(V) t 
GR
GR
GS
[0.60063 0 0 0.60069 503.32538 64.47463] CT
/Helvetica 12 F
GS
[1 0 0 1 0 0] CT
0 0 moveto 
1 -1 scale
(0) t 
GR
GR
GS
[0.60063 0 0 0.60069 0 -0.40002] CT
0 0.447 0.741 RC
1 LJ
0.833 LW
N
785.982 97.5 M
823.347 97.5 L
S
GR
GS
[0.60063 0 0 0.60069 0 -0.40002] CT
0.149 GC
10.0 ML
0.833 LW
N
781 113 M
781 82 L
850 82 L
850 113 L
cp
S
GR
%%Trailer
%%Pages: 1
%%EOF
