\relax 
\providecommand\hyper@newdestlabel[2]{}
\providecommand\HyperFirstAtBeginDocument{\AtBeginDocument}
\HyperFirstAtBeginDocument{\ifx\hyper@anchor\@undefined
\global\let\oldcontentsline\contentsline
\gdef\contentsline#1#2#3#4{\oldcontentsline{#1}{#2}{#3}}
\global\let\oldnewlabel\newlabel
\gdef\newlabel#1#2{\newlabelxx{#1}#2}
\gdef\newlabelxx#1#2#3#4#5#6{\oldnewlabel{#1}{{#2}{#3}}}
\AtEndDocument{\ifx\hyper@anchor\@undefined
\let\contentsline\oldcontentsline
\let\newlabel\oldnewlabel
\fi}
\fi}
\global\let\hyper@last\relax 
\gdef\HyperFirstAtBeginDocument#1{#1}
\providecommand\HyField@AuxAddToFields[1]{}
\providecommand\HyField@AuxAddToCoFields[2]{}
\select@language{english}
\@writefile{toc}{\select@language{english}}
\@writefile{lof}{\select@language{english}}
\@writefile{lot}{\select@language{english}}
\pgfsyspdfmark {pgfid2}{0}{0}
\pgfsyspdfmark {pgfid1}{6577079}{47493192}
\@writefile{toc}{\contentsline {section}{\numberline {1}Introduction}{1}{section.1}}
\@writefile{toc}{\contentsline {section}{\numberline {2}Feeling the system and Preprocessing}{1}{section.2}}
\@writefile{toc}{\contentsline {subsection}{\numberline {2.1}Zero input}{1}{subsection.2.1}}
\@writefile{toc}{\contentsline {subsection}{\numberline {2.2}Impulse response}{1}{subsection.2.2}}
\providecommand*\caption@xref[2]{\@setref\relax\@undefined{#1}}
\newlabel{fig:zeroinputoriginal}{{1a}{2}{Subfigure 1a}{subfigure.1.1}{}}
\newlabel{sub@fig:zeroinputoriginal}{{(a)}{a}{Subfigure 1a\relax }{subfigure.1.1}{}}
\newlabel{fig:zeroinputtrend}{{1b}{2}{Subfigure 1b}{subfigure.1.2}{}}
\newlabel{sub@fig:zeroinputtrend}{{(b)}{b}{Subfigure 1b\relax }{subfigure.1.2}{}}
\newlabel{fig:zeroinputsystem}{{1c}{2}{Subfigure 1c}{subfigure.1.3}{}}
\newlabel{sub@fig:zeroinputsystem}{{(c)}{c}{Subfigure 1c\relax }{subfigure.1.3}{}}
\@writefile{lof}{\contentsline {subfigure}{\numberline{(a)}{\ignorespaces {The original output when we apply a zero input of length 1000.}}}{2}{subfigure.1.1}}
\@writefile{lof}{\contentsline {subfigure}{\numberline{(b)}{\ignorespaces {The trend of the low frequency noise. Determined by a low-pass second order Butterworth filter.}}}{2}{subfigure.1.2}}
\@writefile{lof}{\contentsline {subfigure}{\numberline{(c)}{\ignorespaces {The output of the zero input, after subtracting the mean, peak shaving, detrending and high-pass filtering.}}}{2}{subfigure.1.3}}
\@writefile{toc}{\contentsline {subsection}{\numberline {2.3}Experimental Bode plot}{2}{subsection.2.3}}
\@writefile{lof}{\contentsline {figure}{\numberline {1}{\ignorespaces The average of 2000 times measuring the impulse response of the system. The delay seems to be about 17 timesteps.\relax }}{3}{figure.caption.2}}
\newlabel{fig:impulsedelay}{{1}{3}{The average of 2000 times measuring the impulse response of the system. The delay seems to be about 17 timesteps.\relax }{figure.caption.2}{}}
\@writefile{lof}{\contentsline {figure}{\numberline {2}{\ignorespaces The estimated delay of the system with 99 percentile confidence intervals in MATLAB. Also note that the delay is estimated to be 17, as our own results.\relax }}{3}{figure.caption.3}}
\newlabel{fig:cra_delay}{{2}{3}{The estimated delay of the system with 99 percentile confidence intervals in MATLAB. Also note that the delay is estimated to be 17, as our own results.\relax }{figure.caption.3}{}}
\@writefile{lof}{\contentsline {figure}{\numberline {3}{\ignorespaces An experimental Bode plot of the system computed by applying exact sine waves with a given frequency and then dividing the maximum of the output FFT and input FFT. The same result can be obtained by dividing the standard deviations of the output and input FFT.\relax }}{4}{figure.caption.4}}
\newlabel{fig:bodeexperimental}{{3}{4}{An experimental Bode plot of the system computed by applying exact sine waves with a given frequency and then dividing the maximum of the output FFT and input FFT. The same result can be obtained by dividing the standard deviations of the output and input FFT.\relax }{figure.caption.4}{}}
\@writefile{toc}{\contentsline {section}{\numberline {3}Identification and Validation }{4}{section.3}}
\@writefile{toc}{\contentsline {subsection}{\numberline {3.1}ARX Estimation}{4}{subsection.3.1}}
\@writefile{lof}{\contentsline {figure}{\numberline {4}{\ignorespaces The \texttt  {arxstruc} plot for choosing an optimal ARX model.\relax }}{5}{figure.caption.5}}
\newlabel{fig:arxstruc}{{4}{5}{The \texttt {arxstruc} plot for choosing an optimal ARX model.\relax }{figure.caption.5}{}}
\@writefile{toc}{\contentsline {subsubsection}{\numberline {3.1.1}Choosing an ARX model using \texttt  {arxstruc}}{5}{subsubsection.3.1.1}}
\@writefile{toc}{\contentsline {subsubsection}{\numberline {3.1.2}Validating the ARX model}{5}{subsubsection.3.1.2}}
\@writefile{toc}{\contentsline {subsubsection}{\numberline {3.1.3}Model Order Reduction}{5}{subsubsection.3.1.3}}
\@writefile{lof}{\contentsline {figure}{\numberline {5}{\ignorespaces The Bode plot of the estimated ARX model with orders $n_a=9$ and $n_b=17$ in blue and the estimated Bode plot in magenta. They obey the same system behavior. Only for low and high freqencies there is a small difference due to the filtering and the noise.\relax }}{6}{figure.caption.6}}
\newlabel{fig:arxbode}{{5}{6}{The Bode plot of the estimated ARX model with orders $n_a=9$ and $n_b=17$ in blue and the estimated Bode plot in magenta. They obey the same system behavior. Only for low and high freqencies there is a small difference due to the filtering and the noise.\relax }{figure.caption.6}{}}
\@writefile{toc}{\contentsline {subsection}{\numberline {3.2}ARMAX Estimation}{6}{subsection.3.2}}
\@writefile{lof}{\contentsline {figure}{\numberline {6}{\ignorespaces The autocorrelation of the error between the estimated and true outputs of the system in the left figure. This error seems to be white. The right figure shows the cross-correlation between this error and the input signal.\relax }}{7}{figure.caption.7}}
\newlabel{fig:arxresidual}{{6}{7}{The autocorrelation of the error between the estimated and true outputs of the system in the left figure. This error seems to be white. The right figure shows the cross-correlation between this error and the input signal.\relax }{figure.caption.7}{}}
\@writefile{lof}{\contentsline {figure}{\numberline {7}{\ignorespaces Pole-Zero map of the identified ARX model. The system is stable but there are opportunities to perform model order reduction by pole-zero cancellation.\relax }}{7}{figure.caption.8}}
\newlabel{fig:pzmap}{{7}{7}{Pole-Zero map of the identified ARX model. The system is stable but there are opportunities to perform model order reduction by pole-zero cancellation.\relax }{figure.caption.8}{}}
\@writefile{toc}{\contentsline {subsubsection}{\numberline {3.2.1}Analysis of the best ARMAX model}{7}{subsubsection.3.2.1}}
\@writefile{lof}{\contentsline {figure}{\numberline {8}{\ignorespaces The Hankel singular values of the identified ARX. We chose to truncate the system up to 10 terms because the error is small when we truncate there.\relax }}{8}{figure.caption.9}}
\newlabel{fig:arxhankel}{{8}{8}{The Hankel singular values of the identified ARX. We chose to truncate the system up to 10 terms because the error is small when we truncate there.\relax }{figure.caption.9}{}}
\@writefile{lof}{\contentsline {figure}{\numberline {9}{\ignorespaces The estimated Bode plot from the first section in magenta, the Bode plot of the ARX model in blue and the Bode plot of the reduced ARX model in red. They all seem to have the same system dynamics.\relax }}{8}{figure.caption.10}}
\newlabel{fig:arxbodereduced}{{9}{8}{The estimated Bode plot from the first section in magenta, the Bode plot of the ARX model in blue and the Bode plot of the reduced ARX model in red. They all seem to have the same system dynamics.\relax }{figure.caption.10}{}}
\@writefile{lof}{\contentsline {figure}{\numberline {10}{\ignorespaces Bode plot of the ARMAX model with $n_c = 14$ together with the ARX Bode plot and the estimated Bode plot.\relax }}{9}{figure.caption.11}}
\newlabel{fig:armaxbode}{{10}{9}{Bode plot of the ARMAX model with $n_c = 14$ together with the ARX Bode plot and the estimated Bode plot.\relax }{figure.caption.11}{}}
\@writefile{lof}{\contentsline {figure}{\numberline {11}{\ignorespaces The residual analysis of the ARMAX model.\relax }}{9}{figure.caption.12}}
\newlabel{fig:residualarmax}{{11}{9}{The residual analysis of the ARMAX model.\relax }{figure.caption.12}{}}
\@writefile{toc}{\contentsline {subsubsection}{\numberline {3.2.2}Model order reduction on ARMAX}{9}{subsubsection.3.2.2}}
\newlabel{fig:armaxpolezero}{{12a}{10}{Subfigure 12a}{subfigure.12.1}{}}
\newlabel{sub@fig:armaxpolezero}{{(a)}{a}{Subfigure 12a\relax }{subfigure.12.1}{}}
\newlabel{fig:armax10reduced}{{12b}{10}{Subfigure 12b}{subfigure.12.2}{}}
\newlabel{sub@fig:armax10reduced}{{(b)}{b}{Subfigure 12b\relax }{subfigure.12.2}{}}
\@writefile{lof}{\contentsline {subfigure}{\numberline{(a)}{\ignorespaces {Pole-Zero map of the ARMAX model. Notice that there are a couple of poles and zeros close to each other, which are perfect for model order reduction.}}}{10}{subfigure.12.1}}
\@writefile{lof}{\contentsline {subfigure}{\numberline{(b)}{\ignorespaces {The pole-zero map of the tenth order ARMAX model.}}}{10}{subfigure.12.2}}
\@writefile{toc}{\contentsline {subsubsection}{\numberline {3.2.3}Conclusion of ARMAX}{10}{subsubsection.3.2.3}}
\@writefile{toc}{\contentsline {subsection}{\numberline {3.3}OE Estimation}{10}{subsection.3.3}}
\@writefile{toc}{\contentsline {subsubsection}{\numberline {3.3.1}Finding a good OE Model}{10}{subsubsection.3.3.1}}
\@writefile{lof}{\contentsline {figure}{\numberline {12}{\ignorespaces Bode plot of the fitted OE model with orders $n_f=9$ and $n_b=16$.\relax }}{11}{figure.caption.14}}
\newlabel{fig:bodeoe}{{12}{11}{Bode plot of the fitted OE model with orders $n_f=9$ and $n_b=16$.\relax }{figure.caption.14}{}}
\@writefile{lof}{\contentsline {figure}{\numberline {13}{\ignorespaces The residual analysis of the OE model with orders $n_f=9$ and $n_b=16$. We notice that the error between the fitted output of this model and the true output of the system does not quite behave like white noise.\relax }}{11}{figure.caption.15}}
\newlabel{fig:oeresidual}{{13}{11}{The residual analysis of the OE model with orders $n_f=9$ and $n_b=16$. We notice that the error between the fitted output of this model and the true output of the system does not quite behave like white noise.\relax }{figure.caption.15}{}}
\@writefile{toc}{\contentsline {subsubsection}{\numberline {3.3.2}Validating the OE Model}{11}{subsubsection.3.3.2}}
\@writefile{toc}{\contentsline {subsubsection}{\numberline {3.3.3}Model order reduction of the OE model}{11}{subsubsection.3.3.3}}
\@writefile{lof}{\contentsline {figure}{\numberline {14}{\ignorespaces The pole-zero map of the OE model with orders $n_f=9$ and $n_b=16$. There are at least three pole-zero pair that may be cancelled by each other.\relax }}{12}{figure.caption.16}}
\newlabel{fig:polezerooe}{{14}{12}{The pole-zero map of the OE model with orders $n_f=9$ and $n_b=16$. There are at least three pole-zero pair that may be cancelled by each other.\relax }{figure.caption.16}{}}
\@writefile{lof}{\contentsline {figure}{\numberline {15}{\ignorespaces The Hankel singular values of the OE reduced model with orders $n_f=9$ and $n_b=16$. \relax }}{12}{figure.caption.17}}
\newlabel{fig:hankeloe}{{15}{12}{The Hankel singular values of the OE reduced model with orders $n_f=9$ and $n_b=16$. \relax }{figure.caption.17}{}}
\@writefile{toc}{\contentsline {subsubsection}{\numberline {3.3.4}Conclusion on OE}{12}{subsubsection.3.3.4}}
\@writefile{lof}{\contentsline {figure}{\numberline {16}{\ignorespaces The Bode plot of the reduced OE model to order 8.\relax }}{13}{figure.caption.18}}
\newlabel{fig:oereduced}{{16}{13}{The Bode plot of the reduced OE model to order 8.\relax }{figure.caption.18}{}}
\@writefile{toc}{\contentsline {subsection}{\numberline {3.4}Box-Jenkins Estimation}{13}{subsection.3.4}}
\@writefile{toc}{\contentsline {subsubsection}{\numberline {3.4.1}Finding a good Box-Jenkins model}{13}{subsubsection.3.4.1}}
\@writefile{toc}{\contentsline {subsection}{\numberline {3.5}Subspace methods for system identification}{13}{subsection.3.5}}
\@writefile{lof}{\contentsline {figure}{\numberline {17}{\ignorespaces Bodeplot of the Box-Jenkins method with $n_f=9, n_b=16, n_c=13, n_d=9$. It tries the follow the system dynamics but is not good for high frequencies.\relax }}{14}{figure.caption.19}}
\newlabel{fig:jenkinsbode}{{17}{14}{Bodeplot of the Box-Jenkins method with $n_f=9, n_b=16, n_c=13, n_d=9$. It tries the follow the system dynamics but is not good for high frequencies.\relax }{figure.caption.19}{}}
\@writefile{lof}{\contentsline {figure}{\numberline {18}{\ignorespaces Bode plot of the identified system using Subspace identification with delay 17.\relax }}{14}{figure.caption.20}}
\newlabel{fig:bodesub}{{18}{14}{Bode plot of the identified system using Subspace identification with delay 17.\relax }{figure.caption.20}{}}
\@writefile{toc}{\contentsline {subsubsection}{\numberline {3.5.1}Model order reduction}{14}{subsubsection.3.5.1}}
\@writefile{lof}{\contentsline {figure}{\numberline {19}{\ignorespaces Pole-zero map of the subsystem identification tool.\relax }}{15}{figure.caption.21}}
\newlabel{fig:pzmapsub}{{19}{15}{Pole-zero map of the subsystem identification tool.\relax }{figure.caption.21}{}}
\@writefile{lof}{\contentsline {figure}{\numberline {20}{\ignorespaces Bode plot for the reduced model to order 11 by subspace identification.\relax }}{15}{figure.caption.22}}
\newlabel{fig:subreduced}{{20}{15}{Bode plot for the reduced model to order 11 by subspace identification.\relax }{figure.caption.22}{}}
\@writefile{toc}{\contentsline {section}{\numberline {4}Conclusion}{15}{section.4}}
\newlabel{LastPage}{{}{15}{}{page.15}{}}
\xdef\lastpage@lastpage{15}
\xdef\lastpage@lastpageHy{15}
