\BOOKMARK [1][-]{section.1}{Introduction}{}% 1
\BOOKMARK [1][-]{section.2}{Feeling the system and Preprocessing}{}% 2
\BOOKMARK [2][-]{subsection.2.1}{Zero input}{section.2}% 3
\BOOKMARK [2][-]{subsection.2.2}{Impulse response}{section.2}% 4
\BOOKMARK [2][-]{subsection.2.3}{Experimental Bode plot}{section.2}% 5
\BOOKMARK [1][-]{section.3}{Identification and Validation }{}% 6
\BOOKMARK [2][-]{subsection.3.1}{ARX Estimation}{section.3}% 7
\BOOKMARK [3][-]{subsubsection.3.1.1}{Choosing an ARX model using arxstruc}{subsection.3.1}% 8
\BOOKMARK [3][-]{subsubsection.3.1.2}{Validating the ARX model}{subsection.3.1}% 9
\BOOKMARK [3][-]{subsubsection.3.1.3}{Model Order Reduction}{subsection.3.1}% 10
\BOOKMARK [2][-]{subsection.3.2}{ARMAX Estimation}{section.3}% 11
\BOOKMARK [3][-]{subsubsection.3.2.1}{Analysis of the best ARMAX model}{subsection.3.2}% 12
\BOOKMARK [3][-]{subsubsection.3.2.2}{Model order reduction on ARMAX}{subsection.3.2}% 13
\BOOKMARK [3][-]{subsubsection.3.2.3}{Conclusion of ARMAX}{subsection.3.2}% 14
\BOOKMARK [2][-]{subsection.3.3}{OE Estimation}{section.3}% 15
\BOOKMARK [3][-]{subsubsection.3.3.1}{Finding a good OE Model}{subsection.3.3}% 16
\BOOKMARK [3][-]{subsubsection.3.3.2}{Validating the OE Model}{subsection.3.3}% 17
\BOOKMARK [3][-]{subsubsection.3.3.3}{Model order reduction of the OE model}{subsection.3.3}% 18
\BOOKMARK [3][-]{subsubsection.3.3.4}{Conclusion on OE}{subsection.3.3}% 19
\BOOKMARK [2][-]{subsection.3.4}{Box-Jenkins Estimation}{section.3}% 20
\BOOKMARK [3][-]{subsubsection.3.4.1}{Finding a good Box-Jenkins model}{subsection.3.4}% 21
\BOOKMARK [2][-]{subsection.3.5}{Subspace methods for system identification}{section.3}% 22
\BOOKMARK [3][-]{subsubsection.3.5.1}{Model order reduction}{subsection.3.5}% 23
\BOOKMARK [1][-]{section.4}{Conclusion}{}% 24
