%!PS-Adobe-3.0 EPSF-3.0
%%Creator: (MATLAB, The Mathworks, Inc. Version 9.1.0.441655 \(R2016b\). Operating System: Linux)
%%Title: /users/start2016/r0461511/Documents/system-identification/Oefenzitting_3/plots/auto_corr_sub.eps
%%CreationDate: 2016-12-20T18:04:57
%%Pages: (atend)
%%BoundingBox: 0 0 426 308
%%LanguageLevel: 3
%%EndComments
%%BeginProlog
%%BeginResource: procset (Apache XML Graphics Std ProcSet) 1.2 0
%%Version: 1.2 0
%%Copyright: (Copyright 2001-2003,2010 The Apache Software Foundation. License terms: http://www.apache.org/licenses/LICENSE-2.0)
/bd{bind def}bind def
/ld{load def}bd
/GR/grestore ld
/M/moveto ld
/LJ/setlinejoin ld
/C/curveto ld
/f/fill ld
/LW/setlinewidth ld
/GC/setgray ld
/t/show ld
/N/newpath ld
/CT/concat ld
/cp/closepath ld
/S/stroke ld
/L/lineto ld
/CC/setcmykcolor ld
/A/ashow ld
/GS/gsave ld
/RC/setrgbcolor ld
/RM/rmoveto ld
/ML/setmiterlimit ld
/re {4 2 roll M
1 index 0 rlineto
0 exch rlineto
neg 0 rlineto
cp } bd
/_ctm matrix def
/_tm matrix def
/BT { _ctm currentmatrix pop matrix _tm copy pop 0 0 moveto } bd
/ET { _ctm setmatrix } bd
/iTm { _ctm setmatrix _tm concat } bd
/Tm { _tm astore pop iTm 0 0 moveto } bd
/ux 0.0 def
/uy 0.0 def
/F {
  /Tp exch def
  /Tf exch def
  Tf findfont Tp scalefont setfont
  /cf Tf def  /cs Tp def
} bd
/ULS {currentpoint /uy exch def /ux exch def} bd
/ULE {
  /Tcx currentpoint pop def
  gsave
  newpath
  cf findfont cs scalefont dup
  /FontMatrix get 0 get /Ts exch def /FontInfo get dup
  /UnderlinePosition get Ts mul /To exch def
  /UnderlineThickness get Ts mul /Tt exch def
  ux uy To add moveto  Tcx uy To add lineto
  Tt setlinewidth stroke
  grestore
} bd
/OLE {
  /Tcx currentpoint pop def
  gsave
  newpath
  cf findfont cs scalefont dup
  /FontMatrix get 0 get /Ts exch def /FontInfo get dup
  /UnderlinePosition get Ts mul /To exch def
  /UnderlineThickness get Ts mul /Tt exch def
  ux uy To add cs add moveto Tcx uy To add cs add lineto
  Tt setlinewidth stroke
  grestore
} bd
/SOE {
  /Tcx currentpoint pop def
  gsave
  newpath
  cf findfont cs scalefont dup
  /FontMatrix get 0 get /Ts exch def /FontInfo get dup
  /UnderlinePosition get Ts mul /To exch def
  /UnderlineThickness get Ts mul /Tt exch def
  ux uy To add cs 10 mul 26 idiv add moveto Tcx uy To add cs 10 mul 26 idiv add lineto
  Tt setlinewidth stroke
  grestore
} bd
/QT {
/Y22 exch store
/X22 exch store
/Y21 exch store
/X21 exch store
currentpoint
/Y21 load 2 mul add 3 div exch
/X21 load 2 mul add 3 div exch
/X21 load 2 mul /X22 load add 3 div
/Y21 load 2 mul /Y22 load add 3 div
/X22 load /Y22 load curveto
} bd
/SSPD {
dup length /d exch dict def
{
/v exch def
/k exch def
currentpagedevice k known {
/cpdv currentpagedevice k get def
v cpdv ne {
/upd false def
/nullv v type /nulltype eq def
/nullcpdv cpdv type /nulltype eq def
nullv nullcpdv or
{
/upd true def
} {
/sametype v type cpdv type eq def
sametype {
v type /arraytype eq {
/vlen v length def
/cpdvlen cpdv length def
vlen cpdvlen eq {
0 1 vlen 1 sub {
/i exch def
/obj v i get def
/cpdobj cpdv i get def
obj cpdobj ne {
/upd true def
exit
} if
} for
} {
/upd true def
} ifelse
} {
v type /dicttype eq {
v {
/dv exch def
/dk exch def
/cpddv cpdv dk get def
dv cpddv ne {
/upd true def
exit
} if
} forall
} {
/upd true def
} ifelse
} ifelse
} if
} ifelse
upd true eq {
d k v put
} if
} if
} if
} forall
d length 0 gt {
d setpagedevice
} if
} bd
/RE { % /NewFontName [NewEncodingArray] /FontName RE -
  findfont dup length dict begin
  {
    1 index /FID ne
    {def} {pop pop} ifelse
  } forall
  /Encoding exch def
  /FontName 1 index def
  currentdict definefont pop
  end
} bind def
%%EndResource
%%BeginResource: procset (Apache XML Graphics EPS ProcSet) 1.0 0
%%Version: 1.0 0
%%Copyright: (Copyright 2002-2003 The Apache Software Foundation. License terms: http://www.apache.org/licenses/LICENSE-2.0)
/BeginEPSF { %def
/b4_Inc_state save def         % Save state for cleanup
/dict_count countdictstack def % Count objects on dict stack
/op_count count 1 sub def      % Count objects on operand stack
userdict begin                 % Push userdict on dict stack
/showpage { } def              % Redefine showpage, { } = null proc
0 setgray 0 setlinecap         % Prepare graphics state
1 setlinewidth 0 setlinejoin
10 setmiterlimit [ ] 0 setdash newpath
/languagelevel where           % If level not equal to 1 then
{pop languagelevel             % set strokeadjust and
1 ne                           % overprint to their defaults.
{false setstrokeadjust false setoverprint
} if
} if
} bd
/EndEPSF { %def
count op_count sub {pop} repeat            % Clean up stacks
countdictstack dict_count sub {end} repeat
b4_Inc_state restore
} bd
%%EndResource
%FOPBeginFontDict
%%IncludeResource: font Courier-Bold
%%IncludeResource: font Helvetica
%%IncludeResource: font Courier-BoldOblique
%%IncludeResource: font Courier-Oblique
%%IncludeResource: font Times-Roman
%%IncludeResource: font Helvetica-BoldOblique
%%IncludeResource: font Helvetica-Bold
%%IncludeResource: font Helvetica-Oblique
%%IncludeResource: font Times-BoldItalic
%%IncludeResource: font Courier
%%IncludeResource: font Times-Italic
%%IncludeResource: font Times-Bold
%%IncludeResource: font Symbol
%%IncludeResource: font ZapfDingbats
%FOPEndFontDict
%%BeginResource: encoding WinAnsiEncoding
/WinAnsiEncoding [
/.notdef /.notdef /.notdef /.notdef /.notdef
/.notdef /.notdef /.notdef /.notdef /.notdef
/.notdef /.notdef /.notdef /.notdef /.notdef
/.notdef /.notdef /.notdef /.notdef /.notdef
/.notdef /.notdef /.notdef /.notdef /.notdef
/.notdef /.notdef /.notdef /.notdef /.notdef
/.notdef /.notdef /space /exclam /quotedbl
/numbersign /dollar /percent /ampersand /quotesingle
/parenleft /parenright /asterisk /plus /comma
/hyphen /period /slash /zero /one
/two /three /four /five /six
/seven /eight /nine /colon /semicolon
/less /equal /greater /question /at
/A /B /C /D /E
/F /G /H /I /J
/K /L /M /N /O
/P /Q /R /S /T
/U /V /W /X /Y
/Z /bracketleft /backslash /bracketright /asciicircum
/underscore /quoteleft /a /b /c
/d /e /f /g /h
/i /j /k /l /m
/n /o /p /q /r
/s /t /u /v /w
/x /y /z /braceleft /bar
/braceright /asciitilde /bullet /Euro /bullet
/quotesinglbase /florin /quotedblbase /ellipsis /dagger
/daggerdbl /circumflex /perthousand /Scaron /guilsinglleft
/OE /bullet /Zcaron /bullet /bullet
/quoteleft /quoteright /quotedblleft /quotedblright /bullet
/endash /emdash /asciitilde /trademark /scaron
/guilsinglright /oe /bullet /zcaron /Ydieresis
/space /exclamdown /cent /sterling /currency
/yen /brokenbar /section /dieresis /copyright
/ordfeminine /guillemotleft /logicalnot /sfthyphen /registered
/macron /degree /plusminus /twosuperior /threesuperior
/acute /mu /paragraph /middot /cedilla
/onesuperior /ordmasculine /guillemotright /onequarter /onehalf
/threequarters /questiondown /Agrave /Aacute /Acircumflex
/Atilde /Adieresis /Aring /AE /Ccedilla
/Egrave /Eacute /Ecircumflex /Edieresis /Igrave
/Iacute /Icircumflex /Idieresis /Eth /Ntilde
/Ograve /Oacute /Ocircumflex /Otilde /Odieresis
/multiply /Oslash /Ugrave /Uacute /Ucircumflex
/Udieresis /Yacute /Thorn /germandbls /agrave
/aacute /acircumflex /atilde /adieresis /aring
/ae /ccedilla /egrave /eacute /ecircumflex
/edieresis /igrave /iacute /icircumflex /idieresis
/eth /ntilde /ograve /oacute /ocircumflex
/otilde /odieresis /divide /oslash /ugrave
/uacute /ucircumflex /udieresis /yacute /thorn
/ydieresis
] def
%%EndResource
%FOPBeginFontReencode
/Courier-Bold findfont
dup length dict begin
  {1 index /FID ne {def} {pop pop} ifelse} forall
  /Encoding WinAnsiEncoding def
  currentdict
end
/Courier-Bold exch definefont pop
/Helvetica findfont
dup length dict begin
  {1 index /FID ne {def} {pop pop} ifelse} forall
  /Encoding WinAnsiEncoding def
  currentdict
end
/Helvetica exch definefont pop
/Courier-BoldOblique findfont
dup length dict begin
  {1 index /FID ne {def} {pop pop} ifelse} forall
  /Encoding WinAnsiEncoding def
  currentdict
end
/Courier-BoldOblique exch definefont pop
/Courier-Oblique findfont
dup length dict begin
  {1 index /FID ne {def} {pop pop} ifelse} forall
  /Encoding WinAnsiEncoding def
  currentdict
end
/Courier-Oblique exch definefont pop
/Times-Roman findfont
dup length dict begin
  {1 index /FID ne {def} {pop pop} ifelse} forall
  /Encoding WinAnsiEncoding def
  currentdict
end
/Times-Roman exch definefont pop
/Helvetica-BoldOblique findfont
dup length dict begin
  {1 index /FID ne {def} {pop pop} ifelse} forall
  /Encoding WinAnsiEncoding def
  currentdict
end
/Helvetica-BoldOblique exch definefont pop
/Helvetica-Bold findfont
dup length dict begin
  {1 index /FID ne {def} {pop pop} ifelse} forall
  /Encoding WinAnsiEncoding def
  currentdict
end
/Helvetica-Bold exch definefont pop
/Helvetica-Oblique findfont
dup length dict begin
  {1 index /FID ne {def} {pop pop} ifelse} forall
  /Encoding WinAnsiEncoding def
  currentdict
end
/Helvetica-Oblique exch definefont pop
/Times-BoldItalic findfont
dup length dict begin
  {1 index /FID ne {def} {pop pop} ifelse} forall
  /Encoding WinAnsiEncoding def
  currentdict
end
/Times-BoldItalic exch definefont pop
/Courier findfont
dup length dict begin
  {1 index /FID ne {def} {pop pop} ifelse} forall
  /Encoding WinAnsiEncoding def
  currentdict
end
/Courier exch definefont pop
/Times-Italic findfont
dup length dict begin
  {1 index /FID ne {def} {pop pop} ifelse} forall
  /Encoding WinAnsiEncoding def
  currentdict
end
/Times-Italic exch definefont pop
/Times-Bold findfont
dup length dict begin
  {1 index /FID ne {def} {pop pop} ifelse} forall
  /Encoding WinAnsiEncoding def
  currentdict
end
/Times-Bold exch definefont pop
%FOPEndFontReencode
%%EndProlog
%%Page: 1 1
%%PageBoundingBox: 0 0 426 308
%%BeginPageSetup
[1 0 0 -1 0 308] CT
%%EndPageSetup
GS
[0.75 0 0 0.75 0 0.5] CT
N
0 0 M
568 0 L
568 410 L
0 410 L
0 0 L
cp
clip
1 GC
N
0 0 568 410 re
f
GR
GS
[0.75 0 0 0.75 0 0.5] CT
1 GC
N
0 0 568 410 re
f
GR
GS
[0.75 0 0 0.75 0 0.5] CT
1 GC
N
86 365 M
292 365 L
292 51 L
86 51 L
cp
f
GR
GS
[0.75 0 0 0.75 0 0.5] CT
0.4 GC
2 setlinecap
1 LJ
0.667 LW
N
86 365 M
292 365 L
S
GR
GS
[0.75 0 0 0.75 0 0.5] CT
0.4 GC
2 setlinecap
1 LJ
0.667 LW
N
86 51 M
292 51 L
S
GR
GS
[0.75 0 0 0.75 0 0.5] CT
0.4 GC
2 setlinecap
1 LJ
0.667 LW
N
106.6 365 M
106.6 361.86 L
S
GR
GS
[0.75 0 0 0.75 0 0.5] CT
0.4 GC
2 setlinecap
1 LJ
0.667 LW
N
147.8 365 M
147.8 361.86 L
S
GR
GS
[0.75 0 0 0.75 0 0.5] CT
0.4 GC
2 setlinecap
1 LJ
0.667 LW
N
189 365 M
189 361.86 L
S
GR
GS
[0.75 0 0 0.75 0 0.5] CT
0.4 GC
2 setlinecap
1 LJ
0.667 LW
N
230.2 365 M
230.2 361.86 L
S
GR
GS
[0.75 0 0 0.75 0 0.5] CT
0.4 GC
2 setlinecap
1 LJ
0.667 LW
N
271.4 365 M
271.4 361.86 L
S
GR
GS
[0.75 0 0 0.75 0 0.5] CT
0.4 GC
2 setlinecap
1 LJ
0.667 LW
N
106.6 51 M
106.6 54.14 L
S
GR
GS
[0.75 0 0 0.75 0 0.5] CT
0.4 GC
2 setlinecap
1 LJ
0.667 LW
N
147.8 51 M
147.8 54.14 L
S
GR
GS
[0.75 0 0 0.75 0 0.5] CT
0.4 GC
2 setlinecap
1 LJ
0.667 LW
N
189 51 M
189 54.14 L
S
GR
GS
[0.75 0 0 0.75 0 0.5] CT
0.4 GC
2 setlinecap
1 LJ
0.667 LW
N
230.2 51 M
230.2 54.14 L
S
GR
GS
[0.75 0 0 0.75 0 0.5] CT
0.4 GC
2 setlinecap
1 LJ
0.667 LW
N
271.4 51 M
271.4 54.14 L
S
GR
GS
[0.75 0 0 0.75 79.95 278.25001] CT
0.4 GC
/Helvetica 13.333 F
GS
[1 0 0 1 0 0] CT
-11 13 moveto 
1 -1 scale
(-20) t 
GR
GR
GS
[0.75 0 0 0.75 110.85 278.25001] CT
0.4 GC
/Helvetica 13.333 F
GS
[1 0 0 1 0 0] CT
-11 13 moveto 
1 -1 scale
(-10) t 
GR
GR
GS
[0.75 0 0 0.75 141.75 278.25001] CT
0.4 GC
/Helvetica 13.333 F
GS
[1 0 0 1 0 0] CT
-4.5 13 moveto 
1 -1 scale
(0) t 
GR
GR
GS
[0.75 0 0 0.75 172.65 278.25001] CT
0.4 GC
/Helvetica 13.333 F
GS
[1 0 0 1 0 0] CT
-8.5 13 moveto 
1 -1 scale
(10) t 
GR
GR
GS
[0.75 0 0 0.75 203.55 278.25001] CT
0.4 GC
/Helvetica 13.333 F
GS
[1 0 0 1 0 0] CT
-8.5 13 moveto 
1 -1 scale
(20) t 
GR
GR
GS
[0.75 0 0 0.75 0 0.5] CT
0.4 GC
2 setlinecap
1 LJ
0.667 LW
N
86 365 M
86 51 L
S
GR
GS
[0.75 0 0 0.75 0 0.5] CT
0.4 GC
2 setlinecap
1 LJ
0.667 LW
N
292 365 M
292 51 L
S
GR
GS
[0.75 0 0 0.75 0 0.5] CT
0.4 GC
2 setlinecap
1 LJ
0.667 LW
N
86 365 M
89.14 365 L
S
GR
GS
[0.75 0 0 0.75 0 0.5] CT
0.4 GC
2 setlinecap
1 LJ
0.667 LW
N
86 312.667 M
89.14 312.667 L
S
GR
GS
[0.75 0 0 0.75 0 0.5] CT
0.4 GC
2 setlinecap
1 LJ
0.667 LW
N
86 260.333 M
89.14 260.333 L
S
GR
GS
[0.75 0 0 0.75 0 0.5] CT
0.4 GC
2 setlinecap
1 LJ
0.667 LW
N
86 208 M
89.14 208 L
S
GR
GS
[0.75 0 0 0.75 0 0.5] CT
0.4 GC
2 setlinecap
1 LJ
0.667 LW
N
86 155.667 M
89.14 155.667 L
S
GR
GS
[0.75 0 0 0.75 0 0.5] CT
0.4 GC
2 setlinecap
1 LJ
0.667 LW
N
86 103.333 M
89.14 103.333 L
S
GR
GS
[0.75 0 0 0.75 0 0.5] CT
0.4 GC
2 setlinecap
1 LJ
0.667 LW
N
86 51 M
89.14 51 L
S
GR
GS
[0.75 0 0 0.75 0 0.5] CT
0.4 GC
2 setlinecap
1 LJ
0.667 LW
N
292 365 M
288.86 365 L
S
GR
GS
[0.75 0 0 0.75 0 0.5] CT
0.4 GC
2 setlinecap
1 LJ
0.667 LW
N
292 312.667 M
288.86 312.667 L
S
GR
GS
[0.75 0 0 0.75 0 0.5] CT
0.4 GC
2 setlinecap
1 LJ
0.667 LW
N
292 260.333 M
288.86 260.333 L
S
GR
GS
[0.75 0 0 0.75 0 0.5] CT
0.4 GC
2 setlinecap
1 LJ
0.667 LW
N
292 208 M
288.86 208 L
S
GR
GS
[0.75 0 0 0.75 0 0.5] CT
0.4 GC
2 setlinecap
1 LJ
0.667 LW
N
292 155.667 M
288.86 155.667 L
S
GR
GS
[0.75 0 0 0.75 0 0.5] CT
0.4 GC
2 setlinecap
1 LJ
0.667 LW
N
292 103.333 M
288.86 103.333 L
S
GR
GS
[0.75 0 0 0.75 0 0.5] CT
0.4 GC
2 setlinecap
1 LJ
0.667 LW
N
292 51 M
288.86 51 L
S
GR
GS
[0.75 0 0 0.75 60.5 274.25] CT
0.4 GC
/Helvetica 13.333 F
GS
[1 0 0 1 0 0] CT
-26 4.5 moveto 
1 -1 scale
(-0.2) t 
GR
GR
GS
[0.75 0 0 0.75 60.5 234.99999] CT
0.4 GC
/Helvetica 13.333 F
GS
[1 0 0 1 0 0] CT
-9 4.5 moveto 
1 -1 scale
(0) t 
GR
GR
GS
[0.75 0 0 0.75 60.5 195.75001] CT
0.4 GC
/Helvetica 13.333 F
GS
[1 0 0 1 0 0] CT
-21 4.5 moveto 
1 -1 scale
(0.2) t 
GR
GR
GS
[0.75 0 0 0.75 60.5 156.5] CT
0.4 GC
/Helvetica 13.333 F
GS
[1 0 0 1 0 0] CT
-21 4.5 moveto 
1 -1 scale
(0.4) t 
GR
GR
GS
[0.75 0 0 0.75 60.5 117.24999] CT
0.4 GC
/Helvetica 13.333 F
GS
[1 0 0 1 0 0] CT
-21 4.5 moveto 
1 -1 scale
(0.6) t 
GR
GR
GS
[0.75 0 0 0.75 60.5 78] CT
0.4 GC
/Helvetica 13.333 F
GS
[1 0 0 1 0 0] CT
-21 4.5 moveto 
1 -1 scale
(0.8) t 
GR
GR
GS
[0.75 0 0 0.75 60.5 38.75] CT
0.4 GC
/Helvetica 13.333 F
GS
[1 0 0 1 0 0] CT
-9 4.5 moveto 
1 -1 scale
(1) t 
GR
GR
GS
[0 -0.75 0.75 0 38.00001 156.49989] CT
0.4 GC
/Helvetica 13.333 F
GS
[1 0 0 1 0 0] CT
-18.5 -4 moveto 
1 -1 scale
(e@y1) t 
GR
GR
GS
[0.75 0 0 0.75 0 0.5] CT
0.799 0.89 0.947 RC
N
279.64 300.361 M
275.52 324.972 L
275.52 300.361 L
cp
f
GR
GS
[0.75 0 0 0.75 0 0.5] CT
0.799 0.89 0.947 RC
N
114.84 300.361 M
110.72 324.972 L
110.72 300.361 L
cp
f
GR
GS
[0.75 0 0 0.75 0 0.5] CT
0.749 0.863 0.933 RC
2 setlinecap
1 LJ
0.667 LW
N
110.72 300.361 M
114.84 300.361 L
S
GR
GS
[0.75 0 0 0.75 0 0.5] CT
0.799 0.89 0.947 RC
N
110.72 300.361 M
106.6 324.972 L
106.6 300.361 L
cp
f
GR
GS
[0.75 0 0 0.75 0 0.5] CT
0.749 0.863 0.933 RC
2 setlinecap
1 LJ
0.667 LW
N
106.6 300.361 M
110.72 300.361 L
S
GR
GS
[0.75 0 0 0.75 0 0.5] CT
0.799 0.89 0.947 RC
N
106.6 300.361 M
102.48 324.972 L
102.48 300.361 L
cp
f
GR
GS
[0.75 0 0 0.75 0 0.5] CT
0.749 0.863 0.933 RC
2 setlinecap
1 LJ
0.667 LW
N
102.48 300.361 M
106.6 300.361 L
S
GR
GS
[0.75 0 0 0.75 0 0.5] CT
0.799 0.89 0.947 RC
N
98.36 324.972 M
98.36 300.361 L
102.48 300.361 L
cp
f
GR
GS
[0.75 0 0 0.75 0 0.5] CT
0.749 0.863 0.933 RC
2 setlinecap
1 LJ
0.667 LW
N
98.36 300.361 M
102.48 300.361 L
S
GR
GS
[0.75 0 0 0.75 0 0.5] CT
0.799 0.89 0.947 RC
N
94.24 300.361 M
98.36 300.361 L
94.24 324.972 L
cp
f
GR
GS
[0.75 0 0 0.75 0 0.5] CT
0.749 0.863 0.933 RC
2 setlinecap
1 LJ
0.667 LW
N
94.24 300.361 M
98.36 300.361 L
S
GR
GS
[0.75 0 0 0.75 0 0.5] CT
0.799 0.89 0.947 RC
N
90.12 324.972 M
90.12 300.361 L
94.24 300.361 L
cp
f
GR
GS
[0.75 0 0 0.75 0 0.5] CT
0.749 0.863 0.933 RC
2 setlinecap
1 LJ
0.667 LW
N
90.12 300.361 M
94.24 300.361 L
S
GR
GS
[0.75 0 0 0.75 0 0.5] CT
0.799 0.89 0.947 RC
N
86 300.361 M
90.12 300.361 L
86 324.972 L
cp
f
GR
GS
[0.75 0 0 0.75 0 0.5] CT
0.749 0.863 0.933 RC
2 setlinecap
1 LJ
0.667 LW
N
86 300.361 M
90.12 300.361 L
S
GR
GS
[0.75 0 0 0.75 0 0.5] CT
0.799 0.89 0.947 RC
N
279.64 324.972 M
275.52 324.972 L
279.64 300.361 L
cp
f
GR
GS
[0.75 0 0 0.75 0 0.5] CT
0.799 0.89 0.947 RC
N
279.64 324.972 M
279.64 300.361 L
283.76 300.361 L
cp
f
GR
GS
[0.75 0 0 0.75 0 0.5] CT
0.799 0.89 0.947 RC
N
114.84 324.972 M
114.84 300.361 L
118.96 300.361 L
cp
f
GR
GS
[0.75 0 0 0.75 0 0.5] CT
0.749 0.863 0.933 RC
2 setlinecap
1 LJ
0.667 LW
N
114.84 300.361 M
118.96 300.361 L
S
GR
GS
[0.75 0 0 0.75 0 0.5] CT
0.799 0.89 0.947 RC
N
283.76 324.972 M
283.76 300.361 L
287.88 300.361 L
cp
f
GR
GS
[0.75 0 0 0.75 0 0.5] CT
0.799 0.89 0.947 RC
N
263.16 324.972 M
259.04 324.972 L
263.16 300.361 L
cp
f
GR
GS
[0.75 0 0 0.75 0 0.5] CT
0.799 0.89 0.947 RC
N
263.16 324.972 M
263.16 300.361 L
267.28 300.361 L
cp
f
GR
GS
[0.75 0 0 0.75 0 0.5] CT
0.799 0.89 0.947 RC
N
250.8 324.972 M
246.68 324.972 L
250.8 300.361 L
cp
f
GR
GS
[0.75 0 0 0.75 0 0.5] CT
0.799 0.89 0.947 RC
N
250.8 324.972 M
250.8 300.361 L
254.92 300.361 L
cp
f
GR
GS
[0.75 0 0 0.75 0 0.5] CT
0.799 0.89 0.947 RC
N
230.2 324.972 M
234.32 300.361 L
234.32 324.972 L
cp
f
GR
GS
[0.75 0 0 0.75 0 0.5] CT
0.799 0.89 0.947 RC
N
209.6 324.972 M
205.48 324.972 L
209.6 300.361 L
cp
f
GR
GS
[0.75 0 0 0.75 0 0.5] CT
0.799 0.89 0.947 RC
N
209.6 324.972 M
209.6 300.361 L
213.72 300.361 L
cp
f
GR
GS
[0.75 0 0 0.75 0 0.5] CT
0.799 0.89 0.947 RC
N
209.6 300.361 M
205.48 324.972 L
205.48 300.361 L
cp
f
GR
GS
[0.75 0 0 0.75 0 0.5] CT
0.799 0.89 0.947 RC
N
151.92 300.361 M
156.04 300.361 L
151.92 324.972 L
cp
f
GR
GS
[0.75 0 0 0.75 0 0.5] CT
0.749 0.863 0.933 RC
2 setlinecap
1 LJ
0.667 LW
N
151.92 300.361 M
156.04 300.361 L
S
GR
GS
[0.75 0 0 0.75 0 0.5] CT
0.799 0.89 0.947 RC
N
189 324.972 M
189 300.361 L
193.12 300.361 L
cp
f
GR
GS
[0.75 0 0 0.75 0 0.5] CT
0.749 0.863 0.933 RC
2 setlinecap
1 LJ
0.667 LW
N
189 300.361 M
193.12 300.361 L
S
GR
GS
[0.75 0 0 0.75 0 0.5] CT
0.799 0.89 0.947 RC
N
184.88 324.972 M
184.88 300.361 L
189 300.361 L
cp
f
GR
GS
[0.75 0 0 0.75 0 0.5] CT
0.749 0.863 0.933 RC
2 setlinecap
1 LJ
0.667 LW
N
184.88 300.361 M
189 300.361 L
S
GR
GS
[0.75 0 0 0.75 0 0.5] CT
0.799 0.89 0.947 RC
N
184.88 300.361 M
180.76 324.972 L
180.76 300.361 L
cp
f
GR
GS
[0.75 0 0 0.75 0 0.5] CT
0.749 0.863 0.933 RC
2 setlinecap
1 LJ
0.667 LW
N
180.76 300.361 M
184.88 300.361 L
S
GR
GS
[0.75 0 0 0.75 0 0.5] CT
0.799 0.89 0.947 RC
N
176.64 324.972 M
176.64 300.361 L
180.76 300.361 L
cp
f
GR
GS
[0.75 0 0 0.75 0 0.5] CT
0.749 0.863 0.933 RC
2 setlinecap
1 LJ
0.667 LW
N
176.64 300.361 M
180.76 300.361 L
S
GR
GS
[0.75 0 0 0.75 0 0.5] CT
0.799 0.89 0.947 RC
N
176.64 300.361 M
172.52 324.972 L
172.52 300.361 L
cp
f
GR
GS
[0.75 0 0 0.75 0 0.5] CT
0.749 0.863 0.933 RC
2 setlinecap
1 LJ
0.667 LW
N
172.52 300.361 M
176.64 300.361 L
S
GR
GS
[0.75 0 0 0.75 0 0.5] CT
0.799 0.89 0.947 RC
N
168.4 324.972 M
168.4 300.361 L
172.52 300.361 L
cp
f
GR
GS
[0.75 0 0 0.75 0 0.5] CT
0.749 0.863 0.933 RC
2 setlinecap
1 LJ
0.667 LW
N
168.4 300.361 M
172.52 300.361 L
S
GR
GS
[0.75 0 0 0.75 0 0.5] CT
0.799 0.89 0.947 RC
N
168.4 300.361 M
164.28 324.972 L
164.28 300.361 L
cp
f
GR
GS
[0.75 0 0 0.75 0 0.5] CT
0.749 0.863 0.933 RC
2 setlinecap
1 LJ
0.667 LW
N
164.28 300.361 M
168.4 300.361 L
S
GR
GS
[0.75 0 0 0.75 0 0.5] CT
0.799 0.89 0.947 RC
N
164.28 300.361 M
160.16 324.972 L
160.16 300.361 L
cp
f
GR
GS
[0.75 0 0 0.75 0 0.5] CT
0.749 0.863 0.933 RC
2 setlinecap
1 LJ
0.667 LW
N
160.16 300.361 M
164.28 300.361 L
S
GR
GS
[0.75 0 0 0.75 0 0.5] CT
0.799 0.89 0.947 RC
N
160.16 300.361 M
156.04 324.972 L
156.04 300.361 L
cp
f
GR
GS
[0.75 0 0 0.75 0 0.5] CT
0.749 0.863 0.933 RC
2 setlinecap
1 LJ
0.667 LW
N
156.04 300.361 M
160.16 300.361 L
S
GR
GS
[0.75 0 0 0.75 0 0.5] CT
0.799 0.89 0.947 RC
N
213.72 324.972 M
213.72 300.361 L
217.84 300.361 L
cp
f
GR
GS
[0.75 0 0 0.75 0 0.5] CT
0.799 0.89 0.947 RC
N
151.92 300.361 M
147.8 324.972 L
147.8 300.361 L
cp
f
GR
GS
[0.75 0 0 0.75 0 0.5] CT
0.749 0.863 0.933 RC
2 setlinecap
1 LJ
0.667 LW
N
147.8 300.361 M
151.92 300.361 L
S
GR
GS
[0.75 0 0 0.75 0 0.5] CT
0.799 0.89 0.947 RC
N
147.8 300.361 M
143.68 324.972 L
143.68 300.361 L
cp
f
GR
GS
[0.75 0 0 0.75 0 0.5] CT
0.749 0.863 0.933 RC
2 setlinecap
1 LJ
0.667 LW
N
143.68 300.361 M
147.8 300.361 L
S
GR
GS
[0.75 0 0 0.75 0 0.5] CT
0.799 0.89 0.947 RC
N
139.56 324.972 M
139.56 300.361 L
143.68 300.361 L
cp
f
GR
GS
[0.75 0 0 0.75 0 0.5] CT
0.749 0.863 0.933 RC
1 setlinecap
1 LJ
0.667 LW
N
139.56 300.361 M
143.68 300.361 L
S
GR
GS
[0.75 0 0 0.75 0 0.5] CT
0.799 0.89 0.947 RC
N
135.44 324.972 M
135.44 300.361 L
139.56 300.361 L
cp
f
GR
GS
[0.75 0 0 0.75 0 0.5] CT
0.749 0.863 0.933 RC
1 setlinecap
1 LJ
0.667 LW
N
135.44 300.361 M
139.56 300.361 L
S
GR
GS
[0.75 0 0 0.75 0 0.5] CT
0.799 0.89 0.947 RC
N
131.32 324.972 M
131.32 300.361 L
135.44 300.361 L
cp
f
GR
GS
[0.75 0 0 0.75 0 0.5] CT
0.749 0.863 0.933 RC
1 setlinecap
1 LJ
0.667 LW
N
131.32 300.361 M
135.44 300.361 L
S
GR
GS
[0.75 0 0 0.75 0 0.5] CT
0.799 0.89 0.947 RC
N
127.2 324.972 M
127.2 300.361 L
131.32 300.361 L
cp
f
GR
GS
[0.75 0 0 0.75 0 0.5] CT
0.749 0.863 0.933 RC
1 setlinecap
1 LJ
0.667 LW
N
127.2 300.361 M
131.32 300.361 L
S
GR
GS
[0.75 0 0 0.75 0 0.5] CT
0.799 0.89 0.947 RC
N
123.08 324.972 M
123.08 300.361 L
127.2 300.361 L
cp
f
GR
GS
[0.75 0 0 0.75 0 0.5] CT
0.749 0.863 0.933 RC
1 setlinecap
1 LJ
0.667 LW
N
123.08 300.361 M
127.2 300.361 L
S
GR
GS
[0.75 0 0 0.75 0 0.5] CT
0.799 0.89 0.947 RC
N
118.96 324.972 M
118.96 300.361 L
123.08 300.361 L
cp
f
GR
GS
[0.75 0 0 0.75 0 0.5] CT
0.749 0.863 0.933 RC
1 setlinecap
1 LJ
0.667 LW
N
118.96 300.361 M
123.08 300.361 L
S
GR
GS
[0.75 0 0 0.75 0 0.5] CT
0.799 0.89 0.947 RC
N
234.32 324.972 M
238.44 300.361 L
238.44 324.972 L
cp
f
GR
GS
[0.75 0 0 0.75 0 0.5] CT
0.799 0.89 0.947 RC
N
230.2 300.361 M
226.08 324.972 L
226.08 300.361 L
cp
f
GR
GS
[0.75 0 0 0.75 0 0.5] CT
0.799 0.89 0.947 RC
N
205.48 300.361 M
201.36 324.972 L
201.36 300.361 L
cp
f
GR
GS
[0.75 0 0 0.75 0 0.5] CT
0.799 0.89 0.947 RC
N
213.72 324.972 M
217.84 300.361 L
217.84 324.972 L
cp
f
GR
GS
[0.75 0 0 0.75 0 0.5] CT
0.799 0.89 0.947 RC
N
201.36 324.972 M
197.24 324.972 L
201.36 300.361 L
cp
f
GR
GS
[0.75 0 0 0.75 0 0.5] CT
0.799 0.89 0.947 RC
N
184.88 324.972 M
189 300.361 L
189 324.972 L
cp
f
GR
GS
[0.75 0 0 0.75 0 0.5] CT
0.799 0.89 0.947 RC
N
217.84 324.972 M
217.84 300.361 L
221.96 300.361 L
cp
f
GR
GS
[0.75 0 0 0.75 0 0.5] CT
0.799 0.89 0.947 RC
N
197.24 324.972 M
197.24 300.361 L
201.36 300.361 L
cp
f
GR
GS
[0.75 0 0 0.75 0 0.5] CT
0.799 0.89 0.947 RC
N
193.12 324.972 M
197.24 300.361 L
197.24 324.972 L
cp
f
GR
GS
[0.75 0 0 0.75 0 0.5] CT
0.799 0.89 0.947 RC
N
254.92 324.972 M
250.8 324.972 L
254.92 300.361 L
cp
f
GR
GS
[0.75 0 0 0.75 0 0.5] CT
0.799 0.89 0.947 RC
N
151.92 300.361 M
151.92 324.972 L
147.8 324.972 L
cp
f
GR
GS
[0.75 0 0 0.75 0 0.5] CT
0.799 0.89 0.947 RC
N
143.68 324.972 M
139.56 324.972 L
143.68 300.361 L
cp
f
GR
GS
[0.75 0 0 0.75 0 0.5] CT
0.799 0.89 0.947 RC
N
271.4 300.361 M
267.28 324.972 L
267.28 300.361 L
cp
f
GR
GS
[0.75 0 0 0.75 0 0.5] CT
0.799 0.89 0.947 RC
N
221.96 324.972 M
217.84 324.972 L
221.96 300.361 L
cp
f
GR
GS
[0.75 0 0 0.75 0 0.5] CT
0.799 0.89 0.947 RC
N
221.96 324.972 M
221.96 300.361 L
226.08 300.361 L
cp
f
GR
GS
[0.75 0 0 0.75 0 0.5] CT
0.799 0.89 0.947 RC
N
263.16 300.361 M
259.04 324.972 L
259.04 300.361 L
cp
f
GR
GS
[0.75 0 0 0.75 0 0.5] CT
0.799 0.89 0.947 RC
N
238.44 324.972 M
242.56 300.361 L
242.56 324.972 L
cp
f
GR
GS
[0.75 0 0 0.75 0 0.5] CT
0.799 0.89 0.947 RC
N
205.48 300.361 M
205.48 324.972 L
201.36 324.972 L
cp
f
GR
GS
[0.75 0 0 0.75 0 0.5] CT
0.799 0.89 0.947 RC
N
209.6 324.972 M
213.72 300.361 L
213.72 324.972 L
cp
f
GR
GS
[0.75 0 0 0.75 0 0.5] CT
0.799 0.89 0.947 RC
N
259.04 300.361 M
254.92 324.972 L
254.92 300.361 L
cp
f
GR
GS
[0.75 0 0 0.75 0 0.5] CT
0.799 0.89 0.947 RC
N
275.52 300.361 M
275.52 324.972 L
271.4 324.972 L
cp
f
GR
GS
[0.75 0 0 0.75 0 0.5] CT
0.799 0.89 0.947 RC
N
259.04 300.361 M
259.04 324.972 L
254.92 324.972 L
cp
f
GR
GS
[0.75 0 0 0.75 0 0.5] CT
0.799 0.89 0.947 RC
N
193.12 324.972 M
193.12 300.361 L
197.24 300.361 L
cp
f
GR
GS
[0.75 0 0 0.75 0 0.5] CT
0.749 0.863 0.933 RC
1 setlinecap
1 LJ
0.667 LW
N
193.12 300.361 M
197.24 300.361 L
S
GR
GS
[0.75 0 0 0.75 0 0.5] CT
0.799 0.89 0.947 RC
N
287.88 324.972 M
292 300.361 L
292 324.972 L
cp
f
GR
GS
[0.75 0 0 0.75 0 0.5] CT
0.799 0.89 0.947 RC
N
287.88 324.972 M
287.88 300.361 L
292 300.361 L
cp
f
GR
GS
[0.75 0 0 0.75 0 0.5] CT
0.799 0.89 0.947 RC
N
271.4 300.361 M
275.52 300.361 L
271.4 324.972 L
cp
f
GR
GS
[0.75 0 0 0.75 0 0.5] CT
0.799 0.89 0.947 RC
N
271.4 300.361 M
271.4 324.972 L
267.28 324.972 L
cp
f
GR
GS
[0.75 0 0 0.75 0 0.5] CT
0.799 0.89 0.947 RC
N
250.8 300.361 M
246.68 324.972 L
246.68 300.361 L
cp
f
GR
GS
[0.75 0 0 0.75 0 0.5] CT
0.799 0.89 0.947 RC
N
246.68 324.972 M
242.56 324.972 L
246.68 300.361 L
cp
f
GR
GS
[0.75 0 0 0.75 0 0.5] CT
0.799 0.89 0.947 RC
N
283.76 324.972 M
287.88 300.361 L
287.88 324.972 L
cp
f
GR
GS
[0.75 0 0 0.75 0 0.5] CT
0.799 0.89 0.947 RC
N
267.28 324.972 M
263.16 324.972 L
267.28 300.361 L
cp
f
GR
GS
[0.75 0 0 0.75 0 0.5] CT
0.749 0.863 0.933 RC
1 setlinecap
1 LJ
0.667 LW
N
201.36 324.972 M
197.24 324.972 L
S
GR
GS
[0.75 0 0 0.75 0 0.5] CT
0.799 0.89 0.947 RC
N
164.28 324.972 M
160.16 324.972 L
164.28 300.361 L
cp
f
GR
GS
[0.75 0 0 0.75 0 0.5] CT
0.749 0.863 0.933 RC
1 setlinecap
1 LJ
0.667 LW
N
164.28 324.972 M
160.16 324.972 L
S
GR
GS
[0.75 0 0 0.75 0 0.5] CT
0.799 0.89 0.947 RC
N
168.4 300.361 M
168.4 324.972 L
164.28 324.972 L
cp
f
GR
GS
[0.75 0 0 0.75 0 0.5] CT
0.749 0.863 0.933 RC
1 setlinecap
1 LJ
0.667 LW
N
168.4 324.972 M
164.28 324.972 L
S
GR
GS
[0.75 0 0 0.75 0 0.5] CT
0.799 0.89 0.947 RC
N
172.52 324.972 M
168.4 324.972 L
172.52 300.361 L
cp
f
GR
GS
[0.75 0 0 0.75 0 0.5] CT
0.749 0.863 0.933 RC
1 setlinecap
1 LJ
0.667 LW
N
172.52 324.972 M
168.4 324.972 L
S
GR
GS
[0.75 0 0 0.75 0 0.5] CT
0.799 0.89 0.947 RC
N
176.64 324.972 M
172.52 324.972 L
176.64 300.361 L
cp
f
GR
GS
[0.75 0 0 0.75 0 0.5] CT
0.749 0.863 0.933 RC
1 setlinecap
1 LJ
0.667 LW
N
176.64 324.972 M
172.52 324.972 L
S
GR
GS
[0.75 0 0 0.75 0 0.5] CT
0.799 0.89 0.947 RC
N
180.76 324.972 M
176.64 324.972 L
180.76 300.361 L
cp
f
GR
GS
[0.75 0 0 0.75 0 0.5] CT
0.749 0.863 0.933 RC
1 setlinecap
1 LJ
0.667 LW
N
180.76 324.972 M
176.64 324.972 L
S
GR
GS
[0.75 0 0 0.75 0 0.5] CT
0.799 0.89 0.947 RC
N
184.88 324.972 M
180.76 324.972 L
184.88 300.361 L
cp
f
GR
GS
[0.75 0 0 0.75 0 0.5] CT
0.749 0.863 0.933 RC
1 setlinecap
1 LJ
0.667 LW
N
184.88 324.972 M
180.76 324.972 L
S
GR
GS
[0.75 0 0 0.75 0 0.5] CT
0.749 0.863 0.933 RC
1 setlinecap
1 LJ
0.667 LW
N
189 324.972 M
184.88 324.972 L
S
GR
GS
[0.75 0 0 0.75 0 0.5] CT
0.799 0.89 0.947 RC
N
193.12 324.972 M
189 324.972 L
193.12 300.361 L
cp
f
GR
GS
[0.75 0 0 0.75 0 0.5] CT
0.749 0.863 0.933 RC
1 setlinecap
1 LJ
0.667 LW
N
193.12 324.972 M
189 324.972 L
S
GR
GS
[0.75 0 0 0.75 0 0.5] CT
0.749 0.863 0.933 RC
1 setlinecap
1 LJ
0.667 LW
N
197.24 324.972 M
193.12 324.972 L
S
GR
GS
[0.75 0 0 0.75 0 0.5] CT
0.799 0.89 0.947 RC
N
160.16 300.361 M
160.16 324.972 L
156.04 324.972 L
cp
f
GR
GS
[0.75 0 0 0.75 0 0.5] CT
0.749 0.863 0.933 RC
1 setlinecap
1 LJ
0.667 LW
N
160.16 324.972 M
156.04 324.972 L
S
GR
GS
[0.75 0 0 0.75 0 0.5] CT
0.749 0.863 0.933 RC
1 setlinecap
1 LJ
0.667 LW
N
205.48 324.972 M
201.36 324.972 L
S
GR
GS
[0.75 0 0 0.75 0 0.5] CT
0.749 0.863 0.933 RC
1 setlinecap
1 LJ
0.667 LW
N
209.6 324.972 M
205.48 324.972 L
S
GR
GS
[0.75 0 0 0.75 0 0.5] CT
0.749 0.863 0.933 RC
1 setlinecap
1 LJ
0.667 LW
N
213.72 324.972 M
209.6 324.972 L
S
GR
GS
[0.75 0 0 0.75 0 0.5] CT
0.749 0.863 0.933 RC
1 setlinecap
1 LJ
0.667 LW
N
217.84 324.972 M
213.72 324.972 L
S
GR
GS
[0.75 0 0 0.75 0 0.5] CT
0.749 0.863 0.933 RC
1 setlinecap
1 LJ
0.667 LW
N
221.96 324.972 M
217.84 324.972 L
S
GR
GS
[0.75 0 0 0.75 0 0.5] CT
0.799 0.89 0.947 RC
N
226.08 324.972 M
221.96 324.972 L
226.08 300.361 L
cp
f
GR
GS
[0.75 0 0 0.75 0 0.5] CT
0.749 0.863 0.933 RC
1 setlinecap
1 LJ
0.667 LW
N
226.08 324.972 M
221.96 324.972 L
S
GR
GS
[0.75 0 0 0.75 0 0.5] CT
0.799 0.89 0.947 RC
N
226.08 324.972 M
230.2 300.361 L
230.2 324.972 L
cp
f
GR
GS
[0.75 0 0 0.75 0 0.5] CT
0.749 0.863 0.933 RC
1 setlinecap
1 LJ
0.667 LW
N
230.2 324.972 M
226.08 324.972 L
S
GR
GS
[0.75 0 0 0.75 0 0.5] CT
0.749 0.863 0.933 RC
1 setlinecap
1 LJ
0.667 LW
N
234.32 324.972 M
230.2 324.972 L
S
GR
GS
[0.75 0 0 0.75 0 0.5] CT
0.799 0.89 0.947 RC
N
118.96 324.972 M
123.08 300.361 L
123.08 324.972 L
cp
f
GR
GS
[0.75 0 0 0.75 0 0.5] CT
0.749 0.863 0.933 RC
1 setlinecap
1 LJ
0.667 LW
N
123.08 324.972 M
118.96 324.972 L
S
GR
GS
[0.75 0 0 0.75 0 0.5] CT
0.749 0.863 0.933 RC
2 setlinecap
1 LJ
0.667 LW
N
86 324.972 M
86 300.361 L
S
GR
GS
[0.75 0 0 0.75 0 0.5] CT
0.799 0.89 0.947 RC
N
86 324.972 M
90.12 300.361 L
90.12 324.972 L
cp
f
GR
GS
[0.75 0 0 0.75 0 0.5] CT
0.749 0.863 0.933 RC
2 setlinecap
1 LJ
0.667 LW
N
90.12 324.972 M
86 324.972 L
S
GR
GS
[0.75 0 0 0.75 0 0.5] CT
0.799 0.89 0.947 RC
N
90.12 324.972 M
94.24 300.361 L
94.24 324.972 L
cp
f
GR
GS
[0.75 0 0 0.75 0 0.5] CT
0.749 0.863 0.933 RC
2 setlinecap
1 LJ
0.667 LW
N
94.24 324.972 M
90.12 324.972 L
S
GR
GS
[0.75 0 0 0.75 0 0.5] CT
0.799 0.89 0.947 RC
N
98.36 324.972 M
94.24 324.972 L
98.36 300.361 L
cp
f
GR
GS
[0.75 0 0 0.75 0 0.5] CT
0.749 0.863 0.933 RC
2 setlinecap
1 LJ
0.667 LW
N
98.36 324.972 M
94.24 324.972 L
S
GR
GS
[0.75 0 0 0.75 0 0.5] CT
0.799 0.89 0.947 RC
N
102.48 324.972 M
98.36 324.972 L
102.48 300.361 L
cp
f
GR
GS
[0.75 0 0 0.75 0 0.5] CT
0.749 0.863 0.933 RC
2 setlinecap
1 LJ
0.667 LW
N
102.48 324.972 M
98.36 324.972 L
S
GR
GS
[0.75 0 0 0.75 0 0.5] CT
0.799 0.89 0.947 RC
N
106.6 324.972 M
102.48 324.972 L
106.6 300.361 L
cp
f
GR
GS
[0.75 0 0 0.75 0 0.5] CT
0.749 0.863 0.933 RC
2 setlinecap
1 LJ
0.667 LW
N
106.6 324.972 M
102.48 324.972 L
S
GR
GS
[0.75 0 0 0.75 0 0.5] CT
0.799 0.89 0.947 RC
N
110.72 324.972 M
106.6 324.972 L
110.72 300.361 L
cp
f
GR
GS
[0.75 0 0 0.75 0 0.5] CT
0.749 0.863 0.933 RC
2 setlinecap
1 LJ
0.667 LW
N
110.72 324.972 M
106.6 324.972 L
S
GR
GS
[0.75 0 0 0.75 0 0.5] CT
0.799 0.89 0.947 RC
N
110.72 324.972 M
114.84 300.361 L
114.84 324.972 L
cp
f
GR
GS
[0.75 0 0 0.75 0 0.5] CT
0.749 0.863 0.933 RC
2 setlinecap
1 LJ
0.667 LW
N
114.84 324.972 M
110.72 324.972 L
S
GR
GS
[0.75 0 0 0.75 0 0.5] CT
0.799 0.89 0.947 RC
N
114.84 324.972 M
118.96 300.361 L
118.96 324.972 L
cp
f
GR
GS
[0.75 0 0 0.75 0 0.5] CT
0.749 0.863 0.933 RC
2 setlinecap
1 LJ
0.667 LW
N
118.96 324.972 M
114.84 324.972 L
S
GR
GS
[0.75 0 0 0.75 0 0.5] CT
0.749 0.863 0.933 RC
2 setlinecap
1 LJ
0.667 LW
N
238.44 324.972 M
234.32 324.972 L
S
GR
GS
[0.75 0 0 0.75 0 0.5] CT
0.799 0.89 0.947 RC
N
127.2 324.972 M
123.08 324.972 L
127.2 300.361 L
cp
f
GR
GS
[0.75 0 0 0.75 0 0.5] CT
0.749 0.863 0.933 RC
2 setlinecap
1 LJ
0.667 LW
N
127.2 324.972 M
123.08 324.972 L
S
GR
GS
[0.75 0 0 0.75 0 0.5] CT
0.799 0.89 0.947 RC
N
127.2 324.972 M
131.32 300.361 L
131.32 324.972 L
cp
f
GR
GS
[0.75 0 0 0.75 0 0.5] CT
0.749 0.863 0.933 RC
2 setlinecap
1 LJ
0.667 LW
N
131.32 324.972 M
127.2 324.972 L
S
GR
GS
[0.75 0 0 0.75 0 0.5] CT
0.799 0.89 0.947 RC
N
135.44 324.972 M
131.32 324.972 L
135.44 300.361 L
cp
f
GR
GS
[0.75 0 0 0.75 0 0.5] CT
0.749 0.863 0.933 RC
2 setlinecap
1 LJ
0.667 LW
N
135.44 324.972 M
131.32 324.972 L
S
GR
GS
[0.75 0 0 0.75 0 0.5] CT
0.799 0.89 0.947 RC
N
139.56 324.972 M
135.44 324.972 L
139.56 300.361 L
cp
f
GR
GS
[0.75 0 0 0.75 0 0.5] CT
0.749 0.863 0.933 RC
2 setlinecap
1 LJ
0.667 LW
N
139.56 324.972 M
135.44 324.972 L
S
GR
GS
[0.75 0 0 0.75 0 0.5] CT
0.749 0.863 0.933 RC
2 setlinecap
1 LJ
0.667 LW
N
143.68 324.972 M
139.56 324.972 L
S
GR
GS
[0.75 0 0 0.75 0 0.5] CT
0.799 0.89 0.947 RC
N
147.8 324.972 M
143.68 324.972 L
147.8 300.361 L
cp
f
GR
GS
[0.75 0 0 0.75 0 0.5] CT
0.749 0.863 0.933 RC
2 setlinecap
1 LJ
0.667 LW
N
147.8 324.972 M
143.68 324.972 L
S
GR
GS
[0.75 0 0 0.75 0 0.5] CT
0.749 0.863 0.933 RC
2 setlinecap
1 LJ
0.667 LW
N
151.92 324.972 M
147.8 324.972 L
S
GR
GS
[0.75 0 0 0.75 0 0.5] CT
0.799 0.89 0.947 RC
N
156.04 300.361 M
156.04 324.972 L
151.92 324.972 L
cp
f
GR
GS
[0.75 0 0 0.75 0 0.5] CT
0.749 0.863 0.933 RC
2 setlinecap
1 LJ
0.667 LW
N
156.04 324.972 M
151.92 324.972 L
S
GR
GS
[0.75 0 0 0.75 0 0.5] CT
0.799 0.89 0.947 RC
N
230.2 300.361 M
234.32 300.361 L
230.2 324.972 L
cp
f
GR
GS
[0.75 0 0 0.75 0 0.5] CT
0.749 0.863 0.933 RC
2 setlinecap
1 LJ
0.667 LW
N
230.2 300.361 M
234.32 300.361 L
S
GR
GS
[0.75 0 0 0.75 0 0.5] CT
0.749 0.863 0.933 RC
2 setlinecap
1 LJ
0.667 LW
N
267.28 300.361 M
271.4 300.361 L
S
GR
GS
[0.75 0 0 0.75 0 0.5] CT
0.749 0.863 0.933 RC
2 setlinecap
1 LJ
0.667 LW
N
263.16 300.361 M
267.28 300.361 L
S
GR
GS
[0.75 0 0 0.75 0 0.5] CT
0.749 0.863 0.933 RC
2 setlinecap
1 LJ
0.667 LW
N
259.04 300.361 M
263.16 300.361 L
S
GR
GS
[0.75 0 0 0.75 0 0.5] CT
0.749 0.863 0.933 RC
2 setlinecap
1 LJ
0.667 LW
N
254.92 300.361 M
259.04 300.361 L
S
GR
GS
[0.75 0 0 0.75 0 0.5] CT
0.749 0.863 0.933 RC
2 setlinecap
1 LJ
0.667 LW
N
250.8 300.361 M
254.92 300.361 L
S
GR
GS
[0.75 0 0 0.75 0 0.5] CT
0.749 0.863 0.933 RC
2 setlinecap
1 LJ
0.667 LW
N
246.68 300.361 M
250.8 300.361 L
S
GR
GS
[0.75 0 0 0.75 0 0.5] CT
0.799 0.89 0.947 RC
N
242.56 300.361 M
246.68 300.361 L
242.56 324.972 L
cp
f
GR
GS
[0.75 0 0 0.75 0 0.5] CT
0.749 0.863 0.933 RC
2 setlinecap
1 LJ
0.667 LW
N
242.56 300.361 M
246.68 300.361 L
S
GR
GS
[0.75 0 0 0.75 0 0.5] CT
0.799 0.89 0.947 RC
N
242.56 300.361 M
238.44 324.972 L
238.44 300.361 L
cp
f
GR
GS
[0.75 0 0 0.75 0 0.5] CT
0.749 0.863 0.933 RC
2 setlinecap
1 LJ
0.667 LW
N
238.44 300.361 M
242.56 300.361 L
S
GR
GS
[0.75 0 0 0.75 0 0.5] CT
0.799 0.89 0.947 RC
N
234.32 300.361 M
238.44 300.361 L
234.32 324.972 L
cp
f
GR
GS
[0.75 0 0 0.75 0 0.5] CT
0.749 0.863 0.933 RC
2 setlinecap
1 LJ
0.667 LW
N
234.32 300.361 M
238.44 300.361 L
S
GR
GS
[0.75 0 0 0.75 0 0.5] CT
0.749 0.863 0.933 RC
2 setlinecap
1 LJ
0.667 LW
N
271.4 300.361 M
275.52 300.361 L
S
GR
GS
[0.75 0 0 0.75 0 0.5] CT
0.749 0.863 0.933 RC
2 setlinecap
1 LJ
0.667 LW
N
226.08 300.361 M
230.2 300.361 L
S
GR
GS
[0.75 0 0 0.75 0 0.5] CT
0.749 0.863 0.933 RC
2 setlinecap
1 LJ
0.667 LW
N
221.96 300.361 M
226.08 300.361 L
S
GR
GS
[0.75 0 0 0.75 0 0.5] CT
0.749 0.863 0.933 RC
2 setlinecap
1 LJ
0.667 LW
N
217.84 300.361 M
221.96 300.361 L
S
GR
GS
[0.75 0 0 0.75 0 0.5] CT
0.749 0.863 0.933 RC
2 setlinecap
1 LJ
0.667 LW
N
213.72 300.361 M
217.84 300.361 L
S
GR
GS
[0.75 0 0 0.75 0 0.5] CT
0.749 0.863 0.933 RC
2 setlinecap
1 LJ
0.667 LW
N
209.6 300.361 M
213.72 300.361 L
S
GR
GS
[0.75 0 0 0.75 0 0.5] CT
0.749 0.863 0.933 RC
2 setlinecap
1 LJ
0.667 LW
N
205.48 300.361 M
209.6 300.361 L
S
GR
GS
[0.75 0 0 0.75 0 0.5] CT
0.749 0.863 0.933 RC
2 setlinecap
1 LJ
0.667 LW
N
201.36 300.361 M
205.48 300.361 L
S
GR
GS
[0.75 0 0 0.75 0 0.5] CT
0.749 0.863 0.933 RC
2 setlinecap
1 LJ
0.667 LW
N
197.24 300.361 M
201.36 300.361 L
S
GR
GS
[0.75 0 0 0.75 0 0.5] CT
0.749 0.863 0.933 RC
2 setlinecap
1 LJ
0.667 LW
N
279.64 324.972 M
275.52 324.972 L
S
GR
GS
[0.75 0 0 0.75 0 0.5] CT
0.749 0.863 0.933 RC
2 setlinecap
1 LJ
0.667 LW
N
242.56 324.972 M
238.44 324.972 L
S
GR
GS
[0.75 0 0 0.75 0 0.5] CT
0.749 0.863 0.933 RC
2 setlinecap
1 LJ
0.667 LW
N
246.68 324.972 M
242.56 324.972 L
S
GR
GS
[0.75 0 0 0.75 0 0.5] CT
0.749 0.863 0.933 RC
2 setlinecap
1 LJ
0.667 LW
N
250.8 324.972 M
246.68 324.972 L
S
GR
GS
[0.75 0 0 0.75 0 0.5] CT
0.749 0.863 0.933 RC
2 setlinecap
1 LJ
0.667 LW
N
254.92 324.972 M
250.8 324.972 L
S
GR
GS
[0.75 0 0 0.75 0 0.5] CT
0.749 0.863 0.933 RC
2 setlinecap
1 LJ
0.667 LW
N
259.04 324.972 M
254.92 324.972 L
S
GR
GS
[0.75 0 0 0.75 0 0.5] CT
0.749 0.863 0.933 RC
2 setlinecap
1 LJ
0.667 LW
N
263.16 324.972 M
259.04 324.972 L
S
GR
GS
[0.75 0 0 0.75 0 0.5] CT
0.749 0.863 0.933 RC
2 setlinecap
1 LJ
0.667 LW
N
267.28 324.972 M
263.16 324.972 L
S
GR
GS
[0.75 0 0 0.75 0 0.5] CT
0.749 0.863 0.933 RC
2 setlinecap
1 LJ
0.667 LW
N
271.4 324.972 M
267.28 324.972 L
S
GR
GS
[0.75 0 0 0.75 0 0.5] CT
0.749 0.863 0.933 RC
2 setlinecap
1 LJ
0.667 LW
N
275.52 324.972 M
271.4 324.972 L
S
GR
GS
[0.75 0 0 0.75 0 0.5] CT
0.799 0.89 0.947 RC
N
283.76 324.972 M
279.64 324.972 L
283.76 300.361 L
cp
f
GR
GS
[0.75 0 0 0.75 0 0.5] CT
0.749 0.863 0.933 RC
2 setlinecap
1 LJ
0.667 LW
N
283.76 324.972 M
279.64 324.972 L
S
GR
GS
[0.75 0 0 0.75 0 0.5] CT
0.749 0.863 0.933 RC
2 setlinecap
1 LJ
0.667 LW
N
287.88 324.972 M
283.76 324.972 L
S
GR
GS
[0.75 0 0 0.75 0 0.5] CT
0.749 0.863 0.933 RC
2 setlinecap
1 LJ
0.667 LW
N
292 324.972 M
287.88 324.972 L
S
GR
GS
[0.75 0 0 0.75 0 0.5] CT
0.749 0.863 0.933 RC
2 setlinecap
1 LJ
0.667 LW
N
292 300.361 M
292 324.972 L
S
GR
GS
[0.75 0 0 0.75 0 0.5] CT
0.749 0.863 0.933 RC
2 setlinecap
1 LJ
0.667 LW
N
287.88 300.361 M
292 300.361 L
S
GR
GS
[0.75 0 0 0.75 0 0.5] CT
0.749 0.863 0.933 RC
2 setlinecap
1 LJ
0.667 LW
N
283.76 300.361 M
287.88 300.361 L
S
GR
GS
[0.75 0 0 0.75 0 0.5] CT
0.749 0.863 0.933 RC
2 setlinecap
1 LJ
0.667 LW
N
279.64 300.361 M
283.76 300.361 L
S
GR
GS
[0.75 0 0 0.75 0 0.5] CT
0.749 0.863 0.933 RC
2 setlinecap
1 LJ
0.667 LW
N
275.52 300.361 M
279.64 300.361 L
S
GR
GS
[0.75 0 0 0.75 141.75014 36.875] CT
0.4 GC
/Helvetica 13.333 F
GS
[1 0 0 1 0 0] CT
-29 -4 moveto 
1 -1 scale
(AutoCorr) t 
GR
GR
GS
[0.75 0 0 0.75 0 0.5] CT
0 0.447 0.741 RC
2 setlinecap
1 LJ
0.667 LW
N
135.44 312.667 M
135.44 320.322 L
S
GR
GS
[0.75 0 0 0.75 0 0.5] CT
0 0.447 0.741 RC
2 setlinecap
1 LJ
0.667 LW
N
184.88 312.667 M
184.88 312.417 L
S
GR
GS
[0.75 0 0 0.75 0 0.5] CT
0 0.447 0.741 RC
2 setlinecap
1 LJ
0.667 LW
N
180.76 312.667 M
180.76 332.833 L
S
GR
GS
[0.75 0 0 0.75 0 0.5] CT
0 0.447 0.741 RC
2 setlinecap
1 LJ
0.667 LW
N
176.64 312.667 M
176.64 314.799 L
S
GR
GS
[0.75 0 0 0.75 0 0.5] CT
0 0.447 0.741 RC
2 setlinecap
1 LJ
0.667 LW
N
172.52 312.667 M
172.52 302.408 L
S
GR
GS
[0.75 0 0 0.75 0 0.5] CT
0 0.447 0.741 RC
2 setlinecap
1 LJ
0.667 LW
N
168.4 312.667 M
168.4 319.477 L
S
GR
GS
[0.75 0 0 0.75 0 0.5] CT
0 0.447 0.741 RC
2 setlinecap
1 LJ
0.667 LW
N
164.28 312.667 M
164.28 324.211 L
S
GR
GS
[0.75 0 0 0.75 0 0.5] CT
0 0.447 0.741 RC
2 setlinecap
1 LJ
0.667 LW
N
160.16 312.667 M
160.16 309.375 L
S
GR
GS
[0.75 0 0 0.75 0 0.5] CT
0 0.447 0.741 RC
2 setlinecap
1 LJ
0.667 LW
N
156.04 312.667 M
156.04 316.507 L
S
GR
GS
[0.75 0 0 0.75 0 0.5] CT
0 0.447 0.741 RC
2 setlinecap
1 LJ
0.667 LW
N
151.92 312.667 M
151.92 310.655 L
S
GR
GS
[0.75 0 0 0.75 0 0.5] CT
0 0.447 0.741 RC
2 setlinecap
1 LJ
0.667 LW
N
147.8 312.667 M
147.8 324.564 L
S
GR
GS
[0.75 0 0 0.75 0 0.5] CT
0 0.447 0.741 RC
2 setlinecap
1 LJ
0.667 LW
N
143.68 312.667 M
143.68 322.174 L
S
GR
GS
[0.75 0 0 0.75 0 0.5] CT
0 0.447 0.741 RC
2 setlinecap
1 LJ
0.667 LW
N
139.56 312.667 M
139.56 326.992 L
S
GR
GS
[0.75 0 0 0.75 0 0.5] CT
0 0.447 0.741 RC
1 LJ
0.667 LW
N
86 312.667 M
86 307.784 L
S
GR
GS
[0.75 0 0 0.75 0 0.5] CT
0 0.447 0.741 RC
1 setlinecap
1 LJ
0.667 LW
N
131.32 312.667 M
131.32 318.892 L
S
GR
GS
[0.75 0 0 0.75 0 0.5] CT
0 0.447 0.741 RC
1 setlinecap
1 LJ
0.667 LW
N
127.2 312.667 M
127.2 314.973 L
S
GR
GS
[0.75 0 0 0.75 0 0.5] CT
0 0.447 0.741 RC
1 setlinecap
1 LJ
0.667 LW
N
123.08 312.667 M
123.08 318.443 L
S
GR
GS
[0.75 0 0 0.75 0 0.5] CT
0 0.447 0.741 RC
1 setlinecap
1 LJ
0.667 LW
N
118.96 312.667 M
118.96 312.235 L
S
GR
GS
[0.75 0 0 0.75 0 0.5] CT
0 0.447 0.741 RC
1 setlinecap
1 LJ
0.667 LW
N
114.84 312.667 M
114.84 312.916 L
S
GR
GS
[0.75 0 0 0.75 0 0.5] CT
0 0.447 0.741 RC
1 setlinecap
1 LJ
0.667 LW
N
110.72 312.667 M
110.72 311.509 L
S
GR
GS
[0.75 0 0 0.75 0 0.5] CT
0 0.447 0.741 RC
1 setlinecap
1 LJ
0.667 LW
N
106.6 312.667 M
106.6 318.552 L
S
GR
GS
[0.75 0 0 0.75 0 0.5] CT
0 0.447 0.741 RC
1 setlinecap
1 LJ
0.667 LW
N
102.48 312.667 M
102.48 321.9 L
S
GR
GS
[0.75 0 0 0.75 0 0.5] CT
0 0.447 0.741 RC
1 setlinecap
1 LJ
0.667 LW
N
98.36 312.667 M
98.36 314.303 L
S
GR
GS
[0.75 0 0 0.75 0 0.5] CT
0 0.447 0.741 RC
1 setlinecap
1 LJ
0.667 LW
N
94.24 312.667 M
94.24 317.929 L
S
GR
GS
[0.75 0 0 0.75 0 0.5] CT
0 0.447 0.741 RC
1 setlinecap
1 LJ
0.667 LW
N
90.12 312.667 M
90.12 304.981 L
S
GR
GS
[0.75 0 0 0.75 0 0.5] CT
0 0.447 0.741 RC
1 setlinecap
1 LJ
0.667 LW
N
193.12 312.667 M
193.12 312.417 L
S
GR
GS
[0.75 0 0 0.75 0 0.5] CT
0 0.447 0.741 RC
1 setlinecap
1 LJ
0.667 LW
N
189 312.667 M
189 51 L
S
GR
GS
[0.75 0 0 0.75 0 0.5] CT
0 0.447 0.741 RC
1 LJ
0.667 LW
N
292 312.667 M
292 307.784 L
S
GR
GS
[0.75 0 0 0.75 0 0.5] CT
0 0.447 0.741 RC
1 setlinecap
1 LJ
0.667 LW
N
287.88 312.667 M
287.88 304.981 L
S
GR
GS
[0.75 0 0 0.75 0 0.5] CT
0 0.447 0.741 RC
1 setlinecap
1 LJ
0.667 LW
N
283.76 312.667 M
283.76 317.929 L
S
GR
GS
[0.75 0 0 0.75 0 0.5] CT
0 0.447 0.741 RC
1 setlinecap
1 LJ
0.667 LW
N
279.64 312.667 M
279.64 314.303 L
S
GR
GS
[0.75 0 0 0.75 0 0.5] CT
0 0.447 0.741 RC
1 setlinecap
1 LJ
0.667 LW
N
275.52 312.667 M
275.52 321.9 L
S
GR
GS
[0.75 0 0 0.75 0 0.5] CT
0 0.447 0.741 RC
1 setlinecap
1 LJ
0.667 LW
N
271.4 312.667 M
271.4 318.552 L
S
GR
GS
[0.75 0 0 0.75 0 0.5] CT
0 0.447 0.741 RC
1 setlinecap
1 LJ
0.667 LW
N
267.28 312.667 M
267.28 311.509 L
S
GR
GS
[0.75 0 0 0.75 0 0.5] CT
0 0.447 0.741 RC
1 setlinecap
1 LJ
0.667 LW
N
263.16 312.667 M
263.16 312.916 L
S
GR
GS
[0.75 0 0 0.75 0 0.5] CT
0 0.447 0.741 RC
1 setlinecap
1 LJ
0.667 LW
N
259.04 312.667 M
259.04 312.235 L
S
GR
GS
[0.75 0 0 0.75 0 0.5] CT
0 0.447 0.741 RC
1 setlinecap
1 LJ
0.667 LW
N
254.92 312.667 M
254.92 318.443 L
S
GR
GS
[0.75 0 0 0.75 0 0.5] CT
0 0.447 0.741 RC
1 setlinecap
1 LJ
0.667 LW
N
250.8 312.667 M
250.8 314.973 L
S
GR
GS
[0.75 0 0 0.75 0 0.5] CT
0 0.447 0.741 RC
1 setlinecap
1 LJ
0.667 LW
N
246.68 312.667 M
246.68 318.892 L
S
GR
GS
[0.75 0 0 0.75 0 0.5] CT
0 0.447 0.741 RC
1 setlinecap
1 LJ
0.667 LW
N
238.44 312.667 M
238.44 326.992 L
S
GR
GS
[0.75 0 0 0.75 0 0.5] CT
0 0.447 0.741 RC
1 setlinecap
1 LJ
0.667 LW
N
242.56 312.667 M
242.56 320.322 L
S
GR
GS
[0.75 0 0 0.75 0 0.5] CT
0 0.447 0.741 RC
1 setlinecap
1 LJ
0.667 LW
N
197.24 312.667 M
197.24 332.833 L
S
GR
GS
[0.75 0 0 0.75 0 0.5] CT
0 0.447 0.741 RC
1 setlinecap
1 LJ
0.667 LW
N
201.36 312.667 M
201.36 314.799 L
S
GR
GS
[0.75 0 0 0.75 0 0.5] CT
0 0.447 0.741 RC
1 setlinecap
1 LJ
0.667 LW
N
205.48 312.667 M
205.48 302.408 L
S
GR
GS
[0.75 0 0 0.75 0 0.5] CT
0 0.447 0.741 RC
1 setlinecap
1 LJ
0.667 LW
N
209.6 312.667 M
209.6 319.477 L
S
GR
GS
[0.75 0 0 0.75 0 0.5] CT
0 0.447 0.741 RC
1 setlinecap
1 LJ
0.667 LW
N
213.72 312.667 M
213.72 324.211 L
S
GR
GS
[0.75 0 0 0.75 0 0.5] CT
0 0.447 0.741 RC
1 setlinecap
1 LJ
0.667 LW
N
221.96 312.667 M
221.96 316.507 L
S
GR
GS
[0.75 0 0 0.75 0 0.5] CT
0 0.447 0.741 RC
1 setlinecap
1 LJ
0.667 LW
N
226.08 312.667 M
226.08 310.655 L
S
GR
GS
[0.75 0 0 0.75 0 0.5] CT
0 0.447 0.741 RC
1 setlinecap
1 LJ
0.667 LW
N
230.2 312.667 M
230.2 324.564 L
S
GR
GS
[0.75 0 0 0.75 0 0.5] CT
0 0.447 0.741 RC
1 setlinecap
1 LJ
0.667 LW
N
234.32 312.667 M
234.32 322.174 L
S
GR
GS
[0.75 0 0 0.75 0 0.5] CT
0 0.447 0.741 RC
1 setlinecap
1 LJ
0.667 LW
N
217.84 312.667 M
217.84 309.375 L
S
GR
GS
[0.75 0 0 0.75 104.67 245.7443] CT
0 0.447 0.741 RC
10.0 ML
0.667 LW
N
3.5 -0.5 M
3.5 -2.709 1.709 -4.5 -0.5 -4.5 C
-2.709 -4.5 -4.5 -2.709 -4.5 -0.5 C
-4.5 1.709 -2.709 3.5 -0.5 3.5 C
1.709 3.5 3.5 1.709 3.5 -0.5 C
S
GR
GS
[0.75 0 0 0.75 107.75999 242.13026] CT
0 0.447 0.741 RC
10.0 ML
0.667 LW
N
3.5 -0.5 M
3.5 -2.709 1.709 -4.5 -0.5 -4.5 C
-2.709 -4.5 -4.5 -2.709 -4.5 -0.5 C
-4.5 1.709 -2.709 3.5 -0.5 3.5 C
1.709 3.5 3.5 1.709 3.5 -0.5 C
S
GR
GS
[0.75 0 0 0.75 110.85 243.92274] CT
0 0.447 0.741 RC
10.0 ML
0.667 LW
N
3.5 -0.5 M
3.5 -2.709 1.709 -4.5 -0.5 -4.5 C
-2.709 -4.5 -4.5 -2.709 -4.5 -0.5 C
-4.5 1.709 -2.709 3.5 -0.5 3.5 C
1.709 3.5 3.5 1.709 3.5 -0.5 C
S
GR
GS
[0.75 0 0 0.75 113.94 233.49091] CT
0 0.447 0.741 RC
10.0 ML
0.667 LW
N
3.5 -0.5 M
3.5 -2.709 1.709 -4.5 -0.5 -4.5 C
-2.709 -4.5 -4.5 -2.709 -4.5 -0.5 C
-4.5 1.709 -2.709 3.5 -0.5 3.5 C
1.709 3.5 3.5 1.709 3.5 -0.5 C
S
GR
GS
[0.75 0 0 0.75 117.02999 237.88054] CT
0 0.447 0.741 RC
10.0 ML
0.667 LW
N
3.5 -0.5 M
3.5 -2.709 1.709 -4.5 -0.5 -4.5 C
-2.709 -4.5 -4.5 -2.709 -4.5 -0.5 C
-4.5 1.709 -2.709 3.5 -0.5 3.5 C
1.709 3.5 3.5 1.709 3.5 -0.5 C
S
GR
GS
[0.75 0 0 0.75 120.12 232.5313] CT
0 0.447 0.741 RC
10.0 ML
0.667 LW
N
3.5 -0.5 M
3.5 -2.709 1.709 -4.5 -0.5 -4.5 C
-2.709 -4.5 -4.5 -2.709 -4.5 -0.5 C
-4.5 1.709 -2.709 3.5 -0.5 3.5 C
1.709 3.5 3.5 1.709 3.5 -0.5 C
S
GR
GS
[0.75 0 0 0.75 123.21 243.65855] CT
0 0.447 0.741 RC
10.0 ML
0.667 LW
N
3.5 -0.5 M
3.5 -2.709 1.709 -4.5 -0.5 -4.5 C
-2.709 -4.5 -4.5 -2.709 -4.5 -0.5 C
-4.5 1.709 -2.709 3.5 -0.5 3.5 C
1.709 3.5 3.5 1.709 3.5 -0.5 C
S
GR
GS
[0.75 0 0 0.75 126.3 240.1077] CT
0 0.447 0.741 RC
10.0 ML
0.667 LW
N
3.5 -0.5 M
3.5 -2.709 1.709 -4.5 -0.5 -4.5 C
-2.709 -4.5 -4.5 -2.709 -4.5 -0.5 C
-4.5 1.709 -2.709 3.5 -0.5 3.5 C
1.709 3.5 3.5 1.709 3.5 -0.5 C
S
GR
GS
[0.75 0 0 0.75 129.39 227.3062] CT
0 0.447 0.741 RC
10.0 ML
0.667 LW
N
3.5 -0.5 M
3.5 -2.709 1.709 -4.5 -0.5 -4.5 C
-2.709 -4.5 -4.5 -2.709 -4.5 -0.5 C
-4.5 1.709 -2.709 3.5 -0.5 3.5 C
1.709 3.5 3.5 1.709 3.5 -0.5 C
S
GR
GS
[0.75 0 0 0.75 132.48 236.5991] CT
0 0.447 0.741 RC
10.0 ML
0.667 LW
N
3.5 -0.5 M
3.5 -2.709 1.709 -4.5 -0.5 -4.5 C
-2.709 -4.5 -4.5 -2.709 -4.5 -0.5 C
-4.5 1.709 -2.709 3.5 -0.5 3.5 C
1.709 3.5 3.5 1.709 3.5 -0.5 C
S
GR
GS
[0.75 0 0 0.75 135.57 250.1251] CT
0 0.447 0.741 RC
10.0 ML
0.667 LW
N
3.5 -0.5 M
3.5 -2.709 1.709 -4.5 -0.5 -4.5 C
-2.709 -4.5 -4.5 -2.709 -4.5 -0.5 C
-4.5 1.709 -2.709 3.5 -0.5 3.5 C
1.709 3.5 3.5 1.709 3.5 -0.5 C
S
GR
GS
[0.75 0 0 0.75 138.66 234.81242] CT
0 0.447 0.741 RC
10.0 ML
0.667 LW
N
3.5 -0.5 M
3.5 -2.709 1.709 -4.5 -0.5 -4.5 C
-2.709 -4.5 -4.5 -2.709 -4.5 -0.5 C
-4.5 1.709 -2.709 3.5 -0.5 3.5 C
1.709 3.5 3.5 1.709 3.5 -0.5 C
S
GR
GS
[0.75 0 0 0.75 101.58 240.74186] CT
0 0.447 0.741 RC
10.0 ML
0.667 LW
N
3.5 -0.5 M
3.5 -2.709 1.709 -4.5 -0.5 -4.5 C
-2.709 -4.5 -4.5 -2.709 -4.5 -0.5 C
-4.5 1.709 -2.709 3.5 -0.5 3.5 C
1.709 3.5 3.5 1.709 3.5 -0.5 C
S
GR
GS
[0.75 0 0 0.75 98.49001 239.66932] CT
0 0.447 0.741 RC
10.0 ML
0.667 LW
N
3.5 -0.5 M
3.5 -2.709 1.709 -4.5 -0.5 -4.5 C
-2.709 -4.5 -4.5 -2.709 -4.5 -0.5 C
-4.5 1.709 -2.709 3.5 -0.5 3.5 C
1.709 3.5 3.5 1.709 3.5 -0.5 C
S
GR
GS
[0.75 0 0 0.75 95.4 236.72965] CT
0 0.447 0.741 RC
10.0 ML
0.667 LW
N
3.5 -0.5 M
3.5 -2.709 1.709 -4.5 -0.5 -4.5 C
-2.709 -4.5 -4.5 -2.709 -4.5 -0.5 C
-4.5 1.709 -2.709 3.5 -0.5 3.5 C
1.709 3.5 3.5 1.709 3.5 -0.5 C
S
GR
GS
[0.75 0 0 0.75 92.31 239.33206] CT
0 0.447 0.741 RC
10.0 ML
0.667 LW
N
3.5 -0.5 M
3.5 -2.709 1.709 -4.5 -0.5 -4.5 C
-2.709 -4.5 -4.5 -2.709 -4.5 -0.5 C
-4.5 1.709 -2.709 3.5 -0.5 3.5 C
1.709 3.5 3.5 1.709 3.5 -0.5 C
S
GR
GS
[0.75 0 0 0.75 89.22 234.67606] CT
0 0.447 0.741 RC
10.0 ML
0.667 LW
N
3.5 -0.5 M
3.5 -2.709 1.709 -4.5 -0.5 -4.5 C
-2.709 -4.5 -4.5 -2.709 -4.5 -0.5 C
-4.5 1.709 -2.709 3.5 -0.5 3.5 C
1.709 3.5 3.5 1.709 3.5 -0.5 C
S
GR
GS
[0.75 0 0 0.75 86.13 235.18676] CT
0 0.447 0.741 RC
10.0 ML
0.667 LW
N
3.5 -0.5 M
3.5 -2.709 1.709 -4.5 -0.5 -4.5 C
-2.709 -4.5 -4.5 -2.709 -4.5 -0.5 C
-4.5 1.709 -2.709 3.5 -0.5 3.5 C
1.709 3.5 3.5 1.709 3.5 -0.5 C
S
GR
GS
[0.75 0 0 0.75 83.04 234.13157] CT
0 0.447 0.741 RC
10.0 ML
0.667 LW
N
3.5 -0.5 M
3.5 -2.709 1.709 -4.5 -0.5 -4.5 C
-2.709 -4.5 -4.5 -2.709 -4.5 -0.5 C
-4.5 1.709 -2.709 3.5 -0.5 3.5 C
1.709 3.5 3.5 1.709 3.5 -0.5 C
S
GR
GS
[0.75 0 0 0.75 79.95 239.41391] CT
0 0.447 0.741 RC
10.0 ML
0.667 LW
N
3.5 -0.5 M
3.5 -2.709 1.709 -4.5 -0.5 -4.5 C
-2.709 -4.5 -4.5 -2.709 -4.5 -0.5 C
-4.5 1.709 -2.709 3.5 -0.5 3.5 C
1.709 3.5 3.5 1.709 3.5 -0.5 C
S
GR
GS
[0.75 0 0 0.75 76.86 241.92527] CT
0 0.447 0.741 RC
10.0 ML
0.667 LW
N
3.5 -0.5 M
3.5 -2.709 1.709 -4.5 -0.5 -4.5 C
-2.709 -4.5 -4.5 -2.709 -4.5 -0.5 C
-4.5 1.709 -2.709 3.5 -0.5 3.5 C
1.709 3.5 3.5 1.709 3.5 -0.5 C
S
GR
GS
[0.75 0 0 0.75 73.77 236.22749] CT
0 0.447 0.741 RC
10.0 ML
0.667 LW
N
3.5 -0.5 M
3.5 -2.709 1.709 -4.5 -0.5 -4.5 C
-2.709 -4.5 -4.5 -2.709 -4.5 -0.5 C
-4.5 1.709 -2.709 3.5 -0.5 3.5 C
1.709 3.5 3.5 1.709 3.5 -0.5 C
S
GR
GS
[0.75 0 0 0.75 70.68 238.94692] CT
0 0.447 0.741 RC
10.0 ML
0.667 LW
N
3.5 -0.5 M
3.5 -2.709 1.709 -4.5 -0.5 -4.5 C
-2.709 -4.5 -4.5 -2.709 -4.5 -0.5 C
-4.5 1.709 -2.709 3.5 -0.5 3.5 C
1.709 3.5 3.5 1.709 3.5 -0.5 C
S
GR
GS
[0.75 0 0 0.75 67.59 229.23563] CT
0 0.447 0.741 RC
10.0 ML
0.667 LW
N
3.5 -0.5 M
3.5 -2.709 1.709 -4.5 -0.5 -4.5 C
-2.709 -4.5 -4.5 -2.709 -4.5 -0.5 C
-4.5 1.709 -2.709 3.5 -0.5 3.5 C
1.709 3.5 3.5 1.709 3.5 -0.5 C
S
GR
GS
[0.75 0 0 0.75 64.5 231.33827] CT
0 0.447 0.741 RC
10.0 ML
0.667 LW
N
3.5 -0.5 M
3.5 -2.709 1.709 -4.5 -0.5 -4.5 C
-2.709 -4.5 -4.5 -2.709 -4.5 -0.5 C
-4.5 1.709 -2.709 3.5 -0.5 3.5 C
1.709 3.5 3.5 1.709 3.5 -0.5 C
S
GR
GS
[0.75 0 0 0.75 181.92 240.74186] CT
0 0.447 0.741 RC
10.0 ML
0.667 LW
N
3.5 -0.5 M
3.5 -2.709 1.709 -4.5 -0.5 -4.5 C
-2.709 -4.5 -4.5 -2.709 -4.5 -0.5 C
-4.5 1.709 -2.709 3.5 -0.5 3.5 C
1.709 3.5 3.5 1.709 3.5 -0.5 C
S
GR
GS
[0.75 0 0 0.75 219 231.33827] CT
0 0.447 0.741 RC
10.0 ML
0.667 LW
N
3.5 -0.5 M
3.5 -2.709 1.709 -4.5 -0.5 -4.5 C
-2.709 -4.5 -4.5 -2.709 -4.5 -0.5 C
-4.5 1.709 -2.709 3.5 -0.5 3.5 C
1.709 3.5 3.5 1.709 3.5 -0.5 C
S
GR
GS
[0.75 0 0 0.75 215.91 229.23563] CT
0 0.447 0.741 RC
10.0 ML
0.667 LW
N
3.5 -0.5 M
3.5 -2.709 1.709 -4.5 -0.5 -4.5 C
-2.709 -4.5 -4.5 -2.709 -4.5 -0.5 C
-4.5 1.709 -2.709 3.5 -0.5 3.5 C
1.709 3.5 3.5 1.709 3.5 -0.5 C
S
GR
GS
[0.75 0 0 0.75 212.82001 238.94692] CT
0 0.447 0.741 RC
10.0 ML
0.667 LW
N
3.5 -0.5 M
3.5 -2.709 1.709 -4.5 -0.5 -4.5 C
-2.709 -4.5 -4.5 -2.709 -4.5 -0.5 C
-4.5 1.709 -2.709 3.5 -0.5 3.5 C
1.709 3.5 3.5 1.709 3.5 -0.5 C
S
GR
GS
[0.75 0 0 0.75 209.73001 236.22749] CT
0 0.447 0.741 RC
10.0 ML
0.667 LW
N
3.5 -0.5 M
3.5 -2.709 1.709 -4.5 -0.5 -4.5 C
-2.709 -4.5 -4.5 -2.709 -4.5 -0.5 C
-4.5 1.709 -2.709 3.5 -0.5 3.5 C
1.709 3.5 3.5 1.709 3.5 -0.5 C
S
GR
GS
[0.75 0 0 0.75 206.63999 241.92527] CT
0 0.447 0.741 RC
10.0 ML
0.667 LW
N
3.5 -0.5 M
3.5 -2.709 1.709 -4.5 -0.5 -4.5 C
-2.709 -4.5 -4.5 -2.709 -4.5 -0.5 C
-4.5 1.709 -2.709 3.5 -0.5 3.5 C
1.709 3.5 3.5 1.709 3.5 -0.5 C
S
GR
GS
[0.75 0 0 0.75 203.55 239.41391] CT
0 0.447 0.741 RC
10.0 ML
0.667 LW
N
3.5 -0.5 M
3.5 -2.709 1.709 -4.5 -0.5 -4.5 C
-2.709 -4.5 -4.5 -2.709 -4.5 -0.5 C
-4.5 1.709 -2.709 3.5 -0.5 3.5 C
1.709 3.5 3.5 1.709 3.5 -0.5 C
S
GR
GS
[0.75 0 0 0.75 200.46 234.13157] CT
0 0.447 0.741 RC
10.0 ML
0.667 LW
N
3.5 -0.5 M
3.5 -2.709 1.709 -4.5 -0.5 -4.5 C
-2.709 -4.5 -4.5 -2.709 -4.5 -0.5 C
-4.5 1.709 -2.709 3.5 -0.5 3.5 C
1.709 3.5 3.5 1.709 3.5 -0.5 C
S
GR
GS
[0.75 0 0 0.75 197.37 235.18676] CT
0 0.447 0.741 RC
10.0 ML
0.667 LW
N
3.5 -0.5 M
3.5 -2.709 1.709 -4.5 -0.5 -4.5 C
-2.709 -4.5 -4.5 -2.709 -4.5 -0.5 C
-4.5 1.709 -2.709 3.5 -0.5 3.5 C
1.709 3.5 3.5 1.709 3.5 -0.5 C
S
GR
GS
[0.75 0 0 0.75 194.28001 234.67606] CT
0 0.447 0.741 RC
10.0 ML
0.667 LW
N
3.5 -0.5 M
3.5 -2.709 1.709 -4.5 -0.5 -4.5 C
-2.709 -4.5 -4.5 -2.709 -4.5 -0.5 C
-4.5 1.709 -2.709 3.5 -0.5 3.5 C
1.709 3.5 3.5 1.709 3.5 -0.5 C
S
GR
GS
[0.75 0 0 0.75 191.19 239.33206] CT
0 0.447 0.741 RC
10.0 ML
0.667 LW
N
3.5 -0.5 M
3.5 -2.709 1.709 -4.5 -0.5 -4.5 C
-2.709 -4.5 -4.5 -2.709 -4.5 -0.5 C
-4.5 1.709 -2.709 3.5 -0.5 3.5 C
1.709 3.5 3.5 1.709 3.5 -0.5 C
S
GR
GS
[0.75 0 0 0.75 188.1 236.72965] CT
0 0.447 0.741 RC
10.0 ML
0.667 LW
N
3.5 -0.5 M
3.5 -2.709 1.709 -4.5 -0.5 -4.5 C
-2.709 -4.5 -4.5 -2.709 -4.5 -0.5 C
-4.5 1.709 -2.709 3.5 -0.5 3.5 C
1.709 3.5 3.5 1.709 3.5 -0.5 C
S
GR
GS
[0.75 0 0 0.75 185.00999 239.66932] CT
0 0.447 0.741 RC
10.0 ML
0.667 LW
N
3.5 -0.5 M
3.5 -2.709 1.709 -4.5 -0.5 -4.5 C
-2.709 -4.5 -4.5 -2.709 -4.5 -0.5 C
-4.5 1.709 -2.709 3.5 -0.5 3.5 C
1.709 3.5 3.5 1.709 3.5 -0.5 C
S
GR
GS
[0.75 0 0 0.75 141.75 38.75] CT
0 0.447 0.741 RC
10.0 ML
0.667 LW
N
3.5 -0.5 M
3.5 -2.709 1.709 -4.5 -0.5 -4.5 C
-2.709 -4.5 -4.5 -2.709 -4.5 -0.5 C
-4.5 1.709 -2.709 3.5 -0.5 3.5 C
1.709 3.5 3.5 1.709 3.5 -0.5 C
S
GR
GS
[0.75 0 0 0.75 178.83 245.7443] CT
0 0.447 0.741 RC
10.0 ML
0.667 LW
N
3.5 -0.5 M
3.5 -2.709 1.709 -4.5 -0.5 -4.5 C
-2.709 -4.5 -4.5 -2.709 -4.5 -0.5 C
-4.5 1.709 -2.709 3.5 -0.5 3.5 C
1.709 3.5 3.5 1.709 3.5 -0.5 C
S
GR
GS
[0.75 0 0 0.75 175.74001 242.13026] CT
0 0.447 0.741 RC
10.0 ML
0.667 LW
N
3.5 -0.5 M
3.5 -2.709 1.709 -4.5 -0.5 -4.5 C
-2.709 -4.5 -4.5 -2.709 -4.5 -0.5 C
-4.5 1.709 -2.709 3.5 -0.5 3.5 C
1.709 3.5 3.5 1.709 3.5 -0.5 C
S
GR
GS
[0.75 0 0 0.75 172.65 243.92274] CT
0 0.447 0.741 RC
10.0 ML
0.667 LW
N
3.5 -0.5 M
3.5 -2.709 1.709 -4.5 -0.5 -4.5 C
-2.709 -4.5 -4.5 -2.709 -4.5 -0.5 C
-4.5 1.709 -2.709 3.5 -0.5 3.5 C
1.709 3.5 3.5 1.709 3.5 -0.5 C
S
GR
GS
[0.75 0 0 0.75 169.56 233.49091] CT
0 0.447 0.741 RC
10.0 ML
0.667 LW
N
3.5 -0.5 M
3.5 -2.709 1.709 -4.5 -0.5 -4.5 C
-2.709 -4.5 -4.5 -2.709 -4.5 -0.5 C
-4.5 1.709 -2.709 3.5 -0.5 3.5 C
1.709 3.5 3.5 1.709 3.5 -0.5 C
S
GR
GS
[0.75 0 0 0.75 166.47001 237.88054] CT
0 0.447 0.741 RC
10.0 ML
0.667 LW
N
3.5 -0.5 M
3.5 -2.709 1.709 -4.5 -0.5 -4.5 C
-2.709 -4.5 -4.5 -2.709 -4.5 -0.5 C
-4.5 1.709 -2.709 3.5 -0.5 3.5 C
1.709 3.5 3.5 1.709 3.5 -0.5 C
S
GR
GS
[0.75 0 0 0.75 163.38 232.5313] CT
0 0.447 0.741 RC
10.0 ML
0.667 LW
N
3.5 -0.5 M
3.5 -2.709 1.709 -4.5 -0.5 -4.5 C
-2.709 -4.5 -4.5 -2.709 -4.5 -0.5 C
-4.5 1.709 -2.709 3.5 -0.5 3.5 C
1.709 3.5 3.5 1.709 3.5 -0.5 C
S
GR
GS
[0.75 0 0 0.75 160.29 243.65855] CT
0 0.447 0.741 RC
10.0 ML
0.667 LW
N
3.5 -0.5 M
3.5 -2.709 1.709 -4.5 -0.5 -4.5 C
-2.709 -4.5 -4.5 -2.709 -4.5 -0.5 C
-4.5 1.709 -2.709 3.5 -0.5 3.5 C
1.709 3.5 3.5 1.709 3.5 -0.5 C
S
GR
GS
[0.75 0 0 0.75 157.2 240.1077] CT
0 0.447 0.741 RC
10.0 ML
0.667 LW
N
3.5 -0.5 M
3.5 -2.709 1.709 -4.5 -0.5 -4.5 C
-2.709 -4.5 -4.5 -2.709 -4.5 -0.5 C
-4.5 1.709 -2.709 3.5 -0.5 3.5 C
1.709 3.5 3.5 1.709 3.5 -0.5 C
S
GR
GS
[0.75 0 0 0.75 154.11 227.3062] CT
0 0.447 0.741 RC
10.0 ML
0.667 LW
N
3.5 -0.5 M
3.5 -2.709 1.709 -4.5 -0.5 -4.5 C
-2.709 -4.5 -4.5 -2.709 -4.5 -0.5 C
-4.5 1.709 -2.709 3.5 -0.5 3.5 C
1.709 3.5 3.5 1.709 3.5 -0.5 C
S
GR
GS
[0.75 0 0 0.75 151.02 236.5991] CT
0 0.447 0.741 RC
10.0 ML
0.667 LW
N
3.5 -0.5 M
3.5 -2.709 1.709 -4.5 -0.5 -4.5 C
-2.709 -4.5 -4.5 -2.709 -4.5 -0.5 C
-4.5 1.709 -2.709 3.5 -0.5 3.5 C
1.709 3.5 3.5 1.709 3.5 -0.5 C
S
GR
GS
[0.75 0 0 0.75 147.93 250.1251] CT
0 0.447 0.741 RC
10.0 ML
0.667 LW
N
3.5 -0.5 M
3.5 -2.709 1.709 -4.5 -0.5 -4.5 C
-2.709 -4.5 -4.5 -2.709 -4.5 -0.5 C
-4.5 1.709 -2.709 3.5 -0.5 3.5 C
1.709 3.5 3.5 1.709 3.5 -0.5 C
S
GR
GS
[0.75 0 0 0.75 144.84 234.81242] CT
0 0.447 0.741 RC
10.0 ML
0.667 LW
N
3.5 -0.5 M
3.5 -2.709 1.709 -4.5 -0.5 -4.5 C
-2.709 -4.5 -4.5 -2.709 -4.5 -0.5 C
-4.5 1.709 -2.709 3.5 -0.5 3.5 C
1.709 3.5 3.5 1.709 3.5 -0.5 C
S
GR
GS
[0.75 0 0 0.75 0 0.5] CT
1 GC
N
308 365 M
514 365 L
514 51 L
308 51 L
cp
f
GR
GS
[0.75 0 0 0.75 0 0.5] CT
0.4 GC
2 setlinecap
1 LJ
0.667 LW
N
308 365 M
514 365 L
S
GR
GS
[0.75 0 0 0.75 0 0.5] CT
0.4 GC
2 setlinecap
1 LJ
0.667 LW
N
308 51 M
514 51 L
S
GR
GS
[0.75 0 0 0.75 0 0.5] CT
0.4 GC
2 setlinecap
1 LJ
0.667 LW
N
328.6 365 M
328.6 361.86 L
S
GR
GS
[0.75 0 0 0.75 0 0.5] CT
0.4 GC
2 setlinecap
1 LJ
0.667 LW
N
369.8 365 M
369.8 361.86 L
S
GR
GS
[0.75 0 0 0.75 0 0.5] CT
0.4 GC
2 setlinecap
1 LJ
0.667 LW
N
411 365 M
411 361.86 L
S
GR
GS
[0.75 0 0 0.75 0 0.5] CT
0.4 GC
2 setlinecap
1 LJ
0.667 LW
N
452.2 365 M
452.2 361.86 L
S
GR
GS
[0.75 0 0 0.75 0 0.5] CT
0.4 GC
2 setlinecap
1 LJ
0.667 LW
N
493.4 365 M
493.4 361.86 L
S
GR
GS
[0.75 0 0 0.75 0 0.5] CT
0.4 GC
2 setlinecap
1 LJ
0.667 LW
N
328.6 51 M
328.6 54.14 L
S
GR
GS
[0.75 0 0 0.75 0 0.5] CT
0.4 GC
2 setlinecap
1 LJ
0.667 LW
N
369.8 51 M
369.8 54.14 L
S
GR
GS
[0.75 0 0 0.75 0 0.5] CT
0.4 GC
2 setlinecap
1 LJ
0.667 LW
N
411 51 M
411 54.14 L
S
GR
GS
[0.75 0 0 0.75 0 0.5] CT
0.4 GC
2 setlinecap
1 LJ
0.667 LW
N
452.2 51 M
452.2 54.14 L
S
GR
GS
[0.75 0 0 0.75 0 0.5] CT
0.4 GC
2 setlinecap
1 LJ
0.667 LW
N
493.4 51 M
493.4 54.14 L
S
GR
GS
[0.75 0 0 0.75 246.45 278.25001] CT
0.4 GC
/Helvetica 13.333 F
GS
[1 0 0 1 0 0] CT
-11 13 moveto 
1 -1 scale
(-20) t 
GR
GR
GS
[0.75 0 0 0.75 277.34999 278.25001] CT
0.4 GC
/Helvetica 13.333 F
GS
[1 0 0 1 0 0] CT
-11 13 moveto 
1 -1 scale
(-10) t 
GR
GR
GS
[0.75 0 0 0.75 308.25 278.25001] CT
0.4 GC
/Helvetica 13.333 F
GS
[1 0 0 1 0 0] CT
-4.5 13 moveto 
1 -1 scale
(0) t 
GR
GR
GS
[0.75 0 0 0.75 339.15001 278.25001] CT
0.4 GC
/Helvetica 13.333 F
GS
[1 0 0 1 0 0] CT
-8.5 13 moveto 
1 -1 scale
(10) t 
GR
GR
GS
[0.75 0 0 0.75 370.05 278.25001] CT
0.4 GC
/Helvetica 13.333 F
GS
[1 0 0 1 0 0] CT
-8.5 13 moveto 
1 -1 scale
(20) t 
GR
GR
GS
[0.75 0 0 0.75 0 0.5] CT
0.4 GC
2 setlinecap
1 LJ
0.667 LW
N
308 365 M
308 51 L
S
GR
GS
[0.75 0 0 0.75 0 0.5] CT
0.4 GC
2 setlinecap
1 LJ
0.667 LW
N
514 365 M
514 51 L
S
GR
GS
[0.75 0 0 0.75 0 0.5] CT
0.4 GC
2 setlinecap
1 LJ
0.667 LW
N
308 365 M
311.14 365 L
S
GR
GS
[0.75 0 0 0.75 0 0.5] CT
0.4 GC
2 setlinecap
1 LJ
0.667 LW
N
308 312.667 M
311.14 312.667 L
S
GR
GS
[0.75 0 0 0.75 0 0.5] CT
0.4 GC
2 setlinecap
1 LJ
0.667 LW
N
308 260.333 M
311.14 260.333 L
S
GR
GS
[0.75 0 0 0.75 0 0.5] CT
0.4 GC
2 setlinecap
1 LJ
0.667 LW
N
308 208 M
311.14 208 L
S
GR
GS
[0.75 0 0 0.75 0 0.5] CT
0.4 GC
2 setlinecap
1 LJ
0.667 LW
N
308 155.667 M
311.14 155.667 L
S
GR
GS
[0.75 0 0 0.75 0 0.5] CT
0.4 GC
2 setlinecap
1 LJ
0.667 LW
N
308 103.333 M
311.14 103.333 L
S
GR
GS
[0.75 0 0 0.75 0 0.5] CT
0.4 GC
2 setlinecap
1 LJ
0.667 LW
N
308 51 M
311.14 51 L
S
GR
GS
[0.75 0 0 0.75 0 0.5] CT
0.4 GC
2 setlinecap
1 LJ
0.667 LW
N
514 365 M
510.86 365 L
S
GR
GS
[0.75 0 0 0.75 0 0.5] CT
0.4 GC
2 setlinecap
1 LJ
0.667 LW
N
514 312.667 M
510.86 312.667 L
S
GR
GS
[0.75 0 0 0.75 0 0.5] CT
0.4 GC
2 setlinecap
1 LJ
0.667 LW
N
514 260.333 M
510.86 260.333 L
S
GR
GS
[0.75 0 0 0.75 0 0.5] CT
0.4 GC
2 setlinecap
1 LJ
0.667 LW
N
514 208 M
510.86 208 L
S
GR
GS
[0.75 0 0 0.75 0 0.5] CT
0.4 GC
2 setlinecap
1 LJ
0.667 LW
N
514 155.667 M
510.86 155.667 L
S
GR
GS
[0.75 0 0 0.75 0 0.5] CT
0.4 GC
2 setlinecap
1 LJ
0.667 LW
N
514 103.333 M
510.86 103.333 L
S
GR
GS
[0.75 0 0 0.75 0 0.5] CT
0.4 GC
2 setlinecap
1 LJ
0.667 LW
N
514 51 M
510.86 51 L
S
GR
GS
[0.75 0 0 0.75 0 0.5] CT
0.799 0.89 0.947 RC
N
501.64 300.376 M
497.52 324.958 L
497.52 300.376 L
cp
f
GR
GS
[0.75 0 0 0.75 0 0.5] CT
0.799 0.89 0.947 RC
N
336.84 300.376 M
332.72 324.958 L
332.72 300.376 L
cp
f
GR
GS
[0.75 0 0 0.75 0 0.5] CT
0.749 0.863 0.933 RC
2 setlinecap
1 LJ
0.667 LW
N
332.72 300.376 M
336.84 300.376 L
S
GR
GS
[0.75 0 0 0.75 0 0.5] CT
0.799 0.89 0.947 RC
N
332.72 300.376 M
328.6 324.958 L
328.6 300.376 L
cp
f
GR
GS
[0.75 0 0 0.75 0 0.5] CT
0.749 0.863 0.933 RC
2 setlinecap
1 LJ
0.667 LW
N
328.6 300.376 M
332.72 300.376 L
S
GR
GS
[0.75 0 0 0.75 0 0.5] CT
0.799 0.89 0.947 RC
N
328.6 300.376 M
324.48 324.958 L
324.48 300.376 L
cp
f
GR
GS
[0.75 0 0 0.75 0 0.5] CT
0.749 0.863 0.933 RC
2 setlinecap
1 LJ
0.667 LW
N
324.48 300.376 M
328.6 300.376 L
S
GR
GS
[0.75 0 0 0.75 0 0.5] CT
0.799 0.89 0.947 RC
N
320.36 324.958 M
320.36 300.376 L
324.48 300.376 L
cp
f
GR
GS
[0.75 0 0 0.75 0 0.5] CT
0.749 0.863 0.933 RC
2 setlinecap
1 LJ
0.667 LW
N
320.36 300.376 M
324.48 300.376 L
S
GR
GS
[0.75 0 0 0.75 0 0.5] CT
0.799 0.89 0.947 RC
N
316.24 300.376 M
320.36 300.376 L
316.24 324.958 L
cp
f
GR
GS
[0.75 0 0 0.75 0 0.5] CT
0.749 0.863 0.933 RC
2 setlinecap
1 LJ
0.667 LW
N
316.24 300.376 M
320.36 300.376 L
S
GR
GS
[0.75 0 0 0.75 0 0.5] CT
0.799 0.89 0.947 RC
N
312.12 324.958 M
312.12 300.376 L
316.24 300.376 L
cp
f
GR
GS
[0.75 0 0 0.75 0 0.5] CT
0.749 0.863 0.933 RC
2 setlinecap
1 LJ
0.667 LW
N
312.12 300.376 M
316.24 300.376 L
S
GR
GS
[0.75 0 0 0.75 0 0.5] CT
0.799 0.89 0.947 RC
N
308 300.376 M
312.12 300.376 L
308 324.958 L
cp
f
GR
GS
[0.75 0 0 0.75 0 0.5] CT
0.749 0.863 0.933 RC
2 setlinecap
1 LJ
0.667 LW
N
308 300.376 M
312.12 300.376 L
S
GR
GS
[0.75 0 0 0.75 0 0.5] CT
0.799 0.89 0.947 RC
N
501.64 324.958 M
497.52 324.958 L
501.64 300.376 L
cp
f
GR
GS
[0.75 0 0 0.75 0 0.5] CT
0.799 0.89 0.947 RC
N
501.64 324.958 M
501.64 300.376 L
505.76 300.376 L
cp
f
GR
GS
[0.75 0 0 0.75 0 0.5] CT
0.799 0.89 0.947 RC
N
336.84 324.958 M
336.84 300.376 L
340.96 300.376 L
cp
f
GR
GS
[0.75 0 0 0.75 0 0.5] CT
0.749 0.863 0.933 RC
2 setlinecap
1 LJ
0.667 LW
N
336.84 300.376 M
340.96 300.376 L
S
GR
GS
[0.75 0 0 0.75 0 0.5] CT
0.799 0.89 0.947 RC
N
505.76 324.958 M
505.76 300.376 L
509.88 300.376 L
cp
f
GR
GS
[0.75 0 0 0.75 0 0.5] CT
0.799 0.89 0.947 RC
N
485.16 324.958 M
481.04 324.958 L
485.16 300.376 L
cp
f
GR
GS
[0.75 0 0 0.75 0 0.5] CT
0.799 0.89 0.947 RC
N
485.16 324.958 M
485.16 300.376 L
489.28 300.376 L
cp
f
GR
GS
[0.75 0 0 0.75 0 0.5] CT
0.799 0.89 0.947 RC
N
472.8 324.958 M
468.68 324.958 L
472.8 300.376 L
cp
f
GR
GS
[0.75 0 0 0.75 0 0.5] CT
0.799 0.89 0.947 RC
N
472.8 324.958 M
472.8 300.376 L
476.92 300.376 L
cp
f
GR
GS
[0.75 0 0 0.75 0 0.5] CT
0.799 0.89 0.947 RC
N
452.2 324.958 M
456.32 300.376 L
456.32 324.958 L
cp
f
GR
GS
[0.75 0 0 0.75 0 0.5] CT
0.799 0.89 0.947 RC
N
431.6 324.958 M
427.48 324.958 L
431.6 300.376 L
cp
f
GR
GS
[0.75 0 0 0.75 0 0.5] CT
0.799 0.89 0.947 RC
N
431.6 324.958 M
431.6 300.376 L
435.72 300.376 L
cp
f
GR
GS
[0.75 0 0 0.75 0 0.5] CT
0.799 0.89 0.947 RC
N
431.6 300.376 M
427.48 324.958 L
427.48 300.376 L
cp
f
GR
GS
[0.75 0 0 0.75 0 0.5] CT
0.799 0.89 0.947 RC
N
373.92 300.376 M
378.04 300.376 L
373.92 324.958 L
cp
f
GR
GS
[0.75 0 0 0.75 0 0.5] CT
0.749 0.863 0.933 RC
2 setlinecap
1 LJ
0.667 LW
N
373.92 300.376 M
378.04 300.376 L
S
GR
GS
[0.75 0 0 0.75 0 0.5] CT
0.799 0.89 0.947 RC
N
411 324.958 M
411 300.376 L
415.12 300.376 L
cp
f
GR
GS
[0.75 0 0 0.75 0 0.5] CT
0.749 0.863 0.933 RC
2 setlinecap
1 LJ
0.667 LW
N
411 300.376 M
415.12 300.376 L
S
GR
GS
[0.75 0 0 0.75 0 0.5] CT
0.799 0.89 0.947 RC
N
406.88 324.958 M
406.88 300.376 L
411 300.376 L
cp
f
GR
GS
[0.75 0 0 0.75 0 0.5] CT
0.749 0.863 0.933 RC
2 setlinecap
1 LJ
0.667 LW
N
406.88 300.376 M
411 300.376 L
S
GR
GS
[0.75 0 0 0.75 0 0.5] CT
0.799 0.89 0.947 RC
N
406.88 300.376 M
402.76 324.958 L
402.76 300.376 L
cp
f
GR
GS
[0.75 0 0 0.75 0 0.5] CT
0.749 0.863 0.933 RC
2 setlinecap
1 LJ
0.667 LW
N
402.76 300.376 M
406.88 300.376 L
S
GR
GS
[0.75 0 0 0.75 0 0.5] CT
0.799 0.89 0.947 RC
N
398.64 324.958 M
398.64 300.376 L
402.76 300.376 L
cp
f
GR
GS
[0.75 0 0 0.75 0 0.5] CT
0.749 0.863 0.933 RC
2 setlinecap
1 LJ
0.667 LW
N
398.64 300.376 M
402.76 300.376 L
S
GR
GS
[0.75 0 0 0.75 0 0.5] CT
0.799 0.89 0.947 RC
N
398.64 300.376 M
394.52 324.958 L
394.52 300.376 L
cp
f
GR
GS
[0.75 0 0 0.75 0 0.5] CT
0.749 0.863 0.933 RC
2 setlinecap
1 LJ
0.667 LW
N
394.52 300.376 M
398.64 300.376 L
S
GR
GS
[0.75 0 0 0.75 0 0.5] CT
0.799 0.89 0.947 RC
N
390.4 324.958 M
390.4 300.376 L
394.52 300.376 L
cp
f
GR
GS
[0.75 0 0 0.75 0 0.5] CT
0.749 0.863 0.933 RC
2 setlinecap
1 LJ
0.667 LW
N
390.4 300.376 M
394.52 300.376 L
S
GR
GS
[0.75 0 0 0.75 0 0.5] CT
0.799 0.89 0.947 RC
N
390.4 300.376 M
386.28 324.958 L
386.28 300.376 L
cp
f
GR
GS
[0.75 0 0 0.75 0 0.5] CT
0.749 0.863 0.933 RC
2 setlinecap
1 LJ
0.667 LW
N
386.28 300.376 M
390.4 300.376 L
S
GR
GS
[0.75 0 0 0.75 0 0.5] CT
0.799 0.89 0.947 RC
N
386.28 300.376 M
382.16 324.958 L
382.16 300.376 L
cp
f
GR
GS
[0.75 0 0 0.75 0 0.5] CT
0.749 0.863 0.933 RC
2 setlinecap
1 LJ
0.667 LW
N
382.16 300.376 M
386.28 300.376 L
S
GR
GS
[0.75 0 0 0.75 0 0.5] CT
0.799 0.89 0.947 RC
N
382.16 300.376 M
378.04 324.958 L
378.04 300.376 L
cp
f
GR
GS
[0.75 0 0 0.75 0 0.5] CT
0.749 0.863 0.933 RC
2 setlinecap
1 LJ
0.667 LW
N
378.04 300.376 M
382.16 300.376 L
S
GR
GS
[0.75 0 0 0.75 0 0.5] CT
0.799 0.89 0.947 RC
N
435.72 324.958 M
435.72 300.376 L
439.84 300.376 L
cp
f
GR
GS
[0.75 0 0 0.75 0 0.5] CT
0.799 0.89 0.947 RC
N
373.92 300.376 M
369.8 324.958 L
369.8 300.376 L
cp
f
GR
GS
[0.75 0 0 0.75 0 0.5] CT
0.749 0.863 0.933 RC
2 setlinecap
1 LJ
0.667 LW
N
369.8 300.376 M
373.92 300.376 L
S
GR
GS
[0.75 0 0 0.75 0 0.5] CT
0.799 0.89 0.947 RC
N
369.8 300.376 M
365.68 324.958 L
365.68 300.376 L
cp
f
GR
GS
[0.75 0 0 0.75 0 0.5] CT
0.749 0.863 0.933 RC
2 setlinecap
1 LJ
0.667 LW
N
365.68 300.376 M
369.8 300.376 L
S
GR
GS
[0.75 0 0 0.75 0 0.5] CT
0.799 0.89 0.947 RC
N
361.56 324.958 M
361.56 300.376 L
365.68 300.376 L
cp
f
GR
GS
[0.75 0 0 0.75 0 0.5] CT
0.749 0.863 0.933 RC
1 setlinecap
1 LJ
0.667 LW
N
361.56 300.376 M
365.68 300.376 L
S
GR
GS
[0.75 0 0 0.75 0 0.5] CT
0.799 0.89 0.947 RC
N
357.44 324.958 M
357.44 300.376 L
361.56 300.376 L
cp
f
GR
GS
[0.75 0 0 0.75 0 0.5] CT
0.749 0.863 0.933 RC
1 setlinecap
1 LJ
0.667 LW
N
357.44 300.376 M
361.56 300.376 L
S
GR
GS
[0.75 0 0 0.75 0 0.5] CT
0.799 0.89 0.947 RC
N
353.32 324.958 M
353.32 300.376 L
357.44 300.376 L
cp
f
GR
GS
[0.75 0 0 0.75 0 0.5] CT
0.749 0.863 0.933 RC
1 setlinecap
1 LJ
0.667 LW
N
353.32 300.376 M
357.44 300.376 L
S
GR
GS
[0.75 0 0 0.75 0 0.5] CT
0.799 0.89 0.947 RC
N
349.2 324.958 M
349.2 300.376 L
353.32 300.376 L
cp
f
GR
GS
[0.75 0 0 0.75 0 0.5] CT
0.749 0.863 0.933 RC
1 setlinecap
1 LJ
0.667 LW
N
349.2 300.376 M
353.32 300.376 L
S
GR
GS
[0.75 0 0 0.75 0 0.5] CT
0.799 0.89 0.947 RC
N
345.08 324.958 M
345.08 300.376 L
349.2 300.376 L
cp
f
GR
GS
[0.75 0 0 0.75 0 0.5] CT
0.749 0.863 0.933 RC
1 setlinecap
1 LJ
0.667 LW
N
345.08 300.376 M
349.2 300.376 L
S
GR
GS
[0.75 0 0 0.75 0 0.5] CT
0.799 0.89 0.947 RC
N
340.96 324.958 M
340.96 300.376 L
345.08 300.376 L
cp
f
GR
GS
[0.75 0 0 0.75 0 0.5] CT
0.749 0.863 0.933 RC
1 setlinecap
1 LJ
0.667 LW
N
340.96 300.376 M
345.08 300.376 L
S
GR
GS
[0.75 0 0 0.75 0 0.5] CT
0.799 0.89 0.947 RC
N
456.32 324.958 M
460.44 300.376 L
460.44 324.958 L
cp
f
GR
GS
[0.75 0 0 0.75 0 0.5] CT
0.799 0.89 0.947 RC
N
452.2 300.376 M
448.08 324.958 L
448.08 300.376 L
cp
f
GR
GS
[0.75 0 0 0.75 0 0.5] CT
0.799 0.89 0.947 RC
N
427.48 300.376 M
423.36 324.958 L
423.36 300.376 L
cp
f
GR
GS
[0.75 0 0 0.75 0 0.5] CT
0.799 0.89 0.947 RC
N
435.72 324.958 M
439.84 300.376 L
439.84 324.958 L
cp
f
GR
GS
[0.75 0 0 0.75 0 0.5] CT
0.799 0.89 0.947 RC
N
423.36 324.958 M
419.24 324.958 L
423.36 300.376 L
cp
f
GR
GS
[0.75 0 0 0.75 0 0.5] CT
0.799 0.89 0.947 RC
N
406.88 324.958 M
411 300.376 L
411 324.958 L
cp
f
GR
GS
[0.75 0 0 0.75 0 0.5] CT
0.799 0.89 0.947 RC
N
439.84 324.958 M
439.84 300.376 L
443.96 300.376 L
cp
f
GR
GS
[0.75 0 0 0.75 0 0.5] CT
0.799 0.89 0.947 RC
N
419.24 324.958 M
419.24 300.376 L
423.36 300.376 L
cp
f
GR
GS
[0.75 0 0 0.75 0 0.5] CT
0.799 0.89 0.947 RC
N
415.12 324.958 M
419.24 300.376 L
419.24 324.958 L
cp
f
GR
GS
[0.75 0 0 0.75 0 0.5] CT
0.799 0.89 0.947 RC
N
476.92 324.958 M
472.8 324.958 L
476.92 300.376 L
cp
f
GR
GS
[0.75 0 0 0.75 0 0.5] CT
0.799 0.89 0.947 RC
N
373.92 300.376 M
373.92 324.958 L
369.8 324.958 L
cp
f
GR
GS
[0.75 0 0 0.75 0 0.5] CT
0.799 0.89 0.947 RC
N
365.68 324.958 M
361.56 324.958 L
365.68 300.376 L
cp
f
GR
GS
[0.75 0 0 0.75 0 0.5] CT
0.799 0.89 0.947 RC
N
493.4 300.376 M
489.28 324.958 L
489.28 300.376 L
cp
f
GR
GS
[0.75 0 0 0.75 0 0.5] CT
0.799 0.89 0.947 RC
N
443.96 324.958 M
439.84 324.958 L
443.96 300.376 L
cp
f
GR
GS
[0.75 0 0 0.75 0 0.5] CT
0.799 0.89 0.947 RC
N
443.96 324.958 M
443.96 300.376 L
448.08 300.376 L
cp
f
GR
GS
[0.75 0 0 0.75 0 0.5] CT
0.799 0.89 0.947 RC
N
485.16 300.376 M
481.04 324.958 L
481.04 300.376 L
cp
f
GR
GS
[0.75 0 0 0.75 0 0.5] CT
0.799 0.89 0.947 RC
N
460.44 324.958 M
464.56 300.376 L
464.56 324.958 L
cp
f
GR
GS
[0.75 0 0 0.75 0 0.5] CT
0.799 0.89 0.947 RC
N
427.48 300.376 M
427.48 324.958 L
423.36 324.958 L
cp
f
GR
GS
[0.75 0 0 0.75 0 0.5] CT
0.799 0.89 0.947 RC
N
431.6 324.958 M
435.72 300.376 L
435.72 324.958 L
cp
f
GR
GS
[0.75 0 0 0.75 0 0.5] CT
0.799 0.89 0.947 RC
N
481.04 300.376 M
476.92 324.958 L
476.92 300.376 L
cp
f
GR
GS
[0.75 0 0 0.75 0 0.5] CT
0.799 0.89 0.947 RC
N
497.52 300.376 M
497.52 324.958 L
493.4 324.958 L
cp
f
GR
GS
[0.75 0 0 0.75 0 0.5] CT
0.799 0.89 0.947 RC
N
481.04 300.376 M
481.04 324.958 L
476.92 324.958 L
cp
f
GR
GS
[0.75 0 0 0.75 0 0.5] CT
0.799 0.89 0.947 RC
N
415.12 324.958 M
415.12 300.376 L
419.24 300.376 L
cp
f
GR
GS
[0.75 0 0 0.75 0 0.5] CT
0.749 0.863 0.933 RC
1 setlinecap
1 LJ
0.667 LW
N
415.12 300.376 M
419.24 300.376 L
S
GR
GS
[0.75 0 0 0.75 0 0.5] CT
0.799 0.89 0.947 RC
N
509.88 324.958 M
514 300.376 L
514 324.958 L
cp
f
GR
GS
[0.75 0 0 0.75 0 0.5] CT
0.799 0.89 0.947 RC
N
509.88 324.958 M
509.88 300.376 L
514 300.376 L
cp
f
GR
GS
[0.75 0 0 0.75 0 0.5] CT
0.799 0.89 0.947 RC
N
493.4 300.376 M
497.52 300.376 L
493.4 324.958 L
cp
f
GR
GS
[0.75 0 0 0.75 0 0.5] CT
0.799 0.89 0.947 RC
N
493.4 300.376 M
493.4 324.958 L
489.28 324.958 L
cp
f
GR
GS
[0.75 0 0 0.75 0 0.5] CT
0.799 0.89 0.947 RC
N
472.8 300.376 M
468.68 324.958 L
468.68 300.376 L
cp
f
GR
GS
[0.75 0 0 0.75 0 0.5] CT
0.799 0.89 0.947 RC
N
468.68 324.958 M
464.56 324.958 L
468.68 300.376 L
cp
f
GR
GS
[0.75 0 0 0.75 0 0.5] CT
0.799 0.89 0.947 RC
N
505.76 324.958 M
509.88 300.376 L
509.88 324.958 L
cp
f
GR
GS
[0.75 0 0 0.75 0 0.5] CT
0.799 0.89 0.947 RC
N
489.28 324.958 M
485.16 324.958 L
489.28 300.376 L
cp
f
GR
GS
[0.75 0 0 0.75 0 0.5] CT
0.749 0.863 0.933 RC
1 setlinecap
1 LJ
0.667 LW
N
423.36 324.958 M
419.24 324.958 L
S
GR
GS
[0.75 0 0 0.75 0 0.5] CT
0.799 0.89 0.947 RC
N
386.28 324.958 M
382.16 324.958 L
386.28 300.376 L
cp
f
GR
GS
[0.75 0 0 0.75 0 0.5] CT
0.749 0.863 0.933 RC
1 setlinecap
1 LJ
0.667 LW
N
386.28 324.958 M
382.16 324.958 L
S
GR
GS
[0.75 0 0 0.75 0 0.5] CT
0.799 0.89 0.947 RC
N
390.4 300.376 M
390.4 324.958 L
386.28 324.958 L
cp
f
GR
GS
[0.75 0 0 0.75 0 0.5] CT
0.749 0.863 0.933 RC
1 setlinecap
1 LJ
0.667 LW
N
390.4 324.958 M
386.28 324.958 L
S
GR
GS
[0.75 0 0 0.75 0 0.5] CT
0.799 0.89 0.947 RC
N
394.52 324.958 M
390.4 324.958 L
394.52 300.376 L
cp
f
GR
GS
[0.75 0 0 0.75 0 0.5] CT
0.749 0.863 0.933 RC
1 setlinecap
1 LJ
0.667 LW
N
394.52 324.958 M
390.4 324.958 L
S
GR
GS
[0.75 0 0 0.75 0 0.5] CT
0.799 0.89 0.947 RC
N
398.64 324.958 M
394.52 324.958 L
398.64 300.376 L
cp
f
GR
GS
[0.75 0 0 0.75 0 0.5] CT
0.749 0.863 0.933 RC
1 setlinecap
1 LJ
0.667 LW
N
398.64 324.958 M
394.52 324.958 L
S
GR
GS
[0.75 0 0 0.75 0 0.5] CT
0.799 0.89 0.947 RC
N
402.76 324.958 M
398.64 324.958 L
402.76 300.376 L
cp
f
GR
GS
[0.75 0 0 0.75 0 0.5] CT
0.749 0.863 0.933 RC
1 setlinecap
1 LJ
0.667 LW
N
402.76 324.958 M
398.64 324.958 L
S
GR
GS
[0.75 0 0 0.75 0 0.5] CT
0.799 0.89 0.947 RC
N
406.88 324.958 M
402.76 324.958 L
406.88 300.376 L
cp
f
GR
GS
[0.75 0 0 0.75 0 0.5] CT
0.749 0.863 0.933 RC
1 setlinecap
1 LJ
0.667 LW
N
406.88 324.958 M
402.76 324.958 L
S
GR
GS
[0.75 0 0 0.75 0 0.5] CT
0.749 0.863 0.933 RC
1 setlinecap
1 LJ
0.667 LW
N
411 324.958 M
406.88 324.958 L
S
GR
GS
[0.75 0 0 0.75 0 0.5] CT
0.799 0.89 0.947 RC
N
415.12 324.958 M
411 324.958 L
415.12 300.376 L
cp
f
GR
GS
[0.75 0 0 0.75 0 0.5] CT
0.749 0.863 0.933 RC
1 setlinecap
1 LJ
0.667 LW
N
415.12 324.958 M
411 324.958 L
S
GR
GS
[0.75 0 0 0.75 0 0.5] CT
0.749 0.863 0.933 RC
1 setlinecap
1 LJ
0.667 LW
N
419.24 324.958 M
415.12 324.958 L
S
GR
GS
[0.75 0 0 0.75 0 0.5] CT
0.799 0.89 0.947 RC
N
382.16 300.376 M
382.16 324.958 L
378.04 324.958 L
cp
f
GR
GS
[0.75 0 0 0.75 0 0.5] CT
0.749 0.863 0.933 RC
1 setlinecap
1 LJ
0.667 LW
N
382.16 324.958 M
378.04 324.958 L
S
GR
GS
[0.75 0 0 0.75 0 0.5] CT
0.749 0.863 0.933 RC
1 setlinecap
1 LJ
0.667 LW
N
427.48 324.958 M
423.36 324.958 L
S
GR
GS
[0.75 0 0 0.75 0 0.5] CT
0.749 0.863 0.933 RC
1 setlinecap
1 LJ
0.667 LW
N
431.6 324.958 M
427.48 324.958 L
S
GR
GS
[0.75 0 0 0.75 0 0.5] CT
0.749 0.863 0.933 RC
1 setlinecap
1 LJ
0.667 LW
N
435.72 324.958 M
431.6 324.958 L
S
GR
GS
[0.75 0 0 0.75 0 0.5] CT
0.749 0.863 0.933 RC
1 setlinecap
1 LJ
0.667 LW
N
439.84 324.958 M
435.72 324.958 L
S
GR
GS
[0.75 0 0 0.75 0 0.5] CT
0.749 0.863 0.933 RC
1 setlinecap
1 LJ
0.667 LW
N
443.96 324.958 M
439.84 324.958 L
S
GR
GS
[0.75 0 0 0.75 0 0.5] CT
0.799 0.89 0.947 RC
N
448.08 324.958 M
443.96 324.958 L
448.08 300.376 L
cp
f
GR
GS
[0.75 0 0 0.75 0 0.5] CT
0.749 0.863 0.933 RC
1 setlinecap
1 LJ
0.667 LW
N
448.08 324.958 M
443.96 324.958 L
S
GR
GS
[0.75 0 0 0.75 0 0.5] CT
0.799 0.89 0.947 RC
N
448.08 324.958 M
452.2 300.376 L
452.2 324.958 L
cp
f
GR
GS
[0.75 0 0 0.75 0 0.5] CT
0.749 0.863 0.933 RC
1 setlinecap
1 LJ
0.667 LW
N
452.2 324.958 M
448.08 324.958 L
S
GR
GS
[0.75 0 0 0.75 0 0.5] CT
0.749 0.863 0.933 RC
1 setlinecap
1 LJ
0.667 LW
N
456.32 324.958 M
452.2 324.958 L
S
GR
GS
[0.75 0 0 0.75 0 0.5] CT
0.799 0.89 0.947 RC
N
340.96 324.958 M
345.08 300.376 L
345.08 324.958 L
cp
f
GR
GS
[0.75 0 0 0.75 0 0.5] CT
0.749 0.863 0.933 RC
1 setlinecap
1 LJ
0.667 LW
N
345.08 324.958 M
340.96 324.958 L
S
GR
GS
[0.75 0 0 0.75 0 0.5] CT
0.749 0.863 0.933 RC
2 setlinecap
1 LJ
0.667 LW
N
308 324.958 M
308 300.376 L
S
GR
GS
[0.75 0 0 0.75 0 0.5] CT
0.799 0.89 0.947 RC
N
308 324.958 M
312.12 300.376 L
312.12 324.958 L
cp
f
GR
GS
[0.75 0 0 0.75 0 0.5] CT
0.749 0.863 0.933 RC
2 setlinecap
1 LJ
0.667 LW
N
312.12 324.958 M
308 324.958 L
S
GR
GS
[0.75 0 0 0.75 0 0.5] CT
0.799 0.89 0.947 RC
N
312.12 324.958 M
316.24 300.376 L
316.24 324.958 L
cp
f
GR
GS
[0.75 0 0 0.75 0 0.5] CT
0.749 0.863 0.933 RC
2 setlinecap
1 LJ
0.667 LW
N
316.24 324.958 M
312.12 324.958 L
S
GR
GS
[0.75 0 0 0.75 0 0.5] CT
0.799 0.89 0.947 RC
N
320.36 324.958 M
316.24 324.958 L
320.36 300.376 L
cp
f
GR
GS
[0.75 0 0 0.75 0 0.5] CT
0.749 0.863 0.933 RC
2 setlinecap
1 LJ
0.667 LW
N
320.36 324.958 M
316.24 324.958 L
S
GR
GS
[0.75 0 0 0.75 0 0.5] CT
0.799 0.89 0.947 RC
N
324.48 324.958 M
320.36 324.958 L
324.48 300.376 L
cp
f
GR
GS
[0.75 0 0 0.75 0 0.5] CT
0.749 0.863 0.933 RC
2 setlinecap
1 LJ
0.667 LW
N
324.48 324.958 M
320.36 324.958 L
S
GR
GS
[0.75 0 0 0.75 0 0.5] CT
0.799 0.89 0.947 RC
N
328.6 324.958 M
324.48 324.958 L
328.6 300.376 L
cp
f
GR
GS
[0.75 0 0 0.75 0 0.5] CT
0.749 0.863 0.933 RC
2 setlinecap
1 LJ
0.667 LW
N
328.6 324.958 M
324.48 324.958 L
S
GR
GS
[0.75 0 0 0.75 0 0.5] CT
0.799 0.89 0.947 RC
N
332.72 324.958 M
328.6 324.958 L
332.72 300.376 L
cp
f
GR
GS
[0.75 0 0 0.75 0 0.5] CT
0.749 0.863 0.933 RC
2 setlinecap
1 LJ
0.667 LW
N
332.72 324.958 M
328.6 324.958 L
S
GR
GS
[0.75 0 0 0.75 0 0.5] CT
0.799 0.89 0.947 RC
N
332.72 324.958 M
336.84 300.376 L
336.84 324.958 L
cp
f
GR
GS
[0.75 0 0 0.75 0 0.5] CT
0.749 0.863 0.933 RC
2 setlinecap
1 LJ
0.667 LW
N
336.84 324.958 M
332.72 324.958 L
S
GR
GS
[0.75 0 0 0.75 0 0.5] CT
0.799 0.89 0.947 RC
N
336.84 324.958 M
340.96 300.376 L
340.96 324.958 L
cp
f
GR
GS
[0.75 0 0 0.75 0 0.5] CT
0.749 0.863 0.933 RC
2 setlinecap
1 LJ
0.667 LW
N
340.96 324.958 M
336.84 324.958 L
S
GR
GS
[0.75 0 0 0.75 0 0.5] CT
0.749 0.863 0.933 RC
2 setlinecap
1 LJ
0.667 LW
N
460.44 324.958 M
456.32 324.958 L
S
GR
GS
[0.75 0 0 0.75 0 0.5] CT
0.799 0.89 0.947 RC
N
349.2 324.958 M
345.08 324.958 L
349.2 300.376 L
cp
f
GR
GS
[0.75 0 0 0.75 0 0.5] CT
0.749 0.863 0.933 RC
2 setlinecap
1 LJ
0.667 LW
N
349.2 324.958 M
345.08 324.958 L
S
GR
GS
[0.75 0 0 0.75 0 0.5] CT
0.799 0.89 0.947 RC
N
349.2 324.958 M
353.32 300.376 L
353.32 324.958 L
cp
f
GR
GS
[0.75 0 0 0.75 0 0.5] CT
0.749 0.863 0.933 RC
2 setlinecap
1 LJ
0.667 LW
N
353.32 324.958 M
349.2 324.958 L
S
GR
GS
[0.75 0 0 0.75 0 0.5] CT
0.799 0.89 0.947 RC
N
357.44 324.958 M
353.32 324.958 L
357.44 300.376 L
cp
f
GR
GS
[0.75 0 0 0.75 0 0.5] CT
0.749 0.863 0.933 RC
2 setlinecap
1 LJ
0.667 LW
N
357.44 324.958 M
353.32 324.958 L
S
GR
GS
[0.75 0 0 0.75 0 0.5] CT
0.799 0.89 0.947 RC
N
361.56 324.958 M
357.44 324.958 L
361.56 300.376 L
cp
f
GR
GS
[0.75 0 0 0.75 0 0.5] CT
0.749 0.863 0.933 RC
2 setlinecap
1 LJ
0.667 LW
N
361.56 324.958 M
357.44 324.958 L
S
GR
GS
[0.75 0 0 0.75 0 0.5] CT
0.749 0.863 0.933 RC
2 setlinecap
1 LJ
0.667 LW
N
365.68 324.958 M
361.56 324.958 L
S
GR
GS
[0.75 0 0 0.75 0 0.5] CT
0.799 0.89 0.947 RC
N
369.8 324.958 M
365.68 324.958 L
369.8 300.376 L
cp
f
GR
GS
[0.75 0 0 0.75 0 0.5] CT
0.749 0.863 0.933 RC
2 setlinecap
1 LJ
0.667 LW
N
369.8 324.958 M
365.68 324.958 L
S
GR
GS
[0.75 0 0 0.75 0 0.5] CT
0.749 0.863 0.933 RC
2 setlinecap
1 LJ
0.667 LW
N
373.92 324.958 M
369.8 324.958 L
S
GR
GS
[0.75 0 0 0.75 0 0.5] CT
0.799 0.89 0.947 RC
N
378.04 300.376 M
378.04 324.958 L
373.92 324.958 L
cp
f
GR
GS
[0.75 0 0 0.75 0 0.5] CT
0.749 0.863 0.933 RC
2 setlinecap
1 LJ
0.667 LW
N
378.04 324.958 M
373.92 324.958 L
S
GR
GS
[0.75 0 0 0.75 0 0.5] CT
0.799 0.89 0.947 RC
N
452.2 300.376 M
456.32 300.376 L
452.2 324.958 L
cp
f
GR
GS
[0.75 0 0 0.75 0 0.5] CT
0.749 0.863 0.933 RC
2 setlinecap
1 LJ
0.667 LW
N
452.2 300.376 M
456.32 300.376 L
S
GR
GS
[0.75 0 0 0.75 0 0.5] CT
0.749 0.863 0.933 RC
2 setlinecap
1 LJ
0.667 LW
N
489.28 300.376 M
493.4 300.376 L
S
GR
GS
[0.75 0 0 0.75 0 0.5] CT
0.749 0.863 0.933 RC
2 setlinecap
1 LJ
0.667 LW
N
485.16 300.376 M
489.28 300.376 L
S
GR
GS
[0.75 0 0 0.75 0 0.5] CT
0.749 0.863 0.933 RC
2 setlinecap
1 LJ
0.667 LW
N
481.04 300.376 M
485.16 300.376 L
S
GR
GS
[0.75 0 0 0.75 0 0.5] CT
0.749 0.863 0.933 RC
2 setlinecap
1 LJ
0.667 LW
N
476.92 300.376 M
481.04 300.376 L
S
GR
GS
[0.75 0 0 0.75 0 0.5] CT
0.749 0.863 0.933 RC
2 setlinecap
1 LJ
0.667 LW
N
472.8 300.376 M
476.92 300.376 L
S
GR
GS
[0.75 0 0 0.75 0 0.5] CT
0.749 0.863 0.933 RC
2 setlinecap
1 LJ
0.667 LW
N
468.68 300.376 M
472.8 300.376 L
S
GR
GS
[0.75 0 0 0.75 0 0.5] CT
0.799 0.89 0.947 RC
N
464.56 300.376 M
468.68 300.376 L
464.56 324.958 L
cp
f
GR
GS
[0.75 0 0 0.75 0 0.5] CT
0.749 0.863 0.933 RC
2 setlinecap
1 LJ
0.667 LW
N
464.56 300.376 M
468.68 300.376 L
S
GR
GS
[0.75 0 0 0.75 0 0.5] CT
0.799 0.89 0.947 RC
N
464.56 300.376 M
460.44 324.958 L
460.44 300.376 L
cp
f
GR
GS
[0.75 0 0 0.75 0 0.5] CT
0.749 0.863 0.933 RC
2 setlinecap
1 LJ
0.667 LW
N
460.44 300.376 M
464.56 300.376 L
S
GR
GS
[0.75 0 0 0.75 0 0.5] CT
0.799 0.89 0.947 RC
N
456.32 300.376 M
460.44 300.376 L
456.32 324.958 L
cp
f
GR
GS
[0.75 0 0 0.75 0 0.5] CT
0.749 0.863 0.933 RC
2 setlinecap
1 LJ
0.667 LW
N
456.32 300.376 M
460.44 300.376 L
S
GR
GS
[0.75 0 0 0.75 0 0.5] CT
0.749 0.863 0.933 RC
2 setlinecap
1 LJ
0.667 LW
N
493.4 300.376 M
497.52 300.376 L
S
GR
GS
[0.75 0 0 0.75 0 0.5] CT
0.749 0.863 0.933 RC
2 setlinecap
1 LJ
0.667 LW
N
448.08 300.376 M
452.2 300.376 L
S
GR
GS
[0.75 0 0 0.75 0 0.5] CT
0.749 0.863 0.933 RC
2 setlinecap
1 LJ
0.667 LW
N
443.96 300.376 M
448.08 300.376 L
S
GR
GS
[0.75 0 0 0.75 0 0.5] CT
0.749 0.863 0.933 RC
2 setlinecap
1 LJ
0.667 LW
N
439.84 300.376 M
443.96 300.376 L
S
GR
GS
[0.75 0 0 0.75 0 0.5] CT
0.749 0.863 0.933 RC
2 setlinecap
1 LJ
0.667 LW
N
435.72 300.376 M
439.84 300.376 L
S
GR
GS
[0.75 0 0 0.75 0 0.5] CT
0.749 0.863 0.933 RC
2 setlinecap
1 LJ
0.667 LW
N
431.6 300.376 M
435.72 300.376 L
S
GR
GS
[0.75 0 0 0.75 0 0.5] CT
0.749 0.863 0.933 RC
2 setlinecap
1 LJ
0.667 LW
N
427.48 300.376 M
431.6 300.376 L
S
GR
GS
[0.75 0 0 0.75 0 0.5] CT
0.749 0.863 0.933 RC
2 setlinecap
1 LJ
0.667 LW
N
423.36 300.376 M
427.48 300.376 L
S
GR
GS
[0.75 0 0 0.75 0 0.5] CT
0.749 0.863 0.933 RC
2 setlinecap
1 LJ
0.667 LW
N
419.24 300.376 M
423.36 300.376 L
S
GR
GS
[0.75 0 0 0.75 0 0.5] CT
0.749 0.863 0.933 RC
2 setlinecap
1 LJ
0.667 LW
N
501.64 324.958 M
497.52 324.958 L
S
GR
GS
[0.75 0 0 0.75 0 0.5] CT
0.749 0.863 0.933 RC
2 setlinecap
1 LJ
0.667 LW
N
464.56 324.958 M
460.44 324.958 L
S
GR
GS
[0.75 0 0 0.75 0 0.5] CT
0.749 0.863 0.933 RC
2 setlinecap
1 LJ
0.667 LW
N
468.68 324.958 M
464.56 324.958 L
S
GR
GS
[0.75 0 0 0.75 0 0.5] CT
0.749 0.863 0.933 RC
2 setlinecap
1 LJ
0.667 LW
N
472.8 324.958 M
468.68 324.958 L
S
GR
GS
[0.75 0 0 0.75 0 0.5] CT
0.749 0.863 0.933 RC
2 setlinecap
1 LJ
0.667 LW
N
476.92 324.958 M
472.8 324.958 L
S
GR
GS
[0.75 0 0 0.75 0 0.5] CT
0.749 0.863 0.933 RC
2 setlinecap
1 LJ
0.667 LW
N
481.04 324.958 M
476.92 324.958 L
S
GR
GS
[0.75 0 0 0.75 0 0.5] CT
0.749 0.863 0.933 RC
2 setlinecap
1 LJ
0.667 LW
N
485.16 324.958 M
481.04 324.958 L
S
GR
GS
[0.75 0 0 0.75 0 0.5] CT
0.749 0.863 0.933 RC
2 setlinecap
1 LJ
0.667 LW
N
489.28 324.958 M
485.16 324.958 L
S
GR
GS
[0.75 0 0 0.75 0 0.5] CT
0.749 0.863 0.933 RC
2 setlinecap
1 LJ
0.667 LW
N
493.4 324.958 M
489.28 324.958 L
S
GR
GS
[0.75 0 0 0.75 0 0.5] CT
0.749 0.863 0.933 RC
2 setlinecap
1 LJ
0.667 LW
N
497.52 324.958 M
493.4 324.958 L
S
GR
GS
[0.75 0 0 0.75 0 0.5] CT
0.799 0.89 0.947 RC
N
505.76 324.958 M
501.64 324.958 L
505.76 300.376 L
cp
f
GR
GS
[0.75 0 0 0.75 0 0.5] CT
0.749 0.863 0.933 RC
2 setlinecap
1 LJ
0.667 LW
N
505.76 324.958 M
501.64 324.958 L
S
GR
GS
[0.75 0 0 0.75 0 0.5] CT
0.749 0.863 0.933 RC
2 setlinecap
1 LJ
0.667 LW
N
509.88 324.958 M
505.76 324.958 L
S
GR
GS
[0.75 0 0 0.75 0 0.5] CT
0.749 0.863 0.933 RC
2 setlinecap
1 LJ
0.667 LW
N
514 324.958 M
509.88 324.958 L
S
GR
GS
[0.75 0 0 0.75 0 0.5] CT
0.749 0.863 0.933 RC
2 setlinecap
1 LJ
0.667 LW
N
514 300.376 M
514 324.958 L
S
GR
GS
[0.75 0 0 0.75 0 0.5] CT
0.749 0.863 0.933 RC
2 setlinecap
1 LJ
0.667 LW
N
509.88 300.376 M
514 300.376 L
S
GR
GS
[0.75 0 0 0.75 0 0.5] CT
0.749 0.863 0.933 RC
2 setlinecap
1 LJ
0.667 LW
N
505.76 300.376 M
509.88 300.376 L
S
GR
GS
[0.75 0 0 0.75 0 0.5] CT
0.749 0.863 0.933 RC
2 setlinecap
1 LJ
0.667 LW
N
501.64 300.376 M
505.76 300.376 L
S
GR
GS
[0.75 0 0 0.75 0 0.5] CT
0.749 0.863 0.933 RC
2 setlinecap
1 LJ
0.667 LW
N
497.52 300.376 M
501.64 300.376 L
S
GR
GS
[0.75 0 0 0.75 308.2503 36.875] CT
0.4 GC
/Helvetica 13.333 F
GS
[1 0 0 1 0 0] CT
-34 -4 moveto 
1 -1 scale
(XCorr \(u1\)) t 
GR
GR
GS
[0.75 0 0 0.75 0 0.5] CT
0 0.447 0.741 RC
2 setlinecap
1 LJ
0.667 LW
N
357.44 312.667 M
357.44 311.657 L
S
GR
GS
[0.75 0 0 0.75 0 0.5] CT
0 0.447 0.741 RC
2 setlinecap
1 LJ
0.667 LW
N
406.88 312.667 M
406.88 317.603 L
S
GR
GS
[0.75 0 0 0.75 0 0.5] CT
0 0.447 0.741 RC
2 setlinecap
1 LJ
0.667 LW
N
402.76 312.667 M
402.76 303.95 L
S
GR
GS
[0.75 0 0 0.75 0 0.5] CT
0 0.447 0.741 RC
2 setlinecap
1 LJ
0.667 LW
N
398.64 312.667 M
398.64 314.96 L
S
GR
GS
[0.75 0 0 0.75 0 0.5] CT
0 0.447 0.741 RC
2 setlinecap
1 LJ
0.667 LW
N
394.52 312.667 M
394.52 317.562 L
S
GR
GS
[0.75 0 0 0.75 0 0.5] CT
0 0.447 0.741 RC
2 setlinecap
1 LJ
0.667 LW
N
390.4 312.667 M
390.4 310.486 L
S
GR
GS
[0.75 0 0 0.75 0 0.5] CT
0 0.447 0.741 RC
2 setlinecap
1 LJ
0.667 LW
N
386.28 312.667 M
386.28 304.729 L
S
GR
GS
[0.75 0 0 0.75 0 0.5] CT
0 0.447 0.741 RC
2 setlinecap
1 LJ
0.667 LW
N
382.16 312.667 M
382.16 320.334 L
S
GR
GS
[0.75 0 0 0.75 0 0.5] CT
0 0.447 0.741 RC
2 setlinecap
1 LJ
0.667 LW
N
378.04 312.667 M
378.04 314.277 L
S
GR
GS
[0.75 0 0 0.75 0 0.5] CT
0 0.447 0.741 RC
2 setlinecap
1 LJ
0.667 LW
N
373.92 312.667 M
373.92 314.21 L
S
GR
GS
[0.75 0 0 0.75 0 0.5] CT
0 0.447 0.741 RC
2 setlinecap
1 LJ
0.667 LW
N
369.8 312.667 M
369.8 313.948 L
S
GR
GS
[0.75 0 0 0.75 0 0.5] CT
0 0.447 0.741 RC
2 setlinecap
1 LJ
0.667 LW
N
365.68 312.667 M
365.68 313.076 L
S
GR
GS
[0.75 0 0 0.75 0 0.5] CT
0 0.447 0.741 RC
2 setlinecap
1 LJ
0.667 LW
N
361.56 312.667 M
361.56 307.295 L
S
GR
GS
[0.75 0 0 0.75 0 0.5] CT
0 0.447 0.741 RC
1 LJ
0.667 LW
N
308 312.667 M
308 313.818 L
S
GR
GS
[0.75 0 0 0.75 0 0.5] CT
0 0.447 0.741 RC
1 setlinecap
1 LJ
0.667 LW
N
353.32 312.667 M
353.32 312.889 L
S
GR
GS
[0.75 0 0 0.75 0 0.5] CT
0 0.447 0.741 RC
1 setlinecap
1 LJ
0.667 LW
N
349.2 312.667 M
349.2 303.305 L
S
GR
GS
[0.75 0 0 0.75 0 0.5] CT
0 0.447 0.741 RC
1 setlinecap
1 LJ
0.667 LW
N
345.08 312.667 M
345.08 318.88 L
S
GR
GS
[0.75 0 0 0.75 0 0.5] CT
0 0.447 0.741 RC
1 setlinecap
1 LJ
0.667 LW
N
340.96 312.667 M
340.96 313.379 L
S
GR
GS
[0.75 0 0 0.75 0 0.5] CT
0 0.447 0.741 RC
1 setlinecap
1 LJ
0.667 LW
N
336.84 312.667 M
336.84 317.299 L
S
GR
GS
[0.75 0 0 0.75 0 0.5] CT
0 0.447 0.741 RC
1 setlinecap
1 LJ
0.667 LW
N
332.72 312.667 M
332.72 299.539 L
S
GR
GS
[0.75 0 0 0.75 0 0.5] CT
0 0.447 0.741 RC
1 setlinecap
1 LJ
0.667 LW
N
328.6 312.667 M
328.6 306.269 L
S
GR
GS
[0.75 0 0 0.75 0 0.5] CT
0 0.447 0.741 RC
1 setlinecap
1 LJ
0.667 LW
N
324.48 312.667 M
324.48 322.486 L
S
GR
GS
[0.75 0 0 0.75 0 0.5] CT
0 0.447 0.741 RC
1 setlinecap
1 LJ
0.667 LW
N
320.36 312.667 M
320.36 316.469 L
S
GR
GS
[0.75 0 0 0.75 0 0.5] CT
0 0.447 0.741 RC
1 setlinecap
1 LJ
0.667 LW
N
316.24 312.667 M
316.24 308.943 L
S
GR
GS
[0.75 0 0 0.75 0 0.5] CT
0 0.447 0.741 RC
1 setlinecap
1 LJ
0.667 LW
N
312.12 312.667 M
312.12 306.974 L
S
GR
GS
[0.75 0 0 0.75 0 0.5] CT
0 0.447 0.741 RC
1 setlinecap
1 LJ
0.667 LW
N
415.12 312.667 M
415.12 315.244 L
S
GR
GS
[0.75 0 0 0.75 0 0.5] CT
0 0.447 0.741 RC
1 setlinecap
1 LJ
0.667 LW
N
411 312.667 M
411 317.668 L
S
GR
GS
[0.75 0 0 0.75 0 0.5] CT
0 0.447 0.741 RC
1 LJ
0.667 LW
N
514 312.667 M
514 323.153 L
S
GR
GS
[0.75 0 0 0.75 0 0.5] CT
0 0.447 0.741 RC
1 setlinecap
1 LJ
0.667 LW
N
509.88 312.667 M
509.88 305.711 L
S
GR
GS
[0.75 0 0 0.75 0 0.5] CT
0 0.447 0.741 RC
1 setlinecap
1 LJ
0.667 LW
N
505.76 312.667 M
505.76 313.847 L
S
GR
GS
[0.75 0 0 0.75 0 0.5] CT
0 0.447 0.741 RC
1 setlinecap
1 LJ
0.667 LW
N
501.64 312.667 M
501.64 332.591 L
S
GR
GS
[0.75 0 0 0.75 0 0.5] CT
0 0.447 0.741 RC
1 setlinecap
1 LJ
0.667 LW
N
497.52 312.667 M
497.52 314.412 L
S
GR
GS
[0.75 0 0 0.75 0 0.5] CT
0 0.447 0.741 RC
1 setlinecap
1 LJ
0.667 LW
N
493.4 312.667 M
493.4 300.902 L
S
GR
GS
[0.75 0 0 0.75 0 0.5] CT
0 0.447 0.741 RC
1 setlinecap
1 LJ
0.667 LW
N
489.28 312.667 M
489.28 317.987 L
S
GR
GS
[0.75 0 0 0.75 0 0.5] CT
0 0.447 0.741 RC
1 setlinecap
1 LJ
0.667 LW
N
485.16 312.667 M
485.16 306.354 L
S
GR
GS
[0.75 0 0 0.75 0 0.5] CT
0 0.447 0.741 RC
1 setlinecap
1 LJ
0.667 LW
N
481.04 312.667 M
481.04 314.824 L
S
GR
GS
[0.75 0 0 0.75 0 0.5] CT
0 0.447 0.741 RC
1 setlinecap
1 LJ
0.667 LW
N
476.92 312.667 M
476.92 320.562 L
S
GR
GS
[0.75 0 0 0.75 0 0.5] CT
0 0.447 0.741 RC
1 setlinecap
1 LJ
0.667 LW
N
472.8 312.667 M
472.8 320.324 L
S
GR
GS
[0.75 0 0 0.75 0 0.5] CT
0 0.447 0.741 RC
1 setlinecap
1 LJ
0.667 LW
N
468.68 312.667 M
468.68 305.443 L
S
GR
GS
[0.75 0 0 0.75 0 0.5] CT
0 0.447 0.741 RC
1 setlinecap
1 LJ
0.667 LW
N
460.44 312.667 M
460.44 321.356 L
S
GR
GS
[0.75 0 0 0.75 0 0.5] CT
0 0.447 0.741 RC
1 setlinecap
1 LJ
0.667 LW
N
464.56 312.667 M
464.56 322.01 L
S
GR
GS
[0.75 0 0 0.75 0 0.5] CT
0 0.447 0.741 RC
1 setlinecap
1 LJ
0.667 LW
N
419.24 312.667 M
419.24 310.099 L
S
GR
GS
[0.75 0 0 0.75 0 0.5] CT
0 0.447 0.741 RC
1 setlinecap
1 LJ
0.667 LW
N
423.36 312.667 M
423.36 312.481 L
S
GR
GS
[0.75 0 0 0.75 0 0.5] CT
0 0.447 0.741 RC
1 setlinecap
1 LJ
0.667 LW
N
427.48 312.667 M
427.48 311.244 L
S
GR
GS
[0.75 0 0 0.75 0 0.5] CT
0 0.447 0.741 RC
1 setlinecap
1 LJ
0.667 LW
N
431.6 312.667 M
431.6 302.751 L
S
GR
GS
[0.75 0 0 0.75 0 0.5] CT
0 0.447 0.741 RC
1 setlinecap
1 LJ
0.667 LW
N
435.72 312.667 M
435.72 314.908 L
S
GR
GS
[0.75 0 0 0.75 0 0.5] CT
0 0.447 0.741 RC
1 setlinecap
1 LJ
0.667 LW
N
443.96 312.667 M
443.96 324.557 L
S
GR
GS
[0.75 0 0 0.75 0 0.5] CT
0 0.447 0.741 RC
1 setlinecap
1 LJ
0.667 LW
N
448.08 312.667 M
448.08 313.83 L
S
GR
GS
[0.75 0 0 0.75 0 0.5] CT
0 0.447 0.741 RC
1 setlinecap
1 LJ
0.667 LW
N
452.2 312.667 M
452.2 296.504 L
S
GR
GS
[0.75 0 0 0.75 0 0.5] CT
0 0.447 0.741 RC
1 setlinecap
1 LJ
0.667 LW
N
456.32 312.667 M
456.32 312.387 L
S
GR
GS
[0.75 0 0 0.75 0 0.5] CT
0 0.447 0.741 RC
1 setlinecap
1 LJ
0.667 LW
N
439.84 312.667 M
439.84 297.381 L
S
GR
GS
[0.75 0 0 0.75 271.17 230.97092] CT
0 0.447 0.741 RC
10.0 ML
0.667 LW
N
3.5 -0.5 M
3.5 -2.709 1.709 -4.5 -0.5 -4.5 C
-2.709 -4.5 -4.5 -2.709 -4.5 -0.5 C
-4.5 1.709 -2.709 3.5 -0.5 3.5 C
1.709 3.5 3.5 1.709 3.5 -0.5 C
S
GR
GS
[0.75 0 0 0.75 274.25999 235.30733] CT
0 0.447 0.741 RC
10.0 ML
0.667 LW
N
3.5 -0.5 M
3.5 -2.709 1.709 -4.5 -0.5 -4.5 C
-2.709 -4.5 -4.5 -2.709 -4.5 -0.5 C
-4.5 1.709 -2.709 3.5 -0.5 3.5 C
1.709 3.5 3.5 1.709 3.5 -0.5 C
S
GR
GS
[0.75 0 0 0.75 277.34999 235.96063] CT
0 0.447 0.741 RC
10.0 ML
0.667 LW
N
3.5 -0.5 M
3.5 -2.709 1.709 -4.5 -0.5 -4.5 C
-2.709 -4.5 -4.5 -2.709 -4.5 -0.5 C
-4.5 1.709 -2.709 3.5 -0.5 3.5 C
1.709 3.5 3.5 1.709 3.5 -0.5 C
S
GR
GS
[0.75 0 0 0.75 280.44001 236.15722] CT
0 0.447 0.741 RC
10.0 ML
0.667 LW
N
3.5 -0.5 M
3.5 -2.709 1.709 -4.5 -0.5 -4.5 C
-2.709 -4.5 -4.5 -2.709 -4.5 -0.5 C
-4.5 1.709 -2.709 3.5 -0.5 3.5 C
1.709 3.5 3.5 1.709 3.5 -0.5 C
S
GR
GS
[0.75 0 0 0.75 283.53001 236.20769] CT
0 0.447 0.741 RC
10.0 ML
0.667 LW
N
3.5 -0.5 M
3.5 -2.709 1.709 -4.5 -0.5 -4.5 C
-2.709 -4.5 -4.5 -2.709 -4.5 -0.5 C
-4.5 1.709 -2.709 3.5 -0.5 3.5 C
1.709 3.5 3.5 1.709 3.5 -0.5 C
S
GR
GS
[0.75 0 0 0.75 286.62 240.75024] CT
0 0.447 0.741 RC
10.0 ML
0.667 LW
N
3.5 -0.5 M
3.5 -2.709 1.709 -4.5 -0.5 -4.5 C
-2.709 -4.5 -4.5 -2.709 -4.5 -0.5 C
-4.5 1.709 -2.709 3.5 -0.5 3.5 C
1.709 3.5 3.5 1.709 3.5 -0.5 C
S
GR
GS
[0.75 0 0 0.75 289.71 229.04675] CT
0 0.447 0.741 RC
10.0 ML
0.667 LW
N
3.5 -0.5 M
3.5 -2.709 1.709 -4.5 -0.5 -4.5 C
-2.709 -4.5 -4.5 -2.709 -4.5 -0.5 C
-4.5 1.709 -2.709 3.5 -0.5 3.5 C
1.709 3.5 3.5 1.709 3.5 -0.5 C
S
GR
GS
[0.75 0 0 0.75 292.8 233.36413] CT
0 0.447 0.741 RC
10.0 ML
0.667 LW
N
3.5 -0.5 M
3.5 -2.709 1.709 -4.5 -0.5 -4.5 C
-2.709 -4.5 -4.5 -2.709 -4.5 -0.5 C
-4.5 1.709 -2.709 3.5 -0.5 3.5 C
1.709 3.5 3.5 1.709 3.5 -0.5 C
S
GR
GS
[0.75 0 0 0.75 295.88999 238.67181] CT
0 0.447 0.741 RC
10.0 ML
0.667 LW
N
3.5 -0.5 M
3.5 -2.709 1.709 -4.5 -0.5 -4.5 C
-2.709 -4.5 -4.5 -2.709 -4.5 -0.5 C
-4.5 1.709 -2.709 3.5 -0.5 3.5 C
1.709 3.5 3.5 1.709 3.5 -0.5 C
S
GR
GS
[0.75 0 0 0.75 298.98001 236.71979] CT
0 0.447 0.741 RC
10.0 ML
0.667 LW
N
3.5 -0.5 M
3.5 -2.709 1.709 -4.5 -0.5 -4.5 C
-2.709 -4.5 -4.5 -2.709 -4.5 -0.5 C
-4.5 1.709 -2.709 3.5 -0.5 3.5 C
1.709 3.5 3.5 1.709 3.5 -0.5 C
S
GR
GS
[0.75 0 0 0.75 302.07001 228.46249] CT
0 0.447 0.741 RC
10.0 ML
0.667 LW
N
3.5 -0.5 M
3.5 -2.709 1.709 -4.5 -0.5 -4.5 C
-2.709 -4.5 -4.5 -2.709 -4.5 -0.5 C
-4.5 1.709 -2.709 3.5 -0.5 3.5 C
1.709 3.5 3.5 1.709 3.5 -0.5 C
S
GR
GS
[0.75 0 0 0.75 305.16 238.7019] CT
0 0.447 0.741 RC
10.0 ML
0.667 LW
N
3.5 -0.5 M
3.5 -2.709 1.709 -4.5 -0.5 -4.5 C
-2.709 -4.5 -4.5 -2.709 -4.5 -0.5 C
-4.5 1.709 -2.709 3.5 -0.5 3.5 C
1.709 3.5 3.5 1.709 3.5 -0.5 C
S
GR
GS
[0.75 0 0 0.75 268.08 234.24242] CT
0 0.447 0.741 RC
10.0 ML
0.667 LW
N
3.5 -0.5 M
3.5 -2.709 1.709 -4.5 -0.5 -4.5 C
-2.709 -4.5 -4.5 -2.709 -4.5 -0.5 C
-4.5 1.709 -2.709 3.5 -0.5 3.5 C
1.709 3.5 3.5 1.709 3.5 -0.5 C
S
GR
GS
[0.75 0 0 0.75 264.99001 235.16708] CT
0 0.447 0.741 RC
10.0 ML
0.667 LW
N
3.5 -0.5 M
3.5 -2.709 1.709 -4.5 -0.5 -4.5 C
-2.709 -4.5 -4.5 -2.709 -4.5 -0.5 C
-4.5 1.709 -2.709 3.5 -0.5 3.5 C
1.709 3.5 3.5 1.709 3.5 -0.5 C
S
GR
GS
[0.75 0 0 0.75 261.90001 227.97854] CT
0 0.447 0.741 RC
10.0 ML
0.667 LW
N
3.5 -0.5 M
3.5 -2.709 1.709 -4.5 -0.5 -4.5 C
-2.709 -4.5 -4.5 -2.709 -4.5 -0.5 C
-4.5 1.709 -2.709 3.5 -0.5 3.5 C
1.709 3.5 3.5 1.709 3.5 -0.5 C
S
GR
GS
[0.75 0 0 0.75 258.80999 239.66012] CT
0 0.447 0.741 RC
10.0 ML
0.667 LW
N
3.5 -0.5 M
3.5 -2.709 1.709 -4.5 -0.5 -4.5 C
-2.709 -4.5 -4.5 -2.709 -4.5 -0.5 C
-4.5 1.709 -2.709 3.5 -0.5 3.5 C
1.709 3.5 3.5 1.709 3.5 -0.5 C
S
GR
GS
[0.75 0 0 0.75 255.71999 235.53425] CT
0 0.447 0.741 RC
10.0 ML
0.667 LW
N
3.5 -0.5 M
3.5 -2.709 1.709 -4.5 -0.5 -4.5 C
-2.709 -4.5 -4.5 -2.709 -4.5 -0.5 C
-4.5 1.709 -2.709 3.5 -0.5 3.5 C
1.709 3.5 3.5 1.709 3.5 -0.5 C
S
GR
GS
[0.75 0 0 0.75 252.63 238.47462] CT
0 0.447 0.741 RC
10.0 ML
0.667 LW
N
3.5 -0.5 M
3.5 -2.709 1.709 -4.5 -0.5 -4.5 C
-2.709 -4.5 -4.5 -2.709 -4.5 -0.5 C
-4.5 1.709 -2.709 3.5 -0.5 3.5 C
1.709 3.5 3.5 1.709 3.5 -0.5 C
S
GR
GS
[0.75 0 0 0.75 249.54 225.15434] CT
0 0.447 0.741 RC
10.0 ML
0.667 LW
N
3.5 -0.5 M
3.5 -2.709 1.709 -4.5 -0.5 -4.5 C
-2.709 -4.5 -4.5 -2.709 -4.5 -0.5 C
-4.5 1.709 -2.709 3.5 -0.5 3.5 C
1.709 3.5 3.5 1.709 3.5 -0.5 C
S
GR
GS
[0.75 0 0 0.75 246.45 230.20194] CT
0 0.447 0.741 RC
10.0 ML
0.667 LW
N
3.5 -0.5 M
3.5 -2.709 1.709 -4.5 -0.5 -4.5 C
-2.709 -4.5 -4.5 -2.709 -4.5 -0.5 C
-4.5 1.709 -2.709 3.5 -0.5 3.5 C
1.709 3.5 3.5 1.709 3.5 -0.5 C
S
GR
GS
[0.75 0 0 0.75 243.36001 242.36431] CT
0 0.447 0.741 RC
10.0 ML
0.667 LW
N
3.5 -0.5 M
3.5 -2.709 1.709 -4.5 -0.5 -4.5 C
-2.709 -4.5 -4.5 -2.709 -4.5 -0.5 C
-4.5 1.709 -2.709 3.5 -0.5 3.5 C
1.709 3.5 3.5 1.709 3.5 -0.5 C
S
GR
GS
[0.75 0 0 0.75 240.26999 237.85149] CT
0 0.447 0.741 RC
10.0 ML
0.667 LW
N
3.5 -0.5 M
3.5 -2.709 1.709 -4.5 -0.5 -4.5 C
-2.709 -4.5 -4.5 -2.709 -4.5 -0.5 C
-4.5 1.709 -2.709 3.5 -0.5 3.5 C
1.709 3.5 3.5 1.709 3.5 -0.5 C
S
GR
GS
[0.75 0 0 0.75 237.17999 232.2075] CT
0 0.447 0.741 RC
10.0 ML
0.667 LW
N
3.5 -0.5 M
3.5 -2.709 1.709 -4.5 -0.5 -4.5 C
-2.709 -4.5 -4.5 -2.709 -4.5 -0.5 C
-4.5 1.709 -2.709 3.5 -0.5 3.5 C
1.709 3.5 3.5 1.709 3.5 -0.5 C
S
GR
GS
[0.75 0 0 0.75 234.09 230.7308] CT
0 0.447 0.741 RC
10.0 ML
0.667 LW
N
3.5 -0.5 M
3.5 -2.709 1.709 -4.5 -0.5 -4.5 C
-2.709 -4.5 -4.5 -2.709 -4.5 -0.5 C
-4.5 1.709 -2.709 3.5 -0.5 3.5 C
1.709 3.5 3.5 1.709 3.5 -0.5 C
S
GR
GS
[0.75 0 0 0.75 231 235.86333] CT
0 0.447 0.741 RC
10.0 ML
0.667 LW
N
3.5 -0.5 M
3.5 -2.709 1.709 -4.5 -0.5 -4.5 C
-2.709 -4.5 -4.5 -2.709 -4.5 -0.5 C
-4.5 1.709 -2.709 3.5 -0.5 3.5 C
1.709 3.5 3.5 1.709 3.5 -0.5 C
S
GR
GS
[0.75 0 0 0.75 348.42 242.00764] CT
0 0.447 0.741 RC
10.0 ML
0.667 LW
N
3.5 -0.5 M
3.5 -2.709 1.709 -4.5 -0.5 -4.5 C
-2.709 -4.5 -4.5 -2.709 -4.5 -0.5 C
-4.5 1.709 -2.709 3.5 -0.5 3.5 C
1.709 3.5 3.5 1.709 3.5 -0.5 C
S
GR
GS
[0.75 0 0 0.75 385.5 242.86451] CT
0 0.447 0.741 RC
10.0 ML
0.667 LW
N
3.5 -0.5 M
3.5 -2.709 1.709 -4.5 -0.5 -4.5 C
-2.709 -4.5 -4.5 -2.709 -4.5 -0.5 C
-4.5 1.709 -2.709 3.5 -0.5 3.5 C
1.709 3.5 3.5 1.709 3.5 -0.5 C
S
GR
GS
[0.75 0 0 0.75 382.41 229.78332] CT
0 0.447 0.741 RC
10.0 ML
0.667 LW
N
3.5 -0.5 M
3.5 -2.709 1.709 -4.5 -0.5 -4.5 C
-2.709 -4.5 -4.5 -2.709 -4.5 -0.5 C
-4.5 1.709 -2.709 3.5 -0.5 3.5 C
1.709 3.5 3.5 1.709 3.5 -0.5 C
S
GR
GS
[0.75 0 0 0.75 379.32001 235.88547] CT
0 0.447 0.741 RC
10.0 ML
0.667 LW
N
3.5 -0.5 M
3.5 -2.709 1.709 -4.5 -0.5 -4.5 C
-2.709 -4.5 -4.5 -2.709 -4.5 -0.5 C
-4.5 1.709 -2.709 3.5 -0.5 3.5 C
1.709 3.5 3.5 1.709 3.5 -0.5 C
S
GR
GS
[0.75 0 0 0.75 376.23001 249.9436] CT
0 0.447 0.741 RC
10.0 ML
0.667 LW
N
3.5 -0.5 M
3.5 -2.709 1.709 -4.5 -0.5 -4.5 C
-2.709 -4.5 -4.5 -2.709 -4.5 -0.5 C
-4.5 1.709 -2.709 3.5 -0.5 3.5 C
1.709 3.5 3.5 1.709 3.5 -0.5 C
S
GR
GS
[0.75 0 0 0.75 373.13999 236.30904] CT
0 0.447 0.741 RC
10.0 ML
0.667 LW
N
3.5 -0.5 M
3.5 -2.709 1.709 -4.5 -0.5 -4.5 C
-2.709 -4.5 -4.5 -2.709 -4.5 -0.5 C
-4.5 1.709 -2.709 3.5 -0.5 3.5 C
1.709 3.5 3.5 1.709 3.5 -0.5 C
S
GR
GS
[0.75 0 0 0.75 370.05 226.17628] CT
0 0.447 0.741 RC
10.0 ML
0.667 LW
N
3.5 -0.5 M
3.5 -2.709 1.709 -4.5 -0.5 -4.5 C
-2.709 -4.5 -4.5 -2.709 -4.5 -0.5 C
-4.5 1.709 -2.709 3.5 -0.5 3.5 C
1.709 3.5 3.5 1.709 3.5 -0.5 C
S
GR
GS
[0.75 0 0 0.75 366.96 238.99057] CT
0 0.447 0.741 RC
10.0 ML
0.667 LW
N
3.5 -0.5 M
3.5 -2.709 1.709 -4.5 -0.5 -4.5 C
-2.709 -4.5 -4.5 -2.709 -4.5 -0.5 C
-4.5 1.709 -2.709 3.5 -0.5 3.5 C
1.709 3.5 3.5 1.709 3.5 -0.5 C
S
GR
GS
[0.75 0 0 0.75 363.87 230.26523] CT
0 0.447 0.741 RC
10.0 ML
0.667 LW
N
3.5 -0.5 M
3.5 -2.709 1.709 -4.5 -0.5 -4.5 C
-2.709 -4.5 -4.5 -2.709 -4.5 -0.5 C
-4.5 1.709 -2.709 3.5 -0.5 3.5 C
1.709 3.5 3.5 1.709 3.5 -0.5 C
S
GR
GS
[0.75 0 0 0.75 360.78001 236.61768] CT
0 0.447 0.741 RC
10.0 ML
0.667 LW
N
3.5 -0.5 M
3.5 -2.709 1.709 -4.5 -0.5 -4.5 C
-2.709 -4.5 -4.5 -2.709 -4.5 -0.5 C
-4.5 1.709 -2.709 3.5 -0.5 3.5 C
1.709 3.5 3.5 1.709 3.5 -0.5 C
S
GR
GS
[0.75 0 0 0.75 357.69001 240.92137] CT
0 0.447 0.741 RC
10.0 ML
0.667 LW
N
3.5 -0.5 M
3.5 -2.709 1.709 -4.5 -0.5 -4.5 C
-2.709 -4.5 -4.5 -2.709 -4.5 -0.5 C
-4.5 1.709 -2.709 3.5 -0.5 3.5 C
1.709 3.5 3.5 1.709 3.5 -0.5 C
S
GR
GS
[0.75 0 0 0.75 354.59999 240.74282] CT
0 0.447 0.741 RC
10.0 ML
0.667 LW
N
3.5 -0.5 M
3.5 -2.709 1.709 -4.5 -0.5 -4.5 C
-2.709 -4.5 -4.5 -2.709 -4.5 -0.5 C
-4.5 1.709 -2.709 3.5 -0.5 3.5 C
1.709 3.5 3.5 1.709 3.5 -0.5 C
S
GR
GS
[0.75 0 0 0.75 351.50999 229.58197] CT
0 0.447 0.741 RC
10.0 ML
0.667 LW
N
3.5 -0.5 M
3.5 -2.709 1.709 -4.5 -0.5 -4.5 C
-2.709 -4.5 -4.5 -2.709 -4.5 -0.5 C
-4.5 1.709 -2.709 3.5 -0.5 3.5 C
1.709 3.5 3.5 1.709 3.5 -0.5 C
S
GR
GS
[0.75 0 0 0.75 308.25 238.7507] CT
0 0.447 0.741 RC
10.0 ML
0.667 LW
N
3.5 -0.5 M
3.5 -2.709 1.709 -4.5 -0.5 -4.5 C
-2.709 -4.5 -4.5 -2.709 -4.5 -0.5 C
-4.5 1.709 -2.709 3.5 -0.5 3.5 C
1.709 3.5 3.5 1.709 3.5 -0.5 C
S
GR
GS
[0.75 0 0 0.75 345.33 241.51685] CT
0 0.447 0.741 RC
10.0 ML
0.667 LW
N
3.5 -0.5 M
3.5 -2.709 1.709 -4.5 -0.5 -4.5 C
-2.709 -4.5 -4.5 -2.709 -4.5 -0.5 C
-4.5 1.709 -2.709 3.5 -0.5 3.5 C
1.709 3.5 3.5 1.709 3.5 -0.5 C
S
GR
GS
[0.75 0 0 0.75 342.24001 234.79059] CT
0 0.447 0.741 RC
10.0 ML
0.667 LW
N
3.5 -0.5 M
3.5 -2.709 1.709 -4.5 -0.5 -4.5 C
-2.709 -4.5 -4.5 -2.709 -4.5 -0.5 C
-4.5 1.709 -2.709 3.5 -0.5 3.5 C
1.709 3.5 3.5 1.709 3.5 -0.5 C
S
GR
GS
[0.75 0 0 0.75 339.15001 222.87823] CT
0 0.447 0.741 RC
10.0 ML
0.667 LW
N
3.5 -0.5 M
3.5 -2.709 1.709 -4.5 -0.5 -4.5 C
-2.709 -4.5 -4.5 -2.709 -4.5 -0.5 C
-4.5 1.709 -2.709 3.5 -0.5 3.5 C
1.709 3.5 3.5 1.709 3.5 -0.5 C
S
GR
GS
[0.75 0 0 0.75 336.05999 235.87283] CT
0 0.447 0.741 RC
10.0 ML
0.667 LW
N
3.5 -0.5 M
3.5 -2.709 1.709 -4.5 -0.5 -4.5 C
-2.709 -4.5 -4.5 -2.709 -4.5 -0.5 C
-4.5 1.709 -2.709 3.5 -0.5 3.5 C
1.709 3.5 3.5 1.709 3.5 -0.5 C
S
GR
GS
[0.75 0 0 0.75 332.96999 243.91753] CT
0 0.447 0.741 RC
10.0 ML
0.667 LW
N
3.5 -0.5 M
3.5 -2.709 1.709 -4.5 -0.5 -4.5 C
-2.709 -4.5 -4.5 -2.709 -4.5 -0.5 C
-4.5 1.709 -2.709 3.5 -0.5 3.5 C
1.709 3.5 3.5 1.709 3.5 -0.5 C
S
GR
GS
[0.75 0 0 0.75 329.88 223.53574] CT
0 0.447 0.741 RC
10.0 ML
0.667 LW
N
3.5 -0.5 M
3.5 -2.709 1.709 -4.5 -0.5 -4.5 C
-2.709 -4.5 -4.5 -2.709 -4.5 -0.5 C
-4.5 1.709 -2.709 3.5 -0.5 3.5 C
1.709 3.5 3.5 1.709 3.5 -0.5 C
S
GR
GS
[0.75 0 0 0.75 326.79 236.6812] CT
0 0.447 0.741 RC
10.0 ML
0.667 LW
N
3.5 -0.5 M
3.5 -2.709 1.709 -4.5 -0.5 -4.5 C
-2.709 -4.5 -4.5 -2.709 -4.5 -0.5 C
-4.5 1.709 -2.709 3.5 -0.5 3.5 C
1.709 3.5 3.5 1.709 3.5 -0.5 C
S
GR
GS
[0.75 0 0 0.75 323.7 227.56342] CT
0 0.447 0.741 RC
10.0 ML
0.667 LW
N
3.5 -0.5 M
3.5 -2.709 1.709 -4.5 -0.5 -4.5 C
-2.709 -4.5 -4.5 -2.709 -4.5 -0.5 C
-4.5 1.709 -2.709 3.5 -0.5 3.5 C
1.709 3.5 3.5 1.709 3.5 -0.5 C
S
GR
GS
[0.75 0 0 0.75 320.61001 233.93265] CT
0 0.447 0.741 RC
10.0 ML
0.667 LW
N
3.5 -0.5 M
3.5 -2.709 1.709 -4.5 -0.5 -4.5 C
-2.709 -4.5 -4.5 -2.709 -4.5 -0.5 C
-4.5 1.709 -2.709 3.5 -0.5 3.5 C
1.709 3.5 3.5 1.709 3.5 -0.5 C
S
GR
GS
[0.75 0 0 0.75 317.51999 234.86095] CT
0 0.447 0.741 RC
10.0 ML
0.667 LW
N
3.5 -0.5 M
3.5 -2.709 1.709 -4.5 -0.5 -4.5 C
-2.709 -4.5 -4.5 -2.709 -4.5 -0.5 C
-4.5 1.709 -2.709 3.5 -0.5 3.5 C
1.709 3.5 3.5 1.709 3.5 -0.5 C
S
GR
GS
[0.75 0 0 0.75 314.42999 233.07436] CT
0 0.447 0.741 RC
10.0 ML
0.667 LW
N
3.5 -0.5 M
3.5 -2.709 1.709 -4.5 -0.5 -4.5 C
-2.709 -4.5 -4.5 -2.709 -4.5 -0.5 C
-4.5 1.709 -2.709 3.5 -0.5 3.5 C
1.709 3.5 3.5 1.709 3.5 -0.5 C
S
GR
GS
[0.75 0 0 0.75 311.34 236.93308] CT
0 0.447 0.741 RC
10.0 ML
0.667 LW
N
3.5 -0.5 M
3.5 -2.709 1.709 -4.5 -0.5 -4.5 C
-2.709 -4.5 -4.5 -2.709 -4.5 -0.5 C
-4.5 1.709 -2.709 3.5 -0.5 3.5 C
1.709 3.5 3.5 1.709 3.5 -0.5 C
S
GR
GS
[0.75 0 0 0.75 224.325 20.6375] CT
/Helvetica-Bold 14.667 F
GS
[1 0 0 1 0 0] CT
-84 -4 moveto 
1 -1 scale
(Residue Correlation) t 
GR
GR
GS
[0.75 0 0 0.75 224.325 290.49999] CT
/Helvetica 14.667 F
GS
[1 0 0 1 0 0] CT
-14 14 moveto 
1 -1 scale
(Lag) t 
GR
GR
GS
[0 -0.75 0.75 0 25.25 157.19375] CT
/Helvetica 14.667 F
GS
[1 0 0 1 0 0] CT
-38.5 -4 moveto 
1 -1 scale
(Amplitude) t 
GR
GR
%%Trailer
%%Pages: 1
%%EOF
