%!PS-Adobe-3.0 EPSF-3.0
%%Creator: (MATLAB, The Mathworks, Inc. Version 9.1.0.441655 \(R2016b\). Operating System: Linux)
%%Title: /users/start2016/r0461511/Documents/system-identification/Oefenzitting_3/plots/bode_sub_red.eps
%%CreationDate: 2016-12-20T18:17:03
%%Pages: (atend)
%%BoundingBox: 0 0 1440 693
%%LanguageLevel: 3
%%EndComments
%%BeginProlog
%%BeginResource: procset (Apache XML Graphics Std ProcSet) 1.2 0
%%Version: 1.2 0
%%Copyright: (Copyright 2001-2003,2010 The Apache Software Foundation. License terms: http://www.apache.org/licenses/LICENSE-2.0)
/bd{bind def}bind def
/ld{load def}bd
/GR/grestore ld
/M/moveto ld
/LJ/setlinejoin ld
/C/curveto ld
/f/fill ld
/LW/setlinewidth ld
/GC/setgray ld
/t/show ld
/N/newpath ld
/CT/concat ld
/cp/closepath ld
/S/stroke ld
/L/lineto ld
/CC/setcmykcolor ld
/A/ashow ld
/GS/gsave ld
/RC/setrgbcolor ld
/RM/rmoveto ld
/ML/setmiterlimit ld
/re {4 2 roll M
1 index 0 rlineto
0 exch rlineto
neg 0 rlineto
cp } bd
/_ctm matrix def
/_tm matrix def
/BT { _ctm currentmatrix pop matrix _tm copy pop 0 0 moveto } bd
/ET { _ctm setmatrix } bd
/iTm { _ctm setmatrix _tm concat } bd
/Tm { _tm astore pop iTm 0 0 moveto } bd
/ux 0.0 def
/uy 0.0 def
/F {
  /Tp exch def
  /Tf exch def
  Tf findfont Tp scalefont setfont
  /cf Tf def  /cs Tp def
} bd
/ULS {currentpoint /uy exch def /ux exch def} bd
/ULE {
  /Tcx currentpoint pop def
  gsave
  newpath
  cf findfont cs scalefont dup
  /FontMatrix get 0 get /Ts exch def /FontInfo get dup
  /UnderlinePosition get Ts mul /To exch def
  /UnderlineThickness get Ts mul /Tt exch def
  ux uy To add moveto  Tcx uy To add lineto
  Tt setlinewidth stroke
  grestore
} bd
/OLE {
  /Tcx currentpoint pop def
  gsave
  newpath
  cf findfont cs scalefont dup
  /FontMatrix get 0 get /Ts exch def /FontInfo get dup
  /UnderlinePosition get Ts mul /To exch def
  /UnderlineThickness get Ts mul /Tt exch def
  ux uy To add cs add moveto Tcx uy To add cs add lineto
  Tt setlinewidth stroke
  grestore
} bd
/SOE {
  /Tcx currentpoint pop def
  gsave
  newpath
  cf findfont cs scalefont dup
  /FontMatrix get 0 get /Ts exch def /FontInfo get dup
  /UnderlinePosition get Ts mul /To exch def
  /UnderlineThickness get Ts mul /Tt exch def
  ux uy To add cs 10 mul 26 idiv add moveto Tcx uy To add cs 10 mul 26 idiv add lineto
  Tt setlinewidth stroke
  grestore
} bd
/QT {
/Y22 exch store
/X22 exch store
/Y21 exch store
/X21 exch store
currentpoint
/Y21 load 2 mul add 3 div exch
/X21 load 2 mul add 3 div exch
/X21 load 2 mul /X22 load add 3 div
/Y21 load 2 mul /Y22 load add 3 div
/X22 load /Y22 load curveto
} bd
/SSPD {
dup length /d exch dict def
{
/v exch def
/k exch def
currentpagedevice k known {
/cpdv currentpagedevice k get def
v cpdv ne {
/upd false def
/nullv v type /nulltype eq def
/nullcpdv cpdv type /nulltype eq def
nullv nullcpdv or
{
/upd true def
} {
/sametype v type cpdv type eq def
sametype {
v type /arraytype eq {
/vlen v length def
/cpdvlen cpdv length def
vlen cpdvlen eq {
0 1 vlen 1 sub {
/i exch def
/obj v i get def
/cpdobj cpdv i get def
obj cpdobj ne {
/upd true def
exit
} if
} for
} {
/upd true def
} ifelse
} {
v type /dicttype eq {
v {
/dv exch def
/dk exch def
/cpddv cpdv dk get def
dv cpddv ne {
/upd true def
exit
} if
} forall
} {
/upd true def
} ifelse
} ifelse
} if
} ifelse
upd true eq {
d k v put
} if
} if
} if
} forall
d length 0 gt {
d setpagedevice
} if
} bd
/RE { % /NewFontName [NewEncodingArray] /FontName RE -
  findfont dup length dict begin
  {
    1 index /FID ne
    {def} {pop pop} ifelse
  } forall
  /Encoding exch def
  /FontName 1 index def
  currentdict definefont pop
  end
} bind def
%%EndResource
%%BeginResource: procset (Apache XML Graphics EPS ProcSet) 1.0 0
%%Version: 1.0 0
%%Copyright: (Copyright 2002-2003 The Apache Software Foundation. License terms: http://www.apache.org/licenses/LICENSE-2.0)
/BeginEPSF { %def
/b4_Inc_state save def         % Save state for cleanup
/dict_count countdictstack def % Count objects on dict stack
/op_count count 1 sub def      % Count objects on operand stack
userdict begin                 % Push userdict on dict stack
/showpage { } def              % Redefine showpage, { } = null proc
0 setgray 0 setlinecap         % Prepare graphics state
1 setlinewidth 0 setlinejoin
10 setmiterlimit [ ] 0 setdash newpath
/languagelevel where           % If level not equal to 1 then
{pop languagelevel             % set strokeadjust and
1 ne                           % overprint to their defaults.
{false setstrokeadjust false setoverprint
} if
} if
} bd
/EndEPSF { %def
count op_count sub {pop} repeat            % Clean up stacks
countdictstack dict_count sub {end} repeat
b4_Inc_state restore
} bd
%%EndResource
%FOPBeginFontDict
%%IncludeResource: font Courier-Bold
%%IncludeResource: font Helvetica
%%IncludeResource: font Courier-BoldOblique
%%IncludeResource: font Courier-Oblique
%%IncludeResource: font Times-Roman
%%IncludeResource: font Helvetica-BoldOblique
%%IncludeResource: font Helvetica-Bold
%%IncludeResource: font Helvetica-Oblique
%%IncludeResource: font Times-BoldItalic
%%IncludeResource: font Courier
%%IncludeResource: font Times-Italic
%%IncludeResource: font Times-Bold
%%IncludeResource: font Symbol
%%IncludeResource: font ZapfDingbats
%FOPEndFontDict
%%BeginResource: encoding WinAnsiEncoding
/WinAnsiEncoding [
/.notdef /.notdef /.notdef /.notdef /.notdef
/.notdef /.notdef /.notdef /.notdef /.notdef
/.notdef /.notdef /.notdef /.notdef /.notdef
/.notdef /.notdef /.notdef /.notdef /.notdef
/.notdef /.notdef /.notdef /.notdef /.notdef
/.notdef /.notdef /.notdef /.notdef /.notdef
/.notdef /.notdef /space /exclam /quotedbl
/numbersign /dollar /percent /ampersand /quotesingle
/parenleft /parenright /asterisk /plus /comma
/hyphen /period /slash /zero /one
/two /three /four /five /six
/seven /eight /nine /colon /semicolon
/less /equal /greater /question /at
/A /B /C /D /E
/F /G /H /I /J
/K /L /M /N /O
/P /Q /R /S /T
/U /V /W /X /Y
/Z /bracketleft /backslash /bracketright /asciicircum
/underscore /quoteleft /a /b /c
/d /e /f /g /h
/i /j /k /l /m
/n /o /p /q /r
/s /t /u /v /w
/x /y /z /braceleft /bar
/braceright /asciitilde /bullet /Euro /bullet
/quotesinglbase /florin /quotedblbase /ellipsis /dagger
/daggerdbl /circumflex /perthousand /Scaron /guilsinglleft
/OE /bullet /Zcaron /bullet /bullet
/quoteleft /quoteright /quotedblleft /quotedblright /bullet
/endash /emdash /asciitilde /trademark /scaron
/guilsinglright /oe /bullet /zcaron /Ydieresis
/space /exclamdown /cent /sterling /currency
/yen /brokenbar /section /dieresis /copyright
/ordfeminine /guillemotleft /logicalnot /sfthyphen /registered
/macron /degree /plusminus /twosuperior /threesuperior
/acute /mu /paragraph /middot /cedilla
/onesuperior /ordmasculine /guillemotright /onequarter /onehalf
/threequarters /questiondown /Agrave /Aacute /Acircumflex
/Atilde /Adieresis /Aring /AE /Ccedilla
/Egrave /Eacute /Ecircumflex /Edieresis /Igrave
/Iacute /Icircumflex /Idieresis /Eth /Ntilde
/Ograve /Oacute /Ocircumflex /Otilde /Odieresis
/multiply /Oslash /Ugrave /Uacute /Ucircumflex
/Udieresis /Yacute /Thorn /germandbls /agrave
/aacute /acircumflex /atilde /adieresis /aring
/ae /ccedilla /egrave /eacute /ecircumflex
/edieresis /igrave /iacute /icircumflex /idieresis
/eth /ntilde /ograve /oacute /ocircumflex
/otilde /odieresis /divide /oslash /ugrave
/uacute /ucircumflex /udieresis /yacute /thorn
/ydieresis
] def
%%EndResource
%FOPBeginFontReencode
/Courier-Bold findfont
dup length dict begin
  {1 index /FID ne {def} {pop pop} ifelse} forall
  /Encoding WinAnsiEncoding def
  currentdict
end
/Courier-Bold exch definefont pop
/Helvetica findfont
dup length dict begin
  {1 index /FID ne {def} {pop pop} ifelse} forall
  /Encoding WinAnsiEncoding def
  currentdict
end
/Helvetica exch definefont pop
/Courier-BoldOblique findfont
dup length dict begin
  {1 index /FID ne {def} {pop pop} ifelse} forall
  /Encoding WinAnsiEncoding def
  currentdict
end
/Courier-BoldOblique exch definefont pop
/Courier-Oblique findfont
dup length dict begin
  {1 index /FID ne {def} {pop pop} ifelse} forall
  /Encoding WinAnsiEncoding def
  currentdict
end
/Courier-Oblique exch definefont pop
/Times-Roman findfont
dup length dict begin
  {1 index /FID ne {def} {pop pop} ifelse} forall
  /Encoding WinAnsiEncoding def
  currentdict
end
/Times-Roman exch definefont pop
/Helvetica-BoldOblique findfont
dup length dict begin
  {1 index /FID ne {def} {pop pop} ifelse} forall
  /Encoding WinAnsiEncoding def
  currentdict
end
/Helvetica-BoldOblique exch definefont pop
/Helvetica-Bold findfont
dup length dict begin
  {1 index /FID ne {def} {pop pop} ifelse} forall
  /Encoding WinAnsiEncoding def
  currentdict
end
/Helvetica-Bold exch definefont pop
/Helvetica-Oblique findfont
dup length dict begin
  {1 index /FID ne {def} {pop pop} ifelse} forall
  /Encoding WinAnsiEncoding def
  currentdict
end
/Helvetica-Oblique exch definefont pop
/Times-BoldItalic findfont
dup length dict begin
  {1 index /FID ne {def} {pop pop} ifelse} forall
  /Encoding WinAnsiEncoding def
  currentdict
end
/Times-BoldItalic exch definefont pop
/Courier findfont
dup length dict begin
  {1 index /FID ne {def} {pop pop} ifelse} forall
  /Encoding WinAnsiEncoding def
  currentdict
end
/Courier exch definefont pop
/Times-Italic findfont
dup length dict begin
  {1 index /FID ne {def} {pop pop} ifelse} forall
  /Encoding WinAnsiEncoding def
  currentdict
end
/Times-Italic exch definefont pop
/Times-Bold findfont
dup length dict begin
  {1 index /FID ne {def} {pop pop} ifelse} forall
  /Encoding WinAnsiEncoding def
  currentdict
end
/Times-Bold exch definefont pop
%FOPEndFontReencode
%%EndProlog
%%Page: 1 1
%%PageBoundingBox: 0 0 1440 693
%%BeginPageSetup
[1 0 0 -1 0 693] CT
%%EndPageSetup
GS
[0.75 0 0 0.75 0 0] CT
1 GC
N
0 0 1920 924 re
f
GR
GS
[0.75 0 0 0.75 0 0] CT
1 GC
N
0 0 1920 924 re
f
GR
GS
[0.75 0 0 0.75 0 0] CT
1 GC
N
262 471 M
1738 471 L
1738 89 L
262 89 L
cp
f
GR
GS
[0.75 0 0 0.75 0 0] CT
0.4 GC
2 setlinecap
1 LJ
0.667 LW
N
262 471 M
1738 471 L
S
GR
GS
[0.75 0 0 0.75 0 0] CT
0.4 GC
2 setlinecap
1 LJ
0.667 LW
N
262 89 M
1738 89 L
S
GR
GS
[0.75 0 0 0.75 0 0] CT
0.4 GC
2 setlinecap
1 LJ
0.667 LW
N
496.524 471 M
496.524 456.24 L
S
GR
GS
[0.75 0 0 0.75 0 0] CT
0.4 GC
2 setlinecap
1 LJ
0.667 LW
N
731.519 471 M
731.519 456.24 L
S
GR
GS
[0.75 0 0 0.75 0 0] CT
0.4 GC
2 setlinecap
1 LJ
0.667 LW
N
966.513 471 M
966.513 456.24 L
S
GR
GS
[0.75 0 0 0.75 0 0] CT
0.4 GC
2 setlinecap
1 LJ
0.667 LW
N
1201.508 471 M
1201.508 456.24 L
S
GR
GS
[0.75 0 0 0.75 0 0] CT
0.4 GC
2 setlinecap
1 LJ
0.667 LW
N
1436.502 471 M
1436.502 456.24 L
S
GR
GS
[0.75 0 0 0.75 0 0] CT
0.4 GC
2 setlinecap
1 LJ
0.667 LW
N
1671.497 471 M
1671.497 456.24 L
S
GR
GS
[0.75 0 0 0.75 0 0] CT
0.4 GC
2 setlinecap
1 LJ
0.667 LW
N
496.524 89 M
496.524 103.76 L
S
GR
GS
[0.75 0 0 0.75 0 0] CT
0.4 GC
2 setlinecap
1 LJ
0.667 LW
N
731.519 89 M
731.519 103.76 L
S
GR
GS
[0.75 0 0 0.75 0 0] CT
0.4 GC
2 setlinecap
1 LJ
0.667 LW
N
966.513 89 M
966.513 103.76 L
S
GR
GS
[0.75 0 0 0.75 0 0] CT
0.4 GC
2 setlinecap
1 LJ
0.667 LW
N
1201.508 89 M
1201.508 103.76 L
S
GR
GS
[0.75 0 0 0.75 0 0] CT
0.4 GC
2 setlinecap
1 LJ
0.667 LW
N
1436.502 89 M
1436.502 103.76 L
S
GR
GS
[0.75 0 0 0.75 0 0] CT
0.4 GC
2 setlinecap
1 LJ
0.667 LW
N
1671.497 89 M
1671.497 103.76 L
S
GR
GS
[0.75 0 0 0.75 0 0] CT
0.4 GC
2 setlinecap
1 LJ
0.667 LW
N
262 471 M
262 89 L
S
GR
GS
[0.75 0 0 0.75 0 0] CT
0.4 GC
2 setlinecap
1 LJ
0.667 LW
N
1738 471 M
1738 89 L
S
GR
GS
[0.75 0 0 0.75 0 0] CT
0.4 GC
2 setlinecap
1 LJ
0.667 LW
N
262 471 M
276.76 471 L
S
GR
GS
[0.75 0 0 0.75 0 0] CT
0.4 GC
2 setlinecap
1 LJ
0.667 LW
N
262 428.556 M
276.76 428.556 L
S
GR
GS
[0.75 0 0 0.75 0 0] CT
0.4 GC
2 setlinecap
1 LJ
0.667 LW
N
262 386.111 M
276.76 386.111 L
S
GR
GS
[0.75 0 0 0.75 0 0] CT
0.4 GC
2 setlinecap
1 LJ
0.667 LW
N
262 343.667 M
276.76 343.667 L
S
GR
GS
[0.75 0 0 0.75 0 0] CT
0.4 GC
2 setlinecap
1 LJ
0.667 LW
N
262 301.222 M
276.76 301.222 L
S
GR
GS
[0.75 0 0 0.75 0 0] CT
0.4 GC
2 setlinecap
1 LJ
0.667 LW
N
262 258.778 M
276.76 258.778 L
S
GR
GS
[0.75 0 0 0.75 0 0] CT
0.4 GC
2 setlinecap
1 LJ
0.667 LW
N
262 216.333 M
276.76 216.333 L
S
GR
GS
[0.75 0 0 0.75 0 0] CT
0.4 GC
2 setlinecap
1 LJ
0.667 LW
N
262 173.889 M
276.76 173.889 L
S
GR
GS
[0.75 0 0 0.75 0 0] CT
0.4 GC
2 setlinecap
1 LJ
0.667 LW
N
262 131.444 M
276.76 131.444 L
S
GR
GS
[0.75 0 0 0.75 0 0] CT
0.4 GC
2 setlinecap
1 LJ
0.667 LW
N
262 89 M
276.76 89 L
S
GR
GS
[0.75 0 0 0.75 0 0] CT
0.4 GC
2 setlinecap
1 LJ
0.667 LW
N
1738 471 M
1723.24 471 L
S
GR
GS
[0.75 0 0 0.75 0 0] CT
0.4 GC
2 setlinecap
1 LJ
0.667 LW
N
1738 428.556 M
1723.24 428.556 L
S
GR
GS
[0.75 0 0 0.75 0 0] CT
0.4 GC
2 setlinecap
1 LJ
0.667 LW
N
1738 386.111 M
1723.24 386.111 L
S
GR
GS
[0.75 0 0 0.75 0 0] CT
0.4 GC
2 setlinecap
1 LJ
0.667 LW
N
1738 343.667 M
1723.24 343.667 L
S
GR
GS
[0.75 0 0 0.75 0 0] CT
0.4 GC
2 setlinecap
1 LJ
0.667 LW
N
1738 301.222 M
1723.24 301.222 L
S
GR
GS
[0.75 0 0 0.75 0 0] CT
0.4 GC
2 setlinecap
1 LJ
0.667 LW
N
1738 258.778 M
1723.24 258.778 L
S
GR
GS
[0.75 0 0 0.75 0 0] CT
0.4 GC
2 setlinecap
1 LJ
0.667 LW
N
1738 216.333 M
1723.24 216.333 L
S
GR
GS
[0.75 0 0 0.75 0 0] CT
0.4 GC
2 setlinecap
1 LJ
0.667 LW
N
1738 173.889 M
1723.24 173.889 L
S
GR
GS
[0.75 0 0 0.75 0 0] CT
0.4 GC
2 setlinecap
1 LJ
0.667 LW
N
1738 131.444 M
1723.24 131.444 L
S
GR
GS
[0.75 0 0 0.75 0 0] CT
0.4 GC
2 setlinecap
1 LJ
0.667 LW
N
1738 89 M
1723.24 89 L
S
GR
GS
[0.75 0 0 0.75 192.49999 353.25] CT
0.4 GC
/Helvetica 13.333 F
GS
[1 0 0 1 0 0] CT
-22 4.5 moveto 
1 -1 scale
(-35) t 
GR
GR
GS
[0.75 0 0 0.75 192.49999 321.41666] CT
0.4 GC
/Helvetica 13.333 F
GS
[1 0 0 1 0 0] CT
-22 4.5 moveto 
1 -1 scale
(-30) t 
GR
GR
GS
[0.75 0 0 0.75 192.49999 289.58334] CT
0.4 GC
/Helvetica 13.333 F
GS
[1 0 0 1 0 0] CT
-22 4.5 moveto 
1 -1 scale
(-25) t 
GR
GR
GS
[0.75 0 0 0.75 192.49999 257.74999] CT
0.4 GC
/Helvetica 13.333 F
GS
[1 0 0 1 0 0] CT
-22 4.5 moveto 
1 -1 scale
(-20) t 
GR
GR
GS
[0.75 0 0 0.75 192.49999 225.91667] CT
0.4 GC
/Helvetica 13.333 F
GS
[1 0 0 1 0 0] CT
-22 4.5 moveto 
1 -1 scale
(-15) t 
GR
GR
GS
[0.75 0 0 0.75 192.49999 194.08333] CT
0.4 GC
/Helvetica 13.333 F
GS
[1 0 0 1 0 0] CT
-22 4.5 moveto 
1 -1 scale
(-10) t 
GR
GR
GS
[0.75 0 0 0.75 192.49999 162.25] CT
0.4 GC
/Helvetica 13.333 F
GS
[1 0 0 1 0 0] CT
-13 4.5 moveto 
1 -1 scale
(-5) t 
GR
GR
GS
[0.75 0 0 0.75 192.49999 130.41666] CT
0.4 GC
/Helvetica 13.333 F
GS
[1 0 0 1 0 0] CT
-9 4.5 moveto 
1 -1 scale
(0) t 
GR
GR
GS
[0.75 0 0 0.75 192.49999 98.58333] CT
0.4 GC
/Helvetica 13.333 F
GS
[1 0 0 1 0 0] CT
-9 4.5 moveto 
1 -1 scale
(5) t 
GR
GR
GS
[0.75 0 0 0.75 192.49999 66.75] CT
0.4 GC
/Helvetica 13.333 F
GS
[1 0 0 1 0 0] CT
-17 4.5 moveto 
1 -1 scale
(10) t 
GR
GR
GS
[0 -0.75 0.75 0 173 209.99986] CT
/Helvetica 14.667 F
GS
[1 0 0 1 0 0] CT
-58 -4 moveto 
1 -1 scale
(Magnitude \(dB\)) t 
GR
GR
GS
[0.75 0 0 0.75 750.00069 64.875] CT
0.4 GC
/Helvetica 13.333 F
GS
[1 0 0 1 0 0] CT
-54 -4 moveto 
1 -1 scale
(From: u1  To: y1) t 
GR
GR
GS
[0.75 0 0 0.75 0 0] CT
0 0.447 0.741 RC
1 LJ
0.667 LW
N
261.824 340.816 M
262.05 340.809 L
262.137 340.803 L
262.238 340.796 L
262.357 340.786 L
262.495 340.772 L
262.656 340.754 L
262.844 340.729 L
263.063 340.694 L
263.319 340.648 L
263.618 340.585 L
263.967 340.499 L
264.374 340.382 L
264.849 340.223 L
265.403 340.008 L
266.05 339.718 L
266.804 339.325 L
267.685 338.798 L
268.713 338.091 L
269.912 337.149 L
271.312 335.903 L
272.945 334.27 L
274.851 332.155 L
277.076 329.452 L
279.672 326.057 L
282.701 321.875 L
286.236 316.83 L
290.361 310.88 L
295.176 304.02 L
300.794 296.273 L
307.35 287.687 L
315.001 278.309 L
323.93 268.164 L
334.35 257.224 L
346.509 245.366 L
360.699 232.298 L
364.766 228.635 L
373.195 221.077 L
379.69 215.234 L
387.969 207.684 L
394.748 201.358 L
402.306 194.088 L
416.004 180.144 L
428.914 165.936 L
440.941 151.943 L
452.032 139.186 L
462.171 129.11 L
471.37 122.895 L
480.99 120.52 L
492.67 122.846 L
506.958 129.937 L
514.973 134.517 L
524.593 139.911 L
533.681 144.675 L
546.58 150.702 L
556.5 154.677 L
564.159 157.312 L
572.251 159.644 L
590.162 162.933 L
596.387 163.396 L
614.228 162.511 L
619.137 161.654 L
636.26 156.522 L
656.242 146.826 L
674.22 136.633 L
690.284 129.101 L
706.973 124.807 L
727.262 123.477 L
732.676 123.48 L
752.596 124.42 L
770.281 127.725 L
788.603 134.663 L
806.162 142.599 L
826.488 149.448 L
844.248 154.031 L
859.687 163.31 L
875.534 183.253 L
894.836 214.357 L
918.471 248.397 L
947.591 279.282 L
983.734 304.928 L
1028.987 325.521 L
1086.233 342.209 L
1108.942 347.186 L
1159.542 356.221 L
1194.91 361.324 L
1254.787 368.388 L
1304.918 373.161 L
1380.673 378.889 L
1447.954 382.772 L
1546.91 386.794 L
1738.044 389.741 L
S
GR
GS
[0.75 0 0 0.75 0 0] CT
1 LJ
0.667 LW
N
1738.044 471.046 M
1738.044 173.889 L
1738.044 88.954 L
S
GR
GS
[0.75 0 0 0.75 0 0] CT
1 0 1 RC
1 LJ
0.667 LW
N
261.824 445.401 M
264.495 444.032 L
267.46 443.798 L
270.425 443.288 L
273.39 442.876 L
276.354 440.595 L
279.319 436.756 L
282.284 430.496 L
285.249 421.598 L
288.214 409.878 L
291.179 397.089 L
294.144 381.191 L
297.109 364.538 L
300.074 347.839 L
303.038 331.782 L
306.003 316.682 L
308.968 305.574 L
311.933 295.785 L
314.898 287.237 L
317.863 279.867 L
320.828 273.221 L
323.793 266.214 L
326.758 259.991 L
329.722 254.418 L
332.687 249.406 L
335.652 244.865 L
338.617 240.685 L
341.582 236.837 L
344.547 233.319 L
347.512 230.03 L
350.477 226.939 L
353.441 223.998 L
356.406 221.188 L
359.371 218.457 L
362.336 215.828 L
365.301 213.273 L
368.266 210.826 L
371.231 208.474 L
374.196 206.248 L
377.161 204.113 L
380.125 202.084 L
383.09 200.087 L
386.055 198.111 L
389.02 196.09 L
391.985 193.994 L
394.95 191.752 L
397.915 189.369 L
400.88 186.797 L
403.845 184.033 L
406.809 181.07 L
409.774 177.967 L
412.739 174.725 L
415.704 171.382 L
418.669 167.914 L
421.634 164.372 L
424.599 160.71 L
427.564 156.933 L
430.529 153.026 L
433.493 149.051 L
436.458 144.976 L
439.423 140.84 L
442.388 136.678 L
445.353 132.52 L
448.318 128.366 L
451.283 124.264 L
454.248 120.258 L
457.213 116.383 L
460.177 112.714 L
463.142 109.332 L
466.107 106.295 L
469.072 103.678 L
472.037 101.544 L
475.002 99.936 L
477.967 98.879 L
480.932 98.386 L
483.897 98.426 L
486.861 98.974 L
489.826 99.966 L
492.791 101.334 L
495.756 103.018 L
498.721 104.966 L
501.686 107.089 L
504.651 109.348 L
507.616 111.696 L
510.58 114.069 L
513.545 116.436 L
516.51 118.775 L
519.475 121.044 L
522.44 123.204 L
525.405 125.277 L
528.37 127.243 L
531.335 129.109 L
534.3 130.879 L
537.264 132.584 L
540.229 134.204 L
543.194 135.73 L
546.159 137.147 L
549.124 138.473 L
552.089 139.696 L
555.054 140.82 L
558.019 141.842 L
560.984 142.795 L
563.948 143.672 L
566.913 144.459 L
569.878 145.16 L
572.843 145.814 L
575.808 146.389 L
578.773 146.856 L
581.738 147.256 L
584.703 147.582 L
587.668 147.798 L
590.632 147.917 L
593.597 147.98 L
596.562 147.955 L
599.527 147.86 L
602.492 147.703 L
605.457 147.504 L
608.422 147.224 L
611.387 146.894 L
614.352 146.496 L
617.316 146.04 L
620.281 145.501 L
623.246 144.927 L
626.211 144.271 L
629.176 143.541 L
632.141 142.74 L
635.106 141.882 L
638.071 140.94 L
641.036 139.948 L
644 138.911 L
646.965 137.808 L
649.93 136.654 L
652.895 135.437 L
655.86 134.155 L
658.825 132.806 L
661.79 131.419 L
664.755 129.965 L
667.719 128.464 L
670.684 126.931 L
673.649 125.365 L
676.614 123.768 L
679.579 122.154 L
682.544 120.547 L
685.509 118.932 L
688.474 117.335 L
691.439 115.748 L
694.403 114.201 L
697.368 112.689 L
700.333 111.241 L
703.298 109.862 L
706.263 108.577 L
709.228 107.397 L
712.193 106.336 L
715.158 105.403 L
718.123 104.608 L
721.087 103.961 L
724.052 103.461 L
727.017 103.116 L
729.982 102.924 L
732.947 102.882 L
735.912 102.982 L
738.877 103.226 L
741.842 103.597 L
744.807 104.093 L
747.771 104.699 L
750.736 105.399 L
753.701 106.17 L
756.666 107.007 L
759.631 107.884 L
762.596 108.796 L
765.561 109.733 L
768.526 110.677 L
771.491 111.614 L
774.455 112.534 L
777.42 113.426 L
780.385 114.284 L
783.35 115.112 L
786.315 115.906 L
789.28 116.673 L
792.245 117.411 L
795.21 118.123 L
798.174 118.822 L
801.139 119.513 L
804.104 120.207 L
807.069 120.911 L
810.034 121.635 L
812.999 122.387 L
815.964 123.196 L
818.929 124.077 L
821.894 125.05 L
824.858 126.151 L
827.823 127.389 L
830.788 128.774 L
833.753 130.325 L
836.718 132.072 L
839.683 133.999 L
842.648 136.145 L
845.613 138.489 L
848.578 141.034 L
851.542 143.763 L
854.507 146.689 L
857.472 149.764 L
860.437 152.988 L
863.402 156.34 L
866.367 159.795 L
869.332 163.318 L
872.297 166.891 L
875.262 170.519 L
878.226 174.158 L
881.191 177.778 L
884.156 181.305 L
887.121 184.723 L
890.086 187.947 L
893.051 190.95 L
896.016 193.74 L
898.981 196.411 L
901.945 198.978 L
904.91 201.548 L
907.875 204.187 L
910.84 206.904 L
913.805 209.672 L
916.77 212.479 L
919.735 215.259 L
922.7 217.994 L
925.665 220.67 L
928.63 223.254 L
931.594 225.747 L
934.559 228.175 L
937.524 230.499 L
940.489 232.731 L
943.454 234.876 L
946.419 236.946 L
949.384 238.913 L
952.349 240.804 L
955.313 242.61 L
958.278 244.328 L
961.243 245.94 L
964.208 247.462 L
967.173 248.878 L
970.138 250.164 L
973.103 251.356 L
976.068 252.452 L
979.033 253.431 L
981.997 254.295 L
984.962 255.077 L
987.927 255.781 L
990.892 256.357 L
993.857 256.801 L
996.822 257.124 L
999.787 257.323 L
1002.752 257.334 L
1005.717 257.259 L
1008.681 257.155 L
1011.646 257.024 L
1014.611 256.874 L
1017.576 256.76 L
1020.541 256.683 L
1023.506 256.62 L
1026.471 256.627 L
1029.436 256.736 L
1032.401 257.038 L
1035.365 257.607 L
1038.33 258.502 L
1041.295 259.805 L
1044.26 261.61 L
1047.225 263.909 L
1050.19 266.681 L
1053.155 269.969 L
1056.12 273.736 L
1059.084 277.876 L
1062.049 282.4 L
1065.014 287.236 L
1067.979 292.301 L
1070.944 297.523 L
1073.909 302.924 L
1076.874 308.326 L
1079.839 313.83 L
1082.804 319.392 L
1085.768 324.574 L
1088.733 329.726 L
1091.698 334.897 L
1094.663 339.894 L
1097.628 344.723 L
1100.593 350.195 L
1103.558 355.537 L
1106.523 360.789 L
1109.488 365.796 L
1112.453 370.161 L
1115.417 373.976 L
1118.382 377.517 L
1121.347 380.676 L
1124.312 383.899 L
1127.277 388.176 L
1130.242 391.765 L
1133.207 395.215 L
1136.172 398.78 L
1139.136 402.059 L
1142.101 404.309 L
1145.066 404.503 L
1148.031 404.74 L
1150.996 404.708 L
1153.961 403.789 L
1156.926 402.91 L
1159.891 407.168 L
1162.856 411.268 L
1165.82 415.2 L
1168.785 420.171 L
1171.75 425.072 L
1174.715 427.115 L
1177.68 426.961 L
1180.645 426.522 L
1183.61 426.094 L
1186.575 425.317 L
1189.54 424.264 L
1192.504 427.146 L
1195.469 430.265 L
1198.434 432.826 L
1201.399 435.728 L
1204.364 438.784 L
1207.329 439.464 L
1210.294 440.109 L
1213.259 440.218 L
1216.223 437.758 L
1219.188 434.78 L
1222.153 432.089 L
1225.118 428.942 L
1228.083 426.685 L
1231.048 427.914 L
1234.013 429.874 L
1236.978 431.783 L
1239.943 434.445 L
1242.907 436.793 L
1245.872 438.95 L
1248.837 440.746 L
1251.802 442.619 L
1254.767 443.034 L
1257.732 443.349 L
1260.697 439.287 L
1263.662 433.835 L
1266.627 428.247 L
1269.591 424.624 L
1272.556 420.964 L
1275.521 424.152 L
1278.486 429.984 L
1281.451 435.948 L
1284.416 440.282 L
1287.381 443.293 L
1290.346 442.867 L
1293.311 441.148 L
1296.275 439.137 L
1299.24 438.295 L
1302.205 439.984 L
1305.17 441.42 L
1308.135 442.94 L
1311.1 444.909 L
1314.065 446.259 L
1317.03 446.337 L
1319.995 446.744 L
1322.959 446.879 L
1325.924 446.532 L
1328.889 446.525 L
1331.854 445.047 L
1334.819 443.343 L
1337.784 441.428 L
1340.749 439.696 L
1343.714 436.882 L
1346.678 437.186 L
1349.643 437.727 L
1352.608 439.082 L
1355.573 440.689 L
1358.538 443.725 L
1361.503 444.946 L
1364.468 444.031 L
1367.433 440.353 L
1370.398 436.293 L
1373.362 431.7 L
1376.327 426.411 L
1379.292 424.984 L
1382.257 427.655 L
1385.222 430.446 L
1388.187 433.222 L
1391.152 437.936 L
1394.117 440.881 L
1397.082 442.447 L
1400.047 444.268 L
1403.011 446.106 L
1405.976 446.612 L
1408.941 446.995 L
1411.906 447.19 L
1414.871 446.95 L
1417.836 446.353 L
1420.801 446.357 L
1423.766 445.081 L
1426.73 443.314 L
1429.695 441.813 L
1432.66 440.741 L
1435.625 439.348 L
1438.59 440.601 L
1441.555 442.261 L
1444.52 443.766 L
1447.485 443.733 L
1450.449 443.666 L
1453.414 442.09 L
1456.379 437.617 L
1459.344 433.335 L
1462.309 431.818 L
1465.274 428.439 L
1468.239 425.117 L
1471.204 425.091 L
1474.169 425.048 L
1477.134 420.1 L
1480.098 418.941 L
1483.063 415.048 L
1486.028 411.935 L
1488.993 408.804 L
1491.958 412.732 L
1494.923 414.69 L
1497.888 422.476 L
1500.853 429.863 L
1503.818 437.069 L
1506.782 440.738 L
1509.747 443.663 L
1512.712 443.627 L
1515.677 441.394 L
1518.642 439.439 L
1521.607 437.481 L
1524.572 437.307 L
1527.537 437.1 L
1530.501 439.447 L
1533.466 440.017 L
1536.431 440.673 L
1539.396 440.379 L
1542.361 440.114 L
1545.326 438.555 L
1548.291 440.371 L
1551.256 442.045 L
1554.221 443.38 L
1557.186 444.657 L
1560.15 444.491 L
1563.115 442.298 L
1566.08 440.314 L
1569.045 438.954 L
1572.01 437.446 L
1574.975 438.914 L
1577.94 440.815 L
1580.905 442.604 L
1583.869 444.295 L
1586.834 446.16 L
1589.799 446.371 L
1592.764 446.561 L
1595.729 446.735 L
1598.694 445.237 L
1601.659 444.013 L
1604.624 442.818 L
1607.589 441.265 L
1610.553 439.535 L
1613.518 440.755 L
1616.483 440.461 L
1619.448 440.57 L
1622.413 440.987 L
1625.378 441.287 L
1628.343 440.095 L
1631.308 441.392 L
1634.273 442.121 L
1637.237 442.585 L
1640.202 439.286 L
1643.167 436.208 L
1646.132 431.654 L
1649.097 425.906 L
1652.062 420.357 L
1655.027 423.289 L
1657.992 425.901 L
1660.957 428.802 L
1663.921 431.444 L
1666.886 434.144 L
1669.851 429.877 L
1672.816 425.687 L
1675.781 421.109 L
1678.746 421.598 L
1681.711 422.14 L
1684.676 427.782 L
1687.64 433.446 L
1690.605 439.738 L
1693.57 442.741 L
1696.535 445.665 L
1699.5 445.915 L
1702.465 446.146 L
1705.43 445.786 L
1708.395 445.442 L
1711.36 444.887 L
1714.324 444.422 L
1717.289 444.024 L
1720.254 444.185 L
1723.219 444.366 L
1726.184 444.924 L
1729.149 445.788 L
1732.114 446.973 L
1735.079 448.086 L
1738.044 449.692 L
S
GR
GS
[0.75 0 0 0.75 0 0] CT
1 GC
N
1542 137 M
1542 102 L
1725 102 L
1725 137 L
cp
f
GR
GS
[0.75 0 0 0.75 1184.25 83.72826] CT
/Helvetica 12 F
GS
[1 0 0 1 0 0] CT
0 4.5 moveto 
1 -1 scale
(Subspace Reduced) t 
GR
GR
GS
[0.75 0 0 0.75 0 0] CT
0 0.447 0.741 RC
1 LJ
0.667 LW
N
1546 111.638 M
1576 111.638 L
S
GR
GS
[0.75 0 0 0.75 1184.25 95.52174] CT
/Helvetica 12 F
GS
[1 0 0 1 0 0] CT
0 4.5 moveto 
1 -1 scale
(Experimental Bode plot) t 
GR
GR
GS
[0.75 0 0 0.75 0 0] CT
1 0 1 RC
1 LJ
0.667 LW
N
1546 127.362 M
1576 127.362 L
S
GR
GS
[0.75 0 0 0.75 0 0] CT
0.149 GC
10.0 ML
0.667 LW
N
1542 137 M
1542 102 L
1725 102 L
1725 137 L
cp
S
GR
GS
[0.75 0 0 0.75 0 0] CT
1 GC
N
262 822 M
1738 822 L
1738 483 L
262 483 L
cp
f
GR
GS
[0.75 0 0 0.75 0 0] CT
0.4 GC
2 setlinecap
1 LJ
0.667 LW
N
262 822 M
1738 822 L
S
GR
GS
[0.75 0 0 0.75 0 0] CT
0.4 GC
2 setlinecap
1 LJ
0.667 LW
N
262 483 M
1738 483 L
S
GR
GS
[0.75 0 0 0.75 0 0] CT
0.4 GC
2 setlinecap
1 LJ
0.667 LW
N
496.524 822 M
496.524 807.24 L
S
GR
GS
[0.75 0 0 0.75 0 0] CT
0.4 GC
2 setlinecap
1 LJ
0.667 LW
N
731.519 822 M
731.519 807.24 L
S
GR
GS
[0.75 0 0 0.75 0 0] CT
0.4 GC
2 setlinecap
1 LJ
0.667 LW
N
966.513 822 M
966.513 807.24 L
S
GR
GS
[0.75 0 0 0.75 0 0] CT
0.4 GC
2 setlinecap
1 LJ
0.667 LW
N
1201.508 822 M
1201.508 807.24 L
S
GR
GS
[0.75 0 0 0.75 0 0] CT
0.4 GC
2 setlinecap
1 LJ
0.667 LW
N
1436.502 822 M
1436.502 807.24 L
S
GR
GS
[0.75 0 0 0.75 0 0] CT
0.4 GC
2 setlinecap
1 LJ
0.667 LW
N
1671.497 822 M
1671.497 807.24 L
S
GR
GS
[0.75 0 0 0.75 0 0] CT
0.4 GC
2 setlinecap
1 LJ
0.667 LW
N
496.524 483 M
496.524 497.76 L
S
GR
GS
[0.75 0 0 0.75 0 0] CT
0.4 GC
2 setlinecap
1 LJ
0.667 LW
N
731.519 483 M
731.519 497.76 L
S
GR
GS
[0.75 0 0 0.75 0 0] CT
0.4 GC
2 setlinecap
1 LJ
0.667 LW
N
966.513 483 M
966.513 497.76 L
S
GR
GS
[0.75 0 0 0.75 0 0] CT
0.4 GC
2 setlinecap
1 LJ
0.667 LW
N
1201.508 483 M
1201.508 497.76 L
S
GR
GS
[0.75 0 0 0.75 0 0] CT
0.4 GC
2 setlinecap
1 LJ
0.667 LW
N
1436.502 483 M
1436.502 497.76 L
S
GR
GS
[0.75 0 0 0.75 0 0] CT
0.4 GC
2 setlinecap
1 LJ
0.667 LW
N
1671.497 483 M
1671.497 497.76 L
S
GR
GS
[0.75 0 0 0.75 372.39333 620.49998] CT
0.4 GC
/Helvetica 13.333 F
GS
[1 0 0 1 0 0] CT
-10.5 13 moveto 
1 -1 scale
(0.5) t 
GR
GR
GS
[0.75 0 0 0.75 548.63914 620.49998] CT
0.4 GC
/Helvetica 13.333 F
GS
[1 0 0 1 0 0] CT
-4.5 13 moveto 
1 -1 scale
(1) t 
GR
GR
GS
[0.75 0 0 0.75 724.88498 620.49998] CT
0.4 GC
/Helvetica 13.333 F
GS
[1 0 0 1 0 0] CT
-10.5 13 moveto 
1 -1 scale
(1.5) t 
GR
GR
GS
[0.75 0 0 0.75 901.13077 620.49998] CT
0.4 GC
/Helvetica 13.333 F
GS
[1 0 0 1 0 0] CT
-4.5 13 moveto 
1 -1 scale
(2) t 
GR
GR
GS
[0.75 0 0 0.75 1077.37665 620.49998] CT
0.4 GC
/Helvetica 13.333 F
GS
[1 0 0 1 0 0] CT
-10.5 13 moveto 
1 -1 scale
(2.5) t 
GR
GR
GS
[0.75 0 0 0.75 1253.62244 620.49998] CT
0.4 GC
/Helvetica 13.333 F
GS
[1 0 0 1 0 0] CT
-4.5 13 moveto 
1 -1 scale
(3) t 
GR
GR
GS
[0.75 0 0 0.75 0 0] CT
0.4 GC
2 setlinecap
1 LJ
0.667 LW
N
262 822 M
262 483 L
S
GR
GS
[0.75 0 0 0.75 0 0] CT
0.4 GC
2 setlinecap
1 LJ
0.667 LW
N
1738 822 M
1738 483 L
S
GR
GS
[0.75 0 0 0.75 0 0] CT
0.4 GC
2 setlinecap
1 LJ
0.667 LW
N
262 818.676 M
276.76 818.676 L
S
GR
GS
[0.75 0 0 0.75 0 0] CT
0.4 GC
2 setlinecap
1 LJ
0.667 LW
N
262 788.463 M
276.76 788.463 L
S
GR
GS
[0.75 0 0 0.75 0 0] CT
0.4 GC
2 setlinecap
1 LJ
0.667 LW
N
262 758.249 M
276.76 758.249 L
S
GR
GS
[0.75 0 0 0.75 0 0] CT
0.4 GC
2 setlinecap
1 LJ
0.667 LW
N
262 728.035 M
276.76 728.035 L
S
GR
GS
[0.75 0 0 0.75 0 0] CT
0.4 GC
2 setlinecap
1 LJ
0.667 LW
N
262 697.821 M
276.76 697.821 L
S
GR
GS
[0.75 0 0 0.75 0 0] CT
0.4 GC
2 setlinecap
1 LJ
0.667 LW
N
262 667.607 M
276.76 667.607 L
S
GR
GS
[0.75 0 0 0.75 0 0] CT
0.4 GC
2 setlinecap
1 LJ
0.667 LW
N
262 637.393 M
276.76 637.393 L
S
GR
GS
[0.75 0 0 0.75 0 0] CT
0.4 GC
2 setlinecap
1 LJ
0.667 LW
N
262 607.179 M
276.76 607.179 L
S
GR
GS
[0.75 0 0 0.75 0 0] CT
0.4 GC
2 setlinecap
1 LJ
0.667 LW
N
262 576.965 M
276.76 576.965 L
S
GR
GS
[0.75 0 0 0.75 0 0] CT
0.4 GC
2 setlinecap
1 LJ
0.667 LW
N
262 546.751 M
276.76 546.751 L
S
GR
GS
[0.75 0 0 0.75 0 0] CT
0.4 GC
2 setlinecap
1 LJ
0.667 LW
N
262 516.537 M
276.76 516.537 L
S
GR
GS
[0.75 0 0 0.75 0 0] CT
0.4 GC
2 setlinecap
1 LJ
0.667 LW
N
262 486.324 M
276.76 486.324 L
S
GR
GS
[0.75 0 0 0.75 0 0] CT
0.4 GC
2 setlinecap
1 LJ
0.667 LW
N
1738 818.676 M
1723.24 818.676 L
S
GR
GS
[0.75 0 0 0.75 0 0] CT
0.4 GC
2 setlinecap
1 LJ
0.667 LW
N
1738 788.463 M
1723.24 788.463 L
S
GR
GS
[0.75 0 0 0.75 0 0] CT
0.4 GC
2 setlinecap
1 LJ
0.667 LW
N
1738 758.249 M
1723.24 758.249 L
S
GR
GS
[0.75 0 0 0.75 0 0] CT
0.4 GC
2 setlinecap
1 LJ
0.667 LW
N
1738 728.035 M
1723.24 728.035 L
S
GR
GS
[0.75 0 0 0.75 0 0] CT
0.4 GC
2 setlinecap
1 LJ
0.667 LW
N
1738 697.821 M
1723.24 697.821 L
S
GR
GS
[0.75 0 0 0.75 0 0] CT
0.4 GC
2 setlinecap
1 LJ
0.667 LW
N
1738 667.607 M
1723.24 667.607 L
S
GR
GS
[0.75 0 0 0.75 0 0] CT
0.4 GC
2 setlinecap
1 LJ
0.667 LW
N
1738 637.393 M
1723.24 637.393 L
S
GR
GS
[0.75 0 0 0.75 0 0] CT
0.4 GC
2 setlinecap
1 LJ
0.667 LW
N
1738 607.179 M
1723.24 607.179 L
S
GR
GS
[0.75 0 0 0.75 0 0] CT
0.4 GC
2 setlinecap
1 LJ
0.667 LW
N
1738 576.965 M
1723.24 576.965 L
S
GR
GS
[0.75 0 0 0.75 0 0] CT
0.4 GC
2 setlinecap
1 LJ
0.667 LW
N
1738 546.751 M
1723.24 546.751 L
S
GR
GS
[0.75 0 0 0.75 0 0] CT
0.4 GC
2 setlinecap
1 LJ
0.667 LW
N
1738 516.537 M
1723.24 516.537 L
S
GR
GS
[0.75 0 0 0.75 0 0] CT
0.4 GC
2 setlinecap
1 LJ
0.667 LW
N
1738 486.324 M
1723.24 486.324 L
S
GR
GS
[0.75 0 0 0.75 192.49999 614.00734] CT
0.4 GC
/Helvetica 13.333 F
GS
[1 0 0 1 0 0] CT
-30 4.5 moveto 
1 -1 scale
(-180) t 
GR
GR
GS
[0.75 0 0 0.75 192.49999 591.34694] CT
0.4 GC
/Helvetica 13.333 F
GS
[1 0 0 1 0 0] CT
-9 4.5 moveto 
1 -1 scale
(0) t 
GR
GR
GS
[0.75 0 0 0.75 192.49999 568.68649] CT
0.4 GC
/Helvetica 13.333 F
GS
[1 0 0 1 0 0] CT
-25 4.5 moveto 
1 -1 scale
(180) t 
GR
GR
GS
[0.75 0 0 0.75 192.49999 546.02605] CT
0.4 GC
/Helvetica 13.333 F
GS
[1 0 0 1 0 0] CT
-25 4.5 moveto 
1 -1 scale
(360) t 
GR
GR
GS
[0.75 0 0 0.75 192.49999 523.36565] CT
0.4 GC
/Helvetica 13.333 F
GS
[1 0 0 1 0 0] CT
-25 4.5 moveto 
1 -1 scale
(540) t 
GR
GR
GS
[0.75 0 0 0.75 192.49999 500.7052] CT
0.4 GC
/Helvetica 13.333 F
GS
[1 0 0 1 0 0] CT
-25 4.5 moveto 
1 -1 scale
(720) t 
GR
GR
GS
[0.75 0 0 0.75 192.49999 478.0448] CT
0.4 GC
/Helvetica 13.333 F
GS
[1 0 0 1 0 0] CT
-25 4.5 moveto 
1 -1 scale
(900) t 
GR
GR
GS
[0.75 0 0 0.75 192.49999 455.38435] CT
0.4 GC
/Helvetica 13.333 F
GS
[1 0 0 1 0 0] CT
-34 4.5 moveto 
1 -1 scale
(1080) t 
GR
GR
GS
[0.75 0 0 0.75 192.49999 432.72395] CT
0.4 GC
/Helvetica 13.333 F
GS
[1 0 0 1 0 0] CT
-34 4.5 moveto 
1 -1 scale
(1260) t 
GR
GR
GS
[0.75 0 0 0.75 192.49999 410.06351] CT
0.4 GC
/Helvetica 13.333 F
GS
[1 0 0 1 0 0] CT
-34 4.5 moveto 
1 -1 scale
(1440) t 
GR
GR
GS
[0.75 0 0 0.75 192.49999 387.40306] CT
0.4 GC
/Helvetica 13.333 F
GS
[1 0 0 1 0 0] CT
-34 4.5 moveto 
1 -1 scale
(1620) t 
GR
GR
GS
[0.75 0 0 0.75 192.49999 364.74264] CT
0.4 GC
/Helvetica 13.333 F
GS
[1 0 0 1 0 0] CT
-34 4.5 moveto 
1 -1 scale
(1800) t 
GR
GR
GS
[0 -0.75 0.75 0 164 489.37486] CT
/Helvetica 14.667 F
GS
[1 0 0 1 0 0] CT
-45 -4 moveto 
1 -1 scale
(Phase \(deg\)) t 
GR
GR
GS
[0.75 0 0 0.75 0 0] CT
0 0.447 0.741 RC
1 LJ
0.667 LW
N
261.824 486.489 M
262.05 486.616 L
262.137 486.665 L
262.238 486.722 L
262.357 486.789 L
262.495 486.866 L
262.656 486.957 L
262.844 487.063 L
263.063 487.186 L
263.319 487.33 L
263.618 487.497 L
263.967 487.693 L
264.374 487.92 L
264.849 488.185 L
265.403 488.493 L
266.05 488.851 L
266.804 489.266 L
267.685 489.747 L
268.713 490.302 L
269.912 490.941 L
271.312 491.673 L
272.945 492.507 L
274.851 493.45 L
277.076 494.51 L
279.672 495.689 L
282.701 496.99 L
286.236 498.412 L
290.361 499.957 L
295.176 501.627 L
300.794 503.431 L
307.35 505.386 L
315.001 507.519 L
323.93 509.872 L
334.35 512.506 L
346.509 515.506 L
360.699 519.001 L
364.766 520.014 L
373.195 522.146 L
379.69 523.828 L
387.969 526.038 L
394.748 527.916 L
402.306 530.1 L
416.004 534.372 L
428.914 538.895 L
440.941 543.7 L
452.032 548.781 L
462.171 554.035 L
471.37 559.229 L
480.99 564.856 L
492.67 571.518 L
506.958 578.999 L
514.973 582.853 L
524.593 587.199 L
533.681 591.069 L
546.58 596.238 L
556.5 600.004 L
564.159 602.814 L
572.251 605.708 L
590.162 611.936 L
596.387 614.073 L
614.228 620.222 L
619.137 621.941 L
636.26 628.117 L
656.242 635.882 L
674.22 643.572 L
690.284 650.98 L
706.973 658.91 L
727.262 668.439 L
732.676 670.955 L
752.596 680.254 L
770.281 688.657 L
788.603 697.301 L
806.162 705.306 L
826.488 714.527 L
844.248 723.242 L
859.687 731.538 L
875.534 739.777 L
894.836 748.001 L
918.471 755.638 L
947.591 762.826 L
983.734 769.713 L
1028.987 776.344 L
1086.233 782.774 L
1108.942 784.92 L
1159.542 789.133 L
1194.91 791.724 L
1254.787 795.639 L
1304.918 798.581 L
1380.673 802.621 L
1447.954 805.922 L
1546.91 810.455 L
1738.044 818.676 L
S
GR
GS
[0.75 0 0 0.75 0 0] CT
1 LJ
0.667 LW
N
1738.044 822.04 M
1738.044 788.63 L
1738.044 788.463 L
1738.044 788.295 L
1738.044 620.608 L
1738.044 482.96 L
S
GR
GS
[0.75 0 0 0.75 749.25 48.705] CT
/Helvetica-Bold 14.667 F
GS
[1 0 0 1 0 0] CT
-60 -4 moveto 
1 -1 scale
(Bode Diagram) t 
GR
GR
GS
[0.75 0 0 0.75 749.25 632.75002] CT
/Helvetica 14.667 F
GS
[1 0 0 1 0 0] CT
-69 14 moveto 
1 -1 scale
(Frequency  \(rad/s\)) t 
GR
GR
%%Trailer
%%Pages: 1
%%EOF
