%!PS-Adobe-3.0 EPSF-3.0
%%Creator: (MATLAB, The Mathworks, Inc. Version 9.1.0.441655 \(R2016b\). Operating System: Windows 8)
%%Title: C:/Users/simon/Documents/Unief/M1/System_Identification_and_Modeling/Oefenzittingen/Oefenzitting_1/git/Oefenzitting_3/plots/bode_arx_9_16_compare.eps
%%CreationDate: 2016-12-21T18:09:52
%%Pages: (atend)
%%BoundingBox: 0 0 575 556
%%LanguageLevel: 3
%%EndComments
%%BeginProlog
%%BeginResource: procset (Apache XML Graphics Std ProcSet) 1.2 0
%%Version: 1.2 0
%%Copyright: (Copyright 2001-2003,2010 The Apache Software Foundation. License terms: http://www.apache.org/licenses/LICENSE-2.0)
/bd{bind def}bind def
/ld{load def}bd
/GR/grestore ld
/M/moveto ld
/LJ/setlinejoin ld
/C/curveto ld
/f/fill ld
/LW/setlinewidth ld
/GC/setgray ld
/t/show ld
/N/newpath ld
/CT/concat ld
/cp/closepath ld
/S/stroke ld
/L/lineto ld
/CC/setcmykcolor ld
/A/ashow ld
/GS/gsave ld
/RC/setrgbcolor ld
/RM/rmoveto ld
/ML/setmiterlimit ld
/re {4 2 roll M
1 index 0 rlineto
0 exch rlineto
neg 0 rlineto
cp } bd
/_ctm matrix def
/_tm matrix def
/BT { _ctm currentmatrix pop matrix _tm copy pop 0 0 moveto } bd
/ET { _ctm setmatrix } bd
/iTm { _ctm setmatrix _tm concat } bd
/Tm { _tm astore pop iTm 0 0 moveto } bd
/ux 0.0 def
/uy 0.0 def
/F {
  /Tp exch def
  /Tf exch def
  Tf findfont Tp scalefont setfont
  /cf Tf def  /cs Tp def
} bd
/ULS {currentpoint /uy exch def /ux exch def} bd
/ULE {
  /Tcx currentpoint pop def
  gsave
  newpath
  cf findfont cs scalefont dup
  /FontMatrix get 0 get /Ts exch def /FontInfo get dup
  /UnderlinePosition get Ts mul /To exch def
  /UnderlineThickness get Ts mul /Tt exch def
  ux uy To add moveto  Tcx uy To add lineto
  Tt setlinewidth stroke
  grestore
} bd
/OLE {
  /Tcx currentpoint pop def
  gsave
  newpath
  cf findfont cs scalefont dup
  /FontMatrix get 0 get /Ts exch def /FontInfo get dup
  /UnderlinePosition get Ts mul /To exch def
  /UnderlineThickness get Ts mul /Tt exch def
  ux uy To add cs add moveto Tcx uy To add cs add lineto
  Tt setlinewidth stroke
  grestore
} bd
/SOE {
  /Tcx currentpoint pop def
  gsave
  newpath
  cf findfont cs scalefont dup
  /FontMatrix get 0 get /Ts exch def /FontInfo get dup
  /UnderlinePosition get Ts mul /To exch def
  /UnderlineThickness get Ts mul /Tt exch def
  ux uy To add cs 10 mul 26 idiv add moveto Tcx uy To add cs 10 mul 26 idiv add lineto
  Tt setlinewidth stroke
  grestore
} bd
/QT {
/Y22 exch store
/X22 exch store
/Y21 exch store
/X21 exch store
currentpoint
/Y21 load 2 mul add 3 div exch
/X21 load 2 mul add 3 div exch
/X21 load 2 mul /X22 load add 3 div
/Y21 load 2 mul /Y22 load add 3 div
/X22 load /Y22 load curveto
} bd
/SSPD {
dup length /d exch dict def
{
/v exch def
/k exch def
currentpagedevice k known {
/cpdv currentpagedevice k get def
v cpdv ne {
/upd false def
/nullv v type /nulltype eq def
/nullcpdv cpdv type /nulltype eq def
nullv nullcpdv or
{
/upd true def
} {
/sametype v type cpdv type eq def
sametype {
v type /arraytype eq {
/vlen v length def
/cpdvlen cpdv length def
vlen cpdvlen eq {
0 1 vlen 1 sub {
/i exch def
/obj v i get def
/cpdobj cpdv i get def
obj cpdobj ne {
/upd true def
exit
} if
} for
} {
/upd true def
} ifelse
} {
v type /dicttype eq {
v {
/dv exch def
/dk exch def
/cpddv cpdv dk get def
dv cpddv ne {
/upd true def
exit
} if
} forall
} {
/upd true def
} ifelse
} ifelse
} if
} ifelse
upd true eq {
d k v put
} if
} if
} if
} forall
d length 0 gt {
d setpagedevice
} if
} bd
/RE { % /NewFontName [NewEncodingArray] /FontName RE -
  findfont dup length dict begin
  {
    1 index /FID ne
    {def} {pop pop} ifelse
  } forall
  /Encoding exch def
  /FontName 1 index def
  currentdict definefont pop
  end
} bind def
%%EndResource
%%BeginResource: procset (Apache XML Graphics EPS ProcSet) 1.0 0
%%Version: 1.0 0
%%Copyright: (Copyright 2002-2003 The Apache Software Foundation. License terms: http://www.apache.org/licenses/LICENSE-2.0)
/BeginEPSF { %def
/b4_Inc_state save def         % Save state for cleanup
/dict_count countdictstack def % Count objects on dict stack
/op_count count 1 sub def      % Count objects on operand stack
userdict begin                 % Push userdict on dict stack
/showpage { } def              % Redefine showpage, { } = null proc
0 setgray 0 setlinecap         % Prepare graphics state
1 setlinewidth 0 setlinejoin
10 setmiterlimit [ ] 0 setdash newpath
/languagelevel where           % If level not equal to 1 then
{pop languagelevel             % set strokeadjust and
1 ne                           % overprint to their defaults.
{false setstrokeadjust false setoverprint
} if
} if
} bd
/EndEPSF { %def
count op_count sub {pop} repeat            % Clean up stacks
countdictstack dict_count sub {end} repeat
b4_Inc_state restore
} bd
%%EndResource
%FOPBeginFontDict
%%IncludeResource: font Courier-Bold
%%IncludeResource: font Helvetica
%%IncludeResource: font Courier-BoldOblique
%%IncludeResource: font Courier-Oblique
%%IncludeResource: font Times-Roman
%%IncludeResource: font Helvetica-BoldOblique
%%IncludeResource: font Helvetica-Bold
%%IncludeResource: font Helvetica-Oblique
%%IncludeResource: font Times-BoldItalic
%%IncludeResource: font Courier
%%IncludeResource: font Times-Italic
%%IncludeResource: font Times-Bold
%%IncludeResource: font Symbol
%%IncludeResource: font ZapfDingbats
%FOPEndFontDict
%%BeginResource: encoding WinAnsiEncoding
/WinAnsiEncoding [
/.notdef /.notdef /.notdef /.notdef /.notdef
/.notdef /.notdef /.notdef /.notdef /.notdef
/.notdef /.notdef /.notdef /.notdef /.notdef
/.notdef /.notdef /.notdef /.notdef /.notdef
/.notdef /.notdef /.notdef /.notdef /.notdef
/.notdef /.notdef /.notdef /.notdef /.notdef
/.notdef /.notdef /space /exclam /quotedbl
/numbersign /dollar /percent /ampersand /quotesingle
/parenleft /parenright /asterisk /plus /comma
/hyphen /period /slash /zero /one
/two /three /four /five /six
/seven /eight /nine /colon /semicolon
/less /equal /greater /question /at
/A /B /C /D /E
/F /G /H /I /J
/K /L /M /N /O
/P /Q /R /S /T
/U /V /W /X /Y
/Z /bracketleft /backslash /bracketright /asciicircum
/underscore /quoteleft /a /b /c
/d /e /f /g /h
/i /j /k /l /m
/n /o /p /q /r
/s /t /u /v /w
/x /y /z /braceleft /bar
/braceright /asciitilde /bullet /Euro /bullet
/quotesinglbase /florin /quotedblbase /ellipsis /dagger
/daggerdbl /circumflex /perthousand /Scaron /guilsinglleft
/OE /bullet /Zcaron /bullet /bullet
/quoteleft /quoteright /quotedblleft /quotedblright /bullet
/endash /emdash /asciitilde /trademark /scaron
/guilsinglright /oe /bullet /zcaron /Ydieresis
/space /exclamdown /cent /sterling /currency
/yen /brokenbar /section /dieresis /copyright
/ordfeminine /guillemotleft /logicalnot /sfthyphen /registered
/macron /degree /plusminus /twosuperior /threesuperior
/acute /mu /paragraph /middot /cedilla
/onesuperior /ordmasculine /guillemotright /onequarter /onehalf
/threequarters /questiondown /Agrave /Aacute /Acircumflex
/Atilde /Adieresis /Aring /AE /Ccedilla
/Egrave /Eacute /Ecircumflex /Edieresis /Igrave
/Iacute /Icircumflex /Idieresis /Eth /Ntilde
/Ograve /Oacute /Ocircumflex /Otilde /Odieresis
/multiply /Oslash /Ugrave /Uacute /Ucircumflex
/Udieresis /Yacute /Thorn /germandbls /agrave
/aacute /acircumflex /atilde /adieresis /aring
/ae /ccedilla /egrave /eacute /ecircumflex
/edieresis /igrave /iacute /icircumflex /idieresis
/eth /ntilde /ograve /oacute /ocircumflex
/otilde /odieresis /divide /oslash /ugrave
/uacute /ucircumflex /udieresis /yacute /thorn
/ydieresis
] def
%%EndResource
%FOPBeginFontReencode
/Courier-Bold findfont
dup length dict begin
  {1 index /FID ne {def} {pop pop} ifelse} forall
  /Encoding WinAnsiEncoding def
  currentdict
end
/Courier-Bold exch definefont pop
/Helvetica findfont
dup length dict begin
  {1 index /FID ne {def} {pop pop} ifelse} forall
  /Encoding WinAnsiEncoding def
  currentdict
end
/Helvetica exch definefont pop
/Courier-BoldOblique findfont
dup length dict begin
  {1 index /FID ne {def} {pop pop} ifelse} forall
  /Encoding WinAnsiEncoding def
  currentdict
end
/Courier-BoldOblique exch definefont pop
/Courier-Oblique findfont
dup length dict begin
  {1 index /FID ne {def} {pop pop} ifelse} forall
  /Encoding WinAnsiEncoding def
  currentdict
end
/Courier-Oblique exch definefont pop
/Times-Roman findfont
dup length dict begin
  {1 index /FID ne {def} {pop pop} ifelse} forall
  /Encoding WinAnsiEncoding def
  currentdict
end
/Times-Roman exch definefont pop
/Helvetica-BoldOblique findfont
dup length dict begin
  {1 index /FID ne {def} {pop pop} ifelse} forall
  /Encoding WinAnsiEncoding def
  currentdict
end
/Helvetica-BoldOblique exch definefont pop
/Helvetica-Bold findfont
dup length dict begin
  {1 index /FID ne {def} {pop pop} ifelse} forall
  /Encoding WinAnsiEncoding def
  currentdict
end
/Helvetica-Bold exch definefont pop
/Helvetica-Oblique findfont
dup length dict begin
  {1 index /FID ne {def} {pop pop} ifelse} forall
  /Encoding WinAnsiEncoding def
  currentdict
end
/Helvetica-Oblique exch definefont pop
/Times-BoldItalic findfont
dup length dict begin
  {1 index /FID ne {def} {pop pop} ifelse} forall
  /Encoding WinAnsiEncoding def
  currentdict
end
/Times-BoldItalic exch definefont pop
/Courier findfont
dup length dict begin
  {1 index /FID ne {def} {pop pop} ifelse} forall
  /Encoding WinAnsiEncoding def
  currentdict
end
/Courier exch definefont pop
/Times-Italic findfont
dup length dict begin
  {1 index /FID ne {def} {pop pop} ifelse} forall
  /Encoding WinAnsiEncoding def
  currentdict
end
/Times-Italic exch definefont pop
/Times-Bold findfont
dup length dict begin
  {1 index /FID ne {def} {pop pop} ifelse} forall
  /Encoding WinAnsiEncoding def
  currentdict
end
/Times-Bold exch definefont pop
%FOPEndFontReencode
%%EndProlog
%%Page: 1 1
%%PageBoundingBox: 0 0 575 556
%%BeginPageSetup
[1 0 0 -1 0 556] CT
%%EndPageSetup
GS
[0.60063 0 0 0.6 0 0.40002] CT
N
0 0 M
957 0 L
957 926 L
0 926 L
0 0 L
cp
clip
1 GC
N
0 0 957 926 re
f
GR
GS
[0.60063 0 0 0.6 0 0.40002] CT
1 GC
N
0 0 957 926 re
f
GR
GS
[0.60063 0 0 0.6 0 0.40002] CT
1 GC
N
140 473 M
867 473 L
867 94 L
140 94 L
cp
f
GR
GS
[0.60063 0 0 0.6 0 0.40002] CT
0.4 GC
2 setlinecap
1 LJ
0.833 LW
N
140 473 M
867 473 L
S
GR
GS
[0.60063 0 0 0.6 0 0.40002] CT
0.4 GC
2 setlinecap
1 LJ
0.833 LW
N
140 94 M
867 94 L
S
GR
GS
[0.60063 0 0 0.6 0 0.40002] CT
0.4 GC
2 setlinecap
1 LJ
0.833 LW
N
255.514 473 M
255.514 465.73 L
S
GR
GS
[0.60063 0 0 0.6 0 0.40002] CT
0.4 GC
2 setlinecap
1 LJ
0.833 LW
N
371.26 473 M
371.26 465.73 L
S
GR
GS
[0.60063 0 0 0.6 0 0.40002] CT
0.4 GC
2 setlinecap
1 LJ
0.833 LW
N
487.006 473 M
487.006 465.73 L
S
GR
GS
[0.60063 0 0 0.6 0 0.40002] CT
0.4 GC
2 setlinecap
1 LJ
0.833 LW
N
602.752 473 M
602.752 465.73 L
S
GR
GS
[0.60063 0 0 0.6 0 0.40002] CT
0.4 GC
2 setlinecap
1 LJ
0.833 LW
N
718.498 473 M
718.498 465.73 L
S
GR
GS
[0.60063 0 0 0.6 0 0.40002] CT
0.4 GC
2 setlinecap
1 LJ
0.833 LW
N
834.244 473 M
834.244 465.73 L
S
GR
GS
[0.60063 0 0 0.6 0 0.40002] CT
0.4 GC
2 setlinecap
1 LJ
0.833 LW
N
255.514 94 M
255.514 101.27 L
S
GR
GS
[0.60063 0 0 0.6 0 0.40002] CT
0.4 GC
2 setlinecap
1 LJ
0.833 LW
N
371.26 94 M
371.26 101.27 L
S
GR
GS
[0.60063 0 0 0.6 0 0.40002] CT
0.4 GC
2 setlinecap
1 LJ
0.833 LW
N
487.006 94 M
487.006 101.27 L
S
GR
GS
[0.60063 0 0 0.6 0 0.40002] CT
0.4 GC
2 setlinecap
1 LJ
0.833 LW
N
602.752 94 M
602.752 101.27 L
S
GR
GS
[0.60063 0 0 0.6 0 0.40002] CT
0.4 GC
2 setlinecap
1 LJ
0.833 LW
N
718.498 94 M
718.498 101.27 L
S
GR
GS
[0.60063 0 0 0.6 0 0.40002] CT
0.4 GC
2 setlinecap
1 LJ
0.833 LW
N
834.244 94 M
834.244 101.27 L
S
GR
GS
[0.60063 0 0 0.6 0 0.40002] CT
0.4 GC
2 setlinecap
1 LJ
0.833 LW
N
140 473 M
140 94 L
S
GR
GS
[0.60063 0 0 0.6 0 0.40002] CT
0.4 GC
2 setlinecap
1 LJ
0.833 LW
N
867 473 M
867 94 L
S
GR
GS
[0.60063 0 0 0.6 0 0.40002] CT
0.4 GC
2 setlinecap
1 LJ
0.833 LW
N
140 473 M
147.27 473 L
S
GR
GS
[0.60063 0 0 0.6 0 0.40002] CT
0.4 GC
2 setlinecap
1 LJ
0.833 LW
N
140 418.857 M
147.27 418.857 L
S
GR
GS
[0.60063 0 0 0.6 0 0.40002] CT
0.4 GC
2 setlinecap
1 LJ
0.833 LW
N
140 364.714 M
147.27 364.714 L
S
GR
GS
[0.60063 0 0 0.6 0 0.40002] CT
0.4 GC
2 setlinecap
1 LJ
0.833 LW
N
140 310.571 M
147.27 310.571 L
S
GR
GS
[0.60063 0 0 0.6 0 0.40002] CT
0.4 GC
2 setlinecap
1 LJ
0.833 LW
N
140 256.429 M
147.27 256.429 L
S
GR
GS
[0.60063 0 0 0.6 0 0.40002] CT
0.4 GC
2 setlinecap
1 LJ
0.833 LW
N
140 202.286 M
147.27 202.286 L
S
GR
GS
[0.60063 0 0 0.6 0 0.40002] CT
0.4 GC
2 setlinecap
1 LJ
0.833 LW
N
140 148.143 M
147.27 148.143 L
S
GR
GS
[0.60063 0 0 0.6 0 0.40002] CT
0.4 GC
2 setlinecap
1 LJ
0.833 LW
N
140 94 M
147.27 94 L
S
GR
GS
[0.60063 0 0 0.6 0 0.40002] CT
0.4 GC
2 setlinecap
1 LJ
0.833 LW
N
867 473 M
859.73 473 L
S
GR
GS
[0.60063 0 0 0.6 0 0.40002] CT
0.4 GC
2 setlinecap
1 LJ
0.833 LW
N
867 418.857 M
859.73 418.857 L
S
GR
GS
[0.60063 0 0 0.6 0 0.40002] CT
0.4 GC
2 setlinecap
1 LJ
0.833 LW
N
867 364.714 M
859.73 364.714 L
S
GR
GS
[0.60063 0 0 0.6 0 0.40002] CT
0.4 GC
2 setlinecap
1 LJ
0.833 LW
N
867 310.571 M
859.73 310.571 L
S
GR
GS
[0.60063 0 0 0.6 0 0.40002] CT
0.4 GC
2 setlinecap
1 LJ
0.833 LW
N
867 256.429 M
859.73 256.429 L
S
GR
GS
[0.60063 0 0 0.6 0 0.40002] CT
0.4 GC
2 setlinecap
1 LJ
0.833 LW
N
867 202.286 M
859.73 202.286 L
S
GR
GS
[0.60063 0 0 0.6 0 0.40002] CT
0.4 GC
2 setlinecap
1 LJ
0.833 LW
N
867 148.143 M
859.73 148.143 L
S
GR
GS
[0.60063 0 0 0.6 0 0.40002] CT
0.4 GC
2 setlinecap
1 LJ
0.833 LW
N
867 94 M
859.73 94 L
S
GR
GS
[0.60063 0 0 0.6 80.08359 284.20001] CT
0.4 GC
/Helvetica 16.667 F
GS
[1 0 0 1 0 0] CT
-25 7 moveto 
1 -1 scale
(-60) t 
GR
GR
GS
[0.60063 0 0 0.6 80.08359 251.7143] CT
0.4 GC
/Helvetica 16.667 F
GS
[1 0 0 1 0 0] CT
-25 7 moveto 
1 -1 scale
(-50) t 
GR
GR
GS
[0.60063 0 0 0.6 80.08359 219.22859] CT
0.4 GC
/Helvetica 16.667 F
GS
[1 0 0 1 0 0] CT
-25 7 moveto 
1 -1 scale
(-40) t 
GR
GR
GS
[0.60063 0 0 0.6 80.08359 186.74288] CT
0.4 GC
/Helvetica 16.667 F
GS
[1 0 0 1 0 0] CT
-25 7 moveto 
1 -1 scale
(-30) t 
GR
GR
GS
[0.60063 0 0 0.6 80.08359 154.25715] CT
0.4 GC
/Helvetica 16.667 F
GS
[1 0 0 1 0 0] CT
-25 7 moveto 
1 -1 scale
(-20) t 
GR
GR
GS
[0.60063 0 0 0.6 80.08359 121.77145] CT
0.4 GC
/Helvetica 16.667 F
GS
[1 0 0 1 0 0] CT
-25 7 moveto 
1 -1 scale
(-10) t 
GR
GR
GS
[0.60063 0 0 0.6 80.08359 89.28573] CT
0.4 GC
/Helvetica 16.667 F
GS
[1 0 0 1 0 0] CT
-10 7 moveto 
1 -1 scale
(0) t 
GR
GR
GS
[0.60063 0 0 0.6 80.08359 56.80002] CT
0.4 GC
/Helvetica 16.667 F
GS
[1 0 0 1 0 0] CT
-19 7 moveto 
1 -1 scale
(10) t 
GR
GR
GS
[0 -0.6 0.60063 0 62.06478 170.49991] CT
/Helvetica 18.333 F
GS
[1 0 0 1 0 0] CT
-62 -4 moveto 
1 -1 scale
(Magnitude \(dB\)) t 
GR
GR
GS
[0.60063 0 0 0.6 302.41596 55.30002] CT
0.4 GC
/Helvetica 16.667 F
GS
[1 0 0 1 0 0] CT
-62.5 -4 moveto 
1 -1 scale
(From: u1  To: y1) t 
GR
GR
GS
[0.60063 0 0 0.6 0 0.40002] CT
0 0.447 0.741 RC
1 LJ
0.833 LW
N
139.913 232.885 M
140.488 232.871 L
140.609 232.866 L
140.75 232.858 L
140.916 232.847 L
141.109 232.833 L
141.334 232.813 L
141.598 232.787 L
141.906 232.75 L
142.266 232.7 L
142.687 232.632 L
143.179 232.539 L
143.753 232.412 L
144.424 232.239 L
145.208 232.004 L
145.45 231.914 L
146.042 231.71 L
146.124 231.683 L
146.695 231.441 L
147.194 231.246 L
147.415 231.134 L
148.211 230.756 L
148.445 230.652 L
149.09 230.281 L
149.906 229.848 L
150.061 229.742 L
151.132 229.049 L
151.613 228.759 L
152.315 228.217 L
153.608 227.292 L
153.621 227.281 L
155.062 226.031 L
155.939 225.327 L
156.654 224.601 L
158.412 222.941 L
158.662 222.718 L
160.353 220.831 L
161.844 219.291 L
162.495 218.464 L
164.861 215.646 L
165.562 214.862 L
167.473 212.284 L
169.906 209.248 L
170.356 208.585 L
173.54 204.164 L
174.982 202.297 L
177.055 199.214 L
180.912 193.91 L
180.937 193.872 L
185.222 187.595 L
187.841 184.044 L
189.953 181.047 L
190.33 180.526 L
195.177 173.617 L
197.957 169.922 L
200.944 165.752 L
205.582 159.665 L
207.312 157.339 L
213.083 149.988 L
214.342 148.389 L
220.357 141.108 L
222.105 139.086 L
227.324 133.291 L
230.675 129.97 L
233.924 126.865 L
240.117 122.171 L
240.138 122.161 L
245.879 119.409 L
250.585 118.702 L
251.972 118.5 L
259.352 120.137 L
262.12 121.647 L
267.099 124.279 L
274.855 129.636 L
276.079 130.453 L
284.425 135.852 L
288.916 137.953 L
292.12 139.413 L
300.224 141.023 L
304.441 140.578 L
310.049 140.003 L
321.582 135.846 L
322.057 135.68 L
333.659 130.158 L
340.507 126.908 L
349.104 122.98 L
361.401 118.615 L
363.551 117.877 L
376.94 115.588 L
384.471 116.059 L
389.25 116.35 L
402.198 120.621 L
409.942 125.536 L
417.899 130.442 L
431.046 141.899 L
438.064 149.428 L
447.571 159.35 L
462.409 176.672 L
469.114 184.249 L
475.634 191.471 L
487.345 201.758 L
499.465 208.489 L
503.395 209.958 L
514.209 213.917 L
517.247 215.093 L
532.26 222.949 L
533.9 224.081 L
540.335 229.148 L
541.245 230.092 L
551.877 240.975 L
558.582 249.628 L
567.388 263.222 L
580.678 289.414 L
583.034 295.595 L
592 318.822 L
601.598 350.978 L
609.702 384.516 L
616.524 416.226 L
622.249 444.961 L
627.044 461.216 L
629.173 449.676 L
631.886 435.048 L
637.796 400.161 L
645.025 370.897 L
653.892 346.52 L
664.804 326.489 L
678.285 311.138 L
680.115 310.086 L
695.022 301.644 L
715.921 299.504 L
733.62 302.313 L
736.36 303.021 L
754.342 307.585 L
775.787 315.152 L
789.323 322.438 L
798.459 330.337 L
809.089 339.391 L
826.074 362.181 L
840.604 382.516 L
852.986 386.642 L
865.587 384.482 L
867.021 384.448 L
S
GR
GS
[0.60063 0 0 0.6 0 0.40002] CT
1 LJ
0.833 LW
N
867.021 473.045 M
867.021 473 L
867.021 148.143 L
867.021 93.955 L
S
GR
GS
[0.60063 0 0 0.6 0 0.40002] CT
1 0 0 RC
[10 6] 0 setdash
2 LJ
0.833 LW
N
139.913 243.324 M
140.097 243.318 L
140.153 243.315 L
140.217 243.31 L
140.293 243.303 L
140.381 243.294 L
140.485 243.282 L
140.605 243.265 L
140.746 243.242 L
140.911 243.21 L
141.104 243.167 L
141.329 243.108 L
141.592 243.028 L
141.899 242.92 L
142.258 242.772 L
142.677 242.572 L
143.168 242.301 L
143.741 241.936 L
144.41 241.446 L
145.192 240.791 L
145.45 240.532 L
146.042 239.98 L
146.107 239.923 L
146.695 239.273 L
147.175 238.783 L
147.415 238.479 L
148.211 237.538 L
148.423 237.303 L
149.09 236.399 L
149.882 235.408 L
150.061 235.14 L
151.132 233.624 L
151.586 233.024 L
152.315 231.892 L
153.578 230.079 L
153.621 230.008 L
155.062 227.741 L
155.905 226.514 L
156.654 225.282 L
158.412 222.595 L
158.625 222.288 L
160.353 219.522 L
161.802 217.375 L
162.495 216.26 L
164.861 212.691 L
165.516 211.763 L
167.473 208.787 L
169.855 205.436 L
170.356 204.686 L
173.54 200.189 L
174.926 198.363 L
177.055 195.384 L
180.851 190.474 L
180.937 190.357 L
185.222 184.739 L
187.775 181.638 L
189.953 178.902 L
190.752 177.928 L
195.177 172.343 L
198.25 168.719 L
200.944 165.316 L
205.699 159.658 L
207.312 157.619 L
212.98 150.817 L
214.342 149.114 L
219.998 142.36 L
222.105 139.837 L
226.677 134.577 L
230.675 130.277 L
232.967 127.897 L
238.834 122.799 L
240.138 122.018 L
244.262 119.611 L
249.988 118.253 L
250.585 118.35 L
256.927 119.347 L
262.12 121.975 L
265.406 123.58 L
273.488 128.872 L
274.855 129.761 L
282.767 134.736 L
288.916 137.695 L
291.374 138.843 L
299.292 140.787 L
304.441 140.667 L
307.623 140.595 L
317.726 137.666 L
321.582 135.908 L
325.733 134.057 L
330.075 131.903 L
338.897 127.526 L
340.507 126.793 L
350.827 122.225 L
361.401 118.692 L
364.536 117.677 L
377.143 115.609 L
384.471 115.994 L
388.646 116.208 L
400.706 119.914 L
409.942 125.224 L
413.465 127.203 L
428.199 139.234 L
438.064 149.324 L
441.582 152.841 L
455.586 168.754 L
461.504 175.534 L
469.114 183.666 L
475.143 189.977 L
489.361 201.98 L
503.395 210.516 L
506.634 212.44 L
508.092 213.182 L
526.188 221.976 L
541.245 231.194 L
542.344 231.854 L
556.675 245.59 L
568.731 262.348 L
582.249 287.049 L
583.034 288.868 L
593.841 313.582 L
603.733 341.557 L
612.142 369.567 L
619.267 386.382 L
626.499 381.157 L
629.173 376.854 L
635.32 367.052 L
646.116 355.501 L
659.381 347.871 L
675.756 343.645 L
680.115 343.353 L
696.087 342.307 L
721.501 343.456 L
736.36 344.954 L
753.531 346.64 L
785.786 350.148 L
798.459 351.218 L
827.892 353.627 L
867.021 354.793 L
S
GR
GS
[0.60063 0 0 0.6 0 0.40002] CT
1 LJ
0.833 LW
N
867.021 473.045 M
867.021 473 L
867.021 148.143 L
867.021 93.955 L
S
GR
GS
[0.60063 0 0 0.6 0 0.40002] CT
1 0 1 RC
1 LJ
0.833 LW
N
139.913 321.315 M
141.229 320.442 L
142.689 320.293 L
144.15 319.968 L
145.61 319.705 L
147.07 318.25 L
148.531 315.802 L
149.991 311.809 L
151.451 306.134 L
152.912 298.659 L
154.372 290.501 L
155.832 280.362 L
157.293 269.74 L
158.753 259.09 L
160.213 248.849 L
161.674 239.217 L
163.134 232.132 L
164.594 225.89 L
166.055 220.437 L
167.515 215.736 L
168.975 211.497 L
170.436 207.028 L
171.896 203.059 L
173.356 199.505 L
174.817 196.308 L
176.277 193.412 L
177.738 190.746 L
179.198 188.292 L
180.658 186.048 L
182.119 183.95 L
183.579 181.979 L
185.039 180.103 L
186.5 178.311 L
187.96 176.569 L
189.42 174.892 L
190.881 173.263 L
192.341 171.702 L
193.801 170.201 L
195.262 168.781 L
196.722 167.42 L
198.182 166.126 L
199.643 164.852 L
201.103 163.592 L
202.563 162.303 L
204.024 160.966 L
205.484 159.536 L
206.944 158.016 L
208.405 156.376 L
209.865 154.613 L
211.326 152.723 L
212.786 150.744 L
214.246 148.676 L
215.707 146.544 L
217.167 144.332 L
218.627 142.073 L
220.088 139.737 L
221.548 137.328 L
223.008 134.836 L
224.469 132.301 L
225.929 129.702 L
227.389 127.064 L
228.85 124.41 L
230.31 121.758 L
231.77 119.108 L
233.231 116.492 L
234.691 113.937 L
236.151 111.465 L
237.612 109.125 L
239.072 106.968 L
240.532 105.031 L
241.993 103.362 L
243.453 102.001 L
244.914 100.975 L
246.374 100.301 L
247.834 99.987 L
249.295 100.012 L
250.755 100.362 L
252.215 100.994 L
253.676 101.867 L
255.136 102.941 L
256.596 104.183 L
258.057 105.537 L
259.517 106.978 L
260.977 108.476 L
262.438 109.989 L
263.898 111.499 L
265.358 112.991 L
266.819 114.438 L
268.279 115.816 L
269.739 117.138 L
271.2 118.392 L
272.66 119.582 L
274.12 120.711 L
275.581 121.798 L
277.041 122.831 L
278.501 123.805 L
279.962 124.709 L
281.422 125.554 L
282.883 126.335 L
284.343 127.051 L
285.803 127.703 L
287.264 128.311 L
288.724 128.87 L
290.184 129.372 L
291.645 129.819 L
293.105 130.236 L
294.565 130.603 L
296.026 130.901 L
297.486 131.156 L
298.946 131.364 L
300.407 131.502 L
301.867 131.577 L
303.327 131.618 L
304.788 131.602 L
306.248 131.541 L
307.708 131.442 L
309.169 131.315 L
310.629 131.136 L
312.089 130.925 L
313.55 130.671 L
315.01 130.381 L
316.471 130.036 L
317.931 129.671 L
319.391 129.252 L
320.852 128.787 L
322.312 128.276 L
323.772 127.729 L
325.233 127.128 L
326.693 126.495 L
328.153 125.833 L
329.614 125.13 L
331.074 124.394 L
332.534 123.618 L
333.995 122.8 L
335.455 121.94 L
336.915 121.055 L
338.376 120.128 L
339.836 119.171 L
341.296 118.193 L
342.757 117.194 L
344.217 116.176 L
345.677 115.146 L
347.138 114.121 L
348.598 113.091 L
350.059 112.072 L
351.519 111.06 L
352.979 110.073 L
354.44 109.109 L
355.9 108.186 L
357.36 107.306 L
358.821 106.487 L
360.281 105.734 L
361.741 105.057 L
363.202 104.462 L
364.662 103.955 L
366.122 103.542 L
367.583 103.223 L
369.043 103.003 L
370.503 102.881 L
371.964 102.854 L
373.424 102.918 L
374.884 103.073 L
376.345 103.31 L
377.805 103.626 L
379.265 104.013 L
380.726 104.459 L
382.186 104.951 L
383.647 105.485 L
385.107 106.044 L
386.567 106.626 L
388.028 107.223 L
389.488 107.826 L
390.948 108.423 L
392.409 109.01 L
393.869 109.579 L
395.329 110.126 L
396.79 110.654 L
398.25 111.161 L
399.71 111.65 L
401.171 112.121 L
402.631 112.575 L
404.091 113.021 L
405.552 113.462 L
407.012 113.904 L
408.472 114.353 L
409.933 114.815 L
411.393 115.295 L
412.853 115.811 L
414.314 116.372 L
415.774 116.993 L
417.234 117.695 L
418.695 118.485 L
420.155 119.368 L
421.616 120.358 L
423.076 121.471 L
424.536 122.701 L
425.997 124.069 L
427.457 125.564 L
428.917 127.188 L
430.378 128.928 L
431.838 130.794 L
433.298 132.756 L
434.759 134.812 L
436.219 136.95 L
437.679 139.153 L
439.14 141.401 L
440.6 143.68 L
442.06 145.994 L
443.521 148.315 L
444.981 150.623 L
446.441 152.873 L
447.902 155.053 L
449.362 157.109 L
450.822 159.024 L
452.283 160.804 L
453.743 162.507 L
455.203 164.145 L
456.664 165.784 L
458.124 167.467 L
459.585 169.2 L
461.045 170.966 L
462.505 172.756 L
463.966 174.529 L
465.426 176.273 L
466.886 177.98 L
468.347 179.628 L
469.807 181.218 L
471.267 182.767 L
472.728 184.249 L
474.188 185.673 L
475.648 187.041 L
477.109 188.361 L
478.569 189.616 L
480.029 190.822 L
481.49 191.974 L
482.95 193.07 L
484.41 194.098 L
485.871 195.068 L
487.331 195.971 L
488.792 196.792 L
490.252 197.552 L
491.712 198.251 L
493.173 198.876 L
494.633 199.427 L
496.093 199.925 L
497.554 200.374 L
499.014 200.741 L
500.474 201.025 L
501.935 201.231 L
503.395 201.358 L
504.855 201.365 L
506.316 201.317 L
507.776 201.251 L
509.236 201.167 L
510.697 201.071 L
512.157 200.999 L
513.617 200.95 L
515.078 200.909 L
516.538 200.914 L
517.998 200.983 L
519.459 201.176 L
520.919 201.539 L
522.38 202.11 L
523.84 202.941 L
525.3 204.092 L
526.76 205.559 L
528.221 207.326 L
529.681 209.424 L
531.142 211.826 L
532.602 214.467 L
534.062 217.352 L
535.523 220.437 L
536.983 223.667 L
538.443 226.998 L
539.904 230.443 L
541.364 233.888 L
542.824 237.399 L
544.285 240.946 L
545.745 244.251 L
547.205 247.537 L
548.666 250.835 L
550.126 254.022 L
551.586 257.102 L
553.047 260.592 L
554.507 264 L
555.967 267.35 L
557.428 270.543 L
558.888 273.327 L
560.349 275.76 L
561.809 278.019 L
563.269 280.033 L
564.73 282.089 L
566.19 284.817 L
567.65 287.106 L
569.111 289.307 L
570.571 291.58 L
572.031 293.672 L
573.492 295.106 L
574.952 295.231 L
576.412 295.382 L
577.873 295.361 L
579.333 294.775 L
580.793 294.215 L
582.254 296.93 L
583.714 299.545 L
585.174 302.053 L
586.635 305.224 L
588.095 308.35 L
589.555 309.653 L
591.016 309.554 L
592.476 309.274 L
593.937 309.001 L
595.397 308.506 L
596.857 307.834 L
598.318 309.672 L
599.778 311.661 L
601.238 313.295 L
602.699 315.146 L
604.159 317.095 L
605.619 317.529 L
607.08 317.94 L
608.54 318.01 L
610 316.441 L
611.461 314.542 L
612.921 312.825 L
614.381 310.818 L
615.842 309.379 L
617.302 310.162 L
618.762 311.412 L
620.223 312.63 L
621.683 314.328 L
623.143 315.825 L
624.604 317.201 L
626.064 318.346 L
627.525 319.541 L
628.985 319.806 L
630.445 320.007 L
631.906 317.416 L
633.366 313.939 L
634.826 310.375 L
636.287 308.064 L
637.747 305.729 L
639.207 307.763 L
640.668 311.482 L
642.128 315.287 L
643.588 318.051 L
645.049 319.971 L
646.509 319.699 L
647.969 318.603 L
649.43 317.32 L
650.89 316.783 L
652.35 317.861 L
653.811 318.776 L
655.271 319.746 L
656.731 321.002 L
658.192 321.863 L
659.652 321.913 L
661.112 322.172 L
662.573 322.259 L
664.033 322.037 L
665.494 322.033 L
666.954 321.09 L
668.414 320.003 L
669.875 318.781 L
671.335 317.677 L
672.795 315.882 L
674.256 316.076 L
675.716 316.421 L
677.176 317.285 L
678.637 318.31 L
680.097 320.247 L
681.557 321.025 L
683.018 320.442 L
684.478 318.096 L
685.938 315.506 L
687.399 312.577 L
688.859 309.203 L
690.319 308.293 L
691.78 309.997 L
693.24 311.777 L
694.7 313.548 L
696.161 316.554 L
697.621 318.433 L
699.082 319.431 L
700.542 320.593 L
702.002 321.765 L
703.463 322.088 L
704.923 322.332 L
706.383 322.457 L
707.844 322.303 L
709.304 321.923 L
710.764 321.925 L
712.225 321.111 L
713.685 319.985 L
715.145 319.027 L
716.606 318.343 L
718.066 317.455 L
719.526 318.254 L
720.987 319.313 L
722.447 320.273 L
723.907 320.252 L
725.368 320.209 L
726.828 319.204 L
728.288 316.351 L
729.749 313.62 L
731.209 312.652 L
732.669 310.497 L
734.13 308.378 L
735.59 308.362 L
737.051 308.334 L
738.511 305.179 L
739.971 304.439 L
741.432 301.956 L
742.892 299.971 L
744.352 297.974 L
745.813 300.479 L
747.273 301.728 L
748.733 306.694 L
750.194 311.405 L
751.654 316.001 L
753.114 318.341 L
754.575 320.207 L
756.035 320.184 L
757.495 318.76 L
758.956 317.513 L
760.416 316.264 L
761.876 316.153 L
763.337 316.021 L
764.797 317.518 L
766.258 317.882 L
767.718 318.3 L
769.178 318.113 L
770.638 317.944 L
772.099 316.949 L
773.559 318.107 L
775.02 319.175 L
776.48 320.027 L
777.94 320.841 L
779.401 320.735 L
780.861 319.336 L
782.321 318.071 L
783.782 317.204 L
785.242 316.242 L
786.702 317.178 L
788.163 318.39 L
789.623 319.532 L
791.083 320.61 L
792.544 321.8 L
794.004 321.934 L
795.464 322.056 L
796.925 322.167 L
798.385 321.211 L
799.845 320.431 L
801.306 319.668 L
802.766 318.678 L
804.227 317.574 L
805.687 318.352 L
807.147 318.165 L
808.608 318.234 L
810.068 318.5 L
811.528 318.692 L
812.989 317.931 L
814.449 318.759 L
815.909 319.223 L
817.37 319.519 L
818.83 317.416 L
820.29 315.452 L
821.751 312.548 L
823.211 308.881 L
824.671 305.343 L
826.132 307.213 L
827.592 308.879 L
829.052 310.728 L
830.513 312.414 L
831.973 314.136 L
833.433 311.414 L
834.894 308.742 L
836.354 305.822 L
837.815 306.134 L
839.275 306.48 L
840.735 310.078 L
842.195 313.691 L
843.656 317.703 L
845.116 319.619 L
846.577 321.484 L
848.037 321.643 L
849.497 321.79 L
850.958 321.561 L
852.418 321.341 L
853.878 320.988 L
855.339 320.691 L
856.799 320.438 L
858.259 320.54 L
859.72 320.655 L
861.18 321.011 L
862.64 321.562 L
864.101 322.318 L
865.561 323.028 L
867.021 324.052 L
S
GR
GS
[0.60063 0 0 0.6 0 0.40002] CT
1 GC
N
648 177 M
648 111 L
850 111 L
850 177 L
cp
f
GR
GS
[0.60063 0 0 0.6 416.95091 74.47172] CT
/Helvetica 15 F
GS
[1 0 0 1 0 0] CT
0 6 moveto 
1 -1 scale
(ARX) t 
GR
GR
GS
[0.60063 0 0 0.6 0 0.40002] CT
0 0.447 0.741 RC
1 LJ
0.833 LW
N
652.994 123.453 M
690.447 123.453 L
S
GR
GS
[0.60063 0 0 0.6 416.95091 86.80002] CT
/Helvetica 15 F
GS
[1 0 0 1 0 0] CT
0 6 moveto 
1 -1 scale
(ARX Reduced) t 
GR
GR
GS
[0.60063 0 0 0.6 0 0.40002] CT
1 0 0 RC
[10 6] 0 setdash
2 LJ
0.833 LW
N
652.994 144 M
690.447 144 L
S
GR
GS
[0.60063 0 0 0.6 416.95091 99.12832] CT
/Helvetica 15 F
GS
[1 0 0 1 0 0] CT
0 6 moveto 
1 -1 scale
(Experimental Bodeplot) t 
GR
GR
GS
[0.60063 0 0 0.6 0 0.40002] CT
1 0 1 RC
1 LJ
0.833 LW
N
652.994 164.547 M
690.447 164.547 L
S
GR
GS
[0.60063 0 0 0.6 0 0.40002] CT
0.149 GC
10.0 ML
0.833 LW
N
648 177 M
648 111 L
850 111 L
850 177 L
cp
S
GR
GS
[0.60063 0 0 0.6 0 0.40002] CT
1 GC
N
140 824 M
867 824 L
867 488 L
140 488 L
cp
f
GR
GS
[0.60063 0 0 0.6 0 0.40002] CT
0.4 GC
2 setlinecap
1 LJ
0.833 LW
N
140 824 M
867 824 L
S
GR
GS
[0.60063 0 0 0.6 0 0.40002] CT
0.4 GC
2 setlinecap
1 LJ
0.833 LW
N
140 488 M
867 488 L
S
GR
GS
[0.60063 0 0 0.6 0 0.40002] CT
0.4 GC
2 setlinecap
1 LJ
0.833 LW
N
255.514 824 M
255.514 816.73 L
S
GR
GS
[0.60063 0 0 0.6 0 0.40002] CT
0.4 GC
2 setlinecap
1 LJ
0.833 LW
N
371.26 824 M
371.26 816.73 L
S
GR
GS
[0.60063 0 0 0.6 0 0.40002] CT
0.4 GC
2 setlinecap
1 LJ
0.833 LW
N
487.006 824 M
487.006 816.73 L
S
GR
GS
[0.60063 0 0 0.6 0 0.40002] CT
0.4 GC
2 setlinecap
1 LJ
0.833 LW
N
602.752 824 M
602.752 816.73 L
S
GR
GS
[0.60063 0 0 0.6 0 0.40002] CT
0.4 GC
2 setlinecap
1 LJ
0.833 LW
N
718.498 824 M
718.498 816.73 L
S
GR
GS
[0.60063 0 0 0.6 0 0.40002] CT
0.4 GC
2 setlinecap
1 LJ
0.833 LW
N
834.244 824 M
834.244 816.73 L
S
GR
GS
[0.60063 0 0 0.6 0 0.40002] CT
0.4 GC
2 setlinecap
1 LJ
0.833 LW
N
255.514 488 M
255.514 495.27 L
S
GR
GS
[0.60063 0 0 0.6 0 0.40002] CT
0.4 GC
2 setlinecap
1 LJ
0.833 LW
N
371.26 488 M
371.26 495.27 L
S
GR
GS
[0.60063 0 0 0.6 0 0.40002] CT
0.4 GC
2 setlinecap
1 LJ
0.833 LW
N
487.006 488 M
487.006 495.27 L
S
GR
GS
[0.60063 0 0 0.6 0 0.40002] CT
0.4 GC
2 setlinecap
1 LJ
0.833 LW
N
602.752 488 M
602.752 495.27 L
S
GR
GS
[0.60063 0 0 0.6 0 0.40002] CT
0.4 GC
2 setlinecap
1 LJ
0.833 LW
N
718.498 488 M
718.498 495.27 L
S
GR
GS
[0.60063 0 0 0.6 0 0.40002] CT
0.4 GC
2 setlinecap
1 LJ
0.833 LW
N
834.244 488 M
834.244 495.27 L
S
GR
GS
[0.60063 0 0 0.6 153.46884 498.79998] CT
0.4 GC
/Helvetica 16.667 F
GS
[1 0 0 1 0 0] CT
-12 18 moveto 
1 -1 scale
(0.5) t 
GR
GR
GS
[0.60063 0 0 0.6 222.98895 498.79998] CT
0.4 GC
/Helvetica 16.667 F
GS
[1 0 0 1 0 0] CT
-5 18 moveto 
1 -1 scale
(1) t 
GR
GR
GS
[0.60063 0 0 0.6 292.50904 498.79998] CT
0.4 GC
/Helvetica 16.667 F
GS
[1 0 0 1 0 0] CT
-12 18 moveto 
1 -1 scale
(1.5) t 
GR
GR
GS
[0.60063 0 0 0.6 362.02918 498.79998] CT
0.4 GC
/Helvetica 16.667 F
GS
[1 0 0 1 0 0] CT
-5 18 moveto 
1 -1 scale
(2) t 
GR
GR
GS
[0.60063 0 0 0.6 431.54925 498.79998] CT
0.4 GC
/Helvetica 16.667 F
GS
[1 0 0 1 0 0] CT
-12 18 moveto 
1 -1 scale
(2.5) t 
GR
GR
GS
[0.60063 0 0 0.6 501.06936 498.79998] CT
0.4 GC
/Helvetica 16.667 F
GS
[1 0 0 1 0 0] CT
-5 18 moveto 
1 -1 scale
(3) t 
GR
GR
GS
[0.60063 0 0 0.6 0 0.40002] CT
0.4 GC
2 setlinecap
1 LJ
0.833 LW
N
140 824 M
140 488 L
S
GR
GS
[0.60063 0 0 0.6 0 0.40002] CT
0.4 GC
2 setlinecap
1 LJ
0.833 LW
N
867 824 M
867 488 L
S
GR
GS
[0.60063 0 0 0.6 0 0.40002] CT
0.4 GC
2 setlinecap
1 LJ
0.833 LW
N
140 820.706 M
147.27 820.706 L
S
GR
GS
[0.60063 0 0 0.6 0 0.40002] CT
0.4 GC
2 setlinecap
1 LJ
0.833 LW
N
140 765.804 M
147.27 765.804 L
S
GR
GS
[0.60063 0 0 0.6 0 0.40002] CT
0.4 GC
2 setlinecap
1 LJ
0.833 LW
N
140 710.902 M
147.27 710.902 L
S
GR
GS
[0.60063 0 0 0.6 0 0.40002] CT
0.4 GC
2 setlinecap
1 LJ
0.833 LW
N
140 656 M
147.27 656 L
S
GR
GS
[0.60063 0 0 0.6 0 0.40002] CT
0.4 GC
2 setlinecap
1 LJ
0.833 LW
N
140 601.098 M
147.27 601.098 L
S
GR
GS
[0.60063 0 0 0.6 0 0.40002] CT
0.4 GC
2 setlinecap
1 LJ
0.833 LW
N
140 546.196 M
147.27 546.196 L
S
GR
GS
[0.60063 0 0 0.6 0 0.40002] CT
0.4 GC
2 setlinecap
1 LJ
0.833 LW
N
140 491.294 M
147.27 491.294 L
S
GR
GS
[0.60063 0 0 0.6 0 0.40002] CT
0.4 GC
2 setlinecap
1 LJ
0.833 LW
N
867 820.706 M
859.73 820.706 L
S
GR
GS
[0.60063 0 0 0.6 0 0.40002] CT
0.4 GC
2 setlinecap
1 LJ
0.833 LW
N
867 765.804 M
859.73 765.804 L
S
GR
GS
[0.60063 0 0 0.6 0 0.40002] CT
0.4 GC
2 setlinecap
1 LJ
0.833 LW
N
867 710.902 M
859.73 710.902 L
S
GR
GS
[0.60063 0 0 0.6 0 0.40002] CT
0.4 GC
2 setlinecap
1 LJ
0.833 LW
N
867 656 M
859.73 656 L
S
GR
GS
[0.60063 0 0 0.6 0 0.40002] CT
0.4 GC
2 setlinecap
1 LJ
0.833 LW
N
867 601.098 M
859.73 601.098 L
S
GR
GS
[0.60063 0 0 0.6 0 0.40002] CT
0.4 GC
2 setlinecap
1 LJ
0.833 LW
N
867 546.196 M
859.73 546.196 L
S
GR
GS
[0.60063 0 0 0.6 0 0.40002] CT
0.4 GC
2 setlinecap
1 LJ
0.833 LW
N
867 491.294 M
859.73 491.294 L
S
GR
GS
[0.60063 0 0 0.6 80.08359 492.82353] CT
0.4 GC
/Helvetica 16.667 F
GS
[1 0 0 1 0 0] CT
-44 7 moveto 
1 -1 scale
(-3600) t 
GR
GR
GS
[0.60063 0 0 0.6 80.08359 459.88234] CT
0.4 GC
/Helvetica 16.667 F
GS
[1 0 0 1 0 0] CT
-44 7 moveto 
1 -1 scale
(-2880) t 
GR
GR
GS
[0.60063 0 0 0.6 80.08359 426.94119] CT
0.4 GC
/Helvetica 16.667 F
GS
[1 0 0 1 0 0] CT
-44 7 moveto 
1 -1 scale
(-2160) t 
GR
GR
GS
[0.60063 0 0 0.6 80.08359 394.00001] CT
0.4 GC
/Helvetica 16.667 F
GS
[1 0 0 1 0 0] CT
-44 7 moveto 
1 -1 scale
(-1440) t 
GR
GR
GS
[0.60063 0 0 0.6 80.08359 361.05882] CT
0.4 GC
/Helvetica 16.667 F
GS
[1 0 0 1 0 0] CT
-35 7 moveto 
1 -1 scale
(-720) t 
GR
GR
GS
[0.60063 0 0 0.6 80.08359 328.11767] CT
0.4 GC
/Helvetica 16.667 F
GS
[1 0 0 1 0 0] CT
-10 7 moveto 
1 -1 scale
(0) t 
GR
GR
GS
[0.60063 0 0 0.6 80.08359 295.17649] CT
0.4 GC
/Helvetica 16.667 F
GS
[1 0 0 1 0 0] CT
-29 7 moveto 
1 -1 scale
(720) t 
GR
GR
GS
[0 -0.6 0.60063 0 50.65287 393.9999] CT
/Helvetica 18.333 F
GS
[1 0 0 1 0 0] CT
-49.5 -4 moveto 
1 -1 scale
(Phase \(deg\)) t 
GR
GR
GS
[0.60063 0 0 0.6 0 0.40002] CT
0 0.447 0.741 RC
1 LJ
0.833 LW
N
139.913 491.319 M
140.488 491.42 L
140.609 491.441 L
140.75 491.465 L
140.916 491.494 L
141.109 491.528 L
141.334 491.567 L
141.598 491.613 L
141.906 491.667 L
142.266 491.73 L
142.687 491.804 L
143.179 491.89 L
143.753 491.991 L
144.424 492.11 L
145.208 492.249 L
145.45 492.292 L
146.042 492.397 L
146.124 492.412 L
146.695 492.514 L
147.194 492.604 L
147.415 492.644 L
148.211 492.789 L
148.445 492.831 L
149.09 492.95 L
149.906 493.1 L
150.061 493.129 L
151.132 493.329 L
151.613 493.42 L
152.315 493.554 L
153.608 493.803 L
153.621 493.805 L
155.062 494.091 L
155.939 494.265 L
156.654 494.413 L
158.412 494.776 L
158.662 494.828 L
160.353 495.196 L
161.844 495.521 L
162.495 495.671 L
164.861 496.219 L
165.562 496.381 L
167.473 496.855 L
169.906 497.459 L
170.356 497.58 L
173.54 498.432 L
174.982 498.818 L
177.055 499.418 L
180.912 500.533 L
180.937 500.541 L
185.222 501.877 L
187.841 502.694 L
189.953 503.383 L
190.33 503.507 L
195.177 505.16 L
197.957 506.109 L
200.944 507.188 L
205.582 508.864 L
207.312 509.523 L
213.083 511.719 L
214.342 512.223 L
220.357 514.629 L
222.105 515.364 L
227.324 517.557 L
230.675 519.033 L
233.924 520.464 L
240.117 523.305 L
240.138 523.315 L
245.879 526.019 L
250.585 528.252 L
251.972 528.91 L
259.352 532.336 L
262.12 533.55 L
267.099 535.733 L
274.855 538.852 L
276.079 539.344 L
284.425 542.398 L
288.916 543.926 L
292.12 545.016 L
300.224 547.666 L
304.441 549.049 L
310.049 550.888 L
321.582 554.861 L
322.057 555.025 L
333.659 559.297 L
340.507 561.992 L
349.104 565.375 L
361.401 570.509 L
363.551 571.406 L
376.94 577.242 L
384.471 580.612 L
389.25 582.75 L
402.198 588.592 L
409.942 592.038 L
417.899 595.579 L
431.046 601.242 L
438.064 604.121 L
447.571 608.02 L
462.409 613.691 L
469.114 616.052 L
475.634 618.347 L
487.345 622.229 L
499.465 626.276 L
503.395 627.695 L
514.209 631.598 L
517.247 632.759 L
532.26 638.751 L
533.9 639.426 L
540.335 642.099 L
541.245 642.482 L
551.877 646.956 L
558.582 649.791 L
567.388 653.501 L
580.678 659.005 L
583.034 659.939 L
592 663.492 L
601.598 666.971 L
609.702 669.438 L
616.524 671.177 L
622.249 673.362 L
627.044 677.938 L
629.173 680.098 L
631.886 682.849 L
637.796 686.092 L
645.025 689.221 L
653.892 692.919 L
664.804 697.495 L
678.285 703.195 L
680.115 703.967 L
695.022 710.254 L
715.921 718.874 L
733.62 725.943 L
736.36 727.023 L
754.342 734.113 L
775.787 742.813 L
789.323 748.582 L
798.459 752.756 L
809.089 757.614 L
826.074 766.451 L
840.604 775.651 L
852.986 784.254 L
865.587 792.36 L
867.021 793.255 L
S
GR
GS
[0.60063 0 0 0.6 0 0.40002] CT
1 LJ
0.833 LW
N
867.021 824.04 M
867.021 622.449 L
867.021 546.272 L
867.021 546.196 L
867.021 546.12 L
867.021 487.96 L
S
GR
GS
[0.60063 0 0 0.6 0 0.40002] CT
1 0 0 RC
[10 6] 0 setdash
2 LJ
0.833 LW
N
139.913 518.757 M
140.097 518.772 L
140.153 518.777 L
140.217 518.782 L
140.293 518.788 L
140.381 518.796 L
140.485 518.804 L
140.605 518.814 L
140.746 518.826 L
140.911 518.84 L
141.104 518.856 L
141.329 518.875 L
141.592 518.897 L
141.899 518.924 L
142.258 518.955 L
142.677 518.993 L
143.168 519.038 L
143.741 519.092 L
144.41 519.159 L
145.192 519.241 L
145.45 519.27 L
146.042 519.337 L
146.107 519.344 L
146.695 519.416 L
147.175 519.475 L
147.415 519.507 L
148.211 519.613 L
148.423 519.642 L
149.09 519.74 L
149.882 519.858 L
150.061 519.887 L
151.132 520.064 L
151.586 520.138 L
152.315 520.272 L
153.578 520.504 L
153.621 520.513 L
155.062 520.807 L
155.905 520.979 L
156.654 521.147 L
158.412 521.542 L
158.625 521.59 L
160.353 522.015 L
161.802 522.371 L
162.495 522.555 L
164.861 523.182 L
165.516 523.356 L
167.473 523.911 L
169.855 524.586 L
170.356 524.736 L
173.54 525.69 L
174.926 526.105 L
177.055 526.774 L
180.851 527.966 L
180.937 527.994 L
185.222 529.397 L
187.775 530.233 L
189.953 530.966 L
190.752 531.235 L
195.177 532.762 L
198.25 533.824 L
200.944 534.789 L
205.699 536.493 L
207.312 537.095 L
212.98 539.21 L
214.342 539.743 L
219.998 541.952 L
222.105 542.82 L
226.677 544.702 L
230.675 546.441 L
232.967 547.438 L
238.834 550.122 L
240.138 550.74 L
244.262 552.694 L
249.988 555.442 L
250.585 555.724 L
256.927 558.711 L
262.12 561.013 L
265.406 562.47 L
273.488 565.765 L
274.855 566.276 L
282.767 569.234 L
288.916 571.365 L
291.374 572.216 L
299.292 574.833 L
304.441 576.515 L
307.623 577.554 L
317.726 580.951 L
321.582 582.318 L
325.733 583.789 L
330.075 585.389 L
338.897 588.759 L
340.507 589.403 L
350.827 593.536 L
361.401 597.968 L
364.536 599.283 L
377.143 604.778 L
384.471 608.058 L
388.646 609.926 L
400.706 615.373 L
409.942 619.504 L
413.465 621.08 L
428.199 627.488 L
438.064 631.598 L
441.582 633.064 L
455.586 638.559 L
461.504 640.762 L
469.114 643.464 L
475.143 645.604 L
489.361 650.461 L
503.395 655.322 L
506.634 656.444 L
508.092 656.963 L
526.188 663.672 L
541.245 669.697 L
542.344 670.137 L
556.675 676.182 L
568.731 681.332 L
582.249 687.044 L
583.034 687.376 L
593.841 691.959 L
603.733 696.46 L
612.142 701.166 L
619.267 706.565 L
626.499 711.962 L
629.173 713.389 L
635.32 716.669 L
646.116 721.175 L
659.381 726.09 L
675.756 731.804 L
680.115 733.273 L
696.087 738.655 L
721.501 747.023 L
736.36 751.83 L
753.531 757.385 L
785.786 767.681 L
798.459 771.683 L
827.892 780.978 L
867.021 793.255 L
S
GR
GS
[0.60063 0 0 0.6 0 0.40002] CT
1 LJ
0.833 LW
N
867.021 824.04 M
867.021 622.449 L
867.021 546.272 L
867.021 546.196 L
867.021 546.12 L
867.021 487.96 L
S
GR
GS
[0.60063 0 0 0.6 301.80003 38.53602] CT
/Helvetica-Bold 18.333 F
GS
[1 0 0 1 0 0] CT
-61.5 -4 moveto 
1 -1 scale
(Bode Diagram) t 
GR
GR
GS
[0.60063 0 0 0.6 301.80003 511.49999] CT
/Helvetica 18.333 F
GS
[1 0 0 1 0 0] CT
-74 19 moveto 
1 -1 scale
(Frequency  \(rad/s\)) t 
GR
GR
%%Trailer
%%Pages: 1
%%EOF
