%!PS-Adobe-3.0 EPSF-3.0
%%Creator: (MATLAB, The Mathworks, Inc. Version 9.1.0.441655 \(R2016b\). Operating System: Linux)
%%Title: /users/start2016/r0461511/Documents/system-identification/Oefenzitting_3/plots/bode_armax_compare.eps
%%CreationDate: 2016-12-20T16:33:01
%%Pages: (atend)
%%BoundingBox: 0 0 1440 693
%%LanguageLevel: 3
%%EndComments
%%BeginProlog
%%BeginResource: procset (Apache XML Graphics Std ProcSet) 1.2 0
%%Version: 1.2 0
%%Copyright: (Copyright 2001-2003,2010 The Apache Software Foundation. License terms: http://www.apache.org/licenses/LICENSE-2.0)
/bd{bind def}bind def
/ld{load def}bd
/GR/grestore ld
/M/moveto ld
/LJ/setlinejoin ld
/C/curveto ld
/f/fill ld
/LW/setlinewidth ld
/GC/setgray ld
/t/show ld
/N/newpath ld
/CT/concat ld
/cp/closepath ld
/S/stroke ld
/L/lineto ld
/CC/setcmykcolor ld
/A/ashow ld
/GS/gsave ld
/RC/setrgbcolor ld
/RM/rmoveto ld
/ML/setmiterlimit ld
/re {4 2 roll M
1 index 0 rlineto
0 exch rlineto
neg 0 rlineto
cp } bd
/_ctm matrix def
/_tm matrix def
/BT { _ctm currentmatrix pop matrix _tm copy pop 0 0 moveto } bd
/ET { _ctm setmatrix } bd
/iTm { _ctm setmatrix _tm concat } bd
/Tm { _tm astore pop iTm 0 0 moveto } bd
/ux 0.0 def
/uy 0.0 def
/F {
  /Tp exch def
  /Tf exch def
  Tf findfont Tp scalefont setfont
  /cf Tf def  /cs Tp def
} bd
/ULS {currentpoint /uy exch def /ux exch def} bd
/ULE {
  /Tcx currentpoint pop def
  gsave
  newpath
  cf findfont cs scalefont dup
  /FontMatrix get 0 get /Ts exch def /FontInfo get dup
  /UnderlinePosition get Ts mul /To exch def
  /UnderlineThickness get Ts mul /Tt exch def
  ux uy To add moveto  Tcx uy To add lineto
  Tt setlinewidth stroke
  grestore
} bd
/OLE {
  /Tcx currentpoint pop def
  gsave
  newpath
  cf findfont cs scalefont dup
  /FontMatrix get 0 get /Ts exch def /FontInfo get dup
  /UnderlinePosition get Ts mul /To exch def
  /UnderlineThickness get Ts mul /Tt exch def
  ux uy To add cs add moveto Tcx uy To add cs add lineto
  Tt setlinewidth stroke
  grestore
} bd
/SOE {
  /Tcx currentpoint pop def
  gsave
  newpath
  cf findfont cs scalefont dup
  /FontMatrix get 0 get /Ts exch def /FontInfo get dup
  /UnderlinePosition get Ts mul /To exch def
  /UnderlineThickness get Ts mul /Tt exch def
  ux uy To add cs 10 mul 26 idiv add moveto Tcx uy To add cs 10 mul 26 idiv add lineto
  Tt setlinewidth stroke
  grestore
} bd
/QT {
/Y22 exch store
/X22 exch store
/Y21 exch store
/X21 exch store
currentpoint
/Y21 load 2 mul add 3 div exch
/X21 load 2 mul add 3 div exch
/X21 load 2 mul /X22 load add 3 div
/Y21 load 2 mul /Y22 load add 3 div
/X22 load /Y22 load curveto
} bd
/SSPD {
dup length /d exch dict def
{
/v exch def
/k exch def
currentpagedevice k known {
/cpdv currentpagedevice k get def
v cpdv ne {
/upd false def
/nullv v type /nulltype eq def
/nullcpdv cpdv type /nulltype eq def
nullv nullcpdv or
{
/upd true def
} {
/sametype v type cpdv type eq def
sametype {
v type /arraytype eq {
/vlen v length def
/cpdvlen cpdv length def
vlen cpdvlen eq {
0 1 vlen 1 sub {
/i exch def
/obj v i get def
/cpdobj cpdv i get def
obj cpdobj ne {
/upd true def
exit
} if
} for
} {
/upd true def
} ifelse
} {
v type /dicttype eq {
v {
/dv exch def
/dk exch def
/cpddv cpdv dk get def
dv cpddv ne {
/upd true def
exit
} if
} forall
} {
/upd true def
} ifelse
} ifelse
} if
} ifelse
upd true eq {
d k v put
} if
} if
} if
} forall
d length 0 gt {
d setpagedevice
} if
} bd
/RE { % /NewFontName [NewEncodingArray] /FontName RE -
  findfont dup length dict begin
  {
    1 index /FID ne
    {def} {pop pop} ifelse
  } forall
  /Encoding exch def
  /FontName 1 index def
  currentdict definefont pop
  end
} bind def
%%EndResource
%%BeginResource: procset (Apache XML Graphics EPS ProcSet) 1.0 0
%%Version: 1.0 0
%%Copyright: (Copyright 2002-2003 The Apache Software Foundation. License terms: http://www.apache.org/licenses/LICENSE-2.0)
/BeginEPSF { %def
/b4_Inc_state save def         % Save state for cleanup
/dict_count countdictstack def % Count objects on dict stack
/op_count count 1 sub def      % Count objects on operand stack
userdict begin                 % Push userdict on dict stack
/showpage { } def              % Redefine showpage, { } = null proc
0 setgray 0 setlinecap         % Prepare graphics state
1 setlinewidth 0 setlinejoin
10 setmiterlimit [ ] 0 setdash newpath
/languagelevel where           % If level not equal to 1 then
{pop languagelevel             % set strokeadjust and
1 ne                           % overprint to their defaults.
{false setstrokeadjust false setoverprint
} if
} if
} bd
/EndEPSF { %def
count op_count sub {pop} repeat            % Clean up stacks
countdictstack dict_count sub {end} repeat
b4_Inc_state restore
} bd
%%EndResource
%FOPBeginFontDict
%%IncludeResource: font Courier-Bold
%%IncludeResource: font Helvetica
%%IncludeResource: font Courier-BoldOblique
%%IncludeResource: font Courier-Oblique
%%IncludeResource: font Times-Roman
%%IncludeResource: font Helvetica-BoldOblique
%%IncludeResource: font Helvetica-Bold
%%IncludeResource: font Helvetica-Oblique
%%IncludeResource: font Times-BoldItalic
%%IncludeResource: font Courier
%%IncludeResource: font Times-Italic
%%IncludeResource: font Times-Bold
%%IncludeResource: font Symbol
%%IncludeResource: font ZapfDingbats
%FOPEndFontDict
%%BeginResource: encoding WinAnsiEncoding
/WinAnsiEncoding [
/.notdef /.notdef /.notdef /.notdef /.notdef
/.notdef /.notdef /.notdef /.notdef /.notdef
/.notdef /.notdef /.notdef /.notdef /.notdef
/.notdef /.notdef /.notdef /.notdef /.notdef
/.notdef /.notdef /.notdef /.notdef /.notdef
/.notdef /.notdef /.notdef /.notdef /.notdef
/.notdef /.notdef /space /exclam /quotedbl
/numbersign /dollar /percent /ampersand /quotesingle
/parenleft /parenright /asterisk /plus /comma
/hyphen /period /slash /zero /one
/two /three /four /five /six
/seven /eight /nine /colon /semicolon
/less /equal /greater /question /at
/A /B /C /D /E
/F /G /H /I /J
/K /L /M /N /O
/P /Q /R /S /T
/U /V /W /X /Y
/Z /bracketleft /backslash /bracketright /asciicircum
/underscore /quoteleft /a /b /c
/d /e /f /g /h
/i /j /k /l /m
/n /o /p /q /r
/s /t /u /v /w
/x /y /z /braceleft /bar
/braceright /asciitilde /bullet /Euro /bullet
/quotesinglbase /florin /quotedblbase /ellipsis /dagger
/daggerdbl /circumflex /perthousand /Scaron /guilsinglleft
/OE /bullet /Zcaron /bullet /bullet
/quoteleft /quoteright /quotedblleft /quotedblright /bullet
/endash /emdash /asciitilde /trademark /scaron
/guilsinglright /oe /bullet /zcaron /Ydieresis
/space /exclamdown /cent /sterling /currency
/yen /brokenbar /section /dieresis /copyright
/ordfeminine /guillemotleft /logicalnot /sfthyphen /registered
/macron /degree /plusminus /twosuperior /threesuperior
/acute /mu /paragraph /middot /cedilla
/onesuperior /ordmasculine /guillemotright /onequarter /onehalf
/threequarters /questiondown /Agrave /Aacute /Acircumflex
/Atilde /Adieresis /Aring /AE /Ccedilla
/Egrave /Eacute /Ecircumflex /Edieresis /Igrave
/Iacute /Icircumflex /Idieresis /Eth /Ntilde
/Ograve /Oacute /Ocircumflex /Otilde /Odieresis
/multiply /Oslash /Ugrave /Uacute /Ucircumflex
/Udieresis /Yacute /Thorn /germandbls /agrave
/aacute /acircumflex /atilde /adieresis /aring
/ae /ccedilla /egrave /eacute /ecircumflex
/edieresis /igrave /iacute /icircumflex /idieresis
/eth /ntilde /ograve /oacute /ocircumflex
/otilde /odieresis /divide /oslash /ugrave
/uacute /ucircumflex /udieresis /yacute /thorn
/ydieresis
] def
%%EndResource
%FOPBeginFontReencode
/Courier-Bold findfont
dup length dict begin
  {1 index /FID ne {def} {pop pop} ifelse} forall
  /Encoding WinAnsiEncoding def
  currentdict
end
/Courier-Bold exch definefont pop
/Helvetica findfont
dup length dict begin
  {1 index /FID ne {def} {pop pop} ifelse} forall
  /Encoding WinAnsiEncoding def
  currentdict
end
/Helvetica exch definefont pop
/Courier-BoldOblique findfont
dup length dict begin
  {1 index /FID ne {def} {pop pop} ifelse} forall
  /Encoding WinAnsiEncoding def
  currentdict
end
/Courier-BoldOblique exch definefont pop
/Courier-Oblique findfont
dup length dict begin
  {1 index /FID ne {def} {pop pop} ifelse} forall
  /Encoding WinAnsiEncoding def
  currentdict
end
/Courier-Oblique exch definefont pop
/Times-Roman findfont
dup length dict begin
  {1 index /FID ne {def} {pop pop} ifelse} forall
  /Encoding WinAnsiEncoding def
  currentdict
end
/Times-Roman exch definefont pop
/Helvetica-BoldOblique findfont
dup length dict begin
  {1 index /FID ne {def} {pop pop} ifelse} forall
  /Encoding WinAnsiEncoding def
  currentdict
end
/Helvetica-BoldOblique exch definefont pop
/Helvetica-Bold findfont
dup length dict begin
  {1 index /FID ne {def} {pop pop} ifelse} forall
  /Encoding WinAnsiEncoding def
  currentdict
end
/Helvetica-Bold exch definefont pop
/Helvetica-Oblique findfont
dup length dict begin
  {1 index /FID ne {def} {pop pop} ifelse} forall
  /Encoding WinAnsiEncoding def
  currentdict
end
/Helvetica-Oblique exch definefont pop
/Times-BoldItalic findfont
dup length dict begin
  {1 index /FID ne {def} {pop pop} ifelse} forall
  /Encoding WinAnsiEncoding def
  currentdict
end
/Times-BoldItalic exch definefont pop
/Courier findfont
dup length dict begin
  {1 index /FID ne {def} {pop pop} ifelse} forall
  /Encoding WinAnsiEncoding def
  currentdict
end
/Courier exch definefont pop
/Times-Italic findfont
dup length dict begin
  {1 index /FID ne {def} {pop pop} ifelse} forall
  /Encoding WinAnsiEncoding def
  currentdict
end
/Times-Italic exch definefont pop
/Times-Bold findfont
dup length dict begin
  {1 index /FID ne {def} {pop pop} ifelse} forall
  /Encoding WinAnsiEncoding def
  currentdict
end
/Times-Bold exch definefont pop
%FOPEndFontReencode
%%EndProlog
%%Page: 1 1
%%PageBoundingBox: 0 0 1440 693
%%BeginPageSetup
[1 0 0 -1 0 693] CT
%%EndPageSetup
GS
[0.75 0 0 0.75 0 0] CT
1 GC
N
0 0 1920 924 re
f
GR
GS
[0.75 0 0 0.75 0 0] CT
1 GC
N
0 0 1920 924 re
f
GR
GS
[0.75 0 0 0.75 0 0] CT
1 GC
N
262 471 M
1738 471 L
1738 89 L
262 89 L
cp
f
GR
GS
[0.75 0 0 0.75 0 0] CT
0.4 GC
2 setlinecap
1 LJ
0.667 LW
N
262 471 M
1738 471 L
S
GR
GS
[0.75 0 0 0.75 0 0] CT
0.4 GC
2 setlinecap
1 LJ
0.667 LW
N
262 89 M
1738 89 L
S
GR
GS
[0.75 0 0 0.75 0 0] CT
0.4 GC
2 setlinecap
1 LJ
0.667 LW
N
496.916 471 M
496.916 456.24 L
S
GR
GS
[0.75 0 0 0.75 0 0] CT
0.4 GC
2 setlinecap
1 LJ
0.667 LW
N
731.836 471 M
731.836 456.24 L
S
GR
GS
[0.75 0 0 0.75 0 0] CT
0.4 GC
2 setlinecap
1 LJ
0.667 LW
N
966.756 471 M
966.756 456.24 L
S
GR
GS
[0.75 0 0 0.75 0 0] CT
0.4 GC
2 setlinecap
1 LJ
0.667 LW
N
1201.677 471 M
1201.677 456.24 L
S
GR
GS
[0.75 0 0 0.75 0 0] CT
0.4 GC
2 setlinecap
1 LJ
0.667 LW
N
1436.597 471 M
1436.597 456.24 L
S
GR
GS
[0.75 0 0 0.75 0 0] CT
0.4 GC
2 setlinecap
1 LJ
0.667 LW
N
1671.518 471 M
1671.518 456.24 L
S
GR
GS
[0.75 0 0 0.75 0 0] CT
0.4 GC
2 setlinecap
1 LJ
0.667 LW
N
496.916 89 M
496.916 103.76 L
S
GR
GS
[0.75 0 0 0.75 0 0] CT
0.4 GC
2 setlinecap
1 LJ
0.667 LW
N
731.836 89 M
731.836 103.76 L
S
GR
GS
[0.75 0 0 0.75 0 0] CT
0.4 GC
2 setlinecap
1 LJ
0.667 LW
N
966.756 89 M
966.756 103.76 L
S
GR
GS
[0.75 0 0 0.75 0 0] CT
0.4 GC
2 setlinecap
1 LJ
0.667 LW
N
1201.677 89 M
1201.677 103.76 L
S
GR
GS
[0.75 0 0 0.75 0 0] CT
0.4 GC
2 setlinecap
1 LJ
0.667 LW
N
1436.597 89 M
1436.597 103.76 L
S
GR
GS
[0.75 0 0 0.75 0 0] CT
0.4 GC
2 setlinecap
1 LJ
0.667 LW
N
1671.518 89 M
1671.518 103.76 L
S
GR
GS
[0.75 0 0 0.75 0 0] CT
0.4 GC
2 setlinecap
1 LJ
0.667 LW
N
262 471 M
262 89 L
S
GR
GS
[0.75 0 0 0.75 0 0] CT
0.4 GC
2 setlinecap
1 LJ
0.667 LW
N
1738 471 M
1738 89 L
S
GR
GS
[0.75 0 0 0.75 0 0] CT
0.4 GC
2 setlinecap
1 LJ
0.667 LW
N
262 471 M
276.76 471 L
S
GR
GS
[0.75 0 0 0.75 0 0] CT
0.4 GC
2 setlinecap
1 LJ
0.667 LW
N
262 416.429 M
276.76 416.429 L
S
GR
GS
[0.75 0 0 0.75 0 0] CT
0.4 GC
2 setlinecap
1 LJ
0.667 LW
N
262 361.857 M
276.76 361.857 L
S
GR
GS
[0.75 0 0 0.75 0 0] CT
0.4 GC
2 setlinecap
1 LJ
0.667 LW
N
262 307.286 M
276.76 307.286 L
S
GR
GS
[0.75 0 0 0.75 0 0] CT
0.4 GC
2 setlinecap
1 LJ
0.667 LW
N
262 252.714 M
276.76 252.714 L
S
GR
GS
[0.75 0 0 0.75 0 0] CT
0.4 GC
2 setlinecap
1 LJ
0.667 LW
N
262 198.143 M
276.76 198.143 L
S
GR
GS
[0.75 0 0 0.75 0 0] CT
0.4 GC
2 setlinecap
1 LJ
0.667 LW
N
262 143.571 M
276.76 143.571 L
S
GR
GS
[0.75 0 0 0.75 0 0] CT
0.4 GC
2 setlinecap
1 LJ
0.667 LW
N
262 89 M
276.76 89 L
S
GR
GS
[0.75 0 0 0.75 0 0] CT
0.4 GC
2 setlinecap
1 LJ
0.667 LW
N
1738 471 M
1723.24 471 L
S
GR
GS
[0.75 0 0 0.75 0 0] CT
0.4 GC
2 setlinecap
1 LJ
0.667 LW
N
1738 416.429 M
1723.24 416.429 L
S
GR
GS
[0.75 0 0 0.75 0 0] CT
0.4 GC
2 setlinecap
1 LJ
0.667 LW
N
1738 361.857 M
1723.24 361.857 L
S
GR
GS
[0.75 0 0 0.75 0 0] CT
0.4 GC
2 setlinecap
1 LJ
0.667 LW
N
1738 307.286 M
1723.24 307.286 L
S
GR
GS
[0.75 0 0 0.75 0 0] CT
0.4 GC
2 setlinecap
1 LJ
0.667 LW
N
1738 252.714 M
1723.24 252.714 L
S
GR
GS
[0.75 0 0 0.75 0 0] CT
0.4 GC
2 setlinecap
1 LJ
0.667 LW
N
1738 198.143 M
1723.24 198.143 L
S
GR
GS
[0.75 0 0 0.75 0 0] CT
0.4 GC
2 setlinecap
1 LJ
0.667 LW
N
1738 143.571 M
1723.24 143.571 L
S
GR
GS
[0.75 0 0 0.75 0 0] CT
0.4 GC
2 setlinecap
1 LJ
0.667 LW
N
1738 89 M
1723.24 89 L
S
GR
GS
[0.75 0 0 0.75 192.49999 353.25] CT
0.4 GC
/Helvetica 13.333 F
GS
[1 0 0 1 0 0] CT
-22 4.5 moveto 
1 -1 scale
(-60) t 
GR
GR
GS
[0.75 0 0 0.75 192.49999 312.32142] CT
0.4 GC
/Helvetica 13.333 F
GS
[1 0 0 1 0 0] CT
-22 4.5 moveto 
1 -1 scale
(-50) t 
GR
GR
GS
[0.75 0 0 0.75 192.49999 271.39286] CT
0.4 GC
/Helvetica 13.333 F
GS
[1 0 0 1 0 0] CT
-22 4.5 moveto 
1 -1 scale
(-40) t 
GR
GR
GS
[0.75 0 0 0.75 192.49999 230.46428] CT
0.4 GC
/Helvetica 13.333 F
GS
[1 0 0 1 0 0] CT
-22 4.5 moveto 
1 -1 scale
(-30) t 
GR
GR
GS
[0.75 0 0 0.75 192.49999 189.53571] CT
0.4 GC
/Helvetica 13.333 F
GS
[1 0 0 1 0 0] CT
-22 4.5 moveto 
1 -1 scale
(-20) t 
GR
GR
GS
[0.75 0 0 0.75 192.49999 148.60714] CT
0.4 GC
/Helvetica 13.333 F
GS
[1 0 0 1 0 0] CT
-22 4.5 moveto 
1 -1 scale
(-10) t 
GR
GR
GS
[0.75 0 0 0.75 192.49999 107.67857] CT
0.4 GC
/Helvetica 13.333 F
GS
[1 0 0 1 0 0] CT
-9 4.5 moveto 
1 -1 scale
(0) t 
GR
GR
GS
[0.75 0 0 0.75 192.49999 66.75] CT
0.4 GC
/Helvetica 13.333 F
GS
[1 0 0 1 0 0] CT
-17 4.5 moveto 
1 -1 scale
(10) t 
GR
GR
GS
[0 -0.75 0.75 0 173 209.99986] CT
/Helvetica 14.667 F
GS
[1 0 0 1 0 0] CT
-58 -4 moveto 
1 -1 scale
(Magnitude \(dB\)) t 
GR
GR
GS
[0.75 0 0 0.75 750.00073 64.875] CT
0.4 GC
/Helvetica 13.333 F
GS
[1 0 0 1 0 0] CT
-54 -4 moveto 
1 -1 scale
(From: u1  To: y1) t 
GR
GR
GS
[0.75 0 0 0.75 0 0] CT
0 0.447 0.741 RC
1 LJ
0.667 LW
N
261.995 421.36 M
261.995 421.36 L
261.995 421.36 L
261.995 421.36 L
261.996 421.36 L
262.006 421.35 L
262.008 421.347 L
262.01 421.342 L
262.013 421.336 L
262.016 421.327 L
262.019 421.316 L
262.023 421.3 L
262.028 421.278 L
262.033 421.248 L
262.039 421.208 L
262.047 421.153 L
262.055 421.078 L
262.065 420.977 L
262.077 420.84 L
262.09 420.655 L
262.106 420.405 L
262.125 420.069 L
262.146 419.618 L
262.172 419.018 L
262.201 418.225 L
262.236 417.186 L
262.276 415.84 L
262.323 414.122 L
262.377 411.966 L
262.441 409.314 L
262.515 406.121 L
262.602 402.368 L
262.704 398.057 L
262.822 393.218 L
262.96 387.902 L
263.121 382.169 L
263.309 376.086 L
263.528 369.718 L
263.784 363.122 L
264.083 356.348 L
264.431 349.438 L
264.838 342.424 L
265.313 335.331 L
265.867 328.18 L
266.513 320.986 L
267.268 313.76 L
268.148 306.51 L
269.176 299.244 L
270.375 291.965 L
271.774 284.679 L
273.407 277.388 L
273.527 276.893 L
274.727 272.216 L
275.312 270.095 L
276.053 267.54 L
277.516 262.863 L
277.536 262.803 L
279.131 258.188 L
280.131 255.512 L
280.915 253.515 L
282.884 248.843 L
283.159 248.227 L
285.059 244.175 L
286.693 240.948 L
287.459 239.51 L
290.11 234.848 L
290.817 233.679 L
293.036 230.192 L
295.63 226.42 L
296.267 225.539 L
299.835 220.89 L
301.246 219.171 L
303.773 216.245 L
307.8 211.929 L
308.122 211.601 L
312.923 206.953 L
315.449 204.682 L
318.224 202.296 L
324.077 197.63 L
324.375 197.405 L
330.539 192.915 L
334.791 190.047 L
337.674 188.152 L
345.551 183.322 L
346.947 182.513 L
354.248 178.302 L
361.132 174.627 L
363.851 173.167 L
368.921 170.545 L
371.034 169.456 L
374.453 167.638 L
384.479 162.609 L
386.159 161.698 L
399.083 155.068 L
399.658 154.788 L
413.352 147.282 L
414.206 146.836 L
427.942 138.594 L
429.107 137.791 L
440.741 130.06 L
446.501 125.822 L
452.534 121.523 L
463.296 113.727 L
465.706 112.25 L
473.036 107.863 L
481.788 104.969 L
486.911 105.152 L
490.904 105.293 L
501.979 109.54 L
510.322 114.214 L
515.535 117.056 L
532.263 125.617 L
536.17 127.047 L
553.108 133.016 L
564.709 135.34 L
572.214 136.797 L
579.377 137.6 L
592.834 138.333 L
596.218 138.338 L
600.201 138.343 L
620.659 137.038 L
626.906 136.264 L
631.007 135.506 L
646.338 132.745 L
652.141 131.372 L
669.418 126.454 L
669.783 126.353 L
690.992 119.14 L
710.027 113.049 L
711.826 112.709 L
726.997 109.896 L
744.61 110.188 L
758.649 112.881 L
766.025 114.266 L
780.748 117.831 L
803.136 122.447 L
810.345 123.413 L
822.781 125.05 L
839.917 127.612 L
854.786 133.838 L
867.423 144.048 L
870.037 146.135 L
873.852 149.617 L
888.616 161.907 L
892.485 164.592 L
911.365 174.63 L
915.167 176.186 L
930.441 181.277 L
942.94 185.357 L
977.181 195.076 L
1000.019 202.045 L
1019.738 207.89 L
1052.941 219.228 L
1076.84 228.891 L
1096.348 236.57 L
1134.497 255.095 L
1161.657 271.373 L
1167.758 274.962 L
1196.565 296.417 L
1221.374 319.412 L
1242.64 341.501 L
1255.302 349.984 L
1260.797 353.632 L
1279.292 350.349 L
1301.842 339.18 L
1329.445 329.673 L
1358.695 325.833 L
1363.394 325.225 L
1394.34 326.218 L
1436.408 332.634 L
1472.85 338.746 L
1473.156 338.796 L
1505.089 338.62 L
1537.865 331.241 L
1577.787 318.941 L
1581.683 317.786 L
1598.887 313.009 L
1603.342 311.783 L
1623.494 306.902 L
1639.742 303.452 L
1659.353 299.77 L
1670.75 297.785 L
1689.963 294.349 L
1697.055 292.879 L
1715.989 287.321 L
1719.295 285.993 L
1738.044 279.956 L
S
GR
GS
[0.75 0 0 0.75 0 0] CT
1 LJ
0.667 LW
N
1738.044 471.046 M
1738.044 471 L
1738.044 143.571 L
1738.044 88.954 L
S
GR
GS
[0.75 0 0 0.75 0 0] CT
0.851 0.325 0.098 RC
1 LJ
0.667 LW
N
261.995 425.854 M
261.995 425.854 L
261.995 425.854 L
261.995 425.854 L
261.996 425.854 L
262.005 425.845 L
262.007 425.841 L
262.009 425.837 L
262.011 425.83 L
262.014 425.821 L
262.017 425.809 L
262.021 425.793 L
262.025 425.771 L
262.03 425.74 L
262.036 425.699 L
262.043 425.642 L
262.051 425.566 L
262.061 425.461 L
262.072 425.32 L
262.085 425.127 L
262.1 424.868 L
262.117 424.518 L
262.138 424.048 L
262.161 423.422 L
262.189 422.593 L
262.222 421.507 L
262.26 420.101 L
262.305 418.306 L
262.357 416.058 L
262.418 413.297 L
262.489 409.984 L
262.572 406.099 L
262.669 401.654 L
262.782 396.681 L
262.915 391.235 L
263.07 385.381 L
263.25 379.187 L
263.462 372.716 L
263.708 366.027 L
263.997 359.168 L
264.334 352.179 L
264.727 345.093 L
265.187 337.932 L
265.724 330.717 L
266.351 323.461 L
267.084 316.175 L
267.94 308.868 L
268.941 301.545 L
270.11 294.212 L
271.475 286.872 L
273.07 279.527 L
273.527 277.619 L
274.727 272.942 L
274.934 272.182 L
276.053 268.266 L
277.111 264.837 L
277.516 263.59 L
279.131 258.917 L
279.655 257.496 L
280.915 254.245 L
282.626 250.161 L
282.884 249.576 L
285.059 244.911 L
286.098 242.834 L
287.459 240.25 L
290.11 235.593 L
290.154 235.519 L
293.036 230.943 L
294.892 228.216 L
296.267 226.297 L
299.835 221.656 L
300.428 220.926 L
303.773 217.02 L
306.896 213.647 L
308.122 212.385 L
312.923 207.75 L
314.451 206.365 L
318.224 203.101 L
323.278 199.055 L
324.077 198.44 L
330.539 193.732 L
333.591 191.66 L
337.674 188.954 L
345.551 184.123 L
345.639 184.071 L
354.248 179.041 L
359.714 176.086 L
363.851 173.829 L
366.655 172.351 L
374.453 168.103 L
382.29 164.12 L
386.159 161.963 L
397.627 155.94 L
399.083 155.08 L
412.404 147.606 L
413.352 147 L
426.424 139.023 L
429.107 137.178 L
439.551 130.266 L
446.501 125.285 L
451.702 121.68 L
462.84 114 L
465.706 112.355 L
472.961 108.296 L
482.092 105.447 L
486.911 105.547 L
491.619 105.642 L
503.19 109.661 L
510.322 113.505 L
517.35 117.187 L
531.722 124.785 L
534.826 126.267 L
536.17 126.824 L
550.346 132.538 L
564.709 136.259 L
570.255 137.649 L
594.305 139.657 L
596.218 139.628 L
597.69 139.606 L
625.765 136.487 L
631.007 135.195 L
651.921 130.217 L
669.418 124.929 L
676.043 122.986 L
698.097 116.703 L
711.826 113.911 L
718.106 112.662 L
739.034 111.086 L
758.649 112.419 L
764.442 112.803 L
768.907 113.443 L
797.302 119.308 L
810.345 123.241 L
823.207 127.028 L
850.365 137.378 L
867.423 145.226 L
883.323 152.345 L
923.631 172.174 L
930.441 175.566 L
973.375 196.187 L
1000.019 208.381 L
1008.75 212.28 L
1063.328 235.61 L
1076.84 241.25 L
1111.955 255.481 L
1154.82 273.027 L
1161.657 276.024 L
1192.271 289.169 L
1224.749 304.715 L
1252.741 320.44 L
1255.302 322.209 L
1276.742 336.847 L
1297.231 352.086 L
1314.66 355.925 L
1332.382 338.51 L
1335.616 333.854 L
1355.341 303.888 L
1358.695 300.786 L
1372.06 288.518 L
1389.035 297.54 L
1409.741 318.968 L
1435.082 343.024 L
1435.371 343.281 L
1464.693 366.627 L
1472.85 369.935 L
1489.865 376.764 L
1515.563 373.131 L
1546.889 361.656 L
1585.239 349.182 L
1598.887 346.052 L
1632.434 338.49 L
1690.873 331.083 L
1738.044 329.266 L
S
GR
GS
[0.75 0 0 0.75 0 0] CT
1 LJ
0.667 LW
N
1738.044 471.046 M
1738.044 471 L
1738.044 143.571 L
1738.044 88.954 L
S
GR
GS
[0.75 0 0 0.75 0 0] CT
1 0 1 RC
1 LJ
0.667 LW
N
261.995 318.212 M
264.959 317.235 L
267.923 317.084 L
270.887 316.756 L
273.851 316.491 L
276.815 315.025 L
279.779 312.558 L
282.743 308.533 L
285.707 302.813 L
288.671 295.279 L
291.635 287.057 L
294.599 276.837 L
297.563 266.131 L
300.527 255.396 L
303.491 245.074 L
306.455 235.367 L
309.419 228.226 L
312.382 221.934 L
315.346 216.438 L
318.31 211.7 L
321.274 207.428 L
324.238 202.923 L
327.202 198.923 L
330.166 195.34 L
333.13 192.118 L
336.094 189.199 L
339.058 186.512 L
342.022 184.038 L
344.986 181.777 L
347.95 179.662 L
350.914 177.675 L
353.878 175.785 L
356.842 173.978 L
359.806 172.222 L
362.77 170.533 L
365.734 168.89 L
368.698 167.317 L
371.662 165.805 L
374.625 164.373 L
377.589 163.001 L
380.553 161.697 L
383.517 160.413 L
386.481 159.143 L
389.445 157.843 L
392.409 156.496 L
395.373 155.055 L
398.337 153.523 L
401.301 151.87 L
404.265 150.093 L
407.229 148.188 L
410.193 146.193 L
413.157 144.109 L
416.121 141.96 L
419.085 139.73 L
422.049 137.453 L
425.013 135.099 L
427.977 132.671 L
430.941 130.159 L
433.905 127.604 L
436.868 124.985 L
439.832 122.325 L
442.796 119.65 L
445.76 116.977 L
448.724 114.307 L
451.688 111.67 L
454.652 109.094 L
457.616 106.603 L
460.58 104.245 L
463.544 102.071 L
466.508 100.119 L
469.472 98.436 L
472.436 97.064 L
475.4 96.03 L
478.364 95.351 L
481.328 95.034 L
484.292 95.059 L
487.256 95.412 L
490.22 96.049 L
493.184 96.929 L
496.148 98.011 L
499.111 99.264 L
502.075 100.628 L
505.039 102.081 L
508.003 103.59 L
510.967 105.116 L
513.931 106.637 L
516.895 108.141 L
519.859 109.6 L
522.823 110.988 L
525.787 112.321 L
528.751 113.585 L
531.715 114.784 L
534.679 115.922 L
537.643 117.018 L
540.607 118.06 L
543.571 119.041 L
546.535 119.952 L
549.499 120.804 L
552.463 121.591 L
555.427 122.313 L
558.391 122.97 L
561.354 123.582 L
564.318 124.146 L
567.282 124.652 L
570.246 125.103 L
573.21 125.523 L
576.174 125.893 L
579.138 126.193 L
582.102 126.451 L
585.066 126.66 L
588.03 126.799 L
590.994 126.875 L
593.958 126.916 L
596.922 126.899 L
599.886 126.838 L
602.85 126.738 L
605.814 126.61 L
608.778 126.43 L
611.742 126.217 L
614.706 125.961 L
617.67 125.669 L
620.634 125.322 L
623.597 124.953 L
626.561 124.531 L
629.525 124.062 L
632.489 123.547 L
635.453 122.996 L
638.417 122.39 L
641.381 121.752 L
644.345 121.085 L
647.309 120.376 L
650.273 119.635 L
653.237 118.852 L
656.201 118.028 L
659.165 117.161 L
662.129 116.269 L
665.093 115.335 L
668.057 114.37 L
671.021 113.384 L
673.985 112.377 L
676.949 111.351 L
679.913 110.314 L
682.877 109.28 L
685.84 108.242 L
688.804 107.215 L
691.768 106.195 L
694.732 105.201 L
697.696 104.229 L
700.66 103.298 L
703.624 102.411 L
706.588 101.585 L
709.552 100.827 L
712.516 100.145 L
715.48 99.545 L
718.444 99.034 L
721.408 98.618 L
724.372 98.296 L
727.336 98.074 L
730.3 97.951 L
733.264 97.924 L
736.228 97.988 L
739.192 98.145 L
742.156 98.384 L
745.12 98.703 L
748.083 99.092 L
751.047 99.542 L
754.011 100.038 L
756.975 100.576 L
759.939 101.14 L
762.903 101.726 L
765.867 102.328 L
768.831 102.935 L
771.795 103.537 L
774.759 104.129 L
777.723 104.702 L
780.687 105.254 L
783.651 105.786 L
786.615 106.297 L
789.579 106.79 L
792.543 107.264 L
795.507 107.722 L
798.471 108.171 L
801.435 108.616 L
804.399 109.062 L
807.362 109.514 L
810.326 109.979 L
813.29 110.463 L
816.254 110.983 L
819.218 111.549 L
822.182 112.175 L
825.146 112.883 L
828.11 113.679 L
831.074 114.569 L
834.038 115.566 L
837.002 116.689 L
839.966 117.928 L
842.93 119.307 L
845.894 120.814 L
848.858 122.451 L
851.822 124.205 L
854.786 126.086 L
857.75 128.062 L
860.714 130.135 L
863.678 132.29 L
866.642 134.511 L
869.606 136.776 L
872.569 139.073 L
875.533 141.405 L
878.497 143.745 L
881.461 146.071 L
884.425 148.339 L
887.389 150.536 L
890.353 152.609 L
893.317 154.539 L
896.281 156.333 L
899.245 158.05 L
902.209 159.7 L
905.173 161.352 L
908.137 163.049 L
911.101 164.796 L
914.065 166.575 L
917.029 168.38 L
919.993 170.166 L
922.957 171.925 L
925.921 173.645 L
928.885 175.306 L
931.849 176.909 L
934.813 178.47 L
937.776 179.964 L
940.74 181.399 L
943.704 182.777 L
946.668 184.108 L
949.632 185.373 L
952.596 186.589 L
955.56 187.749 L
958.524 188.854 L
961.488 189.89 L
964.452 190.869 L
967.416 191.778 L
970.38 192.605 L
973.344 193.372 L
976.308 194.076 L
979.272 194.706 L
982.236 195.261 L
985.2 195.764 L
988.164 196.216 L
991.128 196.586 L
994.091 196.872 L
997.055 197.079 L
1000.019 197.208 L
1002.983 197.215 L
1005.947 197.167 L
1008.911 197.1 L
1011.875 197.015 L
1014.839 196.919 L
1017.803 196.846 L
1020.767 196.796 L
1023.731 196.755 L
1026.695 196.761 L
1029.659 196.83 L
1032.623 197.024 L
1035.587 197.39 L
1038.551 197.965 L
1041.515 198.803 L
1044.479 199.963 L
1047.443 201.442 L
1050.407 203.223 L
1053.371 205.337 L
1056.334 207.759 L
1059.298 210.42 L
1062.262 213.329 L
1065.226 216.438 L
1068.19 219.693 L
1071.154 223.051 L
1074.118 226.523 L
1077.082 229.995 L
1080.046 233.534 L
1083.01 237.109 L
1085.974 240.441 L
1088.938 243.752 L
1091.902 247.077 L
1094.866 250.289 L
1097.83 253.393 L
1100.794 256.911 L
1103.758 260.345 L
1106.722 263.722 L
1109.686 266.94 L
1112.65 269.746 L
1115.614 272.199 L
1118.578 274.475 L
1121.542 276.506 L
1124.505 278.578 L
1127.469 281.327 L
1130.433 283.635 L
1133.397 285.853 L
1136.361 288.144 L
1139.325 290.252 L
1142.289 291.698 L
1145.253 291.823 L
1148.217 291.976 L
1151.181 291.955 L
1154.145 291.365 L
1157.109 290.799 L
1160.073 293.537 L
1163.037 296.172 L
1166.001 298.7 L
1168.965 301.896 L
1171.929 305.046 L
1174.893 306.36 L
1177.857 306.261 L
1180.821 305.978 L
1183.784 305.703 L
1186.748 305.203 L
1189.712 304.527 L
1192.676 306.38 L
1195.64 308.384 L
1198.604 310.031 L
1201.568 311.897 L
1204.532 313.861 L
1207.496 314.299 L
1210.46 314.713 L
1213.424 314.783 L
1216.388 313.201 L
1219.352 311.287 L
1222.316 309.557 L
1225.28 307.534 L
1228.244 306.083 L
1231.208 306.873 L
1234.172 308.133 L
1237.135 309.361 L
1240.1 311.072 L
1243.063 312.581 L
1246.027 313.968 L
1248.991 315.122 L
1251.955 316.326 L
1254.919 316.593 L
1257.883 316.795 L
1260.847 314.185 L
1263.811 310.68 L
1266.775 307.087 L
1269.739 304.758 L
1272.703 302.405 L
1275.667 304.455 L
1278.631 308.204 L
1281.595 312.038 L
1284.559 314.824 L
1287.523 316.76 L
1290.487 316.486 L
1293.451 315.381 L
1296.415 314.088 L
1299.379 313.547 L
1302.343 314.633 L
1305.307 315.556 L
1308.271 316.533 L
1311.234 317.799 L
1314.198 318.666 L
1317.162 318.717 L
1320.126 318.978 L
1323.09 319.065 L
1326.054 318.842 L
1329.018 318.838 L
1331.982 317.888 L
1334.946 316.792 L
1337.91 315.561 L
1340.874 314.448 L
1343.838 312.638 L
1346.802 312.834 L
1349.766 313.182 L
1352.73 314.052 L
1355.694 315.086 L
1358.658 317.038 L
1361.622 317.822 L
1364.586 317.234 L
1367.549 314.87 L
1370.513 312.26 L
1373.477 309.307 L
1376.441 305.907 L
1379.405 304.99 L
1382.369 306.707 L
1385.333 308.501 L
1388.297 310.286 L
1391.261 313.316 L
1394.225 315.209 L
1397.189 316.216 L
1400.153 317.386 L
1403.117 318.568 L
1406.081 318.893 L
1409.045 319.14 L
1412.009 319.265 L
1414.973 319.11 L
1417.937 318.727 L
1420.901 318.729 L
1423.865 317.909 L
1426.829 316.774 L
1429.792 315.808 L
1432.756 315.119 L
1435.72 314.224 L
1438.684 315.03 L
1441.648 316.096 L
1444.612 317.064 L
1447.576 317.043 L
1450.54 317 L
1453.504 315.987 L
1456.468 313.111 L
1459.432 310.358 L
1462.396 309.383 L
1465.36 307.211 L
1468.324 305.075 L
1471.288 305.059 L
1474.252 305.031 L
1477.216 301.85 L
1480.18 301.105 L
1483.144 298.602 L
1486.108 296.601 L
1489.072 294.588 L
1492.036 297.113 L
1495 298.372 L
1497.963 303.378 L
1500.927 308.126 L
1503.891 312.758 L
1506.855 315.117 L
1509.819 316.997 L
1512.783 316.975 L
1515.747 315.539 L
1518.711 314.282 L
1521.675 313.023 L
1524.639 312.912 L
1527.603 312.779 L
1530.567 314.288 L
1533.531 314.654 L
1536.495 315.076 L
1539.459 314.887 L
1542.423 314.716 L
1545.387 313.714 L
1548.351 314.881 L
1551.315 315.957 L
1554.278 316.816 L
1557.242 317.637 L
1560.206 317.53 L
1563.17 316.12 L
1566.134 314.845 L
1569.098 313.971 L
1572.062 313.001 L
1575.026 313.945 L
1577.99 315.167 L
1580.954 316.317 L
1583.918 317.404 L
1586.882 318.603 L
1589.846 318.738 L
1592.81 318.861 L
1595.774 318.973 L
1598.738 318.009 L
1601.702 317.223 L
1604.666 316.454 L
1607.63 315.456 L
1610.594 314.344 L
1613.558 315.128 L
1616.521 314.939 L
1619.485 315.009 L
1622.449 315.277 L
1625.413 315.47 L
1628.377 314.704 L
1631.341 315.538 L
1634.305 316.006 L
1637.269 316.304 L
1640.233 314.184 L
1643.197 312.205 L
1646.161 309.278 L
1649.125 305.582 L
1652.089 302.015 L
1655.053 303.9 L
1658.017 305.58 L
1660.981 307.444 L
1663.945 309.143 L
1666.909 310.878 L
1669.873 308.135 L
1672.837 305.442 L
1675.801 302.498 L
1678.765 302.813 L
1681.729 303.162 L
1684.692 306.788 L
1687.656 310.43 L
1690.62 314.474 L
1693.584 316.405 L
1696.548 318.284 L
1699.512 318.445 L
1702.476 318.594 L
1705.44 318.362 L
1708.404 318.141 L
1711.368 317.785 L
1714.332 317.486 L
1717.296 317.23 L
1720.26 317.333 L
1723.224 317.449 L
1726.188 317.808 L
1729.152 318.363 L
1732.116 319.126 L
1735.08 319.841 L
1738.044 320.873 L
S
GR
GS
[0.75 0 0 0.75 0 0] CT
1 GC
N
1542 152 M
1542 102 L
1725 102 L
1725 152 L
cp
f
GR
GS
[0.75 0 0 0.75 1184.25 87.75] CT
/Helvetica 12 F
GS
[1 0 0 1 0 0] CT
0 0 moveto 
1 -1 scale
(ARXMAX_9_16) t 
GR
GR
GS
[0.75 0 0 0.75 0 0] CT
0 0.447 0.741 RC
1 LJ
0.667 LW
N
1546 111.5 M
1576 111.5 L
S
GR
GS
[0.75 0 0 0.75 1184.25 99] CT
/Helvetica 12 F
GS
[1 0 0 1 0 0] CT
0 0 moveto 
1 -1 scale
(ARMAX_10_10) t 
GR
GR
GS
[0.75 0 0 0.75 0 0] CT
0.851 0.325 0.098 RC
1 LJ
0.667 LW
N
1546 127 M
1576 127 L
S
GR
GS
[0.75 0 0 0.75 1184.25 106.875] CT
/Helvetica 12 F
GS
[1 0 0 1 0 0] CT
0 4.5 moveto 
1 -1 scale
(Experimental Bode plot) t 
GR
GR
GS
[0.75 0 0 0.75 0 0] CT
1 0 1 RC
1 LJ
0.667 LW
N
1546 142.5 M
1576 142.5 L
S
GR
GS
[0.75 0 0 0.75 0 0] CT
0.149 GC
10.0 ML
0.667 LW
N
1542 152 M
1542 102 L
1725 102 L
1725 152 L
cp
S
GR
GS
[0.75 0 0 0.75 0 0] CT
1 GC
N
262 822 M
1738 822 L
1738 483 L
262 483 L
cp
f
GR
GS
[0.75 0 0 0.75 0 0] CT
0.4 GC
2 setlinecap
1 LJ
0.667 LW
N
262 822 M
1738 822 L
S
GR
GS
[0.75 0 0 0.75 0 0] CT
0.4 GC
2 setlinecap
1 LJ
0.667 LW
N
262 483 M
1738 483 L
S
GR
GS
[0.75 0 0 0.75 0 0] CT
0.4 GC
2 setlinecap
1 LJ
0.667 LW
N
496.916 822 M
496.916 807.24 L
S
GR
GS
[0.75 0 0 0.75 0 0] CT
0.4 GC
2 setlinecap
1 LJ
0.667 LW
N
731.836 822 M
731.836 807.24 L
S
GR
GS
[0.75 0 0 0.75 0 0] CT
0.4 GC
2 setlinecap
1 LJ
0.667 LW
N
966.756 822 M
966.756 807.24 L
S
GR
GS
[0.75 0 0 0.75 0 0] CT
0.4 GC
2 setlinecap
1 LJ
0.667 LW
N
1201.677 822 M
1201.677 807.24 L
S
GR
GS
[0.75 0 0 0.75 0 0] CT
0.4 GC
2 setlinecap
1 LJ
0.667 LW
N
1436.597 822 M
1436.597 807.24 L
S
GR
GS
[0.75 0 0 0.75 0 0] CT
0.4 GC
2 setlinecap
1 LJ
0.667 LW
N
1671.518 822 M
1671.518 807.24 L
S
GR
GS
[0.75 0 0 0.75 0 0] CT
0.4 GC
2 setlinecap
1 LJ
0.667 LW
N
496.916 483 M
496.916 497.76 L
S
GR
GS
[0.75 0 0 0.75 0 0] CT
0.4 GC
2 setlinecap
1 LJ
0.667 LW
N
731.836 483 M
731.836 497.76 L
S
GR
GS
[0.75 0 0 0.75 0 0] CT
0.4 GC
2 setlinecap
1 LJ
0.667 LW
N
966.756 483 M
966.756 497.76 L
S
GR
GS
[0.75 0 0 0.75 0 0] CT
0.4 GC
2 setlinecap
1 LJ
0.667 LW
N
1201.677 483 M
1201.677 497.76 L
S
GR
GS
[0.75 0 0 0.75 0 0] CT
0.4 GC
2 setlinecap
1 LJ
0.667 LW
N
1436.597 483 M
1436.597 497.76 L
S
GR
GS
[0.75 0 0 0.75 0 0] CT
0.4 GC
2 setlinecap
1 LJ
0.667 LW
N
1671.518 483 M
1671.518 497.76 L
S
GR
GS
[0.75 0 0 0.75 372.68676 620.49998] CT
0.4 GC
/Helvetica 13.333 F
GS
[1 0 0 1 0 0] CT
-10.5 13 moveto 
1 -1 scale
(0.5) t 
GR
GR
GS
[0.75 0 0 0.75 548.87704 620.49998] CT
0.4 GC
/Helvetica 13.333 F
GS
[1 0 0 1 0 0] CT
-4.5 13 moveto 
1 -1 scale
(1) t 
GR
GR
GS
[0.75 0 0 0.75 725.06731 620.49998] CT
0.4 GC
/Helvetica 13.333 F
GS
[1 0 0 1 0 0] CT
-10.5 13 moveto 
1 -1 scale
(1.5) t 
GR
GR
GS
[0.75 0 0 0.75 901.25757 620.49998] CT
0.4 GC
/Helvetica 13.333 F
GS
[1 0 0 1 0 0] CT
-4.5 13 moveto 
1 -1 scale
(2) t 
GR
GR
GS
[0.75 0 0 0.75 1077.44788 620.49998] CT
0.4 GC
/Helvetica 13.333 F
GS
[1 0 0 1 0 0] CT
-10.5 13 moveto 
1 -1 scale
(2.5) t 
GR
GR
GS
[0.75 0 0 0.75 1253.63818 620.49998] CT
0.4 GC
/Helvetica 13.333 F
GS
[1 0 0 1 0 0] CT
-4.5 13 moveto 
1 -1 scale
(3) t 
GR
GR
GS
[0.75 0 0 0.75 0 0] CT
0.4 GC
2 setlinecap
1 LJ
0.667 LW
N
262 822 M
262 483 L
S
GR
GS
[0.75 0 0 0.75 0 0] CT
0.4 GC
2 setlinecap
1 LJ
0.667 LW
N
1738 822 M
1738 483 L
S
GR
GS
[0.75 0 0 0.75 0 0] CT
0.4 GC
2 setlinecap
1 LJ
0.667 LW
N
262 818.676 M
276.76 818.676 L
S
GR
GS
[0.75 0 0 0.75 0 0] CT
0.4 GC
2 setlinecap
1 LJ
0.667 LW
N
262 793.111 M
276.76 793.111 L
S
GR
GS
[0.75 0 0 0.75 0 0] CT
0.4 GC
2 setlinecap
1 LJ
0.667 LW
N
262 767.545 M
276.76 767.545 L
S
GR
GS
[0.75 0 0 0.75 0 0] CT
0.4 GC
2 setlinecap
1 LJ
0.667 LW
N
262 741.98 M
276.76 741.98 L
S
GR
GS
[0.75 0 0 0.75 0 0] CT
0.4 GC
2 setlinecap
1 LJ
0.667 LW
N
262 716.414 M
276.76 716.414 L
S
GR
GS
[0.75 0 0 0.75 0 0] CT
0.4 GC
2 setlinecap
1 LJ
0.667 LW
N
262 690.848 M
276.76 690.848 L
S
GR
GS
[0.75 0 0 0.75 0 0] CT
0.4 GC
2 setlinecap
1 LJ
0.667 LW
N
262 665.283 M
276.76 665.283 L
S
GR
GS
[0.75 0 0 0.75 0 0] CT
0.4 GC
2 setlinecap
1 LJ
0.667 LW
N
262 639.717 M
276.76 639.717 L
S
GR
GS
[0.75 0 0 0.75 0 0] CT
0.4 GC
2 setlinecap
1 LJ
0.667 LW
N
262 614.152 M
276.76 614.152 L
S
GR
GS
[0.75 0 0 0.75 0 0] CT
0.4 GC
2 setlinecap
1 LJ
0.667 LW
N
262 588.586 M
276.76 588.586 L
S
GR
GS
[0.75 0 0 0.75 0 0] CT
0.4 GC
2 setlinecap
1 LJ
0.667 LW
N
262 563.02 M
276.76 563.02 L
S
GR
GS
[0.75 0 0 0.75 0 0] CT
0.4 GC
2 setlinecap
1 LJ
0.667 LW
N
262 537.455 M
276.76 537.455 L
S
GR
GS
[0.75 0 0 0.75 0 0] CT
0.4 GC
2 setlinecap
1 LJ
0.667 LW
N
262 511.889 M
276.76 511.889 L
S
GR
GS
[0.75 0 0 0.75 0 0] CT
0.4 GC
2 setlinecap
1 LJ
0.667 LW
N
262 486.324 M
276.76 486.324 L
S
GR
GS
[0.75 0 0 0.75 0 0] CT
0.4 GC
2 setlinecap
1 LJ
0.667 LW
N
1738 818.676 M
1723.24 818.676 L
S
GR
GS
[0.75 0 0 0.75 0 0] CT
0.4 GC
2 setlinecap
1 LJ
0.667 LW
N
1738 793.111 M
1723.24 793.111 L
S
GR
GS
[0.75 0 0 0.75 0 0] CT
0.4 GC
2 setlinecap
1 LJ
0.667 LW
N
1738 767.545 M
1723.24 767.545 L
S
GR
GS
[0.75 0 0 0.75 0 0] CT
0.4 GC
2 setlinecap
1 LJ
0.667 LW
N
1738 741.98 M
1723.24 741.98 L
S
GR
GS
[0.75 0 0 0.75 0 0] CT
0.4 GC
2 setlinecap
1 LJ
0.667 LW
N
1738 716.414 M
1723.24 716.414 L
S
GR
GS
[0.75 0 0 0.75 0 0] CT
0.4 GC
2 setlinecap
1 LJ
0.667 LW
N
1738 690.848 M
1723.24 690.848 L
S
GR
GS
[0.75 0 0 0.75 0 0] CT
0.4 GC
2 setlinecap
1 LJ
0.667 LW
N
1738 665.283 M
1723.24 665.283 L
S
GR
GS
[0.75 0 0 0.75 0 0] CT
0.4 GC
2 setlinecap
1 LJ
0.667 LW
N
1738 639.717 M
1723.24 639.717 L
S
GR
GS
[0.75 0 0 0.75 0 0] CT
0.4 GC
2 setlinecap
1 LJ
0.667 LW
N
1738 614.152 M
1723.24 614.152 L
S
GR
GS
[0.75 0 0 0.75 0 0] CT
0.4 GC
2 setlinecap
1 LJ
0.667 LW
N
1738 588.586 M
1723.24 588.586 L
S
GR
GS
[0.75 0 0 0.75 0 0] CT
0.4 GC
2 setlinecap
1 LJ
0.667 LW
N
1738 563.02 M
1723.24 563.02 L
S
GR
GS
[0.75 0 0 0.75 0 0] CT
0.4 GC
2 setlinecap
1 LJ
0.667 LW
N
1738 537.455 M
1723.24 537.455 L
S
GR
GS
[0.75 0 0 0.75 0 0] CT
0.4 GC
2 setlinecap
1 LJ
0.667 LW
N
1738 511.889 M
1723.24 511.889 L
S
GR
GS
[0.75 0 0 0.75 0 0] CT
0.4 GC
2 setlinecap
1 LJ
0.667 LW
N
1738 486.324 M
1723.24 486.324 L
S
GR
GS
[0.75 0 0 0.75 192.49999 614.00734] CT
0.4 GC
/Helvetica 13.333 F
GS
[1 0 0 1 0 0] CT
-38 4.5 moveto 
1 -1 scale
(-3600) t 
GR
GR
GS
[0.75 0 0 0.75 192.49999 594.83313] CT
0.4 GC
/Helvetica 13.333 F
GS
[1 0 0 1 0 0] CT
-38 4.5 moveto 
1 -1 scale
(-3240) t 
GR
GR
GS
[0.75 0 0 0.75 192.49999 575.65892] CT
0.4 GC
/Helvetica 13.333 F
GS
[1 0 0 1 0 0] CT
-38 4.5 moveto 
1 -1 scale
(-2880) t 
GR
GR
GS
[0.75 0 0 0.75 192.49999 556.48471] CT
0.4 GC
/Helvetica 13.333 F
GS
[1 0 0 1 0 0] CT
-38 4.5 moveto 
1 -1 scale
(-2520) t 
GR
GR
GS
[0.75 0 0 0.75 192.49999 537.3105] CT
0.4 GC
/Helvetica 13.333 F
GS
[1 0 0 1 0 0] CT
-38 4.5 moveto 
1 -1 scale
(-2160) t 
GR
GR
GS
[0.75 0 0 0.75 192.49999 518.13629] CT
0.4 GC
/Helvetica 13.333 F
GS
[1 0 0 1 0 0] CT
-38 4.5 moveto 
1 -1 scale
(-1800) t 
GR
GR
GS
[0.75 0 0 0.75 192.49999 498.96208] CT
0.4 GC
/Helvetica 13.333 F
GS
[1 0 0 1 0 0] CT
-38 4.5 moveto 
1 -1 scale
(-1440) t 
GR
GR
GS
[0.75 0 0 0.75 192.49999 479.78792] CT
0.4 GC
/Helvetica 13.333 F
GS
[1 0 0 1 0 0] CT
-38 4.5 moveto 
1 -1 scale
(-1080) t 
GR
GR
GS
[0.75 0 0 0.75 192.49999 460.61371] CT
0.4 GC
/Helvetica 13.333 F
GS
[1 0 0 1 0 0] CT
-30 4.5 moveto 
1 -1 scale
(-720) t 
GR
GR
GS
[0.75 0 0 0.75 192.49999 441.4395] CT
0.4 GC
/Helvetica 13.333 F
GS
[1 0 0 1 0 0] CT
-30 4.5 moveto 
1 -1 scale
(-360) t 
GR
GR
GS
[0.75 0 0 0.75 192.49999 422.26529] CT
0.4 GC
/Helvetica 13.333 F
GS
[1 0 0 1 0 0] CT
-9 4.5 moveto 
1 -1 scale
(0) t 
GR
GR
GS
[0.75 0 0 0.75 192.49999 403.09108] CT
0.4 GC
/Helvetica 13.333 F
GS
[1 0 0 1 0 0] CT
-25 4.5 moveto 
1 -1 scale
(360) t 
GR
GR
GS
[0.75 0 0 0.75 192.49999 383.91685] CT
0.4 GC
/Helvetica 13.333 F
GS
[1 0 0 1 0 0] CT
-25 4.5 moveto 
1 -1 scale
(720) t 
GR
GR
GS
[0.75 0 0 0.75 192.49999 364.74264] CT
0.4 GC
/Helvetica 13.333 F
GS
[1 0 0 1 0 0] CT
-34 4.5 moveto 
1 -1 scale
(1080) t 
GR
GR
GS
[0 -0.75 0.75 0 161 489.37486] CT
/Helvetica 14.667 F
GS
[1 0 0 1 0 0] CT
-45 -4 moveto 
1 -1 scale
(Phase \(deg\)) t 
GR
GR
GS
[0.75 0 0 0.75 0 0] CT
0 0.447 0.741 RC
1 LJ
0.667 LW
N
261.995 511.889 M
261.995 511.889 L
261.995 511.889 L
261.995 511.889 L
261.996 511.881 L
262.006 511.81 L
262.008 511.796 L
262.01 511.781 L
262.013 511.763 L
262.016 511.742 L
262.019 511.717 L
262.023 511.689 L
262.028 511.655 L
262.033 511.616 L
262.039 511.571 L
262.047 511.518 L
262.055 511.456 L
262.065 511.385 L
262.077 511.302 L
262.09 511.206 L
262.106 511.094 L
262.125 510.966 L
262.146 510.819 L
262.172 510.651 L
262.201 510.461 L
262.236 510.248 L
262.276 510.012 L
262.323 509.754 L
262.377 509.477 L
262.441 509.186 L
262.515 508.888 L
262.602 508.589 L
262.704 508.298 L
262.822 508.021 L
262.96 507.765 L
263.121 507.534 L
263.309 507.331 L
263.528 507.158 L
263.784 507.015 L
264.083 506.901 L
264.431 506.817 L
264.838 506.762 L
265.313 506.735 L
265.867 506.737 L
266.513 506.767 L
267.268 506.827 L
268.148 506.919 L
269.176 507.045 L
270.375 507.207 L
271.774 507.41 L
273.407 507.659 L
273.527 507.678 L
274.727 507.867 L
275.312 507.959 L
276.053 508.078 L
277.516 508.314 L
277.536 508.318 L
279.131 508.579 L
280.131 508.743 L
280.915 508.874 L
282.884 509.201 L
283.159 509.246 L
285.059 509.564 L
286.693 509.838 L
287.459 509.967 L
290.11 510.413 L
290.817 510.532 L
293.036 510.907 L
295.63 511.345 L
296.267 511.453 L
299.835 512.056 L
301.246 512.295 L
303.773 512.722 L
307.8 513.403 L
308.122 513.457 L
312.923 514.268 L
315.449 514.694 L
318.224 515.162 L
324.077 516.147 L
324.375 516.197 L
330.539 517.231 L
334.791 517.944 L
337.674 518.425 L
345.551 519.739 L
346.947 519.972 L
354.248 521.185 L
361.132 522.328 L
363.851 522.778 L
368.921 523.617 L
371.034 523.967 L
374.453 524.532 L
384.479 526.189 L
386.159 526.468 L
399.083 528.61 L
399.658 528.705 L
413.352 531.001 L
414.206 531.144 L
427.942 533.506 L
429.107 533.716 L
440.741 535.809 L
446.501 536.924 L
452.534 538.091 L
463.296 540.386 L
465.706 540.955 L
473.036 542.686 L
481.788 544.906 L
486.911 546.219 L
490.904 547.242 L
501.979 549.896 L
510.322 551.641 L
515.535 552.731 L
532.263 555.751 L
536.17 556.385 L
553.108 559.133 L
564.709 560.926 L
572.214 562.086 L
579.377 563.18 L
592.834 565.232 L
596.218 565.748 L
600.201 566.356 L
620.659 569.504 L
626.906 570.476 L
631.007 571.126 L
646.338 573.554 L
652.141 574.495 L
669.418 577.383 L
669.783 577.444 L
690.992 581.246 L
710.027 584.981 L
711.826 585.359 L
726.997 588.549 L
744.61 592.326 L
758.649 595.233 L
766.025 596.76 L
780.748 599.663 L
803.136 603.952 L
810.345 605.358 L
822.781 607.783 L
839.917 611.395 L
854.786 614.748 L
867.423 617.406 L
870.037 617.956 L
873.852 618.67 L
888.616 621.142 L
892.485 621.741 L
911.365 624.605 L
915.167 625.187 L
930.441 627.599 L
942.94 629.573 L
977.181 635.253 L
1000.019 639.169 L
1019.738 642.55 L
1052.941 648.357 L
1076.84 652.608 L
1096.348 656.078 L
1134.497 663.004 L
1161.657 668.078 L
1167.758 669.218 L
1196.565 674.862 L
1221.374 680.187 L
1242.64 685.589 L
1255.302 689.484 L
1260.797 691.175 L
1279.292 696.831 L
1301.842 702.527 L
1329.445 708.526 L
1358.695 714.503 L
1363.394 715.464 L
1394.34 721.756 L
1436.408 730.628 L
1472.85 738.913 L
1473.156 738.983 L
1505.089 746.64 L
1537.865 754.345 L
1577.787 763.145 L
1581.683 763.978 L
1598.887 767.619 L
1603.342 768.562 L
1623.494 772.806 L
1639.742 776.258 L
1659.353 780.529 L
1670.75 783.112 L
1689.963 787.794 L
1697.055 789.699 L
1715.989 795.728 L
1719.295 797 L
1738.044 805.894 L
S
GR
GS
[0.75 0 0 0.75 0 0] CT
1 LJ
0.667 LW
N
1738.044 822.04 M
1738.044 634.036 L
1738.044 563.091 L
1738.044 563.02 L
1738.044 562.949 L
1738.044 492.005 L
1738.044 482.96 L
S
GR
GS
[0.75 0 0 0.75 0 0] CT
0.851 0.325 0.098 RC
1 LJ
0.667 LW
N
261.995 511.889 M
261.995 511.889 L
261.995 511.889 L
261.995 511.889 L
261.996 511.881 L
262.005 511.81 L
262.007 511.796 L
262.009 511.78 L
262.011 511.762 L
262.014 511.741 L
262.017 511.716 L
262.021 511.687 L
262.025 511.653 L
262.03 511.613 L
262.036 511.567 L
262.043 511.513 L
262.051 511.45 L
262.061 511.377 L
262.072 511.292 L
262.085 511.194 L
262.1 511.08 L
262.117 510.948 L
262.138 510.798 L
262.161 510.625 L
262.189 510.431 L
262.222 510.212 L
262.26 509.97 L
262.305 509.707 L
262.357 509.425 L
262.418 509.129 L
262.489 508.827 L
262.572 508.526 L
262.669 508.233 L
262.782 507.956 L
262.915 507.701 L
263.07 507.472 L
263.25 507.272 L
263.462 507.101 L
263.708 506.96 L
263.997 506.849 L
264.334 506.767 L
264.727 506.713 L
265.187 506.687 L
265.724 506.688 L
266.351 506.718 L
267.084 506.777 L
267.94 506.867 L
268.941 506.989 L
270.11 507.148 L
271.475 507.347 L
273.07 507.59 L
273.527 507.662 L
274.727 507.851 L
274.934 507.884 L
276.053 508.064 L
277.111 508.235 L
277.516 508.302 L
279.131 508.567 L
279.655 508.653 L
280.915 508.862 L
282.626 509.146 L
282.884 509.189 L
285.059 509.553 L
286.098 509.727 L
287.459 509.956 L
290.11 510.402 L
290.154 510.409 L
293.036 510.896 L
294.892 511.209 L
296.267 511.441 L
299.835 512.044 L
300.428 512.144 L
303.773 512.709 L
306.896 513.236 L
308.122 513.442 L
312.923 514.251 L
314.451 514.508 L
318.224 515.142 L
323.278 515.99 L
324.077 516.123 L
330.539 517.203 L
333.591 517.713 L
337.674 518.391 L
345.551 519.699 L
345.639 519.714 L
354.248 521.136 L
359.714 522.039 L
363.851 522.72 L
366.655 523.181 L
374.453 524.465 L
382.29 525.755 L
386.159 526.394 L
397.627 528.291 L
399.083 528.536 L
412.404 530.772 L
413.352 530.936 L
426.424 533.197 L
429.107 533.684 L
439.551 535.58 L
446.501 536.935 L
451.702 537.95 L
462.84 540.327 L
465.706 540.998 L
472.961 542.695 L
482.092 544.971 L
486.911 546.185 L
491.619 547.371 L
503.19 550.121 L
510.322 551.619 L
517.35 553.095 L
531.722 555.735 L
534.826 556.268 L
536.17 556.488 L
550.346 558.801 L
564.709 560.999 L
570.255 561.848 L
594.305 565.419 L
596.218 565.704 L
597.69 565.923 L
625.765 570.182 L
631.007 571.026 L
651.921 574.397 L
669.418 577.444 L
676.043 578.597 L
698.097 582.742 L
711.826 585.478 L
718.106 586.729 L
739.034 591.035 L
758.649 595.092 L
764.442 596.29 L
768.907 597.208 L
797.302 602.986 L
810.345 605.594 L
823.207 608.167 L
850.365 613.478 L
867.423 616.69 L
883.323 619.685 L
923.631 626.883 L
930.441 628.035 L
973.375 635.3 L
1000.019 639.661 L
1008.75 641.09 L
1063.328 649.859 L
1076.84 652.015 L
1111.955 657.618 L
1154.82 664.493 L
1161.657 665.608 L
1192.271 670.6 L
1224.749 676.068 L
1252.741 681.065 L
1255.302 681.577 L
1276.742 685.864 L
1297.231 690.935 L
1314.66 696.526 L
1332.382 702.417 L
1335.616 703.416 L
1355.341 709.505 L
1358.695 710.712 L
1372.06 715.519 L
1389.035 721.381 L
1409.741 726.828 L
1435.082 732.57 L
1435.371 732.635 L
1464.693 739.461 L
1472.85 741.54 L
1489.865 745.877 L
1515.563 752.196 L
1546.889 758.863 L
1585.239 766.13 L
1598.887 768.574 L
1632.434 774.584 L
1690.873 784.851 L
1738.044 793.111 L
S
GR
GS
[0.75 0 0 0.75 0 0] CT
1 LJ
0.667 LW
N
1738.044 822.04 M
1738.044 634.036 L
1738.044 563.091 L
1738.044 563.02 L
1738.044 562.949 L
1738.044 492.005 L
1738.044 482.96 L
S
GR
GS
[0.75 0 0 0.75 749.25 48.705] CT
/Helvetica-Bold 14.667 F
GS
[1 0 0 1 0 0] CT
-60 -4 moveto 
1 -1 scale
(Bode Diagram) t 
GR
GR
GS
[0.75 0 0 0.75 749.25 632.75002] CT
/Helvetica 14.667 F
GS
[1 0 0 1 0 0] CT
-69 14 moveto 
1 -1 scale
(Frequency  \(rad/s\)) t 
GR
GR
%%Trailer
%%Pages: 1
%%EOF
