%!PS-Adobe-3.0 EPSF-3.0
%%Creator: (MATLAB, The Mathworks, Inc. Version 9.1.0.441655 \(R2016b\). Operating System: Linux)
%%Title: /users/start2016/r0461511/Documents/system-identification/Oefenzitting_3/plots/bode_oe.eps
%%CreationDate: 2016-12-20T16:51:34
%%Pages: (atend)
%%BoundingBox: 0 0 1440 693
%%LanguageLevel: 3
%%EndComments
%%BeginProlog
%%BeginResource: procset (Apache XML Graphics Std ProcSet) 1.2 0
%%Version: 1.2 0
%%Copyright: (Copyright 2001-2003,2010 The Apache Software Foundation. License terms: http://www.apache.org/licenses/LICENSE-2.0)
/bd{bind def}bind def
/ld{load def}bd
/GR/grestore ld
/M/moveto ld
/LJ/setlinejoin ld
/C/curveto ld
/f/fill ld
/LW/setlinewidth ld
/GC/setgray ld
/t/show ld
/N/newpath ld
/CT/concat ld
/cp/closepath ld
/S/stroke ld
/L/lineto ld
/CC/setcmykcolor ld
/A/ashow ld
/GS/gsave ld
/RC/setrgbcolor ld
/RM/rmoveto ld
/ML/setmiterlimit ld
/re {4 2 roll M
1 index 0 rlineto
0 exch rlineto
neg 0 rlineto
cp } bd
/_ctm matrix def
/_tm matrix def
/BT { _ctm currentmatrix pop matrix _tm copy pop 0 0 moveto } bd
/ET { _ctm setmatrix } bd
/iTm { _ctm setmatrix _tm concat } bd
/Tm { _tm astore pop iTm 0 0 moveto } bd
/ux 0.0 def
/uy 0.0 def
/F {
  /Tp exch def
  /Tf exch def
  Tf findfont Tp scalefont setfont
  /cf Tf def  /cs Tp def
} bd
/ULS {currentpoint /uy exch def /ux exch def} bd
/ULE {
  /Tcx currentpoint pop def
  gsave
  newpath
  cf findfont cs scalefont dup
  /FontMatrix get 0 get /Ts exch def /FontInfo get dup
  /UnderlinePosition get Ts mul /To exch def
  /UnderlineThickness get Ts mul /Tt exch def
  ux uy To add moveto  Tcx uy To add lineto
  Tt setlinewidth stroke
  grestore
} bd
/OLE {
  /Tcx currentpoint pop def
  gsave
  newpath
  cf findfont cs scalefont dup
  /FontMatrix get 0 get /Ts exch def /FontInfo get dup
  /UnderlinePosition get Ts mul /To exch def
  /UnderlineThickness get Ts mul /Tt exch def
  ux uy To add cs add moveto Tcx uy To add cs add lineto
  Tt setlinewidth stroke
  grestore
} bd
/SOE {
  /Tcx currentpoint pop def
  gsave
  newpath
  cf findfont cs scalefont dup
  /FontMatrix get 0 get /Ts exch def /FontInfo get dup
  /UnderlinePosition get Ts mul /To exch def
  /UnderlineThickness get Ts mul /Tt exch def
  ux uy To add cs 10 mul 26 idiv add moveto Tcx uy To add cs 10 mul 26 idiv add lineto
  Tt setlinewidth stroke
  grestore
} bd
/QT {
/Y22 exch store
/X22 exch store
/Y21 exch store
/X21 exch store
currentpoint
/Y21 load 2 mul add 3 div exch
/X21 load 2 mul add 3 div exch
/X21 load 2 mul /X22 load add 3 div
/Y21 load 2 mul /Y22 load add 3 div
/X22 load /Y22 load curveto
} bd
/SSPD {
dup length /d exch dict def
{
/v exch def
/k exch def
currentpagedevice k known {
/cpdv currentpagedevice k get def
v cpdv ne {
/upd false def
/nullv v type /nulltype eq def
/nullcpdv cpdv type /nulltype eq def
nullv nullcpdv or
{
/upd true def
} {
/sametype v type cpdv type eq def
sametype {
v type /arraytype eq {
/vlen v length def
/cpdvlen cpdv length def
vlen cpdvlen eq {
0 1 vlen 1 sub {
/i exch def
/obj v i get def
/cpdobj cpdv i get def
obj cpdobj ne {
/upd true def
exit
} if
} for
} {
/upd true def
} ifelse
} {
v type /dicttype eq {
v {
/dv exch def
/dk exch def
/cpddv cpdv dk get def
dv cpddv ne {
/upd true def
exit
} if
} forall
} {
/upd true def
} ifelse
} ifelse
} if
} ifelse
upd true eq {
d k v put
} if
} if
} if
} forall
d length 0 gt {
d setpagedevice
} if
} bd
/RE { % /NewFontName [NewEncodingArray] /FontName RE -
  findfont dup length dict begin
  {
    1 index /FID ne
    {def} {pop pop} ifelse
  } forall
  /Encoding exch def
  /FontName 1 index def
  currentdict definefont pop
  end
} bind def
%%EndResource
%%BeginResource: procset (Apache XML Graphics EPS ProcSet) 1.0 0
%%Version: 1.0 0
%%Copyright: (Copyright 2002-2003 The Apache Software Foundation. License terms: http://www.apache.org/licenses/LICENSE-2.0)
/BeginEPSF { %def
/b4_Inc_state save def         % Save state for cleanup
/dict_count countdictstack def % Count objects on dict stack
/op_count count 1 sub def      % Count objects on operand stack
userdict begin                 % Push userdict on dict stack
/showpage { } def              % Redefine showpage, { } = null proc
0 setgray 0 setlinecap         % Prepare graphics state
1 setlinewidth 0 setlinejoin
10 setmiterlimit [ ] 0 setdash newpath
/languagelevel where           % If level not equal to 1 then
{pop languagelevel             % set strokeadjust and
1 ne                           % overprint to their defaults.
{false setstrokeadjust false setoverprint
} if
} if
} bd
/EndEPSF { %def
count op_count sub {pop} repeat            % Clean up stacks
countdictstack dict_count sub {end} repeat
b4_Inc_state restore
} bd
%%EndResource
%FOPBeginFontDict
%%IncludeResource: font Courier-Bold
%%IncludeResource: font Helvetica
%%IncludeResource: font Courier-BoldOblique
%%IncludeResource: font Courier-Oblique
%%IncludeResource: font Times-Roman
%%IncludeResource: font Helvetica-BoldOblique
%%IncludeResource: font Helvetica-Bold
%%IncludeResource: font Helvetica-Oblique
%%IncludeResource: font Times-BoldItalic
%%IncludeResource: font Courier
%%IncludeResource: font Times-Italic
%%IncludeResource: font Times-Bold
%%IncludeResource: font Symbol
%%IncludeResource: font ZapfDingbats
%FOPEndFontDict
%%BeginResource: encoding WinAnsiEncoding
/WinAnsiEncoding [
/.notdef /.notdef /.notdef /.notdef /.notdef
/.notdef /.notdef /.notdef /.notdef /.notdef
/.notdef /.notdef /.notdef /.notdef /.notdef
/.notdef /.notdef /.notdef /.notdef /.notdef
/.notdef /.notdef /.notdef /.notdef /.notdef
/.notdef /.notdef /.notdef /.notdef /.notdef
/.notdef /.notdef /space /exclam /quotedbl
/numbersign /dollar /percent /ampersand /quotesingle
/parenleft /parenright /asterisk /plus /comma
/hyphen /period /slash /zero /one
/two /three /four /five /six
/seven /eight /nine /colon /semicolon
/less /equal /greater /question /at
/A /B /C /D /E
/F /G /H /I /J
/K /L /M /N /O
/P /Q /R /S /T
/U /V /W /X /Y
/Z /bracketleft /backslash /bracketright /asciicircum
/underscore /quoteleft /a /b /c
/d /e /f /g /h
/i /j /k /l /m
/n /o /p /q /r
/s /t /u /v /w
/x /y /z /braceleft /bar
/braceright /asciitilde /bullet /Euro /bullet
/quotesinglbase /florin /quotedblbase /ellipsis /dagger
/daggerdbl /circumflex /perthousand /Scaron /guilsinglleft
/OE /bullet /Zcaron /bullet /bullet
/quoteleft /quoteright /quotedblleft /quotedblright /bullet
/endash /emdash /asciitilde /trademark /scaron
/guilsinglright /oe /bullet /zcaron /Ydieresis
/space /exclamdown /cent /sterling /currency
/yen /brokenbar /section /dieresis /copyright
/ordfeminine /guillemotleft /logicalnot /sfthyphen /registered
/macron /degree /plusminus /twosuperior /threesuperior
/acute /mu /paragraph /middot /cedilla
/onesuperior /ordmasculine /guillemotright /onequarter /onehalf
/threequarters /questiondown /Agrave /Aacute /Acircumflex
/Atilde /Adieresis /Aring /AE /Ccedilla
/Egrave /Eacute /Ecircumflex /Edieresis /Igrave
/Iacute /Icircumflex /Idieresis /Eth /Ntilde
/Ograve /Oacute /Ocircumflex /Otilde /Odieresis
/multiply /Oslash /Ugrave /Uacute /Ucircumflex
/Udieresis /Yacute /Thorn /germandbls /agrave
/aacute /acircumflex /atilde /adieresis /aring
/ae /ccedilla /egrave /eacute /ecircumflex
/edieresis /igrave /iacute /icircumflex /idieresis
/eth /ntilde /ograve /oacute /ocircumflex
/otilde /odieresis /divide /oslash /ugrave
/uacute /ucircumflex /udieresis /yacute /thorn
/ydieresis
] def
%%EndResource
%FOPBeginFontReencode
/Courier-Bold findfont
dup length dict begin
  {1 index /FID ne {def} {pop pop} ifelse} forall
  /Encoding WinAnsiEncoding def
  currentdict
end
/Courier-Bold exch definefont pop
/Helvetica findfont
dup length dict begin
  {1 index /FID ne {def} {pop pop} ifelse} forall
  /Encoding WinAnsiEncoding def
  currentdict
end
/Helvetica exch definefont pop
/Courier-BoldOblique findfont
dup length dict begin
  {1 index /FID ne {def} {pop pop} ifelse} forall
  /Encoding WinAnsiEncoding def
  currentdict
end
/Courier-BoldOblique exch definefont pop
/Courier-Oblique findfont
dup length dict begin
  {1 index /FID ne {def} {pop pop} ifelse} forall
  /Encoding WinAnsiEncoding def
  currentdict
end
/Courier-Oblique exch definefont pop
/Times-Roman findfont
dup length dict begin
  {1 index /FID ne {def} {pop pop} ifelse} forall
  /Encoding WinAnsiEncoding def
  currentdict
end
/Times-Roman exch definefont pop
/Helvetica-BoldOblique findfont
dup length dict begin
  {1 index /FID ne {def} {pop pop} ifelse} forall
  /Encoding WinAnsiEncoding def
  currentdict
end
/Helvetica-BoldOblique exch definefont pop
/Helvetica-Bold findfont
dup length dict begin
  {1 index /FID ne {def} {pop pop} ifelse} forall
  /Encoding WinAnsiEncoding def
  currentdict
end
/Helvetica-Bold exch definefont pop
/Helvetica-Oblique findfont
dup length dict begin
  {1 index /FID ne {def} {pop pop} ifelse} forall
  /Encoding WinAnsiEncoding def
  currentdict
end
/Helvetica-Oblique exch definefont pop
/Times-BoldItalic findfont
dup length dict begin
  {1 index /FID ne {def} {pop pop} ifelse} forall
  /Encoding WinAnsiEncoding def
  currentdict
end
/Times-BoldItalic exch definefont pop
/Courier findfont
dup length dict begin
  {1 index /FID ne {def} {pop pop} ifelse} forall
  /Encoding WinAnsiEncoding def
  currentdict
end
/Courier exch definefont pop
/Times-Italic findfont
dup length dict begin
  {1 index /FID ne {def} {pop pop} ifelse} forall
  /Encoding WinAnsiEncoding def
  currentdict
end
/Times-Italic exch definefont pop
/Times-Bold findfont
dup length dict begin
  {1 index /FID ne {def} {pop pop} ifelse} forall
  /Encoding WinAnsiEncoding def
  currentdict
end
/Times-Bold exch definefont pop
%FOPEndFontReencode
%%EndProlog
%%Page: 1 1
%%PageBoundingBox: 0 0 1440 693
%%BeginPageSetup
[1 0 0 -1 0 693] CT
%%EndPageSetup
GS
[0.75 0 0 0.75 0 0] CT
1 GC
N
0 0 1920 924 re
f
GR
GS
[0.75 0 0 0.75 0 0] CT
1 GC
N
0 0 1920 924 re
f
GR
GS
[0.75 0 0 0.75 0 0] CT
1 GC
N
262 471 M
1738 471 L
1738 89 L
262 89 L
cp
f
GR
GS
[0.75 0 0 0.75 0 0] CT
0.4 GC
2 setlinecap
1 LJ
0.667 LW
N
262 471 M
1738 471 L
S
GR
GS
[0.75 0 0 0.75 0 0] CT
0.4 GC
2 setlinecap
1 LJ
0.667 LW
N
262 89 M
1738 89 L
S
GR
GS
[0.75 0 0 0.75 0 0] CT
0.4 GC
2 setlinecap
1 LJ
0.667 LW
N
496.524 471 M
496.524 456.24 L
S
GR
GS
[0.75 0 0 0.75 0 0] CT
0.4 GC
2 setlinecap
1 LJ
0.667 LW
N
731.519 471 M
731.519 456.24 L
S
GR
GS
[0.75 0 0 0.75 0 0] CT
0.4 GC
2 setlinecap
1 LJ
0.667 LW
N
966.513 471 M
966.513 456.24 L
S
GR
GS
[0.75 0 0 0.75 0 0] CT
0.4 GC
2 setlinecap
1 LJ
0.667 LW
N
1201.508 471 M
1201.508 456.24 L
S
GR
GS
[0.75 0 0 0.75 0 0] CT
0.4 GC
2 setlinecap
1 LJ
0.667 LW
N
1436.502 471 M
1436.502 456.24 L
S
GR
GS
[0.75 0 0 0.75 0 0] CT
0.4 GC
2 setlinecap
1 LJ
0.667 LW
N
1671.497 471 M
1671.497 456.24 L
S
GR
GS
[0.75 0 0 0.75 0 0] CT
0.4 GC
2 setlinecap
1 LJ
0.667 LW
N
496.524 89 M
496.524 103.76 L
S
GR
GS
[0.75 0 0 0.75 0 0] CT
0.4 GC
2 setlinecap
1 LJ
0.667 LW
N
731.519 89 M
731.519 103.76 L
S
GR
GS
[0.75 0 0 0.75 0 0] CT
0.4 GC
2 setlinecap
1 LJ
0.667 LW
N
966.513 89 M
966.513 103.76 L
S
GR
GS
[0.75 0 0 0.75 0 0] CT
0.4 GC
2 setlinecap
1 LJ
0.667 LW
N
1201.508 89 M
1201.508 103.76 L
S
GR
GS
[0.75 0 0 0.75 0 0] CT
0.4 GC
2 setlinecap
1 LJ
0.667 LW
N
1436.502 89 M
1436.502 103.76 L
S
GR
GS
[0.75 0 0 0.75 0 0] CT
0.4 GC
2 setlinecap
1 LJ
0.667 LW
N
1671.497 89 M
1671.497 103.76 L
S
GR
GS
[0.75 0 0 0.75 0 0] CT
0.4 GC
2 setlinecap
1 LJ
0.667 LW
N
262 471 M
262 89 L
S
GR
GS
[0.75 0 0 0.75 0 0] CT
0.4 GC
2 setlinecap
1 LJ
0.667 LW
N
1738 471 M
1738 89 L
S
GR
GS
[0.75 0 0 0.75 0 0] CT
0.4 GC
2 setlinecap
1 LJ
0.667 LW
N
262 471 M
276.76 471 L
S
GR
GS
[0.75 0 0 0.75 0 0] CT
0.4 GC
2 setlinecap
1 LJ
0.667 LW
N
262 423.25 M
276.76 423.25 L
S
GR
GS
[0.75 0 0 0.75 0 0] CT
0.4 GC
2 setlinecap
1 LJ
0.667 LW
N
262 375.5 M
276.76 375.5 L
S
GR
GS
[0.75 0 0 0.75 0 0] CT
0.4 GC
2 setlinecap
1 LJ
0.667 LW
N
262 327.75 M
276.76 327.75 L
S
GR
GS
[0.75 0 0 0.75 0 0] CT
0.4 GC
2 setlinecap
1 LJ
0.667 LW
N
262 280 M
276.76 280 L
S
GR
GS
[0.75 0 0 0.75 0 0] CT
0.4 GC
2 setlinecap
1 LJ
0.667 LW
N
262 232.25 M
276.76 232.25 L
S
GR
GS
[0.75 0 0 0.75 0 0] CT
0.4 GC
2 setlinecap
1 LJ
0.667 LW
N
262 184.5 M
276.76 184.5 L
S
GR
GS
[0.75 0 0 0.75 0 0] CT
0.4 GC
2 setlinecap
1 LJ
0.667 LW
N
262 136.75 M
276.76 136.75 L
S
GR
GS
[0.75 0 0 0.75 0 0] CT
0.4 GC
2 setlinecap
1 LJ
0.667 LW
N
262 89 M
276.76 89 L
S
GR
GS
[0.75 0 0 0.75 0 0] CT
0.4 GC
2 setlinecap
1 LJ
0.667 LW
N
1738 471 M
1723.24 471 L
S
GR
GS
[0.75 0 0 0.75 0 0] CT
0.4 GC
2 setlinecap
1 LJ
0.667 LW
N
1738 423.25 M
1723.24 423.25 L
S
GR
GS
[0.75 0 0 0.75 0 0] CT
0.4 GC
2 setlinecap
1 LJ
0.667 LW
N
1738 375.5 M
1723.24 375.5 L
S
GR
GS
[0.75 0 0 0.75 0 0] CT
0.4 GC
2 setlinecap
1 LJ
0.667 LW
N
1738 327.75 M
1723.24 327.75 L
S
GR
GS
[0.75 0 0 0.75 0 0] CT
0.4 GC
2 setlinecap
1 LJ
0.667 LW
N
1738 280 M
1723.24 280 L
S
GR
GS
[0.75 0 0 0.75 0 0] CT
0.4 GC
2 setlinecap
1 LJ
0.667 LW
N
1738 232.25 M
1723.24 232.25 L
S
GR
GS
[0.75 0 0 0.75 0 0] CT
0.4 GC
2 setlinecap
1 LJ
0.667 LW
N
1738 184.5 M
1723.24 184.5 L
S
GR
GS
[0.75 0 0 0.75 0 0] CT
0.4 GC
2 setlinecap
1 LJ
0.667 LW
N
1738 136.75 M
1723.24 136.75 L
S
GR
GS
[0.75 0 0 0.75 0 0] CT
0.4 GC
2 setlinecap
1 LJ
0.667 LW
N
1738 89 M
1723.24 89 L
S
GR
GS
[0.75 0 0 0.75 192.49999 353.25] CT
0.4 GC
/Helvetica 13.333 F
GS
[1 0 0 1 0 0] CT
-22 4.5 moveto 
1 -1 scale
(-60) t 
GR
GR
GS
[0.75 0 0 0.75 192.49999 317.4375] CT
0.4 GC
/Helvetica 13.333 F
GS
[1 0 0 1 0 0] CT
-22 4.5 moveto 
1 -1 scale
(-50) t 
GR
GR
GS
[0.75 0 0 0.75 192.49999 281.625] CT
0.4 GC
/Helvetica 13.333 F
GS
[1 0 0 1 0 0] CT
-22 4.5 moveto 
1 -1 scale
(-40) t 
GR
GR
GS
[0.75 0 0 0.75 192.49999 245.8125] CT
0.4 GC
/Helvetica 13.333 F
GS
[1 0 0 1 0 0] CT
-22 4.5 moveto 
1 -1 scale
(-30) t 
GR
GR
GS
[0.75 0 0 0.75 192.49999 210] CT
0.4 GC
/Helvetica 13.333 F
GS
[1 0 0 1 0 0] CT
-22 4.5 moveto 
1 -1 scale
(-20) t 
GR
GR
GS
[0.75 0 0 0.75 192.49999 174.1875] CT
0.4 GC
/Helvetica 13.333 F
GS
[1 0 0 1 0 0] CT
-22 4.5 moveto 
1 -1 scale
(-10) t 
GR
GR
GS
[0.75 0 0 0.75 192.49999 138.375] CT
0.4 GC
/Helvetica 13.333 F
GS
[1 0 0 1 0 0] CT
-9 4.5 moveto 
1 -1 scale
(0) t 
GR
GR
GS
[0.75 0 0 0.75 192.49999 102.5625] CT
0.4 GC
/Helvetica 13.333 F
GS
[1 0 0 1 0 0] CT
-17 4.5 moveto 
1 -1 scale
(10) t 
GR
GR
GS
[0.75 0 0 0.75 192.49999 66.75] CT
0.4 GC
/Helvetica 13.333 F
GS
[1 0 0 1 0 0] CT
-17 4.5 moveto 
1 -1 scale
(20) t 
GR
GR
GS
[0 -0.75 0.75 0 173 209.99986] CT
/Helvetica 14.667 F
GS
[1 0 0 1 0 0] CT
-58 -4 moveto 
1 -1 scale
(Magnitude \(dB\)) t 
GR
GR
GS
[0.75 0 0 0.75 750.00069 64.875] CT
0.4 GC
/Helvetica 13.333 F
GS
[1 0 0 1 0 0] CT
-54 -4 moveto 
1 -1 scale
(From: u1  To: y1) t 
GR
GR
GS
[0.75 0 0 0.75 0 0] CT
0 0.447 0.741 RC
1 LJ
0.667 LW
N
261.824 257.889 M
262.351 257.883 L
262.488 257.88 L
262.648 257.875 L
262.835 257.87 L
263.054 257.862 L
263.308 257.851 L
263.606 257.837 L
263.953 257.817 L
264.358 257.79 L
264.83 257.754 L
265.382 257.704 L
266.026 257.637 L
266.778 257.546 L
267.655 257.422 L
268.679 257.254 L
269.874 257.028 L
271.268 256.723 L
272.896 256.314 L
273.065 256.262 L
274.266 255.914 L
274.796 255.77 L
275.592 255.498 L
277.014 255.049 L
277.055 255.033 L
278.671 254.427 L
279.602 254.103 L
280.456 253.737 L
282.426 252.951 L
282.624 252.876 L
284.601 251.966 L
286.15 251.306 L
287.002 250.871 L
289.653 249.605 L
290.265 249.33 L
292.581 248.105 L
295.069 246.887 L
295.813 246.467 L
299.381 244.572 L
300.676 243.929 L
303.321 242.444 L
307.219 240.42 L
307.671 240.16 L
312.474 237.546 L
314.857 236.339 L
317.777 234.731 L
323.631 231.743 L
323.772 231.675 L
330.095 228.382 L
334.176 226.414 L
337.232 224.842 L
345.112 221.064 L
346.32 220.517 L
353.812 216.883 L
360.495 213.883 L
363.418 212.522 L
365.976 211.361 L
373.955 207.706 L
374.023 207.673 L
381.46 204.256 L
385.733 202.162 L
396.623 197.135 L
398.661 196.076 L
411.21 189.885 L
412.935 188.918 L
425.029 182.433 L
428.694 180.212 L
437.95 174.812 L
446.094 169.629 L
449.894 167.288 L
460.827 160.483 L
465.305 158.135 L
470.75 155.348 L
479.692 152.688 L
486.516 152.659 L
489.016 152.649 L
500.343 155.806 L
509.935 159.916 L
514.204 161.695 L
531.31 168.432 L
535.791 169.638 L
552.63 173.998 L
564.339 175.266 L
579.507 176.837 L
593.804 176.888 L
595.858 176.728 L
621.909 174.773 L
630.658 173.356 L
647.865 170.666 L
669.081 165.957 L
671.581 165.419 L
693.049 160.022 L
711.503 156.063 L
712.329 155.889 L
729.528 154.288 L
747.383 155.557 L
758.34 157.667 L
769.091 159.692 L
785.809 162.836 L
806.787 165.115 L
810.053 165.332 L
825.207 166.324 L
841.292 169.727 L
857.835 177.803 L
867.148 183.86 L
877.98 190.788 L
902.646 205.141 L
930.187 217.398 L
933.047 218.642 L
970.809 231.629 L
980.36 234.595 L
999.787 240.513 L
1018.144 245.964 L
1045.798 254.416 L
1076.632 264.777 L
1091.346 269.584 L
1131.77 285.309 L
1161.475 299.104 L
1167.354 301.78 L
1198.461 318.433 L
1225.499 332.699 L
1248.883 339.82 L
1255.15 339.48 L
1272.836 338.532 L
1302.019 331.406 L
1319.88 327.086 L
1322.632 326.479 L
1350.954 321.278 L
1353.786 320.86 L
1358.575 320.277 L
1377.31 318.021 L
1380.212 317.74 L
1399.564 316.172 L
1402.524 315.969 L
1418.283 314.943 L
1421.291 314.739 L
1433.978 313.657 L
1437.027 313.285 L
1447.105 311.228 L
1450.188 310.079 L
1458.059 303.594 L
1461.171 296.953 L
1467.185 257.408 L
1470.321 303.395 L
1472.766 312.702 L
1476.381 326.423 L
1479.54 326.73 L
1487.606 325.709 L
1490.794 325.436 L
1501.333 325.181 L
1504.557 325.248 L
1518.156 325.997 L
1521.423 326.261 L
1538.825 328.058 L
1542.146 328.462 L
1564.3 331.52 L
1567.687 332.032 L
1595.818 336.446 L
1598.843 336.908 L
1599.288 336.976 L
1630.57 340.52 L
1664.327 337.449 L
1693.064 324.265 L
1717.437 305.734 L
1738.044 295.121 L
S
GR
GS
[0.75 0 0 0.75 0 0] CT
1 LJ
0.667 LW
N
1738.044 471.046 M
1738.044 471 L
1738.044 184.5 L
1738.044 88.954 L
S
GR
GS
[0.75 0 0 0.75 0 0] CT
0.851 0.325 0.098 RC
1 LJ
0.667 LW
N
261.824 264.791 M
262.165 264.786 L
262.273 264.782 L
262.4 264.778 L
262.547 264.772 L
262.72 264.764 L
262.922 264.753 L
263.158 264.737 L
263.435 264.716 L
263.758 264.688 L
264.137 264.649 L
264.579 264.595 L
265.097 264.522 L
265.703 264.423 L
266.412 264.287 L
267.241 264.103 L
268.21 263.854 L
269.345 263.517 L
270.672 263.064 L
272.224 262.458 L
273.065 262.07 L
274.04 261.655 L
274.266 261.534 L
275.592 260.867 L
276.164 260.599 L
277.055 260.082 L
278.649 259.228 L
278.671 259.213 L
280.456 258.106 L
281.556 257.475 L
282.426 256.878 L
284.601 255.487 L
284.956 255.272 L
287.002 253.823 L
288.934 252.557 L
289.653 252.016 L
292.581 249.95 L
293.588 249.284 L
295.813 247.632 L
299.031 245.424 L
299.381 245.16 L
303.321 242.35 L
305.399 240.972 L
307.671 239.355 L
312.474 236.184 L
312.848 235.95 L
317.777 232.708 L
321.563 230.405 L
323.631 229.113 L
330.095 225.338 L
331.756 224.425 L
337.232 221.421 L
343.681 218.151 L
345.112 217.448 L
353.812 213.418 L
357.631 211.768 L
363.418 209.389 L
364.606 208.917 L
374.023 205.303 L
379.791 203.236 L
385.733 200.993 L
394.644 197.823 L
398.661 196.129 L
408.914 192.019 L
412.935 189.983 L
422.419 185.387 L
428.694 181.587 L
435.03 177.894 L
446.094 170.332 L
446.675 169.947 L
457.324 162.395 L
465.305 157.427 L
466.98 156.409 L
475.672 152.96 L
484.733 152.172 L
486.516 152.57 L
495.74 154.582 L
509.211 159.834 L
509.935 160.123 L
525.835 166.263 L
535.791 169.152 L
546.553 172.158 L
564.339 174.903 L
572.668 176.134 L
586.279 176.892 L
595.858 176.58 L
614.229 176.008 L
630.658 173.765 L
640.102 172.521 L
663.793 167.358 L
669.081 165.933 L
685.284 161.68 L
704.623 157.03 L
711.503 156.109 L
721.907 154.743 L
739.864 155.139 L
758.34 157.855 L
761.695 158.337 L
783.884 162.023 L
807.213 164.787 L
810.053 165.137 L
827.871 167.295 L
846.053 172.046 L
864.819 181.143 L
867.148 182.656 L
887.658 195.734 L
915.621 213.104 L
926.766 219.092 L
930.187 220.579 L
955.979 231.55 L
981.384 238.025 L
999.787 239.177 L
1003.335 239.396 L
1022.2 236.291 L
1038.339 231.025 L
1052.094 232.118 L
1066.092 247.837 L
1076.632 263.542 L
1083.162 273.171 L
1104.057 298.699 L
1129.749 320.36 L
1145.493 329.393 L
1161.475 336.236 L
1161.511 336.251 L
1179.787 342.165 L
1201.033 347.515 L
1221.775 351.862 L
1250.592 357.16 L
1255.15 357.939 L
1273.558 361.045 L
1313.318 367.37 L
1337.967 371.109 L
1358.575 374.102 L
1418.884 382.549 L
1472.766 389.292 L
1497.328 392.267 L
1583.804 400.827 L
1598.843 401.807 L
1664.096 405.937 L
1738.044 407.553 L
S
GR
GS
[0.75 0 0 0.75 0 0] CT
1 LJ
0.667 LW
N
1738.044 471.046 M
1738.044 471 L
1738.044 184.5 L
1738.044 88.954 L
S
GR
GS
[0.75 0 0 0.75 0 0] CT
1 0 1 RC
1 LJ
0.667 LW
N
261.824 337.225 M
264.495 336.455 L
267.46 336.324 L
270.425 336.037 L
273.39 335.805 L
276.354 334.522 L
279.319 332.363 L
282.284 328.842 L
285.249 323.836 L
288.214 317.244 L
291.179 310.05 L
294.144 301.107 L
297.109 291.74 L
300.074 282.347 L
303.038 273.315 L
306.003 264.821 L
308.968 258.573 L
311.933 253.067 L
314.898 248.258 L
317.863 244.112 L
320.828 240.374 L
323.793 236.433 L
326.758 232.932 L
329.722 229.798 L
332.687 226.978 L
335.652 224.424 L
338.617 222.073 L
341.582 219.908 L
344.547 217.93 L
347.512 216.079 L
350.477 214.341 L
353.441 212.686 L
356.406 211.106 L
359.371 209.569 L
362.336 208.091 L
365.301 206.654 L
368.266 205.277 L
371.231 203.954 L
374.196 202.702 L
377.161 201.501 L
380.125 200.36 L
383.09 199.236 L
386.055 198.125 L
389.02 196.988 L
391.985 195.809 L
394.95 194.548 L
397.915 193.208 L
400.88 191.761 L
403.845 190.206 L
406.809 188.539 L
409.774 186.794 L
412.739 184.97 L
415.704 183.09 L
418.669 181.139 L
421.634 179.147 L
424.599 177.087 L
427.564 174.963 L
430.529 172.764 L
433.493 170.529 L
436.458 168.236 L
439.423 165.91 L
442.388 163.569 L
445.353 161.23 L
448.318 158.893 L
451.283 156.586 L
454.248 154.333 L
457.213 152.153 L
460.177 150.089 L
463.142 148.187 L
466.107 146.479 L
469.072 145.006 L
472.037 143.806 L
475.002 142.901 L
477.967 142.307 L
480.932 142.03 L
483.897 142.052 L
486.861 142.36 L
489.826 142.918 L
492.791 143.688 L
495.756 144.635 L
498.721 145.731 L
501.686 146.925 L
504.651 148.196 L
507.616 149.516 L
510.58 150.851 L
513.545 152.183 L
516.51 153.499 L
519.475 154.775 L
522.44 155.99 L
525.405 157.156 L
528.37 158.262 L
531.335 159.311 L
534.3 160.307 L
537.264 161.266 L
540.229 162.177 L
543.194 163.035 L
546.159 163.833 L
549.124 164.579 L
552.089 165.267 L
555.054 165.899 L
558.019 166.474 L
560.984 167.009 L
563.948 167.503 L
566.913 167.945 L
569.878 168.34 L
572.843 168.708 L
575.808 169.031 L
578.773 169.294 L
581.738 169.519 L
584.703 169.703 L
587.668 169.824 L
590.632 169.891 L
593.597 169.926 L
596.562 169.912 L
599.527 169.859 L
602.492 169.771 L
605.457 169.659 L
608.422 169.501 L
611.387 169.315 L
614.352 169.091 L
617.316 168.835 L
620.281 168.532 L
623.246 168.209 L
626.211 167.84 L
629.176 167.429 L
632.141 166.979 L
635.106 166.496 L
638.071 165.966 L
641.036 165.408 L
644 164.825 L
646.965 164.204 L
649.93 163.556 L
652.895 162.871 L
655.86 162.15 L
658.825 161.391 L
661.79 160.611 L
664.755 159.793 L
667.719 158.949 L
670.684 158.086 L
673.649 157.205 L
676.614 156.307 L
679.579 155.399 L
682.544 154.495 L
685.509 153.587 L
688.474 152.688 L
691.439 151.796 L
694.403 150.926 L
697.368 150.075 L
700.333 149.261 L
703.298 148.485 L
706.263 147.762 L
709.228 147.098 L
712.193 146.502 L
715.158 145.976 L
718.123 145.529 L
721.087 145.166 L
724.052 144.884 L
727.017 144.69 L
729.982 144.582 L
732.947 144.559 L
735.912 144.615 L
738.877 144.752 L
741.842 144.961 L
744.807 145.24 L
747.771 145.581 L
750.736 145.974 L
753.701 146.408 L
756.666 146.879 L
759.631 147.372 L
762.596 147.885 L
765.561 148.412 L
768.526 148.943 L
771.491 149.47 L
774.455 149.988 L
777.42 150.489 L
780.385 150.972 L
783.35 151.438 L
786.315 151.885 L
789.28 152.316 L
792.245 152.731 L
795.21 153.132 L
798.174 153.525 L
801.139 153.914 L
804.104 154.304 L
807.069 154.7 L
810.034 155.107 L
812.999 155.53 L
815.964 155.985 L
818.929 156.481 L
821.894 157.028 L
824.858 157.647 L
827.823 158.344 L
830.788 159.123 L
833.753 159.996 L
836.718 160.978 L
839.683 162.062 L
842.648 163.269 L
845.613 164.587 L
848.578 166.019 L
851.542 167.554 L
854.507 169.2 L
857.472 170.93 L
860.437 172.743 L
863.402 174.629 L
866.367 176.572 L
869.332 178.554 L
872.297 180.564 L
875.262 182.605 L
878.226 184.652 L
881.191 186.688 L
884.156 188.671 L
887.121 190.594 L
890.086 192.408 L
893.051 194.097 L
896.016 195.666 L
898.981 197.169 L
901.945 198.613 L
904.91 200.058 L
907.875 201.542 L
910.84 203.071 L
913.805 204.628 L
916.77 206.207 L
919.735 207.771 L
922.7 209.309 L
925.665 210.814 L
928.63 212.268 L
931.594 213.67 L
934.559 215.036 L
937.524 216.343 L
940.489 217.599 L
943.454 218.805 L
946.419 219.97 L
949.384 221.076 L
952.349 222.14 L
955.313 223.155 L
958.278 224.122 L
961.243 225.029 L
964.208 225.885 L
967.173 226.681 L
970.138 227.405 L
973.103 228.075 L
976.068 228.692 L
979.033 229.243 L
981.997 229.729 L
984.962 230.168 L
987.927 230.564 L
990.892 230.888 L
993.857 231.138 L
996.822 231.32 L
999.787 231.432 L
1002.752 231.438 L
1005.717 231.396 L
1008.681 231.337 L
1011.646 231.263 L
1014.611 231.179 L
1017.576 231.115 L
1020.541 231.072 L
1023.506 231.036 L
1026.471 231.04 L
1029.436 231.101 L
1032.401 231.271 L
1035.365 231.591 L
1038.33 232.095 L
1041.295 232.828 L
1044.26 233.843 L
1047.225 235.137 L
1050.19 236.696 L
1053.155 238.545 L
1056.12 240.664 L
1059.084 242.993 L
1062.049 245.538 L
1065.014 248.258 L
1067.979 251.107 L
1070.944 254.044 L
1073.909 257.082 L
1076.874 260.121 L
1079.839 263.217 L
1082.804 266.346 L
1085.768 269.261 L
1088.733 272.158 L
1091.698 275.067 L
1094.663 277.878 L
1097.628 280.594 L
1100.593 283.672 L
1103.558 286.677 L
1106.523 289.632 L
1109.488 292.448 L
1112.453 294.903 L
1115.417 297.049 L
1118.382 299.041 L
1121.347 300.818 L
1124.312 302.631 L
1127.277 305.036 L
1130.242 307.055 L
1133.207 308.996 L
1136.172 311.001 L
1139.136 312.846 L
1142.101 314.111 L
1145.066 314.221 L
1148.031 314.354 L
1150.996 314.336 L
1153.961 313.819 L
1156.926 313.325 L
1159.891 315.72 L
1162.856 318.026 L
1165.82 320.237 L
1168.785 323.034 L
1171.75 325.791 L
1174.715 326.94 L
1177.68 326.853 L
1180.645 326.606 L
1183.61 326.365 L
1186.575 325.928 L
1189.54 325.336 L
1192.504 326.957 L
1195.469 328.711 L
1198.434 330.152 L
1201.399 331.785 L
1204.364 333.503 L
1207.329 333.886 L
1210.294 334.249 L
1213.259 334.31 L
1216.223 332.926 L
1219.188 331.251 L
1222.153 329.738 L
1225.118 327.967 L
1228.083 326.698 L
1231.048 327.389 L
1234.013 328.492 L
1236.978 329.566 L
1239.943 331.063 L
1242.907 332.383 L
1245.872 333.597 L
1248.837 334.607 L
1251.802 335.661 L
1254.767 335.894 L
1257.732 336.071 L
1260.697 333.786 L
1263.662 330.72 L
1266.627 327.576 L
1269.591 325.538 L
1272.556 323.48 L
1275.521 325.273 L
1278.486 328.553 L
1281.451 331.908 L
1284.416 334.346 L
1287.381 336.04 L
1290.346 335.8 L
1293.311 334.833 L
1296.275 333.702 L
1299.24 333.228 L
1302.205 334.179 L
1305.17 334.986 L
1308.135 335.842 L
1311.1 336.949 L
1314.065 337.708 L
1317.03 337.752 L
1319.995 337.981 L
1322.959 338.057 L
1325.924 337.862 L
1328.889 337.858 L
1331.854 337.027 L
1334.819 336.068 L
1337.784 334.991 L
1340.749 334.017 L
1343.714 332.434 L
1346.678 332.605 L
1349.643 332.909 L
1352.608 333.671 L
1355.573 334.575 L
1358.538 336.283 L
1361.503 336.97 L
1364.468 336.455 L
1367.433 334.386 L
1370.398 332.102 L
1373.362 329.519 L
1376.327 326.544 L
1379.292 325.741 L
1382.257 327.243 L
1385.222 328.814 L
1388.187 330.375 L
1391.152 333.026 L
1394.117 334.683 L
1397.082 335.564 L
1400.047 336.588 L
1403.011 337.622 L
1405.976 337.906 L
1408.941 338.122 L
1411.906 338.232 L
1414.871 338.097 L
1417.836 337.761 L
1420.801 337.763 L
1423.766 337.045 L
1426.73 336.052 L
1429.695 335.207 L
1432.66 334.604 L
1435.625 333.821 L
1438.59 334.526 L
1441.555 335.459 L
1444.52 336.306 L
1447.485 336.287 L
1450.449 336.25 L
1453.414 335.363 L
1456.379 332.847 L
1459.344 330.439 L
1462.309 329.585 L
1465.274 327.684 L
1468.239 325.816 L
1471.204 325.801 L
1474.169 325.777 L
1477.134 322.994 L
1480.098 322.342 L
1483.063 320.152 L
1486.028 318.401 L
1488.993 316.64 L
1491.958 318.849 L
1494.923 319.951 L
1497.888 324.33 L
1500.853 328.485 L
1503.818 332.539 L
1506.782 334.603 L
1509.747 336.248 L
1512.712 336.228 L
1515.677 334.972 L
1518.642 333.872 L
1521.607 332.77 L
1524.572 332.673 L
1527.537 332.556 L
1530.501 333.877 L
1533.466 334.197 L
1536.431 334.566 L
1539.396 334.401 L
1542.361 334.252 L
1545.326 333.374 L
1548.291 334.396 L
1551.256 335.338 L
1554.221 336.089 L
1557.186 336.807 L
1560.15 336.713 L
1563.115 335.48 L
1566.08 334.364 L
1569.045 333.599 L
1572.01 332.751 L
1574.975 333.577 L
1577.94 334.646 L
1580.905 335.652 L
1583.869 336.603 L
1586.834 337.652 L
1589.799 337.771 L
1592.764 337.878 L
1595.729 337.976 L
1598.694 337.133 L
1601.659 336.445 L
1604.624 335.773 L
1607.589 334.899 L
1610.553 333.926 L
1613.518 334.612 L
1616.483 334.447 L
1619.448 334.508 L
1622.413 334.743 L
1625.378 334.911 L
1628.343 334.241 L
1631.308 334.971 L
1634.273 335.38 L
1637.237 335.641 L
1640.202 333.786 L
1643.167 332.054 L
1646.132 329.493 L
1649.097 326.259 L
1652.062 323.139 L
1655.027 324.788 L
1657.992 326.257 L
1660.957 327.888 L
1663.921 329.375 L
1666.886 330.893 L
1669.851 328.493 L
1672.816 326.137 L
1675.781 323.561 L
1678.746 323.836 L
1681.711 324.141 L
1684.676 327.315 L
1687.64 330.501 L
1690.605 334.04 L
1693.57 335.73 L
1696.535 337.374 L
1699.5 337.515 L
1702.465 337.644 L
1705.43 337.442 L
1708.395 337.248 L
1711.36 336.937 L
1714.324 336.675 L
1717.289 336.451 L
1720.254 336.542 L
1723.219 336.643 L
1726.184 336.957 L
1729.149 337.443 L
1732.114 338.11 L
1735.079 338.736 L
1738.044 339.639 L
S
GR
GS
[0.75 0 0 0.75 0 0] CT
1 GC
N
1542 152 M
1542 102 L
1725 102 L
1725 152 L
cp
f
GR
GS
[0.75 0 0 0.75 1184.25 87.75] CT
/Helvetica 12 F
GS
[1 0 0 1 0 0] CT
0 0 moveto 
1 -1 scale
(OE_16_9) t 
GR
GR
GS
[0.75 0 0 0.75 0 0] CT
0 0.447 0.741 RC
1 LJ
0.667 LW
N
1546 111.5 M
1576 111.5 L
S
GR
GS
[0.75 0 0 0.75 1184.25 99] CT
/Helvetica 12 F
GS
[1 0 0 1 0 0] CT
0 0 moveto 
1 -1 scale
(OE_10_10) t 
GR
GR
GS
[0.75 0 0 0.75 0 0] CT
0.851 0.325 0.098 RC
1 LJ
0.667 LW
N
1546 127 M
1576 127 L
S
GR
GS
[0.75 0 0 0.75 1184.25 106.875] CT
/Helvetica 12 F
GS
[1 0 0 1 0 0] CT
0 4.5 moveto 
1 -1 scale
(Experimental Bode plot) t 
GR
GR
GS
[0.75 0 0 0.75 0 0] CT
1 0 1 RC
1 LJ
0.667 LW
N
1546 142.5 M
1576 142.5 L
S
GR
GS
[0.75 0 0 0.75 0 0] CT
0.149 GC
10.0 ML
0.667 LW
N
1542 152 M
1542 102 L
1725 102 L
1725 152 L
cp
S
GR
GS
[0.75 0 0 0.75 0 0] CT
1 GC
N
262 822 M
1738 822 L
1738 483 L
262 483 L
cp
f
GR
GS
[0.75 0 0 0.75 0 0] CT
0.4 GC
2 setlinecap
1 LJ
0.667 LW
N
262 822 M
1738 822 L
S
GR
GS
[0.75 0 0 0.75 0 0] CT
0.4 GC
2 setlinecap
1 LJ
0.667 LW
N
262 483 M
1738 483 L
S
GR
GS
[0.75 0 0 0.75 0 0] CT
0.4 GC
2 setlinecap
1 LJ
0.667 LW
N
496.524 822 M
496.524 807.24 L
S
GR
GS
[0.75 0 0 0.75 0 0] CT
0.4 GC
2 setlinecap
1 LJ
0.667 LW
N
731.519 822 M
731.519 807.24 L
S
GR
GS
[0.75 0 0 0.75 0 0] CT
0.4 GC
2 setlinecap
1 LJ
0.667 LW
N
966.513 822 M
966.513 807.24 L
S
GR
GS
[0.75 0 0 0.75 0 0] CT
0.4 GC
2 setlinecap
1 LJ
0.667 LW
N
1201.508 822 M
1201.508 807.24 L
S
GR
GS
[0.75 0 0 0.75 0 0] CT
0.4 GC
2 setlinecap
1 LJ
0.667 LW
N
1436.502 822 M
1436.502 807.24 L
S
GR
GS
[0.75 0 0 0.75 0 0] CT
0.4 GC
2 setlinecap
1 LJ
0.667 LW
N
1671.497 822 M
1671.497 807.24 L
S
GR
GS
[0.75 0 0 0.75 0 0] CT
0.4 GC
2 setlinecap
1 LJ
0.667 LW
N
496.524 483 M
496.524 497.76 L
S
GR
GS
[0.75 0 0 0.75 0 0] CT
0.4 GC
2 setlinecap
1 LJ
0.667 LW
N
731.519 483 M
731.519 497.76 L
S
GR
GS
[0.75 0 0 0.75 0 0] CT
0.4 GC
2 setlinecap
1 LJ
0.667 LW
N
966.513 483 M
966.513 497.76 L
S
GR
GS
[0.75 0 0 0.75 0 0] CT
0.4 GC
2 setlinecap
1 LJ
0.667 LW
N
1201.508 483 M
1201.508 497.76 L
S
GR
GS
[0.75 0 0 0.75 0 0] CT
0.4 GC
2 setlinecap
1 LJ
0.667 LW
N
1436.502 483 M
1436.502 497.76 L
S
GR
GS
[0.75 0 0 0.75 0 0] CT
0.4 GC
2 setlinecap
1 LJ
0.667 LW
N
1671.497 483 M
1671.497 497.76 L
S
GR
GS
[0.75 0 0 0.75 372.39333 620.49998] CT
0.4 GC
/Helvetica 13.333 F
GS
[1 0 0 1 0 0] CT
-10.5 13 moveto 
1 -1 scale
(0.5) t 
GR
GR
GS
[0.75 0 0 0.75 548.63914 620.49998] CT
0.4 GC
/Helvetica 13.333 F
GS
[1 0 0 1 0 0] CT
-4.5 13 moveto 
1 -1 scale
(1) t 
GR
GR
GS
[0.75 0 0 0.75 724.88498 620.49998] CT
0.4 GC
/Helvetica 13.333 F
GS
[1 0 0 1 0 0] CT
-10.5 13 moveto 
1 -1 scale
(1.5) t 
GR
GR
GS
[0.75 0 0 0.75 901.13077 620.49998] CT
0.4 GC
/Helvetica 13.333 F
GS
[1 0 0 1 0 0] CT
-4.5 13 moveto 
1 -1 scale
(2) t 
GR
GR
GS
[0.75 0 0 0.75 1077.37665 620.49998] CT
0.4 GC
/Helvetica 13.333 F
GS
[1 0 0 1 0 0] CT
-10.5 13 moveto 
1 -1 scale
(2.5) t 
GR
GR
GS
[0.75 0 0 0.75 1253.62244 620.49998] CT
0.4 GC
/Helvetica 13.333 F
GS
[1 0 0 1 0 0] CT
-4.5 13 moveto 
1 -1 scale
(3) t 
GR
GR
GS
[0.75 0 0 0.75 0 0] CT
0.4 GC
2 setlinecap
1 LJ
0.667 LW
N
262 822 M
262 483 L
S
GR
GS
[0.75 0 0 0.75 0 0] CT
0.4 GC
2 setlinecap
1 LJ
0.667 LW
N
1738 822 M
1738 483 L
S
GR
GS
[0.75 0 0 0.75 0 0] CT
0.4 GC
2 setlinecap
1 LJ
0.667 LW
N
262 818.676 M
276.76 818.676 L
S
GR
GS
[0.75 0 0 0.75 0 0] CT
0.4 GC
2 setlinecap
1 LJ
0.667 LW
N
262 735.588 M
276.76 735.588 L
S
GR
GS
[0.75 0 0 0.75 0 0] CT
0.4 GC
2 setlinecap
1 LJ
0.667 LW
N
262 652.5 M
276.76 652.5 L
S
GR
GS
[0.75 0 0 0.75 0 0] CT
0.4 GC
2 setlinecap
1 LJ
0.667 LW
N
262 569.412 M
276.76 569.412 L
S
GR
GS
[0.75 0 0 0.75 0 0] CT
0.4 GC
2 setlinecap
1 LJ
0.667 LW
N
262 486.324 M
276.76 486.324 L
S
GR
GS
[0.75 0 0 0.75 0 0] CT
0.4 GC
2 setlinecap
1 LJ
0.667 LW
N
1738 818.676 M
1723.24 818.676 L
S
GR
GS
[0.75 0 0 0.75 0 0] CT
0.4 GC
2 setlinecap
1 LJ
0.667 LW
N
1738 735.588 M
1723.24 735.588 L
S
GR
GS
[0.75 0 0 0.75 0 0] CT
0.4 GC
2 setlinecap
1 LJ
0.667 LW
N
1738 652.5 M
1723.24 652.5 L
S
GR
GS
[0.75 0 0 0.75 0 0] CT
0.4 GC
2 setlinecap
1 LJ
0.667 LW
N
1738 569.412 M
1723.24 569.412 L
S
GR
GS
[0.75 0 0 0.75 0 0] CT
0.4 GC
2 setlinecap
1 LJ
0.667 LW
N
1738 486.324 M
1723.24 486.324 L
S
GR
GS
[0.75 0 0 0.75 192.49999 614.00734] CT
0.4 GC
/Helvetica 13.333 F
GS
[1 0 0 1 0 0] CT
-38 4.5 moveto 
1 -1 scale
(-4320) t 
GR
GR
GS
[0.75 0 0 0.75 192.49999 551.69119] CT
0.4 GC
/Helvetica 13.333 F
GS
[1 0 0 1 0 0] CT
-38 4.5 moveto 
1 -1 scale
(-2880) t 
GR
GR
GS
[0.75 0 0 0.75 192.49999 489.375] CT
0.4 GC
/Helvetica 13.333 F
GS
[1 0 0 1 0 0] CT
-38 4.5 moveto 
1 -1 scale
(-1440) t 
GR
GR
GS
[0.75 0 0 0.75 192.49999 427.05881] CT
0.4 GC
/Helvetica 13.333 F
GS
[1 0 0 1 0 0] CT
-9 4.5 moveto 
1 -1 scale
(0) t 
GR
GR
GS
[0.75 0 0 0.75 192.49999 364.74264] CT
0.4 GC
/Helvetica 13.333 F
GS
[1 0 0 1 0 0] CT
-34 4.5 moveto 
1 -1 scale
(1440) t 
GR
GR
GS
[0 -0.75 0.75 0 161 489.37486] CT
/Helvetica 14.667 F
GS
[1 0 0 1 0 0] CT
-45 -4 moveto 
1 -1 scale
(Phase \(deg\)) t 
GR
GR
GS
[0.75 0 0 0.75 0 0] CT
0 0.447 0.741 RC
1 LJ
0.667 LW
N
261.824 507.111 M
262.351 507.139 L
262.488 507.146 L
262.648 507.154 L
262.835 507.164 L
263.054 507.176 L
263.308 507.189 L
263.606 507.205 L
263.953 507.223 L
264.358 507.245 L
264.83 507.27 L
265.382 507.299 L
266.026 507.333 L
266.778 507.374 L
267.655 507.421 L
268.679 507.477 L
269.874 507.543 L
271.268 507.622 L
272.896 507.716 L
273.065 507.726 L
274.266 507.797 L
274.796 507.828 L
275.592 507.877 L
277.014 507.964 L
277.055 507.967 L
278.671 508.071 L
279.602 508.13 L
280.456 508.188 L
282.426 508.321 L
282.624 508.334 L
284.601 508.476 L
286.15 508.587 L
287.002 508.652 L
289.653 508.855 L
290.265 508.901 L
292.581 509.091 L
295.069 509.295 L
295.813 509.36 L
299.381 509.674 L
300.676 509.787 L
303.321 510.036 L
307.219 510.402 L
307.671 510.448 L
312.474 510.928 L
314.857 511.167 L
317.777 511.476 L
323.631 512.096 L
323.772 512.111 L
330.095 512.813 L
334.176 513.266 L
337.232 513.619 L
345.112 514.53 L
346.32 514.67 L
353.812 515.565 L
360.495 516.363 L
363.418 516.719 L
365.976 517.03 L
373.955 518.013 L
374.023 518.021 L
381.46 518.948 L
385.733 519.489 L
396.623 520.87 L
398.661 521.135 L
411.21 522.768 L
412.935 523.001 L
425.029 524.633 L
428.694 525.154 L
437.95 526.47 L
446.094 527.718 L
449.894 528.301 L
460.827 530.144 L
465.305 530.977 L
470.75 531.989 L
479.692 533.767 L
486.516 535.14 L
489.016 535.643 L
500.343 537.786 L
509.935 539.384 L
514.204 540.096 L
531.31 542.573 L
535.791 543.159 L
552.63 545.363 L
564.339 546.832 L
579.507 548.734 L
593.804 550.525 L
595.858 550.787 L
621.909 554.107 L
630.658 555.262 L
647.865 557.535 L
669.081 560.485 L
671.581 560.833 L
693.049 564.031 L
711.503 566.997 L
712.329 567.13 L
729.528 570.048 L
747.383 573.096 L
758.34 574.881 L
769.091 576.633 L
785.809 579.217 L
806.787 582.444 L
810.053 582.982 L
825.207 585.476 L
841.292 588.34 L
857.835 591.255 L
867.148 592.714 L
877.98 594.412 L
902.646 597.813 L
930.187 601.401 L
933.047 601.774 L
970.809 606.701 L
980.36 607.963 L
999.787 610.567 L
1018.144 613.027 L
1045.798 616.806 L
1076.632 621.115 L
1091.346 623.172 L
1131.77 629.009 L
1161.475 633.507 L
1167.354 634.397 L
1198.461 639.487 L
1225.499 644.452 L
1248.883 649.205 L
1255.15 650.471 L
1272.836 654.044 L
1302.019 659.347 L
1319.88 662.328 L
1322.632 662.775 L
1350.954 667.259 L
1353.786 667.698 L
1358.575 668.436 L
1377.31 671.319 L
1380.212 671.764 L
1399.564 674.728 L
1402.524 675.183 L
1418.283 677.626 L
1421.291 678.099 L
1433.978 680.138 L
1437.027 680.645 L
1447.105 682.426 L
1450.188 683.027 L
1458.059 684.897 L
1461.171 685.977 L
1467.185 693.056 L
1470.321 699.249 L
1472.766 701.129 L
1476.381 703.907 L
1479.54 705.133 L
1487.606 707.189 L
1490.794 707.836 L
1501.333 709.745 L
1504.557 710.293 L
1518.156 712.529 L
1521.423 713.056 L
1538.825 715.844 L
1542.146 716.375 L
1564.3 719.95 L
1567.687 720.504 L
1595.818 725.22 L
1598.843 725.744 L
1599.288 725.821 L
1630.57 731.498 L
1664.327 738.242 L
1693.064 744.429 L
1717.437 750.281 L
1738.044 756.36 L
S
GR
GS
[0.75 0 0 0.75 0 0] CT
1 LJ
0.667 LW
N
1738.044 822.04 M
1738.044 627.112 L
1738.044 569.469 L
1738.044 569.412 L
1738.044 569.354 L
1738.044 511.712 L
1738.044 482.96 L
S
GR
GS
[0.75 0 0 0.75 0 0] CT
0.851 0.325 0.098 RC
1 LJ
0.667 LW
N
261.824 569.42 M
262.165 569.43 L
262.273 569.433 L
262.4 569.436 L
262.547 569.441 L
262.72 569.446 L
262.922 569.451 L
263.158 569.458 L
263.435 569.466 L
263.758 569.475 L
264.137 569.486 L
264.579 569.499 L
265.097 569.514 L
265.703 569.533 L
266.412 569.554 L
267.241 569.58 L
268.21 569.611 L
269.345 569.649 L
270.672 569.696 L
272.224 569.755 L
273.065 569.789 L
274.04 569.829 L
274.266 569.839 L
275.592 569.898 L
276.164 569.924 L
277.055 569.968 L
278.649 570.047 L
278.671 570.049 L
280.456 570.147 L
281.556 570.208 L
282.426 570.263 L
284.601 570.398 L
284.956 570.42 L
287.002 570.564 L
288.934 570.699 L
289.653 570.755 L
292.581 570.985 L
293.588 571.064 L
295.813 571.258 L
299.031 571.538 L
299.381 571.572 L
303.321 571.949 L
305.399 572.148 L
307.671 572.384 L
312.474 572.883 L
312.848 572.922 L
317.777 573.472 L
321.563 573.895 L
323.631 574.14 L
330.095 574.906 L
331.756 575.103 L
337.232 575.783 L
343.681 576.583 L
345.112 576.767 L
353.812 577.882 L
357.631 578.371 L
363.418 579.12 L
364.606 579.274 L
374.023 580.491 L
379.791 581.236 L
385.733 581.993 L
394.644 583.128 L
398.661 583.634 L
408.914 584.926 L
412.935 585.438 L
422.419 586.648 L
428.694 587.488 L
435.03 588.336 L
446.094 589.95 L
446.675 590.035 L
457.324 591.778 L
465.305 593.247 L
466.98 593.556 L
475.672 595.294 L
484.733 597.146 L
486.516 597.491 L
495.74 599.279 L
509.211 601.594 L
509.935 601.702 L
525.835 604.091 L
535.791 605.44 L
546.553 606.898 L
564.339 609.17 L
572.668 610.235 L
586.279 611.943 L
595.858 613.148 L
614.229 615.46 L
630.658 617.58 L
640.102 618.799 L
663.793 622.012 L
669.081 622.782 L
685.284 625.143 L
704.623 628.196 L
711.503 629.349 L
721.907 631.091 L
739.864 634.143 L
758.34 637.179 L
761.695 637.73 L
783.884 641.214 L
807.213 644.872 L
810.053 645.341 L
827.871 648.286 L
846.053 651.45 L
864.819 654.67 L
867.148 655.033 L
887.658 658.221 L
915.621 662.015 L
926.766 663.413 L
930.187 663.822 L
955.979 666.911 L
981.384 669.877 L
999.787 672.088 L
1003.335 672.514 L
1022.2 675.045 L
1038.339 677.811 L
1052.094 680.954 L
1066.092 684.077 L
1076.632 685.706 L
1083.162 686.716 L
1104.057 688.951 L
1129.749 691.17 L
1145.493 692.475 L
1161.475 693.84 L
1161.511 693.843 L
1179.787 695.483 L
1201.033 697.497 L
1221.775 699.556 L
1250.592 702.527 L
1255.15 703.01 L
1273.558 704.959 L
1313.318 709.257 L
1337.967 711.959 L
1358.575 714.244 L
1418.884 720.93 L
1472.766 726.943 L
1497.328 729.683 L
1583.804 739.314 L
1598.843 740.979 L
1664.096 748.206 L
1738.044 756.36 L
S
GR
GS
[0.75 0 0 0.75 0 0] CT
1 LJ
0.667 LW
N
1738.044 822.04 M
1738.044 627.112 L
1738.044 569.469 L
1738.044 569.412 L
1738.044 569.354 L
1738.044 511.712 L
1738.044 482.96 L
S
GR
GS
[0.75 0 0 0.75 749.25 48.705] CT
/Helvetica-Bold 14.667 F
GS
[1 0 0 1 0 0] CT
-60 -4 moveto 
1 -1 scale
(Bode Diagram) t 
GR
GR
GS
[0.75 0 0 0.75 749.25 632.75002] CT
/Helvetica 14.667 F
GS
[1 0 0 1 0 0] CT
-69 14 moveto 
1 -1 scale
(Frequency  \(rad/s\)) t 
GR
GR
%%Trailer
%%Pages: 1
%%EOF
