%!PS-Adobe-3.0 EPSF-3.0
%%Creator: (MATLAB, The Mathworks, Inc. Version 9.1.0.441655 \(R2016b\). Operating System: Windows 8)
%%Title: C:/Users/Eigenaar/WIT/SI/system-identification/Oefenzitting_3/plots/bodeexperimental.eps
%%CreationDate: 2016-12-20T09:35:49
%%Pages: (atend)
%%BoundingBox: 0 0 603 486
%%LanguageLevel: 3
%%EndComments
%%BeginProlog
%%BeginResource: procset (Apache XML Graphics Std ProcSet) 1.2 0
%%Version: 1.2 0
%%Copyright: (Copyright 2001-2003,2010 The Apache Software Foundation. License terms: http://www.apache.org/licenses/LICENSE-2.0)
/bd{bind def}bind def
/ld{load def}bd
/GR/grestore ld
/M/moveto ld
/LJ/setlinejoin ld
/C/curveto ld
/f/fill ld
/LW/setlinewidth ld
/GC/setgray ld
/t/show ld
/N/newpath ld
/CT/concat ld
/cp/closepath ld
/S/stroke ld
/L/lineto ld
/CC/setcmykcolor ld
/A/ashow ld
/GS/gsave ld
/RC/setrgbcolor ld
/RM/rmoveto ld
/ML/setmiterlimit ld
/re {4 2 roll M
1 index 0 rlineto
0 exch rlineto
neg 0 rlineto
cp } bd
/_ctm matrix def
/_tm matrix def
/BT { _ctm currentmatrix pop matrix _tm copy pop 0 0 moveto } bd
/ET { _ctm setmatrix } bd
/iTm { _ctm setmatrix _tm concat } bd
/Tm { _tm astore pop iTm 0 0 moveto } bd
/ux 0.0 def
/uy 0.0 def
/F {
  /Tp exch def
  /Tf exch def
  Tf findfont Tp scalefont setfont
  /cf Tf def  /cs Tp def
} bd
/ULS {currentpoint /uy exch def /ux exch def} bd
/ULE {
  /Tcx currentpoint pop def
  gsave
  newpath
  cf findfont cs scalefont dup
  /FontMatrix get 0 get /Ts exch def /FontInfo get dup
  /UnderlinePosition get Ts mul /To exch def
  /UnderlineThickness get Ts mul /Tt exch def
  ux uy To add moveto  Tcx uy To add lineto
  Tt setlinewidth stroke
  grestore
} bd
/OLE {
  /Tcx currentpoint pop def
  gsave
  newpath
  cf findfont cs scalefont dup
  /FontMatrix get 0 get /Ts exch def /FontInfo get dup
  /UnderlinePosition get Ts mul /To exch def
  /UnderlineThickness get Ts mul /Tt exch def
  ux uy To add cs add moveto Tcx uy To add cs add lineto
  Tt setlinewidth stroke
  grestore
} bd
/SOE {
  /Tcx currentpoint pop def
  gsave
  newpath
  cf findfont cs scalefont dup
  /FontMatrix get 0 get /Ts exch def /FontInfo get dup
  /UnderlinePosition get Ts mul /To exch def
  /UnderlineThickness get Ts mul /Tt exch def
  ux uy To add cs 10 mul 26 idiv add moveto Tcx uy To add cs 10 mul 26 idiv add lineto
  Tt setlinewidth stroke
  grestore
} bd
/QT {
/Y22 exch store
/X22 exch store
/Y21 exch store
/X21 exch store
currentpoint
/Y21 load 2 mul add 3 div exch
/X21 load 2 mul add 3 div exch
/X21 load 2 mul /X22 load add 3 div
/Y21 load 2 mul /Y22 load add 3 div
/X22 load /Y22 load curveto
} bd
/SSPD {
dup length /d exch dict def
{
/v exch def
/k exch def
currentpagedevice k known {
/cpdv currentpagedevice k get def
v cpdv ne {
/upd false def
/nullv v type /nulltype eq def
/nullcpdv cpdv type /nulltype eq def
nullv nullcpdv or
{
/upd true def
} {
/sametype v type cpdv type eq def
sametype {
v type /arraytype eq {
/vlen v length def
/cpdvlen cpdv length def
vlen cpdvlen eq {
0 1 vlen 1 sub {
/i exch def
/obj v i get def
/cpdobj cpdv i get def
obj cpdobj ne {
/upd true def
exit
} if
} for
} {
/upd true def
} ifelse
} {
v type /dicttype eq {
v {
/dv exch def
/dk exch def
/cpddv cpdv dk get def
dv cpddv ne {
/upd true def
exit
} if
} forall
} {
/upd true def
} ifelse
} ifelse
} if
} ifelse
upd true eq {
d k v put
} if
} if
} if
} forall
d length 0 gt {
d setpagedevice
} if
} bd
/RE { % /NewFontName [NewEncodingArray] /FontName RE -
  findfont dup length dict begin
  {
    1 index /FID ne
    {def} {pop pop} ifelse
  } forall
  /Encoding exch def
  /FontName 1 index def
  currentdict definefont pop
  end
} bind def
%%EndResource
%%BeginResource: procset (Apache XML Graphics EPS ProcSet) 1.0 0
%%Version: 1.0 0
%%Copyright: (Copyright 2002-2003 The Apache Software Foundation. License terms: http://www.apache.org/licenses/LICENSE-2.0)
/BeginEPSF { %def
/b4_Inc_state save def         % Save state for cleanup
/dict_count countdictstack def % Count objects on dict stack
/op_count count 1 sub def      % Count objects on operand stack
userdict begin                 % Push userdict on dict stack
/showpage { } def              % Redefine showpage, { } = null proc
0 setgray 0 setlinecap         % Prepare graphics state
1 setlinewidth 0 setlinejoin
10 setmiterlimit [ ] 0 setdash newpath
/languagelevel where           % If level not equal to 1 then
{pop languagelevel             % set strokeadjust and
1 ne                           % overprint to their defaults.
{false setstrokeadjust false setoverprint
} if
} if
} bd
/EndEPSF { %def
count op_count sub {pop} repeat            % Clean up stacks
countdictstack dict_count sub {end} repeat
b4_Inc_state restore
} bd
%%EndResource
%FOPBeginFontDict
%%IncludeResource: font Courier-Bold
%%IncludeResource: font Helvetica
%%IncludeResource: font Courier-BoldOblique
%%IncludeResource: font Courier-Oblique
%%IncludeResource: font Times-Roman
%%IncludeResource: font Helvetica-BoldOblique
%%IncludeResource: font Helvetica-Bold
%%IncludeResource: font Helvetica-Oblique
%%IncludeResource: font Times-BoldItalic
%%IncludeResource: font Courier
%%IncludeResource: font Times-Italic
%%IncludeResource: font Times-Bold
%%IncludeResource: font Symbol
%%IncludeResource: font ZapfDingbats
%FOPEndFontDict
%%BeginResource: encoding WinAnsiEncoding
/WinAnsiEncoding [
/.notdef /.notdef /.notdef /.notdef /.notdef
/.notdef /.notdef /.notdef /.notdef /.notdef
/.notdef /.notdef /.notdef /.notdef /.notdef
/.notdef /.notdef /.notdef /.notdef /.notdef
/.notdef /.notdef /.notdef /.notdef /.notdef
/.notdef /.notdef /.notdef /.notdef /.notdef
/.notdef /.notdef /space /exclam /quotedbl
/numbersign /dollar /percent /ampersand /quotesingle
/parenleft /parenright /asterisk /plus /comma
/hyphen /period /slash /zero /one
/two /three /four /five /six
/seven /eight /nine /colon /semicolon
/less /equal /greater /question /at
/A /B /C /D /E
/F /G /H /I /J
/K /L /M /N /O
/P /Q /R /S /T
/U /V /W /X /Y
/Z /bracketleft /backslash /bracketright /asciicircum
/underscore /quoteleft /a /b /c
/d /e /f /g /h
/i /j /k /l /m
/n /o /p /q /r
/s /t /u /v /w
/x /y /z /braceleft /bar
/braceright /asciitilde /bullet /Euro /bullet
/quotesinglbase /florin /quotedblbase /ellipsis /dagger
/daggerdbl /circumflex /perthousand /Scaron /guilsinglleft
/OE /bullet /Zcaron /bullet /bullet
/quoteleft /quoteright /quotedblleft /quotedblright /bullet
/endash /emdash /asciitilde /trademark /scaron
/guilsinglright /oe /bullet /zcaron /Ydieresis
/space /exclamdown /cent /sterling /currency
/yen /brokenbar /section /dieresis /copyright
/ordfeminine /guillemotleft /logicalnot /sfthyphen /registered
/macron /degree /plusminus /twosuperior /threesuperior
/acute /mu /paragraph /middot /cedilla
/onesuperior /ordmasculine /guillemotright /onequarter /onehalf
/threequarters /questiondown /Agrave /Aacute /Acircumflex
/Atilde /Adieresis /Aring /AE /Ccedilla
/Egrave /Eacute /Ecircumflex /Edieresis /Igrave
/Iacute /Icircumflex /Idieresis /Eth /Ntilde
/Ograve /Oacute /Ocircumflex /Otilde /Odieresis
/multiply /Oslash /Ugrave /Uacute /Ucircumflex
/Udieresis /Yacute /Thorn /germandbls /agrave
/aacute /acircumflex /atilde /adieresis /aring
/ae /ccedilla /egrave /eacute /ecircumflex
/edieresis /igrave /iacute /icircumflex /idieresis
/eth /ntilde /ograve /oacute /ocircumflex
/otilde /odieresis /divide /oslash /ugrave
/uacute /ucircumflex /udieresis /yacute /thorn
/ydieresis
] def
%%EndResource
%FOPBeginFontReencode
/Courier-Bold findfont
dup length dict begin
  {1 index /FID ne {def} {pop pop} ifelse} forall
  /Encoding WinAnsiEncoding def
  currentdict
end
/Courier-Bold exch definefont pop
/Helvetica findfont
dup length dict begin
  {1 index /FID ne {def} {pop pop} ifelse} forall
  /Encoding WinAnsiEncoding def
  currentdict
end
/Helvetica exch definefont pop
/Courier-BoldOblique findfont
dup length dict begin
  {1 index /FID ne {def} {pop pop} ifelse} forall
  /Encoding WinAnsiEncoding def
  currentdict
end
/Courier-BoldOblique exch definefont pop
/Courier-Oblique findfont
dup length dict begin
  {1 index /FID ne {def} {pop pop} ifelse} forall
  /Encoding WinAnsiEncoding def
  currentdict
end
/Courier-Oblique exch definefont pop
/Times-Roman findfont
dup length dict begin
  {1 index /FID ne {def} {pop pop} ifelse} forall
  /Encoding WinAnsiEncoding def
  currentdict
end
/Times-Roman exch definefont pop
/Helvetica-BoldOblique findfont
dup length dict begin
  {1 index /FID ne {def} {pop pop} ifelse} forall
  /Encoding WinAnsiEncoding def
  currentdict
end
/Helvetica-BoldOblique exch definefont pop
/Helvetica-Bold findfont
dup length dict begin
  {1 index /FID ne {def} {pop pop} ifelse} forall
  /Encoding WinAnsiEncoding def
  currentdict
end
/Helvetica-Bold exch definefont pop
/Helvetica-Oblique findfont
dup length dict begin
  {1 index /FID ne {def} {pop pop} ifelse} forall
  /Encoding WinAnsiEncoding def
  currentdict
end
/Helvetica-Oblique exch definefont pop
/Times-BoldItalic findfont
dup length dict begin
  {1 index /FID ne {def} {pop pop} ifelse} forall
  /Encoding WinAnsiEncoding def
  currentdict
end
/Times-BoldItalic exch definefont pop
/Courier findfont
dup length dict begin
  {1 index /FID ne {def} {pop pop} ifelse} forall
  /Encoding WinAnsiEncoding def
  currentdict
end
/Courier exch definefont pop
/Times-Italic findfont
dup length dict begin
  {1 index /FID ne {def} {pop pop} ifelse} forall
  /Encoding WinAnsiEncoding def
  currentdict
end
/Times-Italic exch definefont pop
/Times-Bold findfont
dup length dict begin
  {1 index /FID ne {def} {pop pop} ifelse} forall
  /Encoding WinAnsiEncoding def
  currentdict
end
/Times-Bold exch definefont pop
%FOPEndFontReencode
%%EndProlog
%%Page: 1 1
%%PageBoundingBox: 0 0 603 486
%%BeginPageSetup
[1 0 0 -1 0 486] CT
%%EndPageSetup
GS
[0.75 0 0 0.75 0 0] CT
1 GC
N
0 0 804 648 re
f
GR
GS
[0.75 0 0 0.75 0 0] CT
1 GC
N
0 0 804 648 re
f
GR
GS
[0.75 0 0 0.75 0 0] CT
1 GC
N
105 577 M
728 577 L
728 49 L
105 49 L
cp
f
GR
GS
[0.75 0 0 0.75 0 0] CT
0.149 GC
2 setlinecap
1 LJ
0.667 LW
N
105 577 M
728 577 L
S
GR
GS
[0.75 0 0 0.75 0 0] CT
0.149 GC
2 setlinecap
1 LJ
0.667 LW
N
105 49 M
728 49 L
S
GR
GS
[0.75 0 0 0.75 0 0] CT
0.149 GC
2 setlinecap
1 LJ
0.667 LW
N
105 577 M
105 570.77 L
S
GR
GS
[0.75 0 0 0.75 0 0] CT
0.149 GC
2 setlinecap
1 LJ
0.667 LW
N
167.3 577 M
167.3 570.77 L
S
GR
GS
[0.75 0 0 0.75 0 0] CT
0.149 GC
2 setlinecap
1 LJ
0.667 LW
N
229.6 577 M
229.6 570.77 L
S
GR
GS
[0.75 0 0 0.75 0 0] CT
0.149 GC
2 setlinecap
1 LJ
0.667 LW
N
291.9 577 M
291.9 570.77 L
S
GR
GS
[0.75 0 0 0.75 0 0] CT
0.149 GC
2 setlinecap
1 LJ
0.667 LW
N
354.2 577 M
354.2 570.77 L
S
GR
GS
[0.75 0 0 0.75 0 0] CT
0.149 GC
2 setlinecap
1 LJ
0.667 LW
N
416.5 577 M
416.5 570.77 L
S
GR
GS
[0.75 0 0 0.75 0 0] CT
0.149 GC
2 setlinecap
1 LJ
0.667 LW
N
478.8 577 M
478.8 570.77 L
S
GR
GS
[0.75 0 0 0.75 0 0] CT
0.149 GC
2 setlinecap
1 LJ
0.667 LW
N
541.1 577 M
541.1 570.77 L
S
GR
GS
[0.75 0 0 0.75 0 0] CT
0.149 GC
2 setlinecap
1 LJ
0.667 LW
N
603.4 577 M
603.4 570.77 L
S
GR
GS
[0.75 0 0 0.75 0 0] CT
0.149 GC
2 setlinecap
1 LJ
0.667 LW
N
665.7 577 M
665.7 570.77 L
S
GR
GS
[0.75 0 0 0.75 0 0] CT
0.149 GC
2 setlinecap
1 LJ
0.667 LW
N
728 577 M
728 570.77 L
S
GR
GS
[0.75 0 0 0.75 0 0] CT
0.149 GC
2 setlinecap
1 LJ
0.667 LW
N
105 49 M
105 55.23 L
S
GR
GS
[0.75 0 0 0.75 0 0] CT
0.149 GC
2 setlinecap
1 LJ
0.667 LW
N
167.3 49 M
167.3 55.23 L
S
GR
GS
[0.75 0 0 0.75 0 0] CT
0.149 GC
2 setlinecap
1 LJ
0.667 LW
N
229.6 49 M
229.6 55.23 L
S
GR
GS
[0.75 0 0 0.75 0 0] CT
0.149 GC
2 setlinecap
1 LJ
0.667 LW
N
291.9 49 M
291.9 55.23 L
S
GR
GS
[0.75 0 0 0.75 0 0] CT
0.149 GC
2 setlinecap
1 LJ
0.667 LW
N
354.2 49 M
354.2 55.23 L
S
GR
GS
[0.75 0 0 0.75 0 0] CT
0.149 GC
2 setlinecap
1 LJ
0.667 LW
N
416.5 49 M
416.5 55.23 L
S
GR
GS
[0.75 0 0 0.75 0 0] CT
0.149 GC
2 setlinecap
1 LJ
0.667 LW
N
478.8 49 M
478.8 55.23 L
S
GR
GS
[0.75 0 0 0.75 0 0] CT
0.149 GC
2 setlinecap
1 LJ
0.667 LW
N
541.1 49 M
541.1 55.23 L
S
GR
GS
[0.75 0 0 0.75 0 0] CT
0.149 GC
2 setlinecap
1 LJ
0.667 LW
N
603.4 49 M
603.4 55.23 L
S
GR
GS
[0.75 0 0 0.75 0 0] CT
0.149 GC
2 setlinecap
1 LJ
0.667 LW
N
665.7 49 M
665.7 55.23 L
S
GR
GS
[0.75 0 0 0.75 0 0] CT
0.149 GC
2 setlinecap
1 LJ
0.667 LW
N
728 49 M
728 55.23 L
S
GR
GS
[0.75 0 0 0.75 78.75 436.74998] CT
0.149 GC
/Helvetica 13.333 F
GS
[1 0 0 1 0 0] CT
-4 14 moveto 
1 -1 scale
(0) t 
GR
GR
GS
[0.75 0 0 0.75 125.475 436.74998] CT
0.149 GC
/Helvetica 13.333 F
GS
[1 0 0 1 0 0] CT
-13 14 moveto 
1 -1 scale
(0.05) t 
GR
GR
GS
[0.75 0 0 0.75 172.2 436.74998] CT
0.149 GC
/Helvetica 13.333 F
GS
[1 0 0 1 0 0] CT
-9.5 14 moveto 
1 -1 scale
(0.1) t 
GR
GR
GS
[0.75 0 0 0.75 218.925 436.74998] CT
0.149 GC
/Helvetica 13.333 F
GS
[1 0 0 1 0 0] CT
-13 14 moveto 
1 -1 scale
(0.15) t 
GR
GR
GS
[0.75 0 0 0.75 265.65001 436.74998] CT
0.149 GC
/Helvetica 13.333 F
GS
[1 0 0 1 0 0] CT
-9.5 14 moveto 
1 -1 scale
(0.2) t 
GR
GR
GS
[0.75 0 0 0.75 312.375 436.74998] CT
0.149 GC
/Helvetica 13.333 F
GS
[1 0 0 1 0 0] CT
-13 14 moveto 
1 -1 scale
(0.25) t 
GR
GR
GS
[0.75 0 0 0.75 359.10001 436.74998] CT
0.149 GC
/Helvetica 13.333 F
GS
[1 0 0 1 0 0] CT
-9.5 14 moveto 
1 -1 scale
(0.3) t 
GR
GR
GS
[0.75 0 0 0.75 405.82498 436.74998] CT
0.149 GC
/Helvetica 13.333 F
GS
[1 0 0 1 0 0] CT
-13 14 moveto 
1 -1 scale
(0.35) t 
GR
GR
GS
[0.75 0 0 0.75 452.55002 436.74998] CT
0.149 GC
/Helvetica 13.333 F
GS
[1 0 0 1 0 0] CT
-9.5 14 moveto 
1 -1 scale
(0.4) t 
GR
GR
GS
[0.75 0 0 0.75 499.27501 436.74998] CT
0.149 GC
/Helvetica 13.333 F
GS
[1 0 0 1 0 0] CT
-13 14 moveto 
1 -1 scale
(0.45) t 
GR
GR
GS
[0.75 0 0 0.75 546 436.74998] CT
0.149 GC
/Helvetica 13.333 F
GS
[1 0 0 1 0 0] CT
-9.5 14 moveto 
1 -1 scale
(0.5) t 
GR
GR
GS
[0.75 0 0 0.75 312.37523 450.50002] CT
0.149 GC
/Helvetica 14.667 F
GS
[1 0 0 1 0 0] CT
-73 16 moveto 
1 -1 scale
(Normalized frequency) t 
GR
GR
GS
[0.75 0 0 0.75 0 0] CT
0.149 GC
2 setlinecap
1 LJ
0.667 LW
N
105 577 M
105 49 L
S
GR
GS
[0.75 0 0 0.75 0 0] CT
0.149 GC
2 setlinecap
1 LJ
0.667 LW
N
728 577 M
728 49 L
S
GR
GS
[0.75 0 0 0.75 0 0] CT
0.149 GC
2 setlinecap
1 LJ
0.667 LW
N
105 577 M
111.23 577 L
S
GR
GS
[0.75 0 0 0.75 0 0] CT
0.149 GC
2 setlinecap
1 LJ
0.667 LW
N
105 524.2 M
111.23 524.2 L
S
GR
GS
[0.75 0 0 0.75 0 0] CT
0.149 GC
2 setlinecap
1 LJ
0.667 LW
N
105 471.4 M
111.23 471.4 L
S
GR
GS
[0.75 0 0 0.75 0 0] CT
0.149 GC
2 setlinecap
1 LJ
0.667 LW
N
105 418.6 M
111.23 418.6 L
S
GR
GS
[0.75 0 0 0.75 0 0] CT
0.149 GC
2 setlinecap
1 LJ
0.667 LW
N
105 365.8 M
111.23 365.8 L
S
GR
GS
[0.75 0 0 0.75 0 0] CT
0.149 GC
2 setlinecap
1 LJ
0.667 LW
N
105 313 M
111.23 313 L
S
GR
GS
[0.75 0 0 0.75 0 0] CT
0.149 GC
2 setlinecap
1 LJ
0.667 LW
N
105 260.2 M
111.23 260.2 L
S
GR
GS
[0.75 0 0 0.75 0 0] CT
0.149 GC
2 setlinecap
1 LJ
0.667 LW
N
105 207.4 M
111.23 207.4 L
S
GR
GS
[0.75 0 0 0.75 0 0] CT
0.149 GC
2 setlinecap
1 LJ
0.667 LW
N
105 154.6 M
111.23 154.6 L
S
GR
GS
[0.75 0 0 0.75 0 0] CT
0.149 GC
2 setlinecap
1 LJ
0.667 LW
N
105 101.8 M
111.23 101.8 L
S
GR
GS
[0.75 0 0 0.75 0 0] CT
0.149 GC
2 setlinecap
1 LJ
0.667 LW
N
105 49 M
111.23 49 L
S
GR
GS
[0.75 0 0 0.75 0 0] CT
0.149 GC
2 setlinecap
1 LJ
0.667 LW
N
728 577 M
721.77 577 L
S
GR
GS
[0.75 0 0 0.75 0 0] CT
0.149 GC
2 setlinecap
1 LJ
0.667 LW
N
728 524.2 M
721.77 524.2 L
S
GR
GS
[0.75 0 0 0.75 0 0] CT
0.149 GC
2 setlinecap
1 LJ
0.667 LW
N
728 471.4 M
721.77 471.4 L
S
GR
GS
[0.75 0 0 0.75 0 0] CT
0.149 GC
2 setlinecap
1 LJ
0.667 LW
N
728 418.6 M
721.77 418.6 L
S
GR
GS
[0.75 0 0 0.75 0 0] CT
0.149 GC
2 setlinecap
1 LJ
0.667 LW
N
728 365.8 M
721.77 365.8 L
S
GR
GS
[0.75 0 0 0.75 0 0] CT
0.149 GC
2 setlinecap
1 LJ
0.667 LW
N
728 313 M
721.77 313 L
S
GR
GS
[0.75 0 0 0.75 0 0] CT
0.149 GC
2 setlinecap
1 LJ
0.667 LW
N
728 260.2 M
721.77 260.2 L
S
GR
GS
[0.75 0 0 0.75 0 0] CT
0.149 GC
2 setlinecap
1 LJ
0.667 LW
N
728 207.4 M
721.77 207.4 L
S
GR
GS
[0.75 0 0 0.75 0 0] CT
0.149 GC
2 setlinecap
1 LJ
0.667 LW
N
728 154.6 M
721.77 154.6 L
S
GR
GS
[0.75 0 0 0.75 0 0] CT
0.149 GC
2 setlinecap
1 LJ
0.667 LW
N
728 101.8 M
721.77 101.8 L
S
GR
GS
[0.75 0 0 0.75 0 0] CT
0.149 GC
2 setlinecap
1 LJ
0.667 LW
N
728 49 M
721.77 49 L
S
GR
GS
[0.75 0 0 0.75 74.75 432.75] CT
0.149 GC
/Helvetica 13.333 F
GS
[1 0 0 1 0 0] CT
-19 5.5 moveto 
1 -1 scale
(-40) t 
GR
GR
GS
[0.75 0 0 0.75 74.75 393.15001] CT
0.149 GC
/Helvetica 13.333 F
GS
[1 0 0 1 0 0] CT
-19 5.5 moveto 
1 -1 scale
(-35) t 
GR
GR
GS
[0.75 0 0 0.75 74.75 353.55] CT
0.149 GC
/Helvetica 13.333 F
GS
[1 0 0 1 0 0] CT
-19 5.5 moveto 
1 -1 scale
(-30) t 
GR
GR
GS
[0.75 0 0 0.75 74.75 313.95] CT
0.149 GC
/Helvetica 13.333 F
GS
[1 0 0 1 0 0] CT
-19 5.5 moveto 
1 -1 scale
(-25) t 
GR
GR
GS
[0.75 0 0 0.75 74.75 274.34999] CT
0.149 GC
/Helvetica 13.333 F
GS
[1 0 0 1 0 0] CT
-19 5.5 moveto 
1 -1 scale
(-20) t 
GR
GR
GS
[0.75 0 0 0.75 74.75 234.75] CT
0.149 GC
/Helvetica 13.333 F
GS
[1 0 0 1 0 0] CT
-19 5.5 moveto 
1 -1 scale
(-15) t 
GR
GR
GS
[0.75 0 0 0.75 74.75 195.15001] CT
0.149 GC
/Helvetica 13.333 F
GS
[1 0 0 1 0 0] CT
-19 5.5 moveto 
1 -1 scale
(-10) t 
GR
GR
GS
[0.75 0 0 0.75 74.75 155.55] CT
0.149 GC
/Helvetica 13.333 F
GS
[1 0 0 1 0 0] CT
-12 5.5 moveto 
1 -1 scale
(-5) t 
GR
GR
GS
[0.75 0 0 0.75 74.75 115.95] CT
0.149 GC
/Helvetica 13.333 F
GS
[1 0 0 1 0 0] CT
-8 5.5 moveto 
1 -1 scale
(0) t 
GR
GR
GS
[0.75 0 0 0.75 74.75 76.35] CT
0.149 GC
/Helvetica 13.333 F
GS
[1 0 0 1 0 0] CT
-8 5.5 moveto 
1 -1 scale
(5) t 
GR
GR
GS
[0.75 0 0 0.75 74.75 36.75] CT
0.149 GC
/Helvetica 13.333 F
GS
[1 0 0 1 0 0] CT
-15 5.5 moveto 
1 -1 scale
(10) t 
GR
GR
GS
[0 -0.75 0.75 0 57.5 234.74982] CT
0.149 GC
/Helvetica 14.667 F
GS
[1 0 0 1 0 0] CT
-51.5 -4 moveto 
1 -1 scale
(Magnitude \(dB\)) t 
GR
GR
GS
[0.75 0 0 0.75 312.3753 34.6875] CT
/Helvetica-Bold 14.667 F
GS
[1 0 0 1 0 0] CT
-122.5 -4 moveto 
1 -1 scale
(Experimental Bode Plot using FFT) t 
GR
GR
GS
[0.75 0 0 0.75 0 0] CT
0 0.447 0.741 RC
1 LJ
0.667 LW
N
105 548.322 M
106.251 551.799 L
107.502 547.953 L
108.753 540.313 L
110.004 524.919 L
111.255 502.591 L
112.506 473.108 L
113.757 440.561 L
115.008 407.347 L
116.259 376.4 L
117.51 348.688 L
118.761 325.693 L
120.012 306.596 L
121.263 290.92 L
122.514 278.134 L
123.765 267.649 L
125.016 259.03 L
126.267 251.905 L
127.518 245.989 L
128.769 240.706 L
130.02 236.265 L
131.271 232.445 L
132.522 229.036 L
133.773 225.898 L
135.024 223.122 L
136.275 220.46 L
137.526 217.883 L
138.777 215.475 L
140.028 213.165 L
141.279 211.007 L
142.53 208.962 L
143.781 207.041 L
145.032 205.09 L
146.283 203.18 L
147.534 201.358 L
148.785 199.596 L
150.036 197.784 L
151.287 196.067 L
152.538 194.443 L
153.789 192.617 L
155.04 190.488 L
156.291 188.211 L
157.542 185.685 L
158.793 182.748 L
160.044 179.631 L
161.295 176.478 L
162.546 173.23 L
163.797 169.801 L
165.048 166.347 L
166.299 162.696 L
167.55 158.86 L
168.801 154.74 L
170.052 150.472 L
171.303 145.974 L
172.554 141.51 L
173.805 136.895 L
175.056 132.168 L
176.307 127.293 L
177.558 122.365 L
178.809 117.221 L
180.06 112.112 L
181.311 107.035 L
182.562 102.016 L
183.813 97.038 L
185.064 92.206 L
186.315 87.395 L
187.566 82.756 L
188.817 78.379 L
190.068 74.397 L
191.319 70.885 L
192.57 67.997 L
193.821 65.745 L
195.072 64.168 L
196.323 63.192 L
197.574 62.744 L
198.825 62.786 L
200.076 63.324 L
201.327 64.266 L
202.578 65.662 L
203.829 67.484 L
205.08 69.676 L
206.331 72.126 L
207.582 74.863 L
208.833 77.648 L
210.084 80.496 L
211.335 83.303 L
212.586 86.079 L
213.837 88.693 L
215.088 91.316 L
216.339 93.774 L
217.59 96.149 L
218.841 98.45 L
220.092 100.672 L
221.343 102.681 L
222.594 104.683 L
223.845 106.661 L
225.096 108.45 L
226.347 110.138 L
227.598 111.849 L
228.849 113.378 L
230.1 114.69 L
231.351 115.931 L
232.602 117.081 L
233.853 118.009 L
235.104 118.86 L
236.355 119.611 L
237.606 120.273 L
238.857 120.78 L
240.108 121.213 L
241.359 121.523 L
242.61 121.746 L
243.861 121.895 L
245.112 121.921 L
246.363 121.914 L
247.614 121.851 L
248.865 121.763 L
250.116 121.538 L
251.367 121.326 L
252.618 120.964 L
253.869 120.523 L
255.12 119.914 L
256.371 119.241 L
257.622 118.412 L
258.874 117.5 L
260.125 116.467 L
261.375 115.389 L
262.627 114.286 L
263.878 113.179 L
265.129 112.037 L
266.38 110.847 L
267.631 109.569 L
268.882 108.126 L
270.133 106.544 L
271.384 104.875 L
272.635 103.115 L
273.886 101.299 L
275.137 99.464 L
276.388 97.607 L
277.639 95.721 L
278.89 93.819 L
280.141 91.92 L
281.392 90.007 L
282.643 88.097 L
283.894 86.162 L
285.145 84.241 L
286.396 82.357 L
287.647 80.547 L
288.898 78.738 L
290.149 77.038 L
291.4 75.454 L
292.651 73.925 L
293.902 72.473 L
295.153 71.242 L
296.404 70.177 L
297.655 69.295 L
298.906 68.639 L
300.157 68.193 L
301.408 67.924 L
302.659 67.813 L
303.91 67.813 L
305.161 67.936 L
306.412 68.257 L
307.663 68.64 L
308.914 69.118 L
310.165 69.726 L
311.416 70.451 L
312.667 71.177 L
313.918 72.032 L
315.169 73.021 L
316.42 74.044 L
317.671 75.122 L
318.922 76.258 L
320.173 77.408 L
321.424 78.475 L
322.675 79.536 L
323.926 80.54 L
325.177 81.508 L
326.428 82.398 L
327.679 83.305 L
328.93 84.189 L
330.181 85.043 L
331.432 85.842 L
332.683 86.694 L
333.934 87.521 L
335.185 88.364 L
336.436 89.274 L
337.687 90.302 L
338.938 91.376 L
340.189 92.55 L
341.44 93.831 L
342.691 95.247 L
343.942 96.761 L
345.193 98.458 L
346.444 100.333 L
347.695 102.497 L
348.946 104.897 L
350.197 107.604 L
351.448 110.491 L
352.699 113.689 L
353.95 117.048 L
355.201 120.603 L
356.452 124.325 L
357.703 128.336 L
358.954 132.511 L
360.205 136.803 L
361.456 141.245 L
362.707 145.82 L
363.958 150.475 L
365.209 155.168 L
366.46 159.967 L
367.711 164.72 L
368.962 169.416 L
370.213 173.892 L
371.464 178.152 L
372.715 182.167 L
373.966 186.02 L
375.217 189.594 L
376.468 192.991 L
377.719 196.225 L
378.97 199.336 L
380.221 202.275 L
381.472 205.1 L
382.723 207.995 L
383.974 210.893 L
385.225 213.67 L
386.476 216.407 L
387.727 219.263 L
388.978 221.915 L
390.229 224.463 L
391.48 227.041 L
392.731 229.67 L
393.982 232.07 L
395.233 234.522 L
396.484 236.962 L
397.735 239.257 L
398.986 241.308 L
400.237 243.267 L
401.488 245.067 L
402.739 246.682 L
403.99 248.188 L
405.241 249.586 L
406.492 250.909 L
407.743 252.03 L
408.994 252.956 L
410.245 253.848 L
411.496 254.697 L
412.747 255.487 L
413.998 256.286 L
415.249 257.04 L
416.5 257.527 L
417.751 257.847 L
419.002 257.989 L
420.253 257.884 L
421.504 257.744 L
422.755 257.555 L
424.006 257.291 L
425.257 256.884 L
426.508 256.585 L
427.759 256.355 L
429.01 256.324 L
430.261 256.597 L
431.512 257.37 L
432.763 258.56 L
434.014 260.174 L
435.265 262.402 L
436.516 265.285 L
437.767 268.561 L
439.018 272.477 L
440.269 277.022 L
441.52 282.131 L
442.771 287.575 L
444.022 293.73 L
445.273 300.032 L
446.524 306.549 L
447.775 313.025 L
449.026 319.486 L
450.277 326.027 L
451.528 332.695 L
452.779 339.559 L
454.03 346.741 L
455.281 354.169 L
456.532 361.108 L
457.783 368.183 L
459.034 374.843 L
460.285 381.085 L
461.536 386.993 L
462.787 393.172 L
464.038 399.098 L
465.289 404.674 L
466.54 410.095 L
467.791 415.257 L
469.042 420.515 L
470.293 426.075 L
471.544 432.612 L
472.795 439.676 L
474.046 446.535 L
475.297 453.013 L
476.548 458.867 L
477.799 463.173 L
479.05 466.468 L
480.301 471.993 L
481.552 477.284 L
482.803 482.189 L
484.054 488.007 L
485.305 493.663 L
486.556 495.735 L
487.807 499.092 L
489.058 504.22 L
490.309 509.074 L
491.56 514.755 L
492.811 521.664 L
494.062 526.085 L
495.313 527.041 L
496.564 528.874 L
497.815 530.681 L
499.066 532.841 L
500.317 535.21 L
501.568 539.477 L
502.819 541.701 L
504.07 542.838 L
505.321 543.653 L
506.572 545.474 L
507.823 546.688 L
509.074 547.615 L
510.325 548.633 L
511.576 549.115 L
512.827 548.914 L
514.078 548.311 L
515.329 547.944 L
516.58 547.04 L
517.831 546.733 L
519.082 546.529 L
520.333 547.421 L
521.584 549.688 L
522.835 552.845 L
524.086 553.768 L
525.337 554.088 L
526.588 553.69 L
527.839 552.743 L
529.09 550.901 L
530.341 552.266 L
531.592 553.337 L
532.843 554.08 L
534.094 554.346 L
535.345 555.477 L
536.596 554.397 L
537.847 554.879 L
539.098 555.196 L
540.349 554.88 L
541.6 554.433 L
542.851 554.792 L
544.102 553.793 L
545.353 553.699 L
546.604 554.61 L
547.855 554.643 L
549.106 554.318 L
550.357 554.379 L
551.608 554.164 L
552.859 553.773 L
554.11 553.836 L
555.361 553.885 L
556.612 554.422 L
557.863 554.688 L
559.115 554.56 L
560.365 554.935 L
561.616 556.378 L
562.867 557.03 L
564.118 557.32 L
565.369 558.168 L
566.62 558.355 L
567.872 557.061 L
569.122 556.881 L
570.373 557.06 L
571.625 556.895 L
572.875 556.672 L
574.127 556.671 L
575.378 555.718 L
576.628 554.712 L
577.88 553.596 L
579.131 552.979 L
580.382 553.349 L
581.633 553.614 L
582.884 553.351 L
584.135 553.134 L
585.385 552.777 L
586.637 551.552 L
587.888 550.66 L
589.139 551.435 L
590.39 552.507 L
591.641 553.109 L
592.892 554.414 L
594.143 555.823 L
595.394 556.414 L
596.645 555.966 L
597.896 556.23 L
599.147 555.978 L
600.398 555.309 L
601.649 554.097 L
602.9 553.994 L
604.151 553.848 L
605.402 553.482 L
606.653 553.553 L
607.904 553.82 L
609.155 553.924 L
610.406 552.967 L
611.657 552.87 L
612.908 552.452 L
614.159 552.225 L
615.41 550.934 L
616.661 550.601 L
617.912 548.94 L
619.163 547.986 L
620.414 547.031 L
621.665 548.406 L
622.916 550.082 L
624.167 552.575 L
625.418 554.392 L
626.669 556.114 L
627.92 555.984 L
629.171 554.86 L
630.422 553.9 L
631.673 553.165 L
632.924 552.506 L
634.175 552.648 L
635.426 553.801 L
636.677 554.632 L
637.928 555.407 L
639.179 555.982 L
640.43 556.236 L
641.681 555.987 L
642.932 556.046 L
644.183 556.092 L
645.434 556.263 L
646.685 556.606 L
647.936 556.85 L
649.187 556.924 L
650.438 556.382 L
651.689 556.249 L
652.94 555.302 L
654.191 555.114 L
655.442 554.298 L
656.693 554.531 L
657.944 553.686 L
659.195 553.524 L
660.446 552.151 L
661.697 552.228 L
662.948 551.453 L
664.199 551.759 L
665.45 552.384 L
666.701 553.76 L
667.952 554.098 L
669.203 555.019 L
670.454 555.488 L
671.705 555.311 L
672.956 555.059 L
674.207 555.029 L
675.458 555.175 L
676.709 555.211 L
677.96 555.453 L
679.211 555.76 L
680.462 556.101 L
681.713 555.151 L
682.964 554.815 L
684.215 554.964 L
685.466 554.63 L
686.717 553.833 L
687.968 555.078 L
689.219 556.091 L
690.47 555.973 L
691.721 556.811 L
692.972 558.338 L
694.223 558.184 L
695.474 557.768 L
696.725 558.254 L
697.976 557.438 L
699.227 556.067 L
700.478 555.981 L
701.729 555.619 L
702.98 554.586 L
704.231 554.463 L
705.482 555.163 L
706.733 555.126 L
707.984 555.806 L
709.235 557.406 L
710.486 558.318 L
711.737 558.102 L
712.988 557.724 L
714.239 556.182 L
715.49 554.449 L
716.741 553.38 L
717.992 553.356 L
719.243 553.346 L
720.494 554.683 L
721.745 555.779 L
722.996 556.626 L
724.247 556.544 L
725.498 556.171 L
726.749 555.219 L
728 552.892 L
S
GR
%%Trailer
%%Pages: 1
%%EOF
