%!PS-Adobe-3.0 EPSF-3.0
%%Creator: (MATLAB, The Mathworks, Inc. Version 9.1.0.441655 \(R2016b\). Operating System: Linux)
%%Title: /users/start2016/r0461511/Documents/system-identification/Oefenzitting_3/plots/bode_armax.eps
%%CreationDate: 2016-12-20T16:01:33
%%Pages: (atend)
%%BoundingBox: 0 0 1440 693
%%LanguageLevel: 3
%%EndComments
%%BeginProlog
%%BeginResource: procset (Apache XML Graphics Std ProcSet) 1.2 0
%%Version: 1.2 0
%%Copyright: (Copyright 2001-2003,2010 The Apache Software Foundation. License terms: http://www.apache.org/licenses/LICENSE-2.0)
/bd{bind def}bind def
/ld{load def}bd
/GR/grestore ld
/M/moveto ld
/LJ/setlinejoin ld
/C/curveto ld
/f/fill ld
/LW/setlinewidth ld
/GC/setgray ld
/t/show ld
/N/newpath ld
/CT/concat ld
/cp/closepath ld
/S/stroke ld
/L/lineto ld
/CC/setcmykcolor ld
/A/ashow ld
/GS/gsave ld
/RC/setrgbcolor ld
/RM/rmoveto ld
/ML/setmiterlimit ld
/re {4 2 roll M
1 index 0 rlineto
0 exch rlineto
neg 0 rlineto
cp } bd
/_ctm matrix def
/_tm matrix def
/BT { _ctm currentmatrix pop matrix _tm copy pop 0 0 moveto } bd
/ET { _ctm setmatrix } bd
/iTm { _ctm setmatrix _tm concat } bd
/Tm { _tm astore pop iTm 0 0 moveto } bd
/ux 0.0 def
/uy 0.0 def
/F {
  /Tp exch def
  /Tf exch def
  Tf findfont Tp scalefont setfont
  /cf Tf def  /cs Tp def
} bd
/ULS {currentpoint /uy exch def /ux exch def} bd
/ULE {
  /Tcx currentpoint pop def
  gsave
  newpath
  cf findfont cs scalefont dup
  /FontMatrix get 0 get /Ts exch def /FontInfo get dup
  /UnderlinePosition get Ts mul /To exch def
  /UnderlineThickness get Ts mul /Tt exch def
  ux uy To add moveto  Tcx uy To add lineto
  Tt setlinewidth stroke
  grestore
} bd
/OLE {
  /Tcx currentpoint pop def
  gsave
  newpath
  cf findfont cs scalefont dup
  /FontMatrix get 0 get /Ts exch def /FontInfo get dup
  /UnderlinePosition get Ts mul /To exch def
  /UnderlineThickness get Ts mul /Tt exch def
  ux uy To add cs add moveto Tcx uy To add cs add lineto
  Tt setlinewidth stroke
  grestore
} bd
/SOE {
  /Tcx currentpoint pop def
  gsave
  newpath
  cf findfont cs scalefont dup
  /FontMatrix get 0 get /Ts exch def /FontInfo get dup
  /UnderlinePosition get Ts mul /To exch def
  /UnderlineThickness get Ts mul /Tt exch def
  ux uy To add cs 10 mul 26 idiv add moveto Tcx uy To add cs 10 mul 26 idiv add lineto
  Tt setlinewidth stroke
  grestore
} bd
/QT {
/Y22 exch store
/X22 exch store
/Y21 exch store
/X21 exch store
currentpoint
/Y21 load 2 mul add 3 div exch
/X21 load 2 mul add 3 div exch
/X21 load 2 mul /X22 load add 3 div
/Y21 load 2 mul /Y22 load add 3 div
/X22 load /Y22 load curveto
} bd
/SSPD {
dup length /d exch dict def
{
/v exch def
/k exch def
currentpagedevice k known {
/cpdv currentpagedevice k get def
v cpdv ne {
/upd false def
/nullv v type /nulltype eq def
/nullcpdv cpdv type /nulltype eq def
nullv nullcpdv or
{
/upd true def
} {
/sametype v type cpdv type eq def
sametype {
v type /arraytype eq {
/vlen v length def
/cpdvlen cpdv length def
vlen cpdvlen eq {
0 1 vlen 1 sub {
/i exch def
/obj v i get def
/cpdobj cpdv i get def
obj cpdobj ne {
/upd true def
exit
} if
} for
} {
/upd true def
} ifelse
} {
v type /dicttype eq {
v {
/dv exch def
/dk exch def
/cpddv cpdv dk get def
dv cpddv ne {
/upd true def
exit
} if
} forall
} {
/upd true def
} ifelse
} ifelse
} if
} ifelse
upd true eq {
d k v put
} if
} if
} if
} forall
d length 0 gt {
d setpagedevice
} if
} bd
/RE { % /NewFontName [NewEncodingArray] /FontName RE -
  findfont dup length dict begin
  {
    1 index /FID ne
    {def} {pop pop} ifelse
  } forall
  /Encoding exch def
  /FontName 1 index def
  currentdict definefont pop
  end
} bind def
%%EndResource
%%BeginResource: procset (Apache XML Graphics EPS ProcSet) 1.0 0
%%Version: 1.0 0
%%Copyright: (Copyright 2002-2003 The Apache Software Foundation. License terms: http://www.apache.org/licenses/LICENSE-2.0)
/BeginEPSF { %def
/b4_Inc_state save def         % Save state for cleanup
/dict_count countdictstack def % Count objects on dict stack
/op_count count 1 sub def      % Count objects on operand stack
userdict begin                 % Push userdict on dict stack
/showpage { } def              % Redefine showpage, { } = null proc
0 setgray 0 setlinecap         % Prepare graphics state
1 setlinewidth 0 setlinejoin
10 setmiterlimit [ ] 0 setdash newpath
/languagelevel where           % If level not equal to 1 then
{pop languagelevel             % set strokeadjust and
1 ne                           % overprint to their defaults.
{false setstrokeadjust false setoverprint
} if
} if
} bd
/EndEPSF { %def
count op_count sub {pop} repeat            % Clean up stacks
countdictstack dict_count sub {end} repeat
b4_Inc_state restore
} bd
%%EndResource
%FOPBeginFontDict
%%IncludeResource: font Courier-Bold
%%IncludeResource: font Helvetica
%%IncludeResource: font Courier-BoldOblique
%%IncludeResource: font Courier-Oblique
%%IncludeResource: font Times-Roman
%%IncludeResource: font Helvetica-BoldOblique
%%IncludeResource: font Helvetica-Bold
%%IncludeResource: font Helvetica-Oblique
%%IncludeResource: font Times-BoldItalic
%%IncludeResource: font Courier
%%IncludeResource: font Times-Italic
%%IncludeResource: font Times-Bold
%%IncludeResource: font Symbol
%%IncludeResource: font ZapfDingbats
%FOPEndFontDict
%%BeginResource: encoding WinAnsiEncoding
/WinAnsiEncoding [
/.notdef /.notdef /.notdef /.notdef /.notdef
/.notdef /.notdef /.notdef /.notdef /.notdef
/.notdef /.notdef /.notdef /.notdef /.notdef
/.notdef /.notdef /.notdef /.notdef /.notdef
/.notdef /.notdef /.notdef /.notdef /.notdef
/.notdef /.notdef /.notdef /.notdef /.notdef
/.notdef /.notdef /space /exclam /quotedbl
/numbersign /dollar /percent /ampersand /quotesingle
/parenleft /parenright /asterisk /plus /comma
/hyphen /period /slash /zero /one
/two /three /four /five /six
/seven /eight /nine /colon /semicolon
/less /equal /greater /question /at
/A /B /C /D /E
/F /G /H /I /J
/K /L /M /N /O
/P /Q /R /S /T
/U /V /W /X /Y
/Z /bracketleft /backslash /bracketright /asciicircum
/underscore /quoteleft /a /b /c
/d /e /f /g /h
/i /j /k /l /m
/n /o /p /q /r
/s /t /u /v /w
/x /y /z /braceleft /bar
/braceright /asciitilde /bullet /Euro /bullet
/quotesinglbase /florin /quotedblbase /ellipsis /dagger
/daggerdbl /circumflex /perthousand /Scaron /guilsinglleft
/OE /bullet /Zcaron /bullet /bullet
/quoteleft /quoteright /quotedblleft /quotedblright /bullet
/endash /emdash /asciitilde /trademark /scaron
/guilsinglright /oe /bullet /zcaron /Ydieresis
/space /exclamdown /cent /sterling /currency
/yen /brokenbar /section /dieresis /copyright
/ordfeminine /guillemotleft /logicalnot /sfthyphen /registered
/macron /degree /plusminus /twosuperior /threesuperior
/acute /mu /paragraph /middot /cedilla
/onesuperior /ordmasculine /guillemotright /onequarter /onehalf
/threequarters /questiondown /Agrave /Aacute /Acircumflex
/Atilde /Adieresis /Aring /AE /Ccedilla
/Egrave /Eacute /Ecircumflex /Edieresis /Igrave
/Iacute /Icircumflex /Idieresis /Eth /Ntilde
/Ograve /Oacute /Ocircumflex /Otilde /Odieresis
/multiply /Oslash /Ugrave /Uacute /Ucircumflex
/Udieresis /Yacute /Thorn /germandbls /agrave
/aacute /acircumflex /atilde /adieresis /aring
/ae /ccedilla /egrave /eacute /ecircumflex
/edieresis /igrave /iacute /icircumflex /idieresis
/eth /ntilde /ograve /oacute /ocircumflex
/otilde /odieresis /divide /oslash /ugrave
/uacute /ucircumflex /udieresis /yacute /thorn
/ydieresis
] def
%%EndResource
%FOPBeginFontReencode
/Courier-Bold findfont
dup length dict begin
  {1 index /FID ne {def} {pop pop} ifelse} forall
  /Encoding WinAnsiEncoding def
  currentdict
end
/Courier-Bold exch definefont pop
/Helvetica findfont
dup length dict begin
  {1 index /FID ne {def} {pop pop} ifelse} forall
  /Encoding WinAnsiEncoding def
  currentdict
end
/Helvetica exch definefont pop
/Courier-BoldOblique findfont
dup length dict begin
  {1 index /FID ne {def} {pop pop} ifelse} forall
  /Encoding WinAnsiEncoding def
  currentdict
end
/Courier-BoldOblique exch definefont pop
/Courier-Oblique findfont
dup length dict begin
  {1 index /FID ne {def} {pop pop} ifelse} forall
  /Encoding WinAnsiEncoding def
  currentdict
end
/Courier-Oblique exch definefont pop
/Times-Roman findfont
dup length dict begin
  {1 index /FID ne {def} {pop pop} ifelse} forall
  /Encoding WinAnsiEncoding def
  currentdict
end
/Times-Roman exch definefont pop
/Helvetica-BoldOblique findfont
dup length dict begin
  {1 index /FID ne {def} {pop pop} ifelse} forall
  /Encoding WinAnsiEncoding def
  currentdict
end
/Helvetica-BoldOblique exch definefont pop
/Helvetica-Bold findfont
dup length dict begin
  {1 index /FID ne {def} {pop pop} ifelse} forall
  /Encoding WinAnsiEncoding def
  currentdict
end
/Helvetica-Bold exch definefont pop
/Helvetica-Oblique findfont
dup length dict begin
  {1 index /FID ne {def} {pop pop} ifelse} forall
  /Encoding WinAnsiEncoding def
  currentdict
end
/Helvetica-Oblique exch definefont pop
/Times-BoldItalic findfont
dup length dict begin
  {1 index /FID ne {def} {pop pop} ifelse} forall
  /Encoding WinAnsiEncoding def
  currentdict
end
/Times-BoldItalic exch definefont pop
/Courier findfont
dup length dict begin
  {1 index /FID ne {def} {pop pop} ifelse} forall
  /Encoding WinAnsiEncoding def
  currentdict
end
/Courier exch definefont pop
/Times-Italic findfont
dup length dict begin
  {1 index /FID ne {def} {pop pop} ifelse} forall
  /Encoding WinAnsiEncoding def
  currentdict
end
/Times-Italic exch definefont pop
/Times-Bold findfont
dup length dict begin
  {1 index /FID ne {def} {pop pop} ifelse} forall
  /Encoding WinAnsiEncoding def
  currentdict
end
/Times-Bold exch definefont pop
%FOPEndFontReencode
%%EndProlog
%%Page: 1 1
%%PageBoundingBox: 0 0 1440 693
%%BeginPageSetup
[1 0 0 -1 0 693] CT
%%EndPageSetup
GS
[0.75 0 0 0.75 0 0] CT
1 GC
N
0 0 1920 924 re
f
GR
GS
[0.75 0 0 0.75 0 0] CT
1 GC
N
0 0 1920 924 re
f
GR
GS
[0.75 0 0 0.75 0 0] CT
1 GC
N
262 471 M
1738 471 L
1738 89 L
262 89 L
cp
f
GR
GS
[0.75 0 0 0.75 0 0] CT
0.4 GC
2 setlinecap
1 LJ
0.667 LW
N
262 471 M
1738 471 L
S
GR
GS
[0.75 0 0 0.75 0 0] CT
0.4 GC
2 setlinecap
1 LJ
0.667 LW
N
262 89 M
1738 89 L
S
GR
GS
[0.75 0 0 0.75 0 0] CT
0.4 GC
2 setlinecap
1 LJ
0.667 LW
N
496.88 471 M
496.88 456.24 L
S
GR
GS
[0.75 0 0 0.75 0 0] CT
0.4 GC
2 setlinecap
1 LJ
0.667 LW
N
731.807 471 M
731.807 456.24 L
S
GR
GS
[0.75 0 0 0.75 0 0] CT
0.4 GC
2 setlinecap
1 LJ
0.667 LW
N
966.734 471 M
966.734 456.24 L
S
GR
GS
[0.75 0 0 0.75 0 0] CT
0.4 GC
2 setlinecap
1 LJ
0.667 LW
N
1201.661 471 M
1201.661 456.24 L
S
GR
GS
[0.75 0 0 0.75 0 0] CT
0.4 GC
2 setlinecap
1 LJ
0.667 LW
N
1436.589 471 M
1436.589 456.24 L
S
GR
GS
[0.75 0 0 0.75 0 0] CT
0.4 GC
2 setlinecap
1 LJ
0.667 LW
N
1671.516 471 M
1671.516 456.24 L
S
GR
GS
[0.75 0 0 0.75 0 0] CT
0.4 GC
2 setlinecap
1 LJ
0.667 LW
N
496.88 89 M
496.88 103.76 L
S
GR
GS
[0.75 0 0 0.75 0 0] CT
0.4 GC
2 setlinecap
1 LJ
0.667 LW
N
731.807 89 M
731.807 103.76 L
S
GR
GS
[0.75 0 0 0.75 0 0] CT
0.4 GC
2 setlinecap
1 LJ
0.667 LW
N
966.734 89 M
966.734 103.76 L
S
GR
GS
[0.75 0 0 0.75 0 0] CT
0.4 GC
2 setlinecap
1 LJ
0.667 LW
N
1201.661 89 M
1201.661 103.76 L
S
GR
GS
[0.75 0 0 0.75 0 0] CT
0.4 GC
2 setlinecap
1 LJ
0.667 LW
N
1436.589 89 M
1436.589 103.76 L
S
GR
GS
[0.75 0 0 0.75 0 0] CT
0.4 GC
2 setlinecap
1 LJ
0.667 LW
N
1671.516 89 M
1671.516 103.76 L
S
GR
GS
[0.75 0 0 0.75 0 0] CT
0.4 GC
2 setlinecap
1 LJ
0.667 LW
N
262 471 M
262 89 L
S
GR
GS
[0.75 0 0 0.75 0 0] CT
0.4 GC
2 setlinecap
1 LJ
0.667 LW
N
1738 471 M
1738 89 L
S
GR
GS
[0.75 0 0 0.75 0 0] CT
0.4 GC
2 setlinecap
1 LJ
0.667 LW
N
262 471 M
276.76 471 L
S
GR
GS
[0.75 0 0 0.75 0 0] CT
0.4 GC
2 setlinecap
1 LJ
0.667 LW
N
262 416.429 M
276.76 416.429 L
S
GR
GS
[0.75 0 0 0.75 0 0] CT
0.4 GC
2 setlinecap
1 LJ
0.667 LW
N
262 361.857 M
276.76 361.857 L
S
GR
GS
[0.75 0 0 0.75 0 0] CT
0.4 GC
2 setlinecap
1 LJ
0.667 LW
N
262 307.286 M
276.76 307.286 L
S
GR
GS
[0.75 0 0 0.75 0 0] CT
0.4 GC
2 setlinecap
1 LJ
0.667 LW
N
262 252.714 M
276.76 252.714 L
S
GR
GS
[0.75 0 0 0.75 0 0] CT
0.4 GC
2 setlinecap
1 LJ
0.667 LW
N
262 198.143 M
276.76 198.143 L
S
GR
GS
[0.75 0 0 0.75 0 0] CT
0.4 GC
2 setlinecap
1 LJ
0.667 LW
N
262 143.571 M
276.76 143.571 L
S
GR
GS
[0.75 0 0 0.75 0 0] CT
0.4 GC
2 setlinecap
1 LJ
0.667 LW
N
262 89 M
276.76 89 L
S
GR
GS
[0.75 0 0 0.75 0 0] CT
0.4 GC
2 setlinecap
1 LJ
0.667 LW
N
1738 471 M
1723.24 471 L
S
GR
GS
[0.75 0 0 0.75 0 0] CT
0.4 GC
2 setlinecap
1 LJ
0.667 LW
N
1738 416.429 M
1723.24 416.429 L
S
GR
GS
[0.75 0 0 0.75 0 0] CT
0.4 GC
2 setlinecap
1 LJ
0.667 LW
N
1738 361.857 M
1723.24 361.857 L
S
GR
GS
[0.75 0 0 0.75 0 0] CT
0.4 GC
2 setlinecap
1 LJ
0.667 LW
N
1738 307.286 M
1723.24 307.286 L
S
GR
GS
[0.75 0 0 0.75 0 0] CT
0.4 GC
2 setlinecap
1 LJ
0.667 LW
N
1738 252.714 M
1723.24 252.714 L
S
GR
GS
[0.75 0 0 0.75 0 0] CT
0.4 GC
2 setlinecap
1 LJ
0.667 LW
N
1738 198.143 M
1723.24 198.143 L
S
GR
GS
[0.75 0 0 0.75 0 0] CT
0.4 GC
2 setlinecap
1 LJ
0.667 LW
N
1738 143.571 M
1723.24 143.571 L
S
GR
GS
[0.75 0 0 0.75 0 0] CT
0.4 GC
2 setlinecap
1 LJ
0.667 LW
N
1738 89 M
1723.24 89 L
S
GR
GS
[0.75 0 0 0.75 192.49999 353.25] CT
0.4 GC
/Helvetica 13.333 F
GS
[1 0 0 1 0 0] CT
-22 4.5 moveto 
1 -1 scale
(-60) t 
GR
GR
GS
[0.75 0 0 0.75 192.49999 312.32142] CT
0.4 GC
/Helvetica 13.333 F
GS
[1 0 0 1 0 0] CT
-22 4.5 moveto 
1 -1 scale
(-50) t 
GR
GR
GS
[0.75 0 0 0.75 192.49999 271.39286] CT
0.4 GC
/Helvetica 13.333 F
GS
[1 0 0 1 0 0] CT
-22 4.5 moveto 
1 -1 scale
(-40) t 
GR
GR
GS
[0.75 0 0 0.75 192.49999 230.46428] CT
0.4 GC
/Helvetica 13.333 F
GS
[1 0 0 1 0 0] CT
-22 4.5 moveto 
1 -1 scale
(-30) t 
GR
GR
GS
[0.75 0 0 0.75 192.49999 189.53571] CT
0.4 GC
/Helvetica 13.333 F
GS
[1 0 0 1 0 0] CT
-22 4.5 moveto 
1 -1 scale
(-20) t 
GR
GR
GS
[0.75 0 0 0.75 192.49999 148.60714] CT
0.4 GC
/Helvetica 13.333 F
GS
[1 0 0 1 0 0] CT
-22 4.5 moveto 
1 -1 scale
(-10) t 
GR
GR
GS
[0.75 0 0 0.75 192.49999 107.67857] CT
0.4 GC
/Helvetica 13.333 F
GS
[1 0 0 1 0 0] CT
-9 4.5 moveto 
1 -1 scale
(0) t 
GR
GR
GS
[0.75 0 0 0.75 192.49999 66.75] CT
0.4 GC
/Helvetica 13.333 F
GS
[1 0 0 1 0 0] CT
-17 4.5 moveto 
1 -1 scale
(10) t 
GR
GR
GS
[0 -0.75 0.75 0 173 209.99986] CT
/Helvetica 14.667 F
GS
[1 0 0 1 0 0] CT
-58 -4 moveto 
1 -1 scale
(Magnitude \(dB\)) t 
GR
GR
GS
[0.75 0 0 0.75 750.00069 64.875] CT
0.4 GC
/Helvetica 13.333 F
GS
[1 0 0 1 0 0] CT
-54 -4 moveto 
1 -1 scale
(From: u1  To: y1) t 
GR
GR
GS
[0.75 0 0 0.75 0 0] CT
0 0.447 0.741 RC
1 LJ
0.667 LW
N
261.953 228.986 M
261.953 228.986 L
261.953 228.986 L
261.953 228.986 L
261.954 228.986 L
262.099 228.986 L
263.413 228.971 L
263.658 228.965 L
263.946 228.957 L
264.281 228.946 L
264.673 228.932 L
265.131 228.912 L
265.667 228.885 L
266.292 228.848 L
267.023 228.798 L
267.877 228.729 L
268.874 228.636 L
270.04 228.508 L
271.402 228.333 L
272.993 228.096 L
273.485 228.005 L
274.685 227.8 L
274.852 227.773 L
276.011 227.529 L
277.025 227.332 L
277.474 227.22 L
279.089 226.839 L
279.563 226.734 L
280.873 226.36 L
282.529 225.923 L
282.843 225.816 L
285.017 225.118 L
285.994 224.825 L
287.418 224.279 L
290.043 223.347 L
290.068 223.336 L
292.995 222.076 L
294.774 221.367 L
296.226 220.635 L
299.793 218.962 L
300.301 218.736 L
303.732 216.835 L
306.76 215.283 L
308.081 214.449 L
312.882 211.609 L
314.306 210.818 L
318.183 208.221 L
323.123 205.16 L
324.036 204.492 L
330.499 200.036 L
333.425 198.154 L
337.634 195.046 L
345.461 189.701 L
345.511 189.663 L
354.209 183.336 L
359.525 179.756 L
363.812 176.736 L
364.577 176.211 L
374.414 169.247 L
380.056 165.523 L
386.12 161.32 L
395.533 155.185 L
399.044 152.84 L
410.757 145.431 L
413.314 143.819 L
425.522 136.481 L
429.069 134.442 L
439.663 128.602 L
446.464 125.255 L
453.059 122.126 L
465.628 117.394 L
465.67 117.384 L
477.324 114.61 L
486.875 113.898 L
489.69 113.694 L
504.669 115.344 L
510.287 116.866 L
520.393 119.519 L
536.136 124.918 L
538.619 125.741 L
555.56 131.183 L
564.675 133.301 L
571.177 134.773 L
587.626 136.396 L
596.186 135.947 L
607.567 135.367 L
630.976 131.177 L
631.94 131.01 L
655.488 125.445 L
669.387 122.168 L
686.837 118.21 L
711.797 113.81 L
716.16 113.066 L
743.336 110.759 L
758.621 111.234 L
768.32 111.527 L
794.6 115.832 L
810.319 120.786 L
826.47 125.731 L
853.153 137.278 L
867.398 144.867 L
886.693 154.867 L
916.81 172.326 L
930.418 179.963 L
943.652 187.243 L
967.423 197.611 L
992.022 204.396 L
999.998 205.875 L
1021.947 209.866 L
1028.114 211.052 L
1058.585 218.97 L
1061.914 220.111 L
1074.975 225.217 L
1076.821 226.169 L
1098.402 237.139 L
1112.01 245.86 L
1129.884 259.561 L
1156.859 285.961 L
1161.64 292.191 L
1179.838 315.602 L
1199.318 348.013 L
1215.768 381.816 L
1229.613 413.777 L
1241.234 442.739 L
1250.966 459.123 L
1255.288 447.492 L
1260.795 432.747 L
1272.79 397.585 L
1287.463 368.089 L
1305.459 343.519 L
1327.606 323.329 L
1354.969 307.857 L
1358.684 306.796 L
1388.939 298.288 L
1431.357 296.131 L
1467.281 298.962 L
1472.842 299.675 L
1509.341 304.276 L
1552.868 311.903 L
1580.341 319.246 L
1598.883 327.207 L
1620.46 336.334 L
1654.934 359.304 L
1684.424 379.799 L
1709.556 383.958 L
1735.132 381.782 L
1738.044 381.747 L
S
GR
GS
[0.75 0 0 0.75 0 0] CT
1 LJ
0.667 LW
N
1738.044 471.046 M
1738.044 471 L
1738.044 143.571 L
1738.044 88.954 L
S
GR
GS
[0.75 0 0 0.75 0 0] CT
0.851 0.325 0.098 RC
1 LJ
0.667 LW
N
261.953 434.998 M
261.953 434.998 L
261.953 434.998 L
261.953 434.998 L
261.953 434.998 L
261.959 434.998 L
262.017 434.988 L
262.028 434.984 L
262.04 434.979 L
262.055 434.972 L
262.072 434.963 L
262.093 434.95 L
262.116 434.932 L
262.144 434.908 L
262.176 434.875 L
262.213 434.831 L
262.257 434.77 L
262.308 434.687 L
262.368 434.574 L
262.439 434.421 L
262.52 434.213 L
262.616 433.931 L
262.728 433.551 L
262.859 433.04 L
263.011 432.358 L
263.19 431.453 L
263.399 430.263 L
263.643 428.716 L
263.928 426.734 L
264.261 424.234 L
264.65 421.138 L
265.105 417.381 L
265.637 412.911 L
266.258 407.696 L
266.984 401.717 L
267.833 394.964 L
268.825 387.425 L
269.984 379.084 L
271.339 369.914 L
272.922 359.886 L
273.485 356.382 L
274.685 349.445 L
274.773 348.965 L
276.011 341.96 L
276.935 337.118 L
277.474 334.216 L
279.089 326.077 L
279.463 324.306 L
280.873 317.435 L
282.417 310.479 L
282.843 308.506 L
285.017 299.026 L
285.869 295.554 L
287.418 289.071 L
289.562 280.72 L
290.068 278.69 L
292.995 267.633 L
293.817 264.715 L
296.226 255.91 L
298.096 249.492 L
299.793 243.528 L
302.329 235.101 L
303.732 230.382 L
306.458 221.651 L
308.081 216.499 L
310.435 209.339 L
312.882 202.208 L
314.224 198.443 L
317.798 189.265 L
318.183 188.406 L
321.141 182.006 L
324.036 177.082 L
324.684 176.012 L
328.974 171.175 L
330.499 170.287 L
334.211 168.205 L
337.634 167.593 L
340.668 167.074 L
345.511 166.942 L
348.718 166.859 L
354.209 166.524 L
358.881 166.253 L
363.812 165.357 L
371.897 163.977 L
374.414 163.284 L
378.799 162.112 L
386.12 159.401 L
393.997 156.658 L
399.044 154.238 L
408.696 149.851 L
413.314 147.217 L
422.694 142.105 L
429.069 138.001 L
435.846 133.807 L
446.464 126.543 L
448.062 125.486 L
459.295 117.954 L
465.67 114.374 L
469.535 112.258 L
478.8 109.22 L
486.875 109.016 L
488.479 108.976 L
500.233 112.256 L
510.287 116.929 L
514.615 118.882 L
529.603 125.889 L
532.364 127.057 L
536.136 128.432 L
548.264 132.73 L
564.675 136.368 L
568.226 137.129 L
592.334 138.565 L
596.186 138.381 L
600.746 138.165 L
628.225 134.14 L
630.976 133.415 L
653.715 127.622 L
669.387 122.875 L
677.127 120.598 L
698.446 114.858 L
711.797 112.588 L
717.715 111.603 L
737.835 111.009 L
758.621 113.182 L
762.271 113.554 L
774.112 115.478 L
799.172 119.73 L
810.319 121.486 L
821.378 123.193 L
840.922 127.258 L
858.026 134.339 L
867.398 140.746 L
875.636 146.296 L
883.366 152.248 L
897.076 162.285 L
904.893 167.328 L
930.418 180.08 L
931.082 180.405 L
963.145 191.755 L
999.998 203.205 L
1002.696 204.02 L
1012.993 207.258 L
1056.512 221.961 L
1076.821 230.052 L
1094.603 236.973 L
1127.655 252.585 L
1156.128 269.083 L
1161.64 273.155 L
1180.509 286.904 L
1201.282 306.75 L
1218.908 329.626 L
1233.812 355.316 L
1246.379 371.025 L
1255.288 362.42 L
1259.108 358.755 L
1274.638 337.313 L
1293.641 319.592 L
1316.973 306.043 L
1345.739 296.019 L
1358.684 293.584 L
1381.384 289.382 L
1425.82 286.664 L
1459.143 287.607 L
1461.72 287.775 L
1472.842 289.086 L
1509.399 293.311 L
1550.621 302.268 L
1586.048 314.251 L
1598.883 320.59 L
1616.345 329.115 L
1642.149 343.516 L
1664.05 342.723 L
1686.299 320.175 L
1697.83 305.168 L
1719.655 274.983 L
1738.044 258.861 L
S
GR
GS
[0.75 0 0 0.75 0 0] CT
1 LJ
0.667 LW
N
1738.044 471.046 M
1738.044 471 L
1738.044 143.571 L
1738.044 88.954 L
S
GR
GS
[0.75 0 0 0.75 0 0] CT
1 0 1 RC
1 LJ
0.667 LW
N
261.953 318.212 M
264.917 317.235 L
267.881 317.084 L
270.845 316.756 L
273.809 316.491 L
276.773 315.025 L
279.737 312.558 L
282.701 308.533 L
285.665 302.813 L
288.629 295.279 L
291.593 287.057 L
294.557 276.837 L
297.521 266.131 L
300.486 255.396 L
303.45 245.074 L
306.414 235.367 L
309.378 228.226 L
312.342 221.934 L
315.306 216.438 L
318.27 211.7 L
321.234 207.428 L
324.198 202.923 L
327.162 198.923 L
330.126 195.34 L
333.09 192.118 L
336.054 189.199 L
339.018 186.512 L
341.982 184.038 L
344.946 181.777 L
347.91 179.662 L
350.874 177.675 L
353.838 175.785 L
356.802 173.978 L
359.766 172.222 L
362.73 170.533 L
365.694 168.89 L
368.658 167.317 L
371.622 165.805 L
374.586 164.373 L
377.55 163.001 L
380.514 161.697 L
383.479 160.413 L
386.443 159.143 L
389.407 157.843 L
392.371 156.496 L
395.335 155.055 L
398.299 153.523 L
401.263 151.87 L
404.227 150.093 L
407.191 148.188 L
410.155 146.193 L
413.119 144.109 L
416.083 141.96 L
419.047 139.73 L
422.011 137.453 L
424.975 135.099 L
427.939 132.671 L
430.903 130.159 L
433.867 127.604 L
436.831 124.985 L
439.795 122.325 L
442.759 119.65 L
445.723 116.977 L
448.687 114.307 L
451.651 111.67 L
454.615 109.094 L
457.579 106.603 L
460.544 104.245 L
463.508 102.071 L
466.472 100.119 L
469.436 98.436 L
472.4 97.064 L
475.364 96.03 L
478.328 95.351 L
481.292 95.034 L
484.256 95.059 L
487.22 95.412 L
490.184 96.049 L
493.148 96.929 L
496.112 98.011 L
499.076 99.264 L
502.04 100.628 L
505.004 102.081 L
507.968 103.59 L
510.932 105.116 L
513.896 106.637 L
516.86 108.141 L
519.824 109.6 L
522.788 110.988 L
525.752 112.321 L
528.716 113.585 L
531.68 114.784 L
534.644 115.922 L
537.608 117.018 L
540.573 118.06 L
543.537 119.041 L
546.501 119.952 L
549.465 120.804 L
552.429 121.591 L
555.393 122.313 L
558.357 122.97 L
561.321 123.582 L
564.285 124.146 L
567.249 124.652 L
570.213 125.103 L
573.177 125.523 L
576.141 125.893 L
579.105 126.193 L
582.069 126.451 L
585.033 126.66 L
587.997 126.799 L
590.961 126.875 L
593.925 126.916 L
596.889 126.899 L
599.853 126.838 L
602.817 126.738 L
605.781 126.61 L
608.745 126.43 L
611.709 126.217 L
614.673 125.961 L
617.637 125.669 L
620.602 125.322 L
623.566 124.953 L
626.53 124.531 L
629.494 124.062 L
632.458 123.547 L
635.422 122.996 L
638.386 122.39 L
641.35 121.752 L
644.314 121.085 L
647.278 120.376 L
650.242 119.635 L
653.206 118.852 L
656.17 118.028 L
659.134 117.161 L
662.098 116.269 L
665.062 115.335 L
668.026 114.37 L
670.99 113.384 L
673.954 112.377 L
676.918 111.351 L
679.882 110.314 L
682.846 109.28 L
685.81 108.242 L
688.774 107.215 L
691.738 106.195 L
694.702 105.201 L
697.667 104.229 L
700.631 103.298 L
703.595 102.411 L
706.559 101.585 L
709.523 100.827 L
712.487 100.145 L
715.451 99.545 L
718.415 99.034 L
721.379 98.618 L
724.343 98.296 L
727.307 98.074 L
730.271 97.951 L
733.235 97.924 L
736.199 97.988 L
739.163 98.145 L
742.127 98.384 L
745.091 98.703 L
748.055 99.092 L
751.019 99.542 L
753.983 100.038 L
756.947 100.576 L
759.911 101.14 L
762.875 101.726 L
765.839 102.328 L
768.803 102.935 L
771.767 103.537 L
774.731 104.129 L
777.695 104.702 L
780.659 105.254 L
783.624 105.786 L
786.588 106.297 L
789.552 106.79 L
792.516 107.264 L
795.48 107.722 L
798.444 108.171 L
801.408 108.616 L
804.372 109.062 L
807.336 109.514 L
810.3 109.979 L
813.264 110.463 L
816.228 110.983 L
819.192 111.549 L
822.156 112.175 L
825.12 112.883 L
828.084 113.679 L
831.048 114.569 L
834.012 115.566 L
836.976 116.689 L
839.94 117.928 L
842.904 119.307 L
845.868 120.814 L
848.832 122.451 L
851.796 124.205 L
854.76 126.086 L
857.724 128.062 L
860.688 130.135 L
863.653 132.29 L
866.617 134.511 L
869.581 136.776 L
872.545 139.073 L
875.509 141.405 L
878.473 143.745 L
881.437 146.071 L
884.401 148.339 L
887.365 150.536 L
890.329 152.609 L
893.293 154.539 L
896.257 156.333 L
899.221 158.05 L
902.185 159.7 L
905.149 161.352 L
908.113 163.049 L
911.077 164.796 L
914.041 166.575 L
917.005 168.38 L
919.969 170.166 L
922.933 171.925 L
925.897 173.645 L
928.861 175.306 L
931.825 176.909 L
934.789 178.47 L
937.754 179.964 L
940.718 181.399 L
943.682 182.777 L
946.646 184.108 L
949.61 185.373 L
952.574 186.589 L
955.538 187.749 L
958.502 188.854 L
961.466 189.89 L
964.43 190.869 L
967.394 191.778 L
970.358 192.605 L
973.322 193.372 L
976.286 194.076 L
979.25 194.706 L
982.214 195.261 L
985.178 195.764 L
988.142 196.216 L
991.106 196.586 L
994.07 196.872 L
997.034 197.079 L
999.998 197.208 L
1002.962 197.215 L
1005.926 197.167 L
1008.89 197.1 L
1011.854 197.015 L
1014.818 196.919 L
1017.783 196.846 L
1020.747 196.796 L
1023.711 196.755 L
1026.675 196.761 L
1029.639 196.83 L
1032.603 197.024 L
1035.567 197.39 L
1038.531 197.965 L
1041.495 198.803 L
1044.459 199.963 L
1047.423 201.442 L
1050.387 203.223 L
1053.351 205.337 L
1056.315 207.759 L
1059.279 210.42 L
1062.243 213.329 L
1065.207 216.438 L
1068.171 219.693 L
1071.135 223.051 L
1074.099 226.523 L
1077.063 229.995 L
1080.027 233.534 L
1082.991 237.109 L
1085.955 240.441 L
1088.919 243.752 L
1091.883 247.077 L
1094.847 250.289 L
1097.812 253.393 L
1100.776 256.911 L
1103.74 260.345 L
1106.704 263.722 L
1109.668 266.94 L
1112.632 269.746 L
1115.596 272.199 L
1118.56 274.475 L
1121.524 276.506 L
1124.488 278.578 L
1127.452 281.327 L
1130.416 283.635 L
1133.38 285.853 L
1136.344 288.144 L
1139.308 290.252 L
1142.272 291.698 L
1145.236 291.823 L
1148.2 291.976 L
1151.164 291.955 L
1154.128 291.365 L
1157.092 290.799 L
1160.056 293.537 L
1163.02 296.172 L
1165.984 298.7 L
1168.948 301.896 L
1171.912 305.046 L
1174.876 306.36 L
1177.84 306.261 L
1180.805 305.978 L
1183.769 305.703 L
1186.733 305.203 L
1189.697 304.527 L
1192.661 306.38 L
1195.625 308.384 L
1198.589 310.031 L
1201.553 311.897 L
1204.517 313.861 L
1207.481 314.299 L
1210.445 314.713 L
1213.409 314.783 L
1216.373 313.201 L
1219.337 311.287 L
1222.301 309.557 L
1225.265 307.534 L
1228.229 306.083 L
1231.193 306.873 L
1234.157 308.133 L
1237.121 309.361 L
1240.085 311.072 L
1243.049 312.581 L
1246.013 313.968 L
1248.977 315.122 L
1251.942 316.326 L
1254.906 316.593 L
1257.87 316.795 L
1260.834 314.185 L
1263.798 310.68 L
1266.762 307.087 L
1269.726 304.758 L
1272.69 302.405 L
1275.654 304.455 L
1278.618 308.204 L
1281.582 312.038 L
1284.546 314.824 L
1287.51 316.76 L
1290.474 316.486 L
1293.438 315.381 L
1296.402 314.088 L
1299.366 313.547 L
1302.33 314.633 L
1305.294 315.556 L
1308.258 316.533 L
1311.222 317.799 L
1314.186 318.666 L
1317.15 318.717 L
1320.114 318.978 L
1323.078 319.065 L
1326.042 318.842 L
1329.006 318.838 L
1331.97 317.888 L
1334.935 316.792 L
1337.899 315.561 L
1340.863 314.448 L
1343.827 312.638 L
1346.791 312.834 L
1349.755 313.182 L
1352.719 314.052 L
1355.683 315.086 L
1358.647 317.038 L
1361.611 317.822 L
1364.575 317.234 L
1367.539 314.87 L
1370.503 312.26 L
1373.467 309.307 L
1376.431 305.907 L
1379.395 304.99 L
1382.359 306.707 L
1385.323 308.501 L
1388.287 310.286 L
1391.251 313.316 L
1394.215 315.209 L
1397.179 316.216 L
1400.143 317.386 L
1403.107 318.568 L
1406.071 318.893 L
1409.035 319.14 L
1412 319.265 L
1414.964 319.11 L
1417.928 318.727 L
1420.892 318.729 L
1423.856 317.909 L
1426.82 316.774 L
1429.784 315.808 L
1432.748 315.119 L
1435.712 314.224 L
1438.676 315.03 L
1441.64 316.096 L
1444.604 317.064 L
1447.568 317.043 L
1450.532 317 L
1453.496 315.987 L
1456.46 313.111 L
1459.424 310.358 L
1462.388 309.383 L
1465.352 307.211 L
1468.316 305.075 L
1471.28 305.059 L
1474.244 305.031 L
1477.208 301.85 L
1480.172 301.105 L
1483.136 298.602 L
1486.1 296.601 L
1489.064 294.588 L
1492.028 297.113 L
1494.993 298.372 L
1497.957 303.378 L
1500.921 308.126 L
1503.885 312.758 L
1506.849 315.117 L
1509.813 316.997 L
1512.777 316.975 L
1515.741 315.539 L
1518.705 314.282 L
1521.669 313.023 L
1524.633 312.912 L
1527.597 312.779 L
1530.561 314.288 L
1533.525 314.654 L
1536.489 315.076 L
1539.453 314.887 L
1542.417 314.716 L
1545.381 313.714 L
1548.345 314.881 L
1551.309 315.957 L
1554.273 316.816 L
1557.237 317.637 L
1560.201 317.53 L
1563.165 316.12 L
1566.129 314.845 L
1569.093 313.971 L
1572.057 313.001 L
1575.021 313.945 L
1577.986 315.167 L
1580.95 316.317 L
1583.914 317.404 L
1586.878 318.603 L
1589.842 318.738 L
1592.806 318.861 L
1595.77 318.973 L
1598.734 318.009 L
1601.698 317.223 L
1604.662 316.454 L
1607.626 315.456 L
1610.59 314.344 L
1613.554 315.128 L
1616.518 314.939 L
1619.482 315.009 L
1622.446 315.277 L
1625.41 315.47 L
1628.374 314.704 L
1631.338 315.538 L
1634.302 316.006 L
1637.266 316.304 L
1640.23 314.184 L
1643.194 312.205 L
1646.158 309.278 L
1649.122 305.582 L
1652.086 302.015 L
1655.051 303.9 L
1658.015 305.58 L
1660.979 307.444 L
1663.943 309.143 L
1666.907 310.878 L
1669.871 308.135 L
1672.835 305.442 L
1675.799 302.498 L
1678.763 302.813 L
1681.727 303.162 L
1684.691 306.788 L
1687.655 310.43 L
1690.619 314.474 L
1693.583 316.405 L
1696.547 318.284 L
1699.511 318.445 L
1702.475 318.594 L
1705.439 318.362 L
1708.403 318.141 L
1711.367 317.785 L
1714.331 317.486 L
1717.295 317.23 L
1720.259 317.333 L
1723.223 317.449 L
1726.187 317.808 L
1729.151 318.363 L
1732.115 319.126 L
1735.079 319.841 L
1738.044 320.873 L
S
GR
GS
[0.75 0 0 0.75 0 0] CT
1 GC
N
1542 152 M
1542 102 L
1725 102 L
1725 152 L
cp
f
GR
GS
[0.75 0 0 0.75 1184.25 83.625] CT
/Helvetica 12 F
GS
[1 0 0 1 0 0] CT
0 4.5 moveto 
1 -1 scale
(ARX) t 
GR
GR
GS
[0.75 0 0 0.75 0 0] CT
0 0.447 0.741 RC
1 LJ
0.667 LW
N
1546 111.5 M
1576 111.5 L
S
GR
GS
[0.75 0 0 0.75 1184.25 95.25] CT
/Helvetica 12 F
GS
[1 0 0 1 0 0] CT
0 4.5 moveto 
1 -1 scale
(ARMAX) t 
GR
GR
GS
[0.75 0 0 0.75 0 0] CT
0.851 0.325 0.098 RC
1 LJ
0.667 LW
N
1546 127 M
1576 127 L
S
GR
GS
[0.75 0 0 0.75 1184.25 106.875] CT
/Helvetica 12 F
GS
[1 0 0 1 0 0] CT
0 4.5 moveto 
1 -1 scale
(Experimental Bode plot) t 
GR
GR
GS
[0.75 0 0 0.75 0 0] CT
1 0 1 RC
1 LJ
0.667 LW
N
1546 142.5 M
1576 142.5 L
S
GR
GS
[0.75 0 0 0.75 0 0] CT
0.149 GC
10.0 ML
0.667 LW
N
1542 152 M
1542 102 L
1725 102 L
1725 152 L
cp
S
GR
GS
[0.75 0 0 0.75 0 0] CT
1 GC
N
262 822 M
1738 822 L
1738 483 L
262 483 L
cp
f
GR
GS
[0.75 0 0 0.75 0 0] CT
0.4 GC
2 setlinecap
1 LJ
0.667 LW
N
262 822 M
1738 822 L
S
GR
GS
[0.75 0 0 0.75 0 0] CT
0.4 GC
2 setlinecap
1 LJ
0.667 LW
N
262 483 M
1738 483 L
S
GR
GS
[0.75 0 0 0.75 0 0] CT
0.4 GC
2 setlinecap
1 LJ
0.667 LW
N
496.88 822 M
496.88 807.24 L
S
GR
GS
[0.75 0 0 0.75 0 0] CT
0.4 GC
2 setlinecap
1 LJ
0.667 LW
N
731.807 822 M
731.807 807.24 L
S
GR
GS
[0.75 0 0 0.75 0 0] CT
0.4 GC
2 setlinecap
1 LJ
0.667 LW
N
966.734 822 M
966.734 807.24 L
S
GR
GS
[0.75 0 0 0.75 0 0] CT
0.4 GC
2 setlinecap
1 LJ
0.667 LW
N
1201.661 822 M
1201.661 807.24 L
S
GR
GS
[0.75 0 0 0.75 0 0] CT
0.4 GC
2 setlinecap
1 LJ
0.667 LW
N
1436.589 822 M
1436.589 807.24 L
S
GR
GS
[0.75 0 0 0.75 0 0] CT
0.4 GC
2 setlinecap
1 LJ
0.667 LW
N
1671.516 822 M
1671.516 807.24 L
S
GR
GS
[0.75 0 0 0.75 0 0] CT
0.4 GC
2 setlinecap
1 LJ
0.667 LW
N
496.88 483 M
496.88 497.76 L
S
GR
GS
[0.75 0 0 0.75 0 0] CT
0.4 GC
2 setlinecap
1 LJ
0.667 LW
N
731.807 483 M
731.807 497.76 L
S
GR
GS
[0.75 0 0 0.75 0 0] CT
0.4 GC
2 setlinecap
1 LJ
0.667 LW
N
966.734 483 M
966.734 497.76 L
S
GR
GS
[0.75 0 0 0.75 0 0] CT
0.4 GC
2 setlinecap
1 LJ
0.667 LW
N
1201.661 483 M
1201.661 497.76 L
S
GR
GS
[0.75 0 0 0.75 0 0] CT
0.4 GC
2 setlinecap
1 LJ
0.667 LW
N
1436.589 483 M
1436.589 497.76 L
S
GR
GS
[0.75 0 0 0.75 0 0] CT
0.4 GC
2 setlinecap
1 LJ
0.667 LW
N
1671.516 483 M
1671.516 497.76 L
S
GR
GS
[0.75 0 0 0.75 372.6601 620.49998] CT
0.4 GC
/Helvetica 13.333 F
GS
[1 0 0 1 0 0] CT
-10.5 13 moveto 
1 -1 scale
(0.5) t 
GR
GR
GS
[0.75 0 0 0.75 548.85539 620.49998] CT
0.4 GC
/Helvetica 13.333 F
GS
[1 0 0 1 0 0] CT
-4.5 13 moveto 
1 -1 scale
(1) t 
GR
GR
GS
[0.75 0 0 0.75 725.05074 620.49998] CT
0.4 GC
/Helvetica 13.333 F
GS
[1 0 0 1 0 0] CT
-10.5 13 moveto 
1 -1 scale
(1.5) t 
GR
GR
GS
[0.75 0 0 0.75 901.24603 620.49998] CT
0.4 GC
/Helvetica 13.333 F
GS
[1 0 0 1 0 0] CT
-4.5 13 moveto 
1 -1 scale
(2) t 
GR
GR
GS
[0.75 0 0 0.75 1077.44138 620.49998] CT
0.4 GC
/Helvetica 13.333 F
GS
[1 0 0 1 0 0] CT
-10.5 13 moveto 
1 -1 scale
(2.5) t 
GR
GR
GS
[0.75 0 0 0.75 1253.63672 620.49998] CT
0.4 GC
/Helvetica 13.333 F
GS
[1 0 0 1 0 0] CT
-4.5 13 moveto 
1 -1 scale
(3) t 
GR
GR
GS
[0.75 0 0 0.75 0 0] CT
0.4 GC
2 setlinecap
1 LJ
0.667 LW
N
262 822 M
262 483 L
S
GR
GS
[0.75 0 0 0.75 0 0] CT
0.4 GC
2 setlinecap
1 LJ
0.667 LW
N
1738 822 M
1738 483 L
S
GR
GS
[0.75 0 0 0.75 0 0] CT
0.4 GC
2 setlinecap
1 LJ
0.667 LW
N
262 818.676 M
276.76 818.676 L
S
GR
GS
[0.75 0 0 0.75 0 0] CT
0.4 GC
2 setlinecap
1 LJ
0.667 LW
N
262 790.98 M
276.76 790.98 L
S
GR
GS
[0.75 0 0 0.75 0 0] CT
0.4 GC
2 setlinecap
1 LJ
0.667 LW
N
262 763.284 M
276.76 763.284 L
S
GR
GS
[0.75 0 0 0.75 0 0] CT
0.4 GC
2 setlinecap
1 LJ
0.667 LW
N
262 735.588 M
276.76 735.588 L
S
GR
GS
[0.75 0 0 0.75 0 0] CT
0.4 GC
2 setlinecap
1 LJ
0.667 LW
N
262 707.892 M
276.76 707.892 L
S
GR
GS
[0.75 0 0 0.75 0 0] CT
0.4 GC
2 setlinecap
1 LJ
0.667 LW
N
262 680.196 M
276.76 680.196 L
S
GR
GS
[0.75 0 0 0.75 0 0] CT
0.4 GC
2 setlinecap
1 LJ
0.667 LW
N
262 652.5 M
276.76 652.5 L
S
GR
GS
[0.75 0 0 0.75 0 0] CT
0.4 GC
2 setlinecap
1 LJ
0.667 LW
N
262 624.804 M
276.76 624.804 L
S
GR
GS
[0.75 0 0 0.75 0 0] CT
0.4 GC
2 setlinecap
1 LJ
0.667 LW
N
262 597.108 M
276.76 597.108 L
S
GR
GS
[0.75 0 0 0.75 0 0] CT
0.4 GC
2 setlinecap
1 LJ
0.667 LW
N
262 569.412 M
276.76 569.412 L
S
GR
GS
[0.75 0 0 0.75 0 0] CT
0.4 GC
2 setlinecap
1 LJ
0.667 LW
N
262 541.716 M
276.76 541.716 L
S
GR
GS
[0.75 0 0 0.75 0 0] CT
0.4 GC
2 setlinecap
1 LJ
0.667 LW
N
262 514.02 M
276.76 514.02 L
S
GR
GS
[0.75 0 0 0.75 0 0] CT
0.4 GC
2 setlinecap
1 LJ
0.667 LW
N
262 486.324 M
276.76 486.324 L
S
GR
GS
[0.75 0 0 0.75 0 0] CT
0.4 GC
2 setlinecap
1 LJ
0.667 LW
N
1738 818.676 M
1723.24 818.676 L
S
GR
GS
[0.75 0 0 0.75 0 0] CT
0.4 GC
2 setlinecap
1 LJ
0.667 LW
N
1738 790.98 M
1723.24 790.98 L
S
GR
GS
[0.75 0 0 0.75 0 0] CT
0.4 GC
2 setlinecap
1 LJ
0.667 LW
N
1738 763.284 M
1723.24 763.284 L
S
GR
GS
[0.75 0 0 0.75 0 0] CT
0.4 GC
2 setlinecap
1 LJ
0.667 LW
N
1738 735.588 M
1723.24 735.588 L
S
GR
GS
[0.75 0 0 0.75 0 0] CT
0.4 GC
2 setlinecap
1 LJ
0.667 LW
N
1738 707.892 M
1723.24 707.892 L
S
GR
GS
[0.75 0 0 0.75 0 0] CT
0.4 GC
2 setlinecap
1 LJ
0.667 LW
N
1738 680.196 M
1723.24 680.196 L
S
GR
GS
[0.75 0 0 0.75 0 0] CT
0.4 GC
2 setlinecap
1 LJ
0.667 LW
N
1738 652.5 M
1723.24 652.5 L
S
GR
GS
[0.75 0 0 0.75 0 0] CT
0.4 GC
2 setlinecap
1 LJ
0.667 LW
N
1738 624.804 M
1723.24 624.804 L
S
GR
GS
[0.75 0 0 0.75 0 0] CT
0.4 GC
2 setlinecap
1 LJ
0.667 LW
N
1738 597.108 M
1723.24 597.108 L
S
GR
GS
[0.75 0 0 0.75 0 0] CT
0.4 GC
2 setlinecap
1 LJ
0.667 LW
N
1738 569.412 M
1723.24 569.412 L
S
GR
GS
[0.75 0 0 0.75 0 0] CT
0.4 GC
2 setlinecap
1 LJ
0.667 LW
N
1738 541.716 M
1723.24 541.716 L
S
GR
GS
[0.75 0 0 0.75 0 0] CT
0.4 GC
2 setlinecap
1 LJ
0.667 LW
N
1738 514.02 M
1723.24 514.02 L
S
GR
GS
[0.75 0 0 0.75 0 0] CT
0.4 GC
2 setlinecap
1 LJ
0.667 LW
N
1738 486.324 M
1723.24 486.324 L
S
GR
GS
[0.75 0 0 0.75 192.49999 614.00734] CT
0.4 GC
/Helvetica 13.333 F
GS
[1 0 0 1 0 0] CT
-38 4.5 moveto 
1 -1 scale
(-3240) t 
GR
GR
GS
[0.75 0 0 0.75 192.49999 593.23531] CT
0.4 GC
/Helvetica 13.333 F
GS
[1 0 0 1 0 0] CT
-38 4.5 moveto 
1 -1 scale
(-2880) t 
GR
GR
GS
[0.75 0 0 0.75 192.49999 572.46323] CT
0.4 GC
/Helvetica 13.333 F
GS
[1 0 0 1 0 0] CT
-38 4.5 moveto 
1 -1 scale
(-2520) t 
GR
GR
GS
[0.75 0 0 0.75 192.49999 551.69119] CT
0.4 GC
/Helvetica 13.333 F
GS
[1 0 0 1 0 0] CT
-38 4.5 moveto 
1 -1 scale
(-2160) t 
GR
GR
GS
[0.75 0 0 0.75 192.49999 530.91911] CT
0.4 GC
/Helvetica 13.333 F
GS
[1 0 0 1 0 0] CT
-38 4.5 moveto 
1 -1 scale
(-1800) t 
GR
GR
GS
[0.75 0 0 0.75 192.49999 510.14708] CT
0.4 GC
/Helvetica 13.333 F
GS
[1 0 0 1 0 0] CT
-38 4.5 moveto 
1 -1 scale
(-1440) t 
GR
GR
GS
[0.75 0 0 0.75 192.49999 489.375] CT
0.4 GC
/Helvetica 13.333 F
GS
[1 0 0 1 0 0] CT
-38 4.5 moveto 
1 -1 scale
(-1080) t 
GR
GR
GS
[0.75 0 0 0.75 192.49999 468.60292] CT
0.4 GC
/Helvetica 13.333 F
GS
[1 0 0 1 0 0] CT
-30 4.5 moveto 
1 -1 scale
(-720) t 
GR
GR
GS
[0.75 0 0 0.75 192.49999 447.83089] CT
0.4 GC
/Helvetica 13.333 F
GS
[1 0 0 1 0 0] CT
-30 4.5 moveto 
1 -1 scale
(-360) t 
GR
GR
GS
[0.75 0 0 0.75 192.49999 427.05881] CT
0.4 GC
/Helvetica 13.333 F
GS
[1 0 0 1 0 0] CT
-9 4.5 moveto 
1 -1 scale
(0) t 
GR
GR
GS
[0.75 0 0 0.75 192.49999 406.28677] CT
0.4 GC
/Helvetica 13.333 F
GS
[1 0 0 1 0 0] CT
-25 4.5 moveto 
1 -1 scale
(360) t 
GR
GR
GS
[0.75 0 0 0.75 192.49999 385.51469] CT
0.4 GC
/Helvetica 13.333 F
GS
[1 0 0 1 0 0] CT
-25 4.5 moveto 
1 -1 scale
(720) t 
GR
GR
GS
[0.75 0 0 0.75 192.49999 364.74264] CT
0.4 GC
/Helvetica 13.333 F
GS
[1 0 0 1 0 0] CT
-34 4.5 moveto 
1 -1 scale
(1080) t 
GR
GR
GS
[0 -0.75 0.75 0 161 489.37486] CT
/Helvetica 14.667 F
GS
[1 0 0 1 0 0] CT
-45 -4 moveto 
1 -1 scale
(Phase \(deg\)) t 
GR
GR
GS
[0.75 0 0 0.75 0 0] CT
0 0.447 0.741 RC
1 LJ
0.667 LW
N
261.953 514.02 M
261.953 514.02 L
261.953 514.02 L
261.953 514.02 L
261.954 514.02 L
262.099 514.032 L
263.413 514.146 L
263.658 514.167 L
263.946 514.192 L
264.281 514.222 L
264.673 514.256 L
265.131 514.295 L
265.667 514.342 L
266.292 514.396 L
267.023 514.46 L
267.877 514.534 L
268.874 514.621 L
270.04 514.723 L
271.402 514.843 L
272.993 514.983 L
273.485 515.026 L
274.685 515.133 L
274.852 515.147 L
276.011 515.251 L
277.025 515.341 L
277.474 515.382 L
279.089 515.527 L
279.563 515.57 L
280.873 515.69 L
282.529 515.841 L
282.843 515.87 L
285.017 516.073 L
285.994 516.164 L
287.418 516.3 L
290.043 516.551 L
290.068 516.553 L
292.995 516.842 L
294.774 517.017 L
296.226 517.166 L
299.793 517.533 L
300.301 517.585 L
303.732 517.956 L
306.76 518.284 L
308.081 518.436 L
312.882 518.988 L
314.306 519.152 L
318.183 519.63 L
323.123 520.24 L
324.036 520.361 L
330.499 521.221 L
333.425 521.611 L
337.634 522.216 L
345.461 523.341 L
345.511 523.349 L
354.209 524.697 L
359.525 525.521 L
363.812 526.217 L
364.577 526.341 L
374.414 528.01 L
380.056 528.966 L
386.12 530.056 L
395.533 531.747 L
399.044 532.411 L
410.757 534.627 L
413.314 535.136 L
425.522 537.563 L
429.069 538.304 L
439.663 540.517 L
446.464 542.006 L
453.059 543.45 L
465.628 546.316 L
465.67 546.326 L
477.324 549.055 L
486.875 551.307 L
489.69 551.971 L
504.669 555.428 L
510.287 556.652 L
520.393 558.856 L
536.136 562.002 L
538.619 562.499 L
555.56 565.58 L
564.675 567.122 L
571.177 568.221 L
587.626 570.895 L
596.186 572.29 L
607.567 574.146 L
630.976 578.154 L
631.94 578.32 L
655.488 582.629 L
669.387 585.348 L
686.837 588.762 L
711.797 593.942 L
716.16 594.847 L
743.336 600.735 L
758.621 604.135 L
768.32 606.293 L
794.6 612.187 L
810.319 615.663 L
826.47 619.236 L
853.153 624.949 L
867.398 627.853 L
886.693 631.787 L
916.81 637.509 L
930.418 639.891 L
943.652 642.207 L
967.423 646.124 L
992.022 650.207 L
999.998 651.638 L
1021.947 655.576 L
1028.114 656.748 L
1058.585 662.793 L
1061.914 663.474 L
1074.975 666.171 L
1076.821 666.557 L
1098.402 671.072 L
1112.01 673.932 L
1129.884 677.674 L
1156.859 683.228 L
1161.64 684.17 L
1179.838 687.755 L
1199.318 691.265 L
1215.768 693.754 L
1229.613 695.509 L
1241.234 697.713 L
1250.966 702.33 L
1255.288 704.509 L
1260.795 707.284 L
1272.79 710.557 L
1287.463 713.714 L
1305.459 717.444 L
1327.606 722.061 L
1354.969 727.812 L
1358.684 728.591 L
1388.939 734.935 L
1431.357 743.632 L
1467.281 750.763 L
1472.842 751.853 L
1509.341 759.007 L
1552.868 767.784 L
1580.341 773.604 L
1598.883 777.816 L
1620.46 782.717 L
1654.934 791.633 L
1684.424 800.915 L
1709.556 809.595 L
1735.132 817.774 L
1738.044 818.676 L
S
GR
GS
[0.75 0 0 0.75 0 0] CT
1 LJ
0.667 LW
N
1738.044 822.04 M
1738.044 646.345 L
1738.044 569.489 L
1738.044 569.412 L
1738.044 569.335 L
1738.044 492.478 L
1738.044 482.96 L
S
GR
GS
[0.75 0 0 0.75 0 0] CT
0.851 0.325 0.098 RC
1 LJ
0.667 LW
N
261.953 514.02 M
261.953 514.02 L
261.953 514.02 L
261.953 514.02 L
261.953 514.02 L
261.959 514.01 L
262.017 513.919 L
262.028 513.902 L
262.04 513.883 L
262.055 513.859 L
262.072 513.832 L
262.093 513.801 L
262.116 513.764 L
262.144 513.721 L
262.176 513.671 L
262.213 513.612 L
262.257 513.544 L
262.308 513.464 L
262.368 513.371 L
262.439 513.263 L
262.52 513.138 L
262.616 512.992 L
262.728 512.825 L
262.859 512.631 L
263.011 512.41 L
263.19 512.159 L
263.399 511.875 L
263.643 511.559 L
263.928 511.211 L
264.261 510.834 L
264.65 510.432 L
265.105 510.011 L
265.637 509.58 L
266.258 509.146 L
266.984 508.717 L
267.833 508.301 L
268.825 507.906 L
269.984 507.539 L
271.339 507.21 L
272.922 506.929 L
273.485 506.862 L
274.685 506.719 L
274.773 506.709 L
276.011 506.626 L
276.935 506.565 L
277.474 506.554 L
279.089 506.522 L
279.463 506.515 L
280.873 506.546 L
282.417 506.579 L
282.843 506.604 L
285.017 506.732 L
285.869 506.782 L
287.418 506.923 L
289.562 507.119 L
290.068 507.18 L
292.995 507.535 L
293.817 507.634 L
296.226 507.996 L
298.096 508.277 L
299.793 508.582 L
302.329 509.037 L
303.732 509.332 L
306.458 509.906 L
308.081 510.302 L
310.435 510.876 L
312.882 511.558 L
314.224 511.932 L
317.798 513.047 L
318.183 513.178 L
321.141 514.178 L
324.036 515.201 L
324.684 515.43 L
328.974 516.944 L
330.499 517.448 L
334.211 518.676 L
337.634 519.67 L
340.668 520.552 L
345.511 521.747 L
348.718 522.539 L
354.209 523.706 L
358.881 524.699 L
363.812 525.64 L
371.897 527.184 L
374.414 527.643 L
378.799 528.442 L
386.12 529.751 L
393.997 531.161 L
399.044 532.066 L
408.696 533.798 L
413.314 534.65 L
422.694 536.381 L
429.069 537.618 L
435.846 538.933 L
446.464 541.146 L
448.062 541.479 L
459.295 544.037 L
465.67 545.622 L
469.535 546.583 L
478.8 549.031 L
486.875 551.192 L
488.479 551.621 L
500.233 554.612 L
510.287 556.898 L
514.615 557.882 L
529.603 560.888 L
532.364 561.408 L
536.136 562.085 L
548.264 564.263 L
564.675 567.038 L
568.226 567.638 L
592.334 571.602 L
596.186 572.237 L
600.746 572.989 L
628.225 577.631 L
630.976 578.124 L
653.715 582.203 L
669.387 585.23 L
677.127 586.725 L
698.446 591.152 L
711.797 594.072 L
717.715 595.366 L
737.835 599.856 L
758.621 604.431 L
762.271 605.235 L
774.112 607.781 L
799.172 613.084 L
810.319 615.468 L
821.378 617.833 L
840.922 622.218 L
858.026 626.188 L
867.398 628.248 L
875.636 630.06 L
883.366 631.606 L
897.076 634.132 L
904.893 635.486 L
930.418 639.768 L
931.082 639.88 L
963.145 645.34 L
999.998 651.829 L
1002.696 652.304 L
1012.993 654.147 L
1056.512 662.027 L
1076.821 665.754 L
1094.603 669.018 L
1127.655 675.155 L
1156.128 680.521 L
1161.64 681.586 L
1180.509 685.232 L
1201.282 689.448 L
1218.908 693.44 L
1233.812 697.814 L
1246.379 703.353 L
1255.288 707.246 L
1259.108 708.916 L
1274.638 713.403 L
1293.641 717.655 L
1316.973 722.355 L
1345.739 727.9 L
1358.684 730.345 L
1381.384 734.634 L
1425.82 742.958 L
1459.143 749.195 L
1461.72 749.677 L
1472.842 751.772 L
1509.399 758.655 L
1550.621 766.562 L
1586.048 773.648 L
1598.883 776.469 L
1616.345 780.305 L
1642.149 787.215 L
1664.05 794.502 L
1686.299 801.546 L
1697.83 804.854 L
1719.655 811.439 L
1738.044 818.676 L
S
GR
GS
[0.75 0 0 0.75 0 0] CT
1 LJ
0.667 LW
N
1738.044 822.04 M
1738.044 646.345 L
1738.044 569.489 L
1738.044 569.412 L
1738.044 569.335 L
1738.044 492.478 L
1738.044 482.96 L
S
GR
GS
[0.75 0 0 0.75 749.25 48.705] CT
/Helvetica-Bold 14.667 F
GS
[1 0 0 1 0 0] CT
-60 -4 moveto 
1 -1 scale
(Bode Diagram) t 
GR
GR
GS
[0.75 0 0 0.75 749.25 632.75002] CT
/Helvetica 14.667 F
GS
[1 0 0 1 0 0] CT
-69 14 moveto 
1 -1 scale
(Frequency  \(rad/s\)) t 
GR
GR
%%Trailer
%%Pages: 1
%%EOF
