%!PS-Adobe-3.0 EPSF-3.0
%%Creator: (MATLAB, The Mathworks, Inc. Version 9.1.0.441655 \(R2016b\). Operating System: Linux)
%%Title: /users/start2016/r0461511/Documents/system-identification/Oefenzitting_3/plots/bode_oe_trunc.eps
%%CreationDate: 2016-12-20T17:09:29
%%Pages: (atend)
%%BoundingBox: 0 0 1440 693
%%LanguageLevel: 3
%%EndComments
%%BeginProlog
%%BeginResource: procset (Apache XML Graphics Std ProcSet) 1.2 0
%%Version: 1.2 0
%%Copyright: (Copyright 2001-2003,2010 The Apache Software Foundation. License terms: http://www.apache.org/licenses/LICENSE-2.0)
/bd{bind def}bind def
/ld{load def}bd
/GR/grestore ld
/M/moveto ld
/LJ/setlinejoin ld
/C/curveto ld
/f/fill ld
/LW/setlinewidth ld
/GC/setgray ld
/t/show ld
/N/newpath ld
/CT/concat ld
/cp/closepath ld
/S/stroke ld
/L/lineto ld
/CC/setcmykcolor ld
/A/ashow ld
/GS/gsave ld
/RC/setrgbcolor ld
/RM/rmoveto ld
/ML/setmiterlimit ld
/re {4 2 roll M
1 index 0 rlineto
0 exch rlineto
neg 0 rlineto
cp } bd
/_ctm matrix def
/_tm matrix def
/BT { _ctm currentmatrix pop matrix _tm copy pop 0 0 moveto } bd
/ET { _ctm setmatrix } bd
/iTm { _ctm setmatrix _tm concat } bd
/Tm { _tm astore pop iTm 0 0 moveto } bd
/ux 0.0 def
/uy 0.0 def
/F {
  /Tp exch def
  /Tf exch def
  Tf findfont Tp scalefont setfont
  /cf Tf def  /cs Tp def
} bd
/ULS {currentpoint /uy exch def /ux exch def} bd
/ULE {
  /Tcx currentpoint pop def
  gsave
  newpath
  cf findfont cs scalefont dup
  /FontMatrix get 0 get /Ts exch def /FontInfo get dup
  /UnderlinePosition get Ts mul /To exch def
  /UnderlineThickness get Ts mul /Tt exch def
  ux uy To add moveto  Tcx uy To add lineto
  Tt setlinewidth stroke
  grestore
} bd
/OLE {
  /Tcx currentpoint pop def
  gsave
  newpath
  cf findfont cs scalefont dup
  /FontMatrix get 0 get /Ts exch def /FontInfo get dup
  /UnderlinePosition get Ts mul /To exch def
  /UnderlineThickness get Ts mul /Tt exch def
  ux uy To add cs add moveto Tcx uy To add cs add lineto
  Tt setlinewidth stroke
  grestore
} bd
/SOE {
  /Tcx currentpoint pop def
  gsave
  newpath
  cf findfont cs scalefont dup
  /FontMatrix get 0 get /Ts exch def /FontInfo get dup
  /UnderlinePosition get Ts mul /To exch def
  /UnderlineThickness get Ts mul /Tt exch def
  ux uy To add cs 10 mul 26 idiv add moveto Tcx uy To add cs 10 mul 26 idiv add lineto
  Tt setlinewidth stroke
  grestore
} bd
/QT {
/Y22 exch store
/X22 exch store
/Y21 exch store
/X21 exch store
currentpoint
/Y21 load 2 mul add 3 div exch
/X21 load 2 mul add 3 div exch
/X21 load 2 mul /X22 load add 3 div
/Y21 load 2 mul /Y22 load add 3 div
/X22 load /Y22 load curveto
} bd
/SSPD {
dup length /d exch dict def
{
/v exch def
/k exch def
currentpagedevice k known {
/cpdv currentpagedevice k get def
v cpdv ne {
/upd false def
/nullv v type /nulltype eq def
/nullcpdv cpdv type /nulltype eq def
nullv nullcpdv or
{
/upd true def
} {
/sametype v type cpdv type eq def
sametype {
v type /arraytype eq {
/vlen v length def
/cpdvlen cpdv length def
vlen cpdvlen eq {
0 1 vlen 1 sub {
/i exch def
/obj v i get def
/cpdobj cpdv i get def
obj cpdobj ne {
/upd true def
exit
} if
} for
} {
/upd true def
} ifelse
} {
v type /dicttype eq {
v {
/dv exch def
/dk exch def
/cpddv cpdv dk get def
dv cpddv ne {
/upd true def
exit
} if
} forall
} {
/upd true def
} ifelse
} ifelse
} if
} ifelse
upd true eq {
d k v put
} if
} if
} if
} forall
d length 0 gt {
d setpagedevice
} if
} bd
/RE { % /NewFontName [NewEncodingArray] /FontName RE -
  findfont dup length dict begin
  {
    1 index /FID ne
    {def} {pop pop} ifelse
  } forall
  /Encoding exch def
  /FontName 1 index def
  currentdict definefont pop
  end
} bind def
%%EndResource
%%BeginResource: procset (Apache XML Graphics EPS ProcSet) 1.0 0
%%Version: 1.0 0
%%Copyright: (Copyright 2002-2003 The Apache Software Foundation. License terms: http://www.apache.org/licenses/LICENSE-2.0)
/BeginEPSF { %def
/b4_Inc_state save def         % Save state for cleanup
/dict_count countdictstack def % Count objects on dict stack
/op_count count 1 sub def      % Count objects on operand stack
userdict begin                 % Push userdict on dict stack
/showpage { } def              % Redefine showpage, { } = null proc
0 setgray 0 setlinecap         % Prepare graphics state
1 setlinewidth 0 setlinejoin
10 setmiterlimit [ ] 0 setdash newpath
/languagelevel where           % If level not equal to 1 then
{pop languagelevel             % set strokeadjust and
1 ne                           % overprint to their defaults.
{false setstrokeadjust false setoverprint
} if
} if
} bd
/EndEPSF { %def
count op_count sub {pop} repeat            % Clean up stacks
countdictstack dict_count sub {end} repeat
b4_Inc_state restore
} bd
%%EndResource
%FOPBeginFontDict
%%IncludeResource: font Courier-Bold
%%IncludeResource: font Helvetica
%%IncludeResource: font Courier-BoldOblique
%%IncludeResource: font Courier-Oblique
%%IncludeResource: font Times-Roman
%%IncludeResource: font Helvetica-BoldOblique
%%IncludeResource: font Helvetica-Bold
%%IncludeResource: font Helvetica-Oblique
%%IncludeResource: font Times-BoldItalic
%%IncludeResource: font Courier
%%IncludeResource: font Times-Italic
%%IncludeResource: font Times-Bold
%%IncludeResource: font Symbol
%%IncludeResource: font ZapfDingbats
%FOPEndFontDict
%%BeginResource: encoding WinAnsiEncoding
/WinAnsiEncoding [
/.notdef /.notdef /.notdef /.notdef /.notdef
/.notdef /.notdef /.notdef /.notdef /.notdef
/.notdef /.notdef /.notdef /.notdef /.notdef
/.notdef /.notdef /.notdef /.notdef /.notdef
/.notdef /.notdef /.notdef /.notdef /.notdef
/.notdef /.notdef /.notdef /.notdef /.notdef
/.notdef /.notdef /space /exclam /quotedbl
/numbersign /dollar /percent /ampersand /quotesingle
/parenleft /parenright /asterisk /plus /comma
/hyphen /period /slash /zero /one
/two /three /four /five /six
/seven /eight /nine /colon /semicolon
/less /equal /greater /question /at
/A /B /C /D /E
/F /G /H /I /J
/K /L /M /N /O
/P /Q /R /S /T
/U /V /W /X /Y
/Z /bracketleft /backslash /bracketright /asciicircum
/underscore /quoteleft /a /b /c
/d /e /f /g /h
/i /j /k /l /m
/n /o /p /q /r
/s /t /u /v /w
/x /y /z /braceleft /bar
/braceright /asciitilde /bullet /Euro /bullet
/quotesinglbase /florin /quotedblbase /ellipsis /dagger
/daggerdbl /circumflex /perthousand /Scaron /guilsinglleft
/OE /bullet /Zcaron /bullet /bullet
/quoteleft /quoteright /quotedblleft /quotedblright /bullet
/endash /emdash /asciitilde /trademark /scaron
/guilsinglright /oe /bullet /zcaron /Ydieresis
/space /exclamdown /cent /sterling /currency
/yen /brokenbar /section /dieresis /copyright
/ordfeminine /guillemotleft /logicalnot /sfthyphen /registered
/macron /degree /plusminus /twosuperior /threesuperior
/acute /mu /paragraph /middot /cedilla
/onesuperior /ordmasculine /guillemotright /onequarter /onehalf
/threequarters /questiondown /Agrave /Aacute /Acircumflex
/Atilde /Adieresis /Aring /AE /Ccedilla
/Egrave /Eacute /Ecircumflex /Edieresis /Igrave
/Iacute /Icircumflex /Idieresis /Eth /Ntilde
/Ograve /Oacute /Ocircumflex /Otilde /Odieresis
/multiply /Oslash /Ugrave /Uacute /Ucircumflex
/Udieresis /Yacute /Thorn /germandbls /agrave
/aacute /acircumflex /atilde /adieresis /aring
/ae /ccedilla /egrave /eacute /ecircumflex
/edieresis /igrave /iacute /icircumflex /idieresis
/eth /ntilde /ograve /oacute /ocircumflex
/otilde /odieresis /divide /oslash /ugrave
/uacute /ucircumflex /udieresis /yacute /thorn
/ydieresis
] def
%%EndResource
%FOPBeginFontReencode
/Courier-Bold findfont
dup length dict begin
  {1 index /FID ne {def} {pop pop} ifelse} forall
  /Encoding WinAnsiEncoding def
  currentdict
end
/Courier-Bold exch definefont pop
/Helvetica findfont
dup length dict begin
  {1 index /FID ne {def} {pop pop} ifelse} forall
  /Encoding WinAnsiEncoding def
  currentdict
end
/Helvetica exch definefont pop
/Courier-BoldOblique findfont
dup length dict begin
  {1 index /FID ne {def} {pop pop} ifelse} forall
  /Encoding WinAnsiEncoding def
  currentdict
end
/Courier-BoldOblique exch definefont pop
/Courier-Oblique findfont
dup length dict begin
  {1 index /FID ne {def} {pop pop} ifelse} forall
  /Encoding WinAnsiEncoding def
  currentdict
end
/Courier-Oblique exch definefont pop
/Times-Roman findfont
dup length dict begin
  {1 index /FID ne {def} {pop pop} ifelse} forall
  /Encoding WinAnsiEncoding def
  currentdict
end
/Times-Roman exch definefont pop
/Helvetica-BoldOblique findfont
dup length dict begin
  {1 index /FID ne {def} {pop pop} ifelse} forall
  /Encoding WinAnsiEncoding def
  currentdict
end
/Helvetica-BoldOblique exch definefont pop
/Helvetica-Bold findfont
dup length dict begin
  {1 index /FID ne {def} {pop pop} ifelse} forall
  /Encoding WinAnsiEncoding def
  currentdict
end
/Helvetica-Bold exch definefont pop
/Helvetica-Oblique findfont
dup length dict begin
  {1 index /FID ne {def} {pop pop} ifelse} forall
  /Encoding WinAnsiEncoding def
  currentdict
end
/Helvetica-Oblique exch definefont pop
/Times-BoldItalic findfont
dup length dict begin
  {1 index /FID ne {def} {pop pop} ifelse} forall
  /Encoding WinAnsiEncoding def
  currentdict
end
/Times-BoldItalic exch definefont pop
/Courier findfont
dup length dict begin
  {1 index /FID ne {def} {pop pop} ifelse} forall
  /Encoding WinAnsiEncoding def
  currentdict
end
/Courier exch definefont pop
/Times-Italic findfont
dup length dict begin
  {1 index /FID ne {def} {pop pop} ifelse} forall
  /Encoding WinAnsiEncoding def
  currentdict
end
/Times-Italic exch definefont pop
/Times-Bold findfont
dup length dict begin
  {1 index /FID ne {def} {pop pop} ifelse} forall
  /Encoding WinAnsiEncoding def
  currentdict
end
/Times-Bold exch definefont pop
%FOPEndFontReencode
%%EndProlog
%%Page: 1 1
%%PageBoundingBox: 0 0 1440 693
%%BeginPageSetup
[1 0 0 -1 0 693] CT
%%EndPageSetup
GS
[0.75 0 0 0.75 0 0] CT
1 GC
N
0 0 1920 924 re
f
GR
GS
[0.75 0 0 0.75 0 0] CT
1 GC
N
0 0 1920 924 re
f
GR
GS
[0.75 0 0 0.75 0 0] CT
1 GC
N
262 471 M
1738 471 L
1738 89 L
262 89 L
cp
f
GR
GS
[0.75 0 0 0.75 0 0] CT
0.4 GC
2 setlinecap
1 LJ
0.667 LW
N
262 471 M
1738 471 L
S
GR
GS
[0.75 0 0 0.75 0 0] CT
0.4 GC
2 setlinecap
1 LJ
0.667 LW
N
262 89 M
1738 89 L
S
GR
GS
[0.75 0 0 0.75 0 0] CT
0.4 GC
2 setlinecap
1 LJ
0.667 LW
N
496.524 471 M
496.524 456.24 L
S
GR
GS
[0.75 0 0 0.75 0 0] CT
0.4 GC
2 setlinecap
1 LJ
0.667 LW
N
731.519 471 M
731.519 456.24 L
S
GR
GS
[0.75 0 0 0.75 0 0] CT
0.4 GC
2 setlinecap
1 LJ
0.667 LW
N
966.513 471 M
966.513 456.24 L
S
GR
GS
[0.75 0 0 0.75 0 0] CT
0.4 GC
2 setlinecap
1 LJ
0.667 LW
N
1201.508 471 M
1201.508 456.24 L
S
GR
GS
[0.75 0 0 0.75 0 0] CT
0.4 GC
2 setlinecap
1 LJ
0.667 LW
N
1436.502 471 M
1436.502 456.24 L
S
GR
GS
[0.75 0 0 0.75 0 0] CT
0.4 GC
2 setlinecap
1 LJ
0.667 LW
N
1671.497 471 M
1671.497 456.24 L
S
GR
GS
[0.75 0 0 0.75 0 0] CT
0.4 GC
2 setlinecap
1 LJ
0.667 LW
N
496.524 89 M
496.524 103.76 L
S
GR
GS
[0.75 0 0 0.75 0 0] CT
0.4 GC
2 setlinecap
1 LJ
0.667 LW
N
731.519 89 M
731.519 103.76 L
S
GR
GS
[0.75 0 0 0.75 0 0] CT
0.4 GC
2 setlinecap
1 LJ
0.667 LW
N
966.513 89 M
966.513 103.76 L
S
GR
GS
[0.75 0 0 0.75 0 0] CT
0.4 GC
2 setlinecap
1 LJ
0.667 LW
N
1201.508 89 M
1201.508 103.76 L
S
GR
GS
[0.75 0 0 0.75 0 0] CT
0.4 GC
2 setlinecap
1 LJ
0.667 LW
N
1436.502 89 M
1436.502 103.76 L
S
GR
GS
[0.75 0 0 0.75 0 0] CT
0.4 GC
2 setlinecap
1 LJ
0.667 LW
N
1671.497 89 M
1671.497 103.76 L
S
GR
GS
[0.75 0 0 0.75 0 0] CT
0.4 GC
2 setlinecap
1 LJ
0.667 LW
N
262 471 M
262 89 L
S
GR
GS
[0.75 0 0 0.75 0 0] CT
0.4 GC
2 setlinecap
1 LJ
0.667 LW
N
1738 471 M
1738 89 L
S
GR
GS
[0.75 0 0 0.75 0 0] CT
0.4 GC
2 setlinecap
1 LJ
0.667 LW
N
262 471 M
276.76 471 L
S
GR
GS
[0.75 0 0 0.75 0 0] CT
0.4 GC
2 setlinecap
1 LJ
0.667 LW
N
262 428.556 M
276.76 428.556 L
S
GR
GS
[0.75 0 0 0.75 0 0] CT
0.4 GC
2 setlinecap
1 LJ
0.667 LW
N
262 386.111 M
276.76 386.111 L
S
GR
GS
[0.75 0 0 0.75 0 0] CT
0.4 GC
2 setlinecap
1 LJ
0.667 LW
N
262 343.667 M
276.76 343.667 L
S
GR
GS
[0.75 0 0 0.75 0 0] CT
0.4 GC
2 setlinecap
1 LJ
0.667 LW
N
262 301.222 M
276.76 301.222 L
S
GR
GS
[0.75 0 0 0.75 0 0] CT
0.4 GC
2 setlinecap
1 LJ
0.667 LW
N
262 258.778 M
276.76 258.778 L
S
GR
GS
[0.75 0 0 0.75 0 0] CT
0.4 GC
2 setlinecap
1 LJ
0.667 LW
N
262 216.333 M
276.76 216.333 L
S
GR
GS
[0.75 0 0 0.75 0 0] CT
0.4 GC
2 setlinecap
1 LJ
0.667 LW
N
262 173.889 M
276.76 173.889 L
S
GR
GS
[0.75 0 0 0.75 0 0] CT
0.4 GC
2 setlinecap
1 LJ
0.667 LW
N
262 131.444 M
276.76 131.444 L
S
GR
GS
[0.75 0 0 0.75 0 0] CT
0.4 GC
2 setlinecap
1 LJ
0.667 LW
N
262 89 M
276.76 89 L
S
GR
GS
[0.75 0 0 0.75 0 0] CT
0.4 GC
2 setlinecap
1 LJ
0.667 LW
N
1738 471 M
1723.24 471 L
S
GR
GS
[0.75 0 0 0.75 0 0] CT
0.4 GC
2 setlinecap
1 LJ
0.667 LW
N
1738 428.556 M
1723.24 428.556 L
S
GR
GS
[0.75 0 0 0.75 0 0] CT
0.4 GC
2 setlinecap
1 LJ
0.667 LW
N
1738 386.111 M
1723.24 386.111 L
S
GR
GS
[0.75 0 0 0.75 0 0] CT
0.4 GC
2 setlinecap
1 LJ
0.667 LW
N
1738 343.667 M
1723.24 343.667 L
S
GR
GS
[0.75 0 0 0.75 0 0] CT
0.4 GC
2 setlinecap
1 LJ
0.667 LW
N
1738 301.222 M
1723.24 301.222 L
S
GR
GS
[0.75 0 0 0.75 0 0] CT
0.4 GC
2 setlinecap
1 LJ
0.667 LW
N
1738 258.778 M
1723.24 258.778 L
S
GR
GS
[0.75 0 0 0.75 0 0] CT
0.4 GC
2 setlinecap
1 LJ
0.667 LW
N
1738 216.333 M
1723.24 216.333 L
S
GR
GS
[0.75 0 0 0.75 0 0] CT
0.4 GC
2 setlinecap
1 LJ
0.667 LW
N
1738 173.889 M
1723.24 173.889 L
S
GR
GS
[0.75 0 0 0.75 0 0] CT
0.4 GC
2 setlinecap
1 LJ
0.667 LW
N
1738 131.444 M
1723.24 131.444 L
S
GR
GS
[0.75 0 0 0.75 0 0] CT
0.4 GC
2 setlinecap
1 LJ
0.667 LW
N
1738 89 M
1723.24 89 L
S
GR
GS
[0.75 0 0 0.75 192.49999 353.25] CT
0.4 GC
/Helvetica 13.333 F
GS
[1 0 0 1 0 0] CT
-22 4.5 moveto 
1 -1 scale
(-35) t 
GR
GR
GS
[0.75 0 0 0.75 192.49999 321.41666] CT
0.4 GC
/Helvetica 13.333 F
GS
[1 0 0 1 0 0] CT
-22 4.5 moveto 
1 -1 scale
(-30) t 
GR
GR
GS
[0.75 0 0 0.75 192.49999 289.58334] CT
0.4 GC
/Helvetica 13.333 F
GS
[1 0 0 1 0 0] CT
-22 4.5 moveto 
1 -1 scale
(-25) t 
GR
GR
GS
[0.75 0 0 0.75 192.49999 257.74999] CT
0.4 GC
/Helvetica 13.333 F
GS
[1 0 0 1 0 0] CT
-22 4.5 moveto 
1 -1 scale
(-20) t 
GR
GR
GS
[0.75 0 0 0.75 192.49999 225.91667] CT
0.4 GC
/Helvetica 13.333 F
GS
[1 0 0 1 0 0] CT
-22 4.5 moveto 
1 -1 scale
(-15) t 
GR
GR
GS
[0.75 0 0 0.75 192.49999 194.08333] CT
0.4 GC
/Helvetica 13.333 F
GS
[1 0 0 1 0 0] CT
-22 4.5 moveto 
1 -1 scale
(-10) t 
GR
GR
GS
[0.75 0 0 0.75 192.49999 162.25] CT
0.4 GC
/Helvetica 13.333 F
GS
[1 0 0 1 0 0] CT
-13 4.5 moveto 
1 -1 scale
(-5) t 
GR
GR
GS
[0.75 0 0 0.75 192.49999 130.41666] CT
0.4 GC
/Helvetica 13.333 F
GS
[1 0 0 1 0 0] CT
-9 4.5 moveto 
1 -1 scale
(0) t 
GR
GR
GS
[0.75 0 0 0.75 192.49999 98.58333] CT
0.4 GC
/Helvetica 13.333 F
GS
[1 0 0 1 0 0] CT
-9 4.5 moveto 
1 -1 scale
(5) t 
GR
GR
GS
[0.75 0 0 0.75 192.49999 66.75] CT
0.4 GC
/Helvetica 13.333 F
GS
[1 0 0 1 0 0] CT
-17 4.5 moveto 
1 -1 scale
(10) t 
GR
GR
GS
[0 -0.75 0.75 0 173 209.99986] CT
/Helvetica 14.667 F
GS
[1 0 0 1 0 0] CT
-58 -4 moveto 
1 -1 scale
(Magnitude \(dB\)) t 
GR
GR
GS
[0.75 0 0 0.75 750.00069 64.875] CT
0.4 GC
/Helvetica 13.333 F
GS
[1 0 0 1 0 0] CT
-54 -4 moveto 
1 -1 scale
(From: u1  To: y1) t 
GR
GR
GS
[0.75 0 0 0.75 0 0] CT
0 0.447 0.741 RC
1 LJ
0.667 LW
N
261.824 304.358 M
262.351 304.347 L
262.488 304.342 L
262.648 304.334 L
262.835 304.324 L
263.054 304.31 L
263.308 304.291 L
263.606 304.265 L
263.953 304.23 L
264.358 304.183 L
264.83 304.118 L
265.382 304.03 L
266.026 303.91 L
266.778 303.748 L
267.655 303.527 L
268.679 303.229 L
269.874 302.827 L
271.268 302.285 L
272.896 301.559 L
273.065 301.467 L
274.266 300.846 L
274.796 300.591 L
275.592 300.108 L
277.014 299.309 L
277.055 299.28 L
278.671 298.203 L
279.602 297.628 L
280.456 296.977 L
282.426 295.58 L
282.624 295.447 L
284.601 293.829 L
286.15 292.655 L
287.002 291.882 L
289.653 289.631 L
290.265 289.142 L
292.581 286.965 L
295.069 284.799 L
295.813 284.053 L
299.381 280.684 L
300.676 279.54 L
303.321 276.901 L
307.219 273.301 L
307.671 272.84 L
312.474 268.192 L
314.857 266.046 L
317.777 263.188 L
323.631 257.877 L
323.772 257.755 L
330.095 251.901 L
334.176 248.403 L
337.232 245.608 L
345.112 238.892 L
346.32 237.918 L
353.812 231.459 L
360.495 226.126 L
363.418 223.705 L
365.976 221.643 L
373.955 215.143 L
374.023 215.085 L
381.46 209.011 L
385.733 205.288 L
396.623 196.35 L
398.661 194.468 L
411.21 183.463 L
412.935 181.744 L
425.029 170.213 L
428.694 166.265 L
437.95 156.666 L
446.094 147.451 L
449.894 143.289 L
460.827 131.192 L
465.305 127.017 L
470.75 122.063 L
479.692 117.334 L
486.516 117.283 L
489.016 117.265 L
500.343 122.877 L
509.935 130.184 L
514.204 133.346 L
531.31 145.324 L
535.791 147.467 L
552.63 155.219 L
564.339 157.473 L
579.507 160.266 L
593.804 160.357 L
595.858 160.072 L
621.909 156.596 L
630.658 154.078 L
647.865 149.295 L
669.081 140.924 L
671.581 139.967 L
693.049 130.372 L
711.503 123.334 L
712.329 123.025 L
729.528 120.178 L
747.383 122.435 L
758.34 126.186 L
769.091 129.786 L
785.809 135.375 L
806.787 139.426 L
810.053 139.812 L
825.207 141.575 L
841.292 147.626 L
857.835 161.983 L
867.148 172.751 L
877.98 185.067 L
902.646 210.584 L
930.187 232.374 L
933.047 234.586 L
970.809 257.674 L
980.36 262.947 L
999.787 273.468 L
1018.144 283.159 L
1045.798 298.185 L
1076.632 316.604 L
1091.346 325.15 L
1131.77 353.104 L
1161.475 377.629 L
1167.354 382.386 L
1198.461 411.991 L
1225.499 437.354 L
1248.883 450.013 L
1255.15 449.408 L
1272.836 447.724 L
1302.019 435.055 L
1319.88 427.374 L
1322.632 426.295 L
1350.954 417.05 L
1353.786 416.307 L
1358.575 415.271 L
1377.31 411.259 L
1380.212 410.76 L
1399.564 407.972 L
1402.524 407.611 L
1418.283 405.788 L
1421.291 405.425 L
1433.978 403.501 L
1437.027 402.841 L
1447.105 399.184 L
1450.188 397.141 L
1458.059 385.612 L
1461.171 373.806 L
1467.185 303.503 L
1470.321 385.258 L
1472.766 401.803 L
1476.381 426.196 L
1479.54 426.742 L
1487.606 424.928 L
1490.794 424.442 L
1501.333 423.989 L
1504.557 424.108 L
1518.156 425.438 L
1521.423 425.909 L
1538.825 429.103 L
1542.146 429.821 L
1564.3 435.257 L
1567.687 436.167 L
1595.818 444.014 L
1598.843 444.836 L
1599.288 444.957 L
1630.57 451.258 L
1664.327 445.797 L
1693.064 422.361 L
1717.437 389.416 L
1738.044 370.549 L
S
GR
GS
[0.75 0 0 0.75 0 0] CT
1 LJ
0.667 LW
N
1738.044 471.046 M
1738.044 173.889 L
1738.044 88.954 L
S
GR
GS
[0.75 0 0 0.75 0 0] CT
0.851 0.325 0.098 RC
1 LJ
0.667 LW
N
261.824 304.359 M
262.582 304.346 L
262.76 304.34 L
262.968 304.331 L
263.211 304.32 L
263.495 304.305 L
263.826 304.284 L
264.214 304.255 L
264.667 304.216 L
265.197 304.162 L
265.816 304.089 L
266.54 303.99 L
267.386 303.854 L
268.375 303.67 L
269.53 303.419 L
270.881 303.078 L
272.46 302.616 L
273.065 302.401 L
274.266 302.005 L
274.306 301.993 L
275.592 301.478 L
276.464 301.154 L
277.055 300.875 L
278.671 300.162 L
278.985 300.032 L
280.456 299.259 L
281.933 298.54 L
282.426 298.24 L
284.601 296.992 L
285.378 296.575 L
287.002 295.492 L
289.405 294.011 L
289.653 293.823 L
292.581 291.729 L
294.112 290.711 L
295.813 289.345 L
299.381 286.687 L
299.613 286.523 L
303.321 283.408 L
306.044 281.293 L
307.671 279.814 L
312.474 275.737 L
313.56 274.868 L
317.777 270.987 L
322.346 267.097 L
323.631 265.852 L
330.095 259.96 L
332.615 257.812 L
337.232 253.373 L
344.619 246.805 L
345.112 246.31 L
353.812 238.034 L
358.649 233.765 L
363.418 229.114 L
369.896 223.134 L
374.023 218.94 L
384.951 208.538 L
385.733 207.708 L
398.661 194.676 L
399.712 193.671 L
412.935 179.722 L
413.953 178.699 L
427.506 163.934 L
428.694 162.586 L
440.249 149.958 L
446.094 143.811 L
452.105 137.688 L
463.037 128.236 L
465.305 126.889 L
473.038 122.405 L
483.534 120.069 L
486.516 120.573 L
496.269 122.173 L
509.935 128.44 L
511.842 129.287 L
531.059 139.896 L
535.791 142.251 L
554.436 151.153 L
555.025 151.396 L
564.339 154.546 L
579.155 159.362 L
580.37 159.655 L
595.858 161.896 L
604.442 163.094 L
604.738 163.106 L
627.396 161.399 L
627.616 161.354 L
630.658 160.315 L
648.275 154.463 L
648.636 154.293 L
667.534 143.261 L
669.081 142.184 L
684.395 131.74 L
699.343 123.898 L
711.503 121.609 L
714.819 120.996 L
733.644 123.041 L
756.692 127.408 L
758.34 127.662 L
774.997 130.189 L
798.546 134.135 L
810.053 137.813 L
819.602 140.808 L
841.483 152.916 L
867.148 172.638 L
868.081 173.339 L
900.638 201.073 L
930.187 225.048 L
940.813 233.412 L
990.855 268.375 L
999.787 273.82 L
1033.107 293.565 L
1076.632 315.318 L
1089.334 321.448 L
1141.833 341.634 L
1161.475 347.199 L
1190.448 355.19 L
1191.295 355.383 L
1191.531 355.437 L
1240.264 364.363 L
1240.512 364.398 L
1255.15 366.073 L
1282.657 369.154 L
1282.916 369.176 L
1319.06 371.669 L
1319.328 371.683 L
1350.109 373.005 L
1350.385 373.014 L
1358.575 373.244 L
1376.446 373.739 L
1376.729 373.745 L
1398.682 374.175 L
1398.971 374.18 L
1417.386 374.484 L
1417.68 374.489 L
1433.069 374.786 L
1433.367 374.793 L
1446.186 375.247 L
1446.486 375.263 L
1457.132 376.454 L
1457.435 376.526 L
1466.251 331.668 L
1466.557 271.751 L
1472.766 341.57 L
1475.439 371.515 L
1475.748 371.607 L
1486.656 373.006 L
1486.967 373.023 L
1500.372 373.442 L
1500.687 373.447 L
1517.181 373.611 L
1517.5 373.613 L
1537.834 373.659 L
1538.158 373.659 L
1563.29 373.631 L
1563.62 373.63 L
1594.784 373.549 L
1595.122 373.548 L
1598.843 373.538 L
1633.929 373.437 L
1634.277 373.436 L
1682.854 373.329 L
1683.215 373.329 L
1738.044 373.283 L
S
GR
GS
[0.75 0 0 0.75 0 0] CT
1 LJ
0.667 LW
N
1738.044 471.046 M
1738.044 173.889 L
1738.044 88.954 L
S
GR
GS
[0.75 0 0 0.75 0 0] CT
1 0 1 RC
1 LJ
0.667 LW
N
261.824 445.401 M
264.495 444.032 L
267.46 443.798 L
270.425 443.288 L
273.39 442.876 L
276.354 440.595 L
279.319 436.756 L
282.284 430.496 L
285.249 421.598 L
288.214 409.878 L
291.179 397.089 L
294.144 381.191 L
297.109 364.538 L
300.074 347.839 L
303.038 331.782 L
306.003 316.682 L
308.968 305.574 L
311.933 295.785 L
314.898 287.237 L
317.863 279.867 L
320.828 273.221 L
323.793 266.214 L
326.758 259.991 L
329.722 254.418 L
332.687 249.406 L
335.652 244.865 L
338.617 240.685 L
341.582 236.837 L
344.547 233.319 L
347.512 230.03 L
350.477 226.939 L
353.441 223.998 L
356.406 221.188 L
359.371 218.457 L
362.336 215.828 L
365.301 213.273 L
368.266 210.826 L
371.231 208.474 L
374.196 206.248 L
377.161 204.113 L
380.125 202.084 L
383.09 200.087 L
386.055 198.111 L
389.02 196.09 L
391.985 193.994 L
394.95 191.752 L
397.915 189.369 L
400.88 186.797 L
403.845 184.033 L
406.809 181.07 L
409.774 177.967 L
412.739 174.725 L
415.704 171.382 L
418.669 167.914 L
421.634 164.372 L
424.599 160.71 L
427.564 156.933 L
430.529 153.026 L
433.493 149.051 L
436.458 144.976 L
439.423 140.84 L
442.388 136.678 L
445.353 132.52 L
448.318 128.366 L
451.283 124.264 L
454.248 120.258 L
457.213 116.383 L
460.177 112.714 L
463.142 109.332 L
466.107 106.295 L
469.072 103.678 L
472.037 101.544 L
475.002 99.936 L
477.967 98.879 L
480.932 98.386 L
483.897 98.426 L
486.861 98.974 L
489.826 99.966 L
492.791 101.334 L
495.756 103.018 L
498.721 104.966 L
501.686 107.089 L
504.651 109.348 L
507.616 111.696 L
510.58 114.069 L
513.545 116.436 L
516.51 118.775 L
519.475 121.044 L
522.44 123.204 L
525.405 125.277 L
528.37 127.243 L
531.335 129.109 L
534.3 130.879 L
537.264 132.584 L
540.229 134.204 L
543.194 135.73 L
546.159 137.147 L
549.124 138.473 L
552.089 139.696 L
555.054 140.82 L
558.019 141.842 L
560.984 142.795 L
563.948 143.672 L
566.913 144.459 L
569.878 145.16 L
572.843 145.814 L
575.808 146.389 L
578.773 146.856 L
581.738 147.256 L
584.703 147.582 L
587.668 147.798 L
590.632 147.917 L
593.597 147.98 L
596.562 147.955 L
599.527 147.86 L
602.492 147.703 L
605.457 147.504 L
608.422 147.224 L
611.387 146.894 L
614.352 146.496 L
617.316 146.04 L
620.281 145.501 L
623.246 144.927 L
626.211 144.271 L
629.176 143.541 L
632.141 142.74 L
635.106 141.882 L
638.071 140.94 L
641.036 139.948 L
644 138.911 L
646.965 137.808 L
649.93 136.654 L
652.895 135.437 L
655.86 134.155 L
658.825 132.806 L
661.79 131.419 L
664.755 129.965 L
667.719 128.464 L
670.684 126.931 L
673.649 125.365 L
676.614 123.768 L
679.579 122.154 L
682.544 120.547 L
685.509 118.932 L
688.474 117.335 L
691.439 115.748 L
694.403 114.201 L
697.368 112.689 L
700.333 111.241 L
703.298 109.862 L
706.263 108.577 L
709.228 107.397 L
712.193 106.336 L
715.158 105.403 L
718.123 104.608 L
721.087 103.961 L
724.052 103.461 L
727.017 103.116 L
729.982 102.924 L
732.947 102.882 L
735.912 102.982 L
738.877 103.226 L
741.842 103.597 L
744.807 104.093 L
747.771 104.699 L
750.736 105.399 L
753.701 106.17 L
756.666 107.007 L
759.631 107.884 L
762.596 108.796 L
765.561 109.733 L
768.526 110.677 L
771.491 111.614 L
774.455 112.534 L
777.42 113.426 L
780.385 114.284 L
783.35 115.112 L
786.315 115.906 L
789.28 116.673 L
792.245 117.411 L
795.21 118.123 L
798.174 118.822 L
801.139 119.513 L
804.104 120.207 L
807.069 120.911 L
810.034 121.635 L
812.999 122.387 L
815.964 123.196 L
818.929 124.077 L
821.894 125.05 L
824.858 126.151 L
827.823 127.389 L
830.788 128.774 L
833.753 130.325 L
836.718 132.072 L
839.683 133.999 L
842.648 136.145 L
845.613 138.489 L
848.578 141.034 L
851.542 143.763 L
854.507 146.689 L
857.472 149.764 L
860.437 152.988 L
863.402 156.34 L
866.367 159.795 L
869.332 163.318 L
872.297 166.891 L
875.262 170.519 L
878.226 174.158 L
881.191 177.778 L
884.156 181.305 L
887.121 184.723 L
890.086 187.947 L
893.051 190.95 L
896.016 193.74 L
898.981 196.411 L
901.945 198.978 L
904.91 201.548 L
907.875 204.187 L
910.84 206.904 L
913.805 209.672 L
916.77 212.479 L
919.735 215.259 L
922.7 217.994 L
925.665 220.67 L
928.63 223.254 L
931.594 225.747 L
934.559 228.175 L
937.524 230.499 L
940.489 232.731 L
943.454 234.876 L
946.419 236.946 L
949.384 238.913 L
952.349 240.804 L
955.313 242.61 L
958.278 244.328 L
961.243 245.94 L
964.208 247.462 L
967.173 248.878 L
970.138 250.164 L
973.103 251.356 L
976.068 252.452 L
979.033 253.431 L
981.997 254.295 L
984.962 255.077 L
987.927 255.781 L
990.892 256.357 L
993.857 256.801 L
996.822 257.124 L
999.787 257.323 L
1002.752 257.334 L
1005.717 257.259 L
1008.681 257.155 L
1011.646 257.024 L
1014.611 256.874 L
1017.576 256.76 L
1020.541 256.683 L
1023.506 256.62 L
1026.471 256.627 L
1029.436 256.736 L
1032.401 257.038 L
1035.365 257.607 L
1038.33 258.502 L
1041.295 259.805 L
1044.26 261.61 L
1047.225 263.909 L
1050.19 266.681 L
1053.155 269.969 L
1056.12 273.736 L
1059.084 277.876 L
1062.049 282.4 L
1065.014 287.236 L
1067.979 292.301 L
1070.944 297.523 L
1073.909 302.924 L
1076.874 308.326 L
1079.839 313.83 L
1082.804 319.392 L
1085.768 324.574 L
1088.733 329.726 L
1091.698 334.897 L
1094.663 339.894 L
1097.628 344.723 L
1100.593 350.195 L
1103.558 355.537 L
1106.523 360.789 L
1109.488 365.796 L
1112.453 370.161 L
1115.417 373.976 L
1118.382 377.517 L
1121.347 380.676 L
1124.312 383.899 L
1127.277 388.176 L
1130.242 391.765 L
1133.207 395.215 L
1136.172 398.78 L
1139.136 402.059 L
1142.101 404.309 L
1145.066 404.503 L
1148.031 404.74 L
1150.996 404.708 L
1153.961 403.789 L
1156.926 402.91 L
1159.891 407.168 L
1162.856 411.268 L
1165.82 415.2 L
1168.785 420.171 L
1171.75 425.072 L
1174.715 427.115 L
1177.68 426.961 L
1180.645 426.522 L
1183.61 426.094 L
1186.575 425.317 L
1189.54 424.264 L
1192.504 427.146 L
1195.469 430.265 L
1198.434 432.826 L
1201.399 435.728 L
1204.364 438.784 L
1207.329 439.464 L
1210.294 440.109 L
1213.259 440.218 L
1216.223 437.758 L
1219.188 434.78 L
1222.153 432.089 L
1225.118 428.942 L
1228.083 426.685 L
1231.048 427.914 L
1234.013 429.874 L
1236.978 431.783 L
1239.943 434.445 L
1242.907 436.793 L
1245.872 438.95 L
1248.837 440.746 L
1251.802 442.619 L
1254.767 443.034 L
1257.732 443.349 L
1260.697 439.287 L
1263.662 433.835 L
1266.627 428.247 L
1269.591 424.624 L
1272.556 420.964 L
1275.521 424.152 L
1278.486 429.984 L
1281.451 435.948 L
1284.416 440.282 L
1287.381 443.293 L
1290.346 442.867 L
1293.311 441.148 L
1296.275 439.137 L
1299.24 438.295 L
1302.205 439.984 L
1305.17 441.42 L
1308.135 442.94 L
1311.1 444.909 L
1314.065 446.259 L
1317.03 446.337 L
1319.995 446.744 L
1322.959 446.879 L
1325.924 446.532 L
1328.889 446.525 L
1331.854 445.047 L
1334.819 443.343 L
1337.784 441.428 L
1340.749 439.696 L
1343.714 436.882 L
1346.678 437.186 L
1349.643 437.727 L
1352.608 439.082 L
1355.573 440.689 L
1358.538 443.725 L
1361.503 444.946 L
1364.468 444.031 L
1367.433 440.353 L
1370.398 436.293 L
1373.362 431.7 L
1376.327 426.411 L
1379.292 424.984 L
1382.257 427.655 L
1385.222 430.446 L
1388.187 433.222 L
1391.152 437.936 L
1394.117 440.881 L
1397.082 442.447 L
1400.047 444.268 L
1403.011 446.106 L
1405.976 446.612 L
1408.941 446.995 L
1411.906 447.19 L
1414.871 446.95 L
1417.836 446.353 L
1420.801 446.357 L
1423.766 445.081 L
1426.73 443.314 L
1429.695 441.813 L
1432.66 440.741 L
1435.625 439.348 L
1438.59 440.601 L
1441.555 442.261 L
1444.52 443.766 L
1447.485 443.733 L
1450.449 443.666 L
1453.414 442.09 L
1456.379 437.617 L
1459.344 433.335 L
1462.309 431.818 L
1465.274 428.439 L
1468.239 425.117 L
1471.204 425.091 L
1474.169 425.048 L
1477.134 420.1 L
1480.098 418.941 L
1483.063 415.048 L
1486.028 411.935 L
1488.993 408.804 L
1491.958 412.732 L
1494.923 414.69 L
1497.888 422.476 L
1500.853 429.863 L
1503.818 437.069 L
1506.782 440.738 L
1509.747 443.663 L
1512.712 443.627 L
1515.677 441.394 L
1518.642 439.439 L
1521.607 437.481 L
1524.572 437.307 L
1527.537 437.1 L
1530.501 439.447 L
1533.466 440.017 L
1536.431 440.673 L
1539.396 440.379 L
1542.361 440.114 L
1545.326 438.555 L
1548.291 440.371 L
1551.256 442.045 L
1554.221 443.38 L
1557.186 444.657 L
1560.15 444.491 L
1563.115 442.298 L
1566.08 440.314 L
1569.045 438.954 L
1572.01 437.446 L
1574.975 438.914 L
1577.94 440.815 L
1580.905 442.604 L
1583.869 444.295 L
1586.834 446.16 L
1589.799 446.371 L
1592.764 446.561 L
1595.729 446.735 L
1598.694 445.237 L
1601.659 444.013 L
1604.624 442.818 L
1607.589 441.265 L
1610.553 439.535 L
1613.518 440.755 L
1616.483 440.461 L
1619.448 440.57 L
1622.413 440.987 L
1625.378 441.287 L
1628.343 440.095 L
1631.308 441.392 L
1634.273 442.121 L
1637.237 442.585 L
1640.202 439.286 L
1643.167 436.208 L
1646.132 431.654 L
1649.097 425.906 L
1652.062 420.357 L
1655.027 423.289 L
1657.992 425.901 L
1660.957 428.802 L
1663.921 431.444 L
1666.886 434.144 L
1669.851 429.877 L
1672.816 425.687 L
1675.781 421.109 L
1678.746 421.598 L
1681.711 422.14 L
1684.676 427.782 L
1687.64 433.446 L
1690.605 439.738 L
1693.57 442.741 L
1696.535 445.665 L
1699.5 445.915 L
1702.465 446.146 L
1705.43 445.786 L
1708.395 445.442 L
1711.36 444.887 L
1714.324 444.422 L
1717.289 444.024 L
1720.254 444.185 L
1723.219 444.366 L
1726.184 444.924 L
1729.149 445.788 L
1732.114 446.973 L
1735.079 448.086 L
1738.044 449.692 L
S
GR
GS
[0.75 0 0 0.75 0 0] CT
1 GC
N
1542 152 M
1542 102 L
1725 102 L
1725 152 L
cp
f
GR
GS
[0.75 0 0 0.75 1184.25 87.75] CT
/Helvetica 12 F
GS
[1 0 0 1 0 0] CT
0 0 moveto 
1 -1 scale
(OE_16_9) t 
GR
GR
GS
[0.75 0 0 0.75 0 0] CT
0 0.447 0.741 RC
1 LJ
0.667 LW
N
1546 111.5 M
1576 111.5 L
S
GR
GS
[0.75 0 0 0.75 1184.25 99] CT
/Helvetica 12 F
GS
[1 0 0 1 0 0] CT
0 0 moveto 
1 -1 scale
(OE_trunc_8_8) t 
GR
GR
GS
[0.75 0 0 0.75 0 0] CT
0.851 0.325 0.098 RC
1 LJ
0.667 LW
N
1546 127 M
1576 127 L
S
GR
GS
[0.75 0 0 0.75 1184.25 106.875] CT
/Helvetica 12 F
GS
[1 0 0 1 0 0] CT
0 4.5 moveto 
1 -1 scale
(Experimental Bode plot) t 
GR
GR
GS
[0.75 0 0 0.75 0 0] CT
1 0 1 RC
1 LJ
0.667 LW
N
1546 142.5 M
1576 142.5 L
S
GR
GS
[0.75 0 0 0.75 0 0] CT
0.149 GC
10.0 ML
0.667 LW
N
1542 152 M
1542 102 L
1725 102 L
1725 152 L
cp
S
GR
GS
[0.75 0 0 0.75 0 0] CT
1 GC
N
262 822 M
1738 822 L
1738 483 L
262 483 L
cp
f
GR
GS
[0.75 0 0 0.75 0 0] CT
0.4 GC
2 setlinecap
1 LJ
0.667 LW
N
262 822 M
1738 822 L
S
GR
GS
[0.75 0 0 0.75 0 0] CT
0.4 GC
2 setlinecap
1 LJ
0.667 LW
N
262 483 M
1738 483 L
S
GR
GS
[0.75 0 0 0.75 0 0] CT
0.4 GC
2 setlinecap
1 LJ
0.667 LW
N
496.524 822 M
496.524 807.24 L
S
GR
GS
[0.75 0 0 0.75 0 0] CT
0.4 GC
2 setlinecap
1 LJ
0.667 LW
N
731.519 822 M
731.519 807.24 L
S
GR
GS
[0.75 0 0 0.75 0 0] CT
0.4 GC
2 setlinecap
1 LJ
0.667 LW
N
966.513 822 M
966.513 807.24 L
S
GR
GS
[0.75 0 0 0.75 0 0] CT
0.4 GC
2 setlinecap
1 LJ
0.667 LW
N
1201.508 822 M
1201.508 807.24 L
S
GR
GS
[0.75 0 0 0.75 0 0] CT
0.4 GC
2 setlinecap
1 LJ
0.667 LW
N
1436.502 822 M
1436.502 807.24 L
S
GR
GS
[0.75 0 0 0.75 0 0] CT
0.4 GC
2 setlinecap
1 LJ
0.667 LW
N
1671.497 822 M
1671.497 807.24 L
S
GR
GS
[0.75 0 0 0.75 0 0] CT
0.4 GC
2 setlinecap
1 LJ
0.667 LW
N
496.524 483 M
496.524 497.76 L
S
GR
GS
[0.75 0 0 0.75 0 0] CT
0.4 GC
2 setlinecap
1 LJ
0.667 LW
N
731.519 483 M
731.519 497.76 L
S
GR
GS
[0.75 0 0 0.75 0 0] CT
0.4 GC
2 setlinecap
1 LJ
0.667 LW
N
966.513 483 M
966.513 497.76 L
S
GR
GS
[0.75 0 0 0.75 0 0] CT
0.4 GC
2 setlinecap
1 LJ
0.667 LW
N
1201.508 483 M
1201.508 497.76 L
S
GR
GS
[0.75 0 0 0.75 0 0] CT
0.4 GC
2 setlinecap
1 LJ
0.667 LW
N
1436.502 483 M
1436.502 497.76 L
S
GR
GS
[0.75 0 0 0.75 0 0] CT
0.4 GC
2 setlinecap
1 LJ
0.667 LW
N
1671.497 483 M
1671.497 497.76 L
S
GR
GS
[0.75 0 0 0.75 372.39333 620.49998] CT
0.4 GC
/Helvetica 13.333 F
GS
[1 0 0 1 0 0] CT
-10.5 13 moveto 
1 -1 scale
(0.5) t 
GR
GR
GS
[0.75 0 0 0.75 548.63914 620.49998] CT
0.4 GC
/Helvetica 13.333 F
GS
[1 0 0 1 0 0] CT
-4.5 13 moveto 
1 -1 scale
(1) t 
GR
GR
GS
[0.75 0 0 0.75 724.88498 620.49998] CT
0.4 GC
/Helvetica 13.333 F
GS
[1 0 0 1 0 0] CT
-10.5 13 moveto 
1 -1 scale
(1.5) t 
GR
GR
GS
[0.75 0 0 0.75 901.13077 620.49998] CT
0.4 GC
/Helvetica 13.333 F
GS
[1 0 0 1 0 0] CT
-4.5 13 moveto 
1 -1 scale
(2) t 
GR
GR
GS
[0.75 0 0 0.75 1077.37665 620.49998] CT
0.4 GC
/Helvetica 13.333 F
GS
[1 0 0 1 0 0] CT
-10.5 13 moveto 
1 -1 scale
(2.5) t 
GR
GR
GS
[0.75 0 0 0.75 1253.62244 620.49998] CT
0.4 GC
/Helvetica 13.333 F
GS
[1 0 0 1 0 0] CT
-4.5 13 moveto 
1 -1 scale
(3) t 
GR
GR
GS
[0.75 0 0 0.75 0 0] CT
0.4 GC
2 setlinecap
1 LJ
0.667 LW
N
262 822 M
262 483 L
S
GR
GS
[0.75 0 0 0.75 0 0] CT
0.4 GC
2 setlinecap
1 LJ
0.667 LW
N
1738 822 M
1738 483 L
S
GR
GS
[0.75 0 0 0.75 0 0] CT
0.4 GC
2 setlinecap
1 LJ
0.667 LW
N
262 818.676 M
276.76 818.676 L
S
GR
GS
[0.75 0 0 0.75 0 0] CT
0.4 GC
2 setlinecap
1 LJ
0.667 LW
N
262 790.98 M
276.76 790.98 L
S
GR
GS
[0.75 0 0 0.75 0 0] CT
0.4 GC
2 setlinecap
1 LJ
0.667 LW
N
262 763.284 M
276.76 763.284 L
S
GR
GS
[0.75 0 0 0.75 0 0] CT
0.4 GC
2 setlinecap
1 LJ
0.667 LW
N
262 735.588 M
276.76 735.588 L
S
GR
GS
[0.75 0 0 0.75 0 0] CT
0.4 GC
2 setlinecap
1 LJ
0.667 LW
N
262 707.892 M
276.76 707.892 L
S
GR
GS
[0.75 0 0 0.75 0 0] CT
0.4 GC
2 setlinecap
1 LJ
0.667 LW
N
262 680.196 M
276.76 680.196 L
S
GR
GS
[0.75 0 0 0.75 0 0] CT
0.4 GC
2 setlinecap
1 LJ
0.667 LW
N
262 652.5 M
276.76 652.5 L
S
GR
GS
[0.75 0 0 0.75 0 0] CT
0.4 GC
2 setlinecap
1 LJ
0.667 LW
N
262 624.804 M
276.76 624.804 L
S
GR
GS
[0.75 0 0 0.75 0 0] CT
0.4 GC
2 setlinecap
1 LJ
0.667 LW
N
262 597.108 M
276.76 597.108 L
S
GR
GS
[0.75 0 0 0.75 0 0] CT
0.4 GC
2 setlinecap
1 LJ
0.667 LW
N
262 569.412 M
276.76 569.412 L
S
GR
GS
[0.75 0 0 0.75 0 0] CT
0.4 GC
2 setlinecap
1 LJ
0.667 LW
N
262 541.716 M
276.76 541.716 L
S
GR
GS
[0.75 0 0 0.75 0 0] CT
0.4 GC
2 setlinecap
1 LJ
0.667 LW
N
262 514.02 M
276.76 514.02 L
S
GR
GS
[0.75 0 0 0.75 0 0] CT
0.4 GC
2 setlinecap
1 LJ
0.667 LW
N
262 486.324 M
276.76 486.324 L
S
GR
GS
[0.75 0 0 0.75 0 0] CT
0.4 GC
2 setlinecap
1 LJ
0.667 LW
N
1738 818.676 M
1723.24 818.676 L
S
GR
GS
[0.75 0 0 0.75 0 0] CT
0.4 GC
2 setlinecap
1 LJ
0.667 LW
N
1738 790.98 M
1723.24 790.98 L
S
GR
GS
[0.75 0 0 0.75 0 0] CT
0.4 GC
2 setlinecap
1 LJ
0.667 LW
N
1738 763.284 M
1723.24 763.284 L
S
GR
GS
[0.75 0 0 0.75 0 0] CT
0.4 GC
2 setlinecap
1 LJ
0.667 LW
N
1738 735.588 M
1723.24 735.588 L
S
GR
GS
[0.75 0 0 0.75 0 0] CT
0.4 GC
2 setlinecap
1 LJ
0.667 LW
N
1738 707.892 M
1723.24 707.892 L
S
GR
GS
[0.75 0 0 0.75 0 0] CT
0.4 GC
2 setlinecap
1 LJ
0.667 LW
N
1738 680.196 M
1723.24 680.196 L
S
GR
GS
[0.75 0 0 0.75 0 0] CT
0.4 GC
2 setlinecap
1 LJ
0.667 LW
N
1738 652.5 M
1723.24 652.5 L
S
GR
GS
[0.75 0 0 0.75 0 0] CT
0.4 GC
2 setlinecap
1 LJ
0.667 LW
N
1738 624.804 M
1723.24 624.804 L
S
GR
GS
[0.75 0 0 0.75 0 0] CT
0.4 GC
2 setlinecap
1 LJ
0.667 LW
N
1738 597.108 M
1723.24 597.108 L
S
GR
GS
[0.75 0 0 0.75 0 0] CT
0.4 GC
2 setlinecap
1 LJ
0.667 LW
N
1738 569.412 M
1723.24 569.412 L
S
GR
GS
[0.75 0 0 0.75 0 0] CT
0.4 GC
2 setlinecap
1 LJ
0.667 LW
N
1738 541.716 M
1723.24 541.716 L
S
GR
GS
[0.75 0 0 0.75 0 0] CT
0.4 GC
2 setlinecap
1 LJ
0.667 LW
N
1738 514.02 M
1723.24 514.02 L
S
GR
GS
[0.75 0 0 0.75 0 0] CT
0.4 GC
2 setlinecap
1 LJ
0.667 LW
N
1738 486.324 M
1723.24 486.324 L
S
GR
GS
[0.75 0 0 0.75 192.49999 614.00734] CT
0.4 GC
/Helvetica 13.333 F
GS
[1 0 0 1 0 0] CT
-38 4.5 moveto 
1 -1 scale
(-3240) t 
GR
GR
GS
[0.75 0 0 0.75 192.49999 593.23531] CT
0.4 GC
/Helvetica 13.333 F
GS
[1 0 0 1 0 0] CT
-38 4.5 moveto 
1 -1 scale
(-2880) t 
GR
GR
GS
[0.75 0 0 0.75 192.49999 572.46323] CT
0.4 GC
/Helvetica 13.333 F
GS
[1 0 0 1 0 0] CT
-38 4.5 moveto 
1 -1 scale
(-2520) t 
GR
GR
GS
[0.75 0 0 0.75 192.49999 551.69119] CT
0.4 GC
/Helvetica 13.333 F
GS
[1 0 0 1 0 0] CT
-38 4.5 moveto 
1 -1 scale
(-2160) t 
GR
GR
GS
[0.75 0 0 0.75 192.49999 530.91911] CT
0.4 GC
/Helvetica 13.333 F
GS
[1 0 0 1 0 0] CT
-38 4.5 moveto 
1 -1 scale
(-1800) t 
GR
GR
GS
[0.75 0 0 0.75 192.49999 510.14708] CT
0.4 GC
/Helvetica 13.333 F
GS
[1 0 0 1 0 0] CT
-38 4.5 moveto 
1 -1 scale
(-1440) t 
GR
GR
GS
[0.75 0 0 0.75 192.49999 489.375] CT
0.4 GC
/Helvetica 13.333 F
GS
[1 0 0 1 0 0] CT
-38 4.5 moveto 
1 -1 scale
(-1080) t 
GR
GR
GS
[0.75 0 0 0.75 192.49999 468.60292] CT
0.4 GC
/Helvetica 13.333 F
GS
[1 0 0 1 0 0] CT
-30 4.5 moveto 
1 -1 scale
(-720) t 
GR
GR
GS
[0.75 0 0 0.75 192.49999 447.83089] CT
0.4 GC
/Helvetica 13.333 F
GS
[1 0 0 1 0 0] CT
-30 4.5 moveto 
1 -1 scale
(-360) t 
GR
GR
GS
[0.75 0 0 0.75 192.49999 427.05881] CT
0.4 GC
/Helvetica 13.333 F
GS
[1 0 0 1 0 0] CT
-9 4.5 moveto 
1 -1 scale
(0) t 
GR
GR
GS
[0.75 0 0 0.75 192.49999 406.28677] CT
0.4 GC
/Helvetica 13.333 F
GS
[1 0 0 1 0 0] CT
-25 4.5 moveto 
1 -1 scale
(360) t 
GR
GR
GS
[0.75 0 0 0.75 192.49999 385.51469] CT
0.4 GC
/Helvetica 13.333 F
GS
[1 0 0 1 0 0] CT
-25 4.5 moveto 
1 -1 scale
(720) t 
GR
GR
GS
[0.75 0 0 0.75 192.49999 364.74264] CT
0.4 GC
/Helvetica 13.333 F
GS
[1 0 0 1 0 0] CT
-34 4.5 moveto 
1 -1 scale
(1080) t 
GR
GR
GS
[0 -0.75 0.75 0 161 489.37486] CT
/Helvetica 14.667 F
GS
[1 0 0 1 0 0] CT
-45 -4 moveto 
1 -1 scale
(Phase \(deg\)) t 
GR
GR
GS
[0.75 0 0 0.75 0 0] CT
0 0.447 0.741 RC
1 LJ
0.667 LW
N
261.824 486.344 M
262.351 486.381 L
262.488 486.391 L
262.648 486.402 L
262.835 486.415 L
263.054 486.43 L
263.308 486.448 L
263.606 486.469 L
263.953 486.494 L
264.358 486.522 L
264.83 486.556 L
265.382 486.595 L
266.026 486.641 L
266.778 486.695 L
267.655 486.758 L
268.679 486.832 L
269.874 486.921 L
271.268 487.025 L
272.896 487.15 L
273.065 487.164 L
274.266 487.259 L
274.796 487.3 L
275.592 487.365 L
277.014 487.482 L
277.055 487.485 L
278.671 487.624 L
279.602 487.703 L
280.456 487.78 L
282.426 487.957 L
282.624 487.975 L
284.601 488.164 L
286.15 488.312 L
287.002 488.399 L
289.653 488.669 L
290.265 488.731 L
292.581 488.984 L
295.069 489.256 L
295.813 489.343 L
299.381 489.761 L
300.676 489.913 L
303.321 490.244 L
307.219 490.733 L
307.671 490.793 L
312.474 491.434 L
314.857 491.752 L
317.777 492.164 L
323.631 492.99 L
323.772 493.01 L
330.095 493.947 L
334.176 494.551 L
337.232 495.022 L
345.112 496.236 L
346.32 496.422 L
353.812 497.616 L
360.495 498.68 L
363.418 499.154 L
365.976 499.57 L
373.955 500.88 L
374.023 500.891 L
381.46 502.126 L
385.733 502.848 L
396.623 504.689 L
398.661 505.043 L
411.21 507.22 L
412.935 507.53 L
425.029 509.706 L
428.694 510.401 L
437.95 512.156 L
446.094 513.82 L
449.894 514.597 L
460.827 517.055 L
465.305 518.165 L
470.75 519.515 L
479.692 521.886 L
486.516 523.716 L
489.016 524.387 L
500.343 527.244 L
509.935 529.375 L
514.204 530.324 L
531.31 533.626 L
535.791 534.408 L
552.63 537.347 L
564.339 539.305 L
579.507 541.842 L
593.804 544.23 L
595.858 544.579 L
621.909 549.005 L
630.658 550.546 L
647.865 553.576 L
669.081 557.51 L
671.581 557.973 L
693.049 562.237 L
711.503 566.192 L
712.329 566.369 L
729.528 570.26 L
747.383 574.325 L
758.34 576.705 L
769.091 579.04 L
785.809 582.486 L
806.787 586.788 L
810.053 587.505 L
825.207 590.83 L
841.292 594.649 L
857.835 598.536 L
867.148 600.482 L
877.98 602.745 L
902.646 607.28 L
930.187 612.065 L
933.047 612.562 L
970.809 619.131 L
980.36 620.813 L
999.787 624.285 L
1018.144 627.565 L
1045.798 632.604 L
1076.632 638.35 L
1091.346 641.091 L
1131.77 648.875 L
1161.475 654.872 L
1167.354 656.059 L
1198.461 662.845 L
1225.499 669.465 L
1248.883 675.803 L
1255.15 677.491 L
1272.836 682.254 L
1302.019 689.326 L
1319.88 693.3 L
1322.632 693.896 L
1350.954 699.874 L
1353.786 700.461 L
1358.575 701.444 L
1377.31 705.289 L
1380.212 705.881 L
1399.564 709.834 L
1402.524 710.44 L
1418.283 713.697 L
1421.291 714.328 L
1433.978 717.047 L
1437.027 717.723 L
1447.105 720.097 L
1450.188 720.899 L
1458.059 723.392 L
1461.171 724.831 L
1467.185 734.271 L
1470.321 742.528 L
1472.766 745.035 L
1476.381 748.739 L
1479.54 750.373 L
1487.606 753.115 L
1490.794 753.977 L
1501.333 756.523 L
1504.557 757.254 L
1518.156 760.234 L
1521.423 760.937 L
1538.825 764.654 L
1542.146 765.363 L
1564.3 770.13 L
1567.687 770.868 L
1595.818 777.156 L
1598.843 777.855 L
1599.288 777.957 L
1630.57 785.526 L
1664.327 794.518 L
1693.064 802.768 L
1717.437 810.571 L
1738.044 818.676 L
S
GR
GS
[0.75 0 0 0.75 0 0] CT
1 LJ
0.667 LW
N
1738.044 822.04 M
1738.044 646.345 L
1738.044 569.489 L
1738.044 569.412 L
1738.044 569.335 L
1738.044 492.478 L
1738.044 482.96 L
S
GR
GS
[0.75 0 0 0.75 0 0] CT
0.851 0.325 0.098 RC
1 LJ
0.667 LW
N
261.824 514.044 M
262.582 514.108 L
262.76 514.123 L
262.968 514.141 L
263.211 514.161 L
263.495 514.185 L
263.826 514.213 L
264.214 514.246 L
264.667 514.284 L
265.197 514.329 L
265.816 514.382 L
266.54 514.443 L
267.386 514.515 L
268.375 514.6 L
269.53 514.699 L
270.881 514.816 L
272.46 514.954 L
273.065 515.008 L
274.266 515.114 L
274.306 515.117 L
275.592 515.233 L
276.464 515.311 L
277.055 515.366 L
278.671 515.514 L
278.985 515.542 L
280.456 515.681 L
281.933 515.82 L
282.426 515.868 L
284.601 516.079 L
285.378 516.154 L
287.002 516.318 L
289.405 516.561 L
289.653 516.587 L
292.581 516.896 L
294.112 517.058 L
295.813 517.246 L
299.381 517.642 L
299.613 517.668 L
303.321 518.102 L
306.044 518.421 L
307.671 518.622 L
312.474 519.216 L
313.56 519.35 L
317.777 519.901 L
322.346 520.499 L
323.631 520.676 L
330.095 521.566 L
332.615 521.913 L
337.232 522.581 L
344.619 523.65 L
345.112 523.725 L
353.812 525.044 L
358.649 525.777 L
363.418 526.529 L
369.896 527.549 L
374.023 528.225 L
384.951 530.013 L
385.733 530.146 L
398.661 532.357 L
399.712 532.536 L
412.935 534.912 L
413.953 535.095 L
427.506 537.677 L
428.694 537.919 L
440.249 540.278 L
446.094 541.566 L
452.105 542.891 L
463.037 545.477 L
465.305 546.041 L
473.038 547.964 L
483.534 550.618 L
486.516 551.351 L
496.269 553.75 L
509.935 556.862 L
511.842 557.296 L
531.059 561.24 L
535.791 562.121 L
554.436 565.592 L
555.025 565.697 L
564.339 567.31 L
579.155 569.875 L
580.37 570.08 L
595.858 572.64 L
604.442 574.058 L
604.738 574.107 L
627.396 577.774 L
627.616 577.81 L
630.658 578.31 L
648.275 581.208 L
648.636 581.269 L
667.534 584.612 L
669.081 584.92 L
684.395 587.963 L
699.343 591.257 L
711.503 594.047 L
714.819 594.808 L
733.644 599.01 L
756.692 603.905 L
758.34 604.252 L
774.997 607.756 L
798.546 612.84 L
810.053 615.404 L
819.602 617.531 L
841.483 622.407 L
867.148 627.885 L
868.081 628.084 L
900.638 634.555 L
930.187 640.061 L
940.813 642.041 L
990.855 651.004 L
999.787 652.581 L
1033.107 658.466 L
1076.632 666.148 L
1089.334 668.39 L
1141.833 677.689 L
1161.475 681.167 L
1190.448 686.297 L
1191.295 686.447 L
1191.531 686.488 L
1240.264 695.052 L
1240.512 695.095 L
1255.15 697.636 L
1282.657 702.409 L
1282.916 702.454 L
1319.06 708.645 L
1319.328 708.691 L
1350.109 713.904 L
1350.385 713.951 L
1358.575 715.325 L
1376.446 718.324 L
1376.729 718.371 L
1398.682 722.027 L
1398.971 722.075 L
1417.386 725.12 L
1417.68 725.169 L
1433.069 727.694 L
1433.367 727.742 L
1446.186 729.816 L
1446.486 729.864 L
1457.132 731.495 L
1457.435 731.537 L
1466.251 728.561 L
1466.557 731.256 L
1472.766 733.825 L
1475.439 734.931 L
1475.748 734.974 L
1486.656 736.648 L
1486.967 736.698 L
1500.372 738.848 L
1500.687 738.899 L
1517.181 741.566 L
1517.5 741.618 L
1537.834 744.91 L
1538.158 744.962 L
1563.29 749.026 L
1563.62 749.08 L
1594.784 754.109 L
1595.122 754.164 L
1598.843 754.763 L
1633.929 760.413 L
1634.277 760.469 L
1682.854 768.275 L
1683.215 768.333 L
1738.044 777.132 L
S
GR
GS
[0.75 0 0 0.75 0 0] CT
1 LJ
0.667 LW
N
1738.044 822.04 M
1738.044 646.345 L
1738.044 569.489 L
1738.044 569.412 L
1738.044 569.335 L
1738.044 492.478 L
1738.044 482.96 L
S
GR
GS
[0.75 0 0 0.75 749.25 48.705] CT
/Helvetica-Bold 14.667 F
GS
[1 0 0 1 0 0] CT
-60 -4 moveto 
1 -1 scale
(Bode Diagram) t 
GR
GR
GS
[0.75 0 0 0.75 749.25 632.75002] CT
/Helvetica 14.667 F
GS
[1 0 0 1 0 0] CT
-69 14 moveto 
1 -1 scale
(Frequency  \(rad/s\)) t 
GR
GR
%%Trailer
%%Pages: 1
%%EOF
