%!PS-Adobe-3.0 EPSF-3.0
%%Creator: (MATLAB, The Mathworks, Inc. Version 9.1.0.441655 \(R2016b\). Operating System: Linux)
%%Title: /users/start2016/r0461511/Documents/system-identification/Oefenzitting_3/plots/bode_sub.eps
%%CreationDate: 2016-12-20T17:58:32
%%Pages: (atend)
%%BoundingBox: 0 0 1440 693
%%LanguageLevel: 3
%%EndComments
%%BeginProlog
%%BeginResource: procset (Apache XML Graphics Std ProcSet) 1.2 0
%%Version: 1.2 0
%%Copyright: (Copyright 2001-2003,2010 The Apache Software Foundation. License terms: http://www.apache.org/licenses/LICENSE-2.0)
/bd{bind def}bind def
/ld{load def}bd
/GR/grestore ld
/M/moveto ld
/LJ/setlinejoin ld
/C/curveto ld
/f/fill ld
/LW/setlinewidth ld
/GC/setgray ld
/t/show ld
/N/newpath ld
/CT/concat ld
/cp/closepath ld
/S/stroke ld
/L/lineto ld
/CC/setcmykcolor ld
/A/ashow ld
/GS/gsave ld
/RC/setrgbcolor ld
/RM/rmoveto ld
/ML/setmiterlimit ld
/re {4 2 roll M
1 index 0 rlineto
0 exch rlineto
neg 0 rlineto
cp } bd
/_ctm matrix def
/_tm matrix def
/BT { _ctm currentmatrix pop matrix _tm copy pop 0 0 moveto } bd
/ET { _ctm setmatrix } bd
/iTm { _ctm setmatrix _tm concat } bd
/Tm { _tm astore pop iTm 0 0 moveto } bd
/ux 0.0 def
/uy 0.0 def
/F {
  /Tp exch def
  /Tf exch def
  Tf findfont Tp scalefont setfont
  /cf Tf def  /cs Tp def
} bd
/ULS {currentpoint /uy exch def /ux exch def} bd
/ULE {
  /Tcx currentpoint pop def
  gsave
  newpath
  cf findfont cs scalefont dup
  /FontMatrix get 0 get /Ts exch def /FontInfo get dup
  /UnderlinePosition get Ts mul /To exch def
  /UnderlineThickness get Ts mul /Tt exch def
  ux uy To add moveto  Tcx uy To add lineto
  Tt setlinewidth stroke
  grestore
} bd
/OLE {
  /Tcx currentpoint pop def
  gsave
  newpath
  cf findfont cs scalefont dup
  /FontMatrix get 0 get /Ts exch def /FontInfo get dup
  /UnderlinePosition get Ts mul /To exch def
  /UnderlineThickness get Ts mul /Tt exch def
  ux uy To add cs add moveto Tcx uy To add cs add lineto
  Tt setlinewidth stroke
  grestore
} bd
/SOE {
  /Tcx currentpoint pop def
  gsave
  newpath
  cf findfont cs scalefont dup
  /FontMatrix get 0 get /Ts exch def /FontInfo get dup
  /UnderlinePosition get Ts mul /To exch def
  /UnderlineThickness get Ts mul /Tt exch def
  ux uy To add cs 10 mul 26 idiv add moveto Tcx uy To add cs 10 mul 26 idiv add lineto
  Tt setlinewidth stroke
  grestore
} bd
/QT {
/Y22 exch store
/X22 exch store
/Y21 exch store
/X21 exch store
currentpoint
/Y21 load 2 mul add 3 div exch
/X21 load 2 mul add 3 div exch
/X21 load 2 mul /X22 load add 3 div
/Y21 load 2 mul /Y22 load add 3 div
/X22 load /Y22 load curveto
} bd
/SSPD {
dup length /d exch dict def
{
/v exch def
/k exch def
currentpagedevice k known {
/cpdv currentpagedevice k get def
v cpdv ne {
/upd false def
/nullv v type /nulltype eq def
/nullcpdv cpdv type /nulltype eq def
nullv nullcpdv or
{
/upd true def
} {
/sametype v type cpdv type eq def
sametype {
v type /arraytype eq {
/vlen v length def
/cpdvlen cpdv length def
vlen cpdvlen eq {
0 1 vlen 1 sub {
/i exch def
/obj v i get def
/cpdobj cpdv i get def
obj cpdobj ne {
/upd true def
exit
} if
} for
} {
/upd true def
} ifelse
} {
v type /dicttype eq {
v {
/dv exch def
/dk exch def
/cpddv cpdv dk get def
dv cpddv ne {
/upd true def
exit
} if
} forall
} {
/upd true def
} ifelse
} ifelse
} if
} ifelse
upd true eq {
d k v put
} if
} if
} if
} forall
d length 0 gt {
d setpagedevice
} if
} bd
/RE { % /NewFontName [NewEncodingArray] /FontName RE -
  findfont dup length dict begin
  {
    1 index /FID ne
    {def} {pop pop} ifelse
  } forall
  /Encoding exch def
  /FontName 1 index def
  currentdict definefont pop
  end
} bind def
%%EndResource
%%BeginResource: procset (Apache XML Graphics EPS ProcSet) 1.0 0
%%Version: 1.0 0
%%Copyright: (Copyright 2002-2003 The Apache Software Foundation. License terms: http://www.apache.org/licenses/LICENSE-2.0)
/BeginEPSF { %def
/b4_Inc_state save def         % Save state for cleanup
/dict_count countdictstack def % Count objects on dict stack
/op_count count 1 sub def      % Count objects on operand stack
userdict begin                 % Push userdict on dict stack
/showpage { } def              % Redefine showpage, { } = null proc
0 setgray 0 setlinecap         % Prepare graphics state
1 setlinewidth 0 setlinejoin
10 setmiterlimit [ ] 0 setdash newpath
/languagelevel where           % If level not equal to 1 then
{pop languagelevel             % set strokeadjust and
1 ne                           % overprint to their defaults.
{false setstrokeadjust false setoverprint
} if
} if
} bd
/EndEPSF { %def
count op_count sub {pop} repeat            % Clean up stacks
countdictstack dict_count sub {end} repeat
b4_Inc_state restore
} bd
%%EndResource
%FOPBeginFontDict
%%IncludeResource: font Courier-Bold
%%IncludeResource: font Helvetica
%%IncludeResource: font Courier-BoldOblique
%%IncludeResource: font Courier-Oblique
%%IncludeResource: font Times-Roman
%%IncludeResource: font Helvetica-BoldOblique
%%IncludeResource: font Helvetica-Bold
%%IncludeResource: font Helvetica-Oblique
%%IncludeResource: font Times-BoldItalic
%%IncludeResource: font Courier
%%IncludeResource: font Times-Italic
%%IncludeResource: font Times-Bold
%%IncludeResource: font Symbol
%%IncludeResource: font ZapfDingbats
%FOPEndFontDict
%%BeginResource: encoding WinAnsiEncoding
/WinAnsiEncoding [
/.notdef /.notdef /.notdef /.notdef /.notdef
/.notdef /.notdef /.notdef /.notdef /.notdef
/.notdef /.notdef /.notdef /.notdef /.notdef
/.notdef /.notdef /.notdef /.notdef /.notdef
/.notdef /.notdef /.notdef /.notdef /.notdef
/.notdef /.notdef /.notdef /.notdef /.notdef
/.notdef /.notdef /space /exclam /quotedbl
/numbersign /dollar /percent /ampersand /quotesingle
/parenleft /parenright /asterisk /plus /comma
/hyphen /period /slash /zero /one
/two /three /four /five /six
/seven /eight /nine /colon /semicolon
/less /equal /greater /question /at
/A /B /C /D /E
/F /G /H /I /J
/K /L /M /N /O
/P /Q /R /S /T
/U /V /W /X /Y
/Z /bracketleft /backslash /bracketright /asciicircum
/underscore /quoteleft /a /b /c
/d /e /f /g /h
/i /j /k /l /m
/n /o /p /q /r
/s /t /u /v /w
/x /y /z /braceleft /bar
/braceright /asciitilde /bullet /Euro /bullet
/quotesinglbase /florin /quotedblbase /ellipsis /dagger
/daggerdbl /circumflex /perthousand /Scaron /guilsinglleft
/OE /bullet /Zcaron /bullet /bullet
/quoteleft /quoteright /quotedblleft /quotedblright /bullet
/endash /emdash /asciitilde /trademark /scaron
/guilsinglright /oe /bullet /zcaron /Ydieresis
/space /exclamdown /cent /sterling /currency
/yen /brokenbar /section /dieresis /copyright
/ordfeminine /guillemotleft /logicalnot /sfthyphen /registered
/macron /degree /plusminus /twosuperior /threesuperior
/acute /mu /paragraph /middot /cedilla
/onesuperior /ordmasculine /guillemotright /onequarter /onehalf
/threequarters /questiondown /Agrave /Aacute /Acircumflex
/Atilde /Adieresis /Aring /AE /Ccedilla
/Egrave /Eacute /Ecircumflex /Edieresis /Igrave
/Iacute /Icircumflex /Idieresis /Eth /Ntilde
/Ograve /Oacute /Ocircumflex /Otilde /Odieresis
/multiply /Oslash /Ugrave /Uacute /Ucircumflex
/Udieresis /Yacute /Thorn /germandbls /agrave
/aacute /acircumflex /atilde /adieresis /aring
/ae /ccedilla /egrave /eacute /ecircumflex
/edieresis /igrave /iacute /icircumflex /idieresis
/eth /ntilde /ograve /oacute /ocircumflex
/otilde /odieresis /divide /oslash /ugrave
/uacute /ucircumflex /udieresis /yacute /thorn
/ydieresis
] def
%%EndResource
%FOPBeginFontReencode
/Courier-Bold findfont
dup length dict begin
  {1 index /FID ne {def} {pop pop} ifelse} forall
  /Encoding WinAnsiEncoding def
  currentdict
end
/Courier-Bold exch definefont pop
/Helvetica findfont
dup length dict begin
  {1 index /FID ne {def} {pop pop} ifelse} forall
  /Encoding WinAnsiEncoding def
  currentdict
end
/Helvetica exch definefont pop
/Courier-BoldOblique findfont
dup length dict begin
  {1 index /FID ne {def} {pop pop} ifelse} forall
  /Encoding WinAnsiEncoding def
  currentdict
end
/Courier-BoldOblique exch definefont pop
/Courier-Oblique findfont
dup length dict begin
  {1 index /FID ne {def} {pop pop} ifelse} forall
  /Encoding WinAnsiEncoding def
  currentdict
end
/Courier-Oblique exch definefont pop
/Times-Roman findfont
dup length dict begin
  {1 index /FID ne {def} {pop pop} ifelse} forall
  /Encoding WinAnsiEncoding def
  currentdict
end
/Times-Roman exch definefont pop
/Helvetica-BoldOblique findfont
dup length dict begin
  {1 index /FID ne {def} {pop pop} ifelse} forall
  /Encoding WinAnsiEncoding def
  currentdict
end
/Helvetica-BoldOblique exch definefont pop
/Helvetica-Bold findfont
dup length dict begin
  {1 index /FID ne {def} {pop pop} ifelse} forall
  /Encoding WinAnsiEncoding def
  currentdict
end
/Helvetica-Bold exch definefont pop
/Helvetica-Oblique findfont
dup length dict begin
  {1 index /FID ne {def} {pop pop} ifelse} forall
  /Encoding WinAnsiEncoding def
  currentdict
end
/Helvetica-Oblique exch definefont pop
/Times-BoldItalic findfont
dup length dict begin
  {1 index /FID ne {def} {pop pop} ifelse} forall
  /Encoding WinAnsiEncoding def
  currentdict
end
/Times-BoldItalic exch definefont pop
/Courier findfont
dup length dict begin
  {1 index /FID ne {def} {pop pop} ifelse} forall
  /Encoding WinAnsiEncoding def
  currentdict
end
/Courier exch definefont pop
/Times-Italic findfont
dup length dict begin
  {1 index /FID ne {def} {pop pop} ifelse} forall
  /Encoding WinAnsiEncoding def
  currentdict
end
/Times-Italic exch definefont pop
/Times-Bold findfont
dup length dict begin
  {1 index /FID ne {def} {pop pop} ifelse} forall
  /Encoding WinAnsiEncoding def
  currentdict
end
/Times-Bold exch definefont pop
%FOPEndFontReencode
%%EndProlog
%%Page: 1 1
%%PageBoundingBox: 0 0 1440 693
%%BeginPageSetup
[1 0 0 -1 0 693] CT
%%EndPageSetup
GS
[0.75 0 0 0.75 0 0] CT
1 GC
N
0 0 1920 924 re
f
GR
GS
[0.75 0 0 0.75 0 0] CT
1 GC
N
0 0 1920 924 re
f
GR
GS
[0.75 0 0 0.75 0 0] CT
1 GC
N
262 471 M
1738 471 L
1738 89 L
262 89 L
cp
f
GR
GS
[0.75 0 0 0.75 0 0] CT
0.4 GC
2 setlinecap
1 LJ
0.667 LW
N
262 471 M
1738 471 L
S
GR
GS
[0.75 0 0 0.75 0 0] CT
0.4 GC
2 setlinecap
1 LJ
0.667 LW
N
262 89 M
1738 89 L
S
GR
GS
[0.75 0 0 0.75 0 0] CT
0.4 GC
2 setlinecap
1 LJ
0.667 LW
N
496.524 471 M
496.524 456.24 L
S
GR
GS
[0.75 0 0 0.75 0 0] CT
0.4 GC
2 setlinecap
1 LJ
0.667 LW
N
731.519 471 M
731.519 456.24 L
S
GR
GS
[0.75 0 0 0.75 0 0] CT
0.4 GC
2 setlinecap
1 LJ
0.667 LW
N
966.513 471 M
966.513 456.24 L
S
GR
GS
[0.75 0 0 0.75 0 0] CT
0.4 GC
2 setlinecap
1 LJ
0.667 LW
N
1201.508 471 M
1201.508 456.24 L
S
GR
GS
[0.75 0 0 0.75 0 0] CT
0.4 GC
2 setlinecap
1 LJ
0.667 LW
N
1436.502 471 M
1436.502 456.24 L
S
GR
GS
[0.75 0 0 0.75 0 0] CT
0.4 GC
2 setlinecap
1 LJ
0.667 LW
N
1671.497 471 M
1671.497 456.24 L
S
GR
GS
[0.75 0 0 0.75 0 0] CT
0.4 GC
2 setlinecap
1 LJ
0.667 LW
N
496.524 89 M
496.524 103.76 L
S
GR
GS
[0.75 0 0 0.75 0 0] CT
0.4 GC
2 setlinecap
1 LJ
0.667 LW
N
731.519 89 M
731.519 103.76 L
S
GR
GS
[0.75 0 0 0.75 0 0] CT
0.4 GC
2 setlinecap
1 LJ
0.667 LW
N
966.513 89 M
966.513 103.76 L
S
GR
GS
[0.75 0 0 0.75 0 0] CT
0.4 GC
2 setlinecap
1 LJ
0.667 LW
N
1201.508 89 M
1201.508 103.76 L
S
GR
GS
[0.75 0 0 0.75 0 0] CT
0.4 GC
2 setlinecap
1 LJ
0.667 LW
N
1436.502 89 M
1436.502 103.76 L
S
GR
GS
[0.75 0 0 0.75 0 0] CT
0.4 GC
2 setlinecap
1 LJ
0.667 LW
N
1671.497 89 M
1671.497 103.76 L
S
GR
GS
[0.75 0 0 0.75 0 0] CT
0.4 GC
2 setlinecap
1 LJ
0.667 LW
N
262 471 M
262 89 L
S
GR
GS
[0.75 0 0 0.75 0 0] CT
0.4 GC
2 setlinecap
1 LJ
0.667 LW
N
1738 471 M
1738 89 L
S
GR
GS
[0.75 0 0 0.75 0 0] CT
0.4 GC
2 setlinecap
1 LJ
0.667 LW
N
262 471 M
276.76 471 L
S
GR
GS
[0.75 0 0 0.75 0 0] CT
0.4 GC
2 setlinecap
1 LJ
0.667 LW
N
262 407.333 M
276.76 407.333 L
S
GR
GS
[0.75 0 0 0.75 0 0] CT
0.4 GC
2 setlinecap
1 LJ
0.667 LW
N
262 343.667 M
276.76 343.667 L
S
GR
GS
[0.75 0 0 0.75 0 0] CT
0.4 GC
2 setlinecap
1 LJ
0.667 LW
N
262 280 M
276.76 280 L
S
GR
GS
[0.75 0 0 0.75 0 0] CT
0.4 GC
2 setlinecap
1 LJ
0.667 LW
N
262 216.333 M
276.76 216.333 L
S
GR
GS
[0.75 0 0 0.75 0 0] CT
0.4 GC
2 setlinecap
1 LJ
0.667 LW
N
262 152.667 M
276.76 152.667 L
S
GR
GS
[0.75 0 0 0.75 0 0] CT
0.4 GC
2 setlinecap
1 LJ
0.667 LW
N
262 89 M
276.76 89 L
S
GR
GS
[0.75 0 0 0.75 0 0] CT
0.4 GC
2 setlinecap
1 LJ
0.667 LW
N
1738 471 M
1723.24 471 L
S
GR
GS
[0.75 0 0 0.75 0 0] CT
0.4 GC
2 setlinecap
1 LJ
0.667 LW
N
1738 407.333 M
1723.24 407.333 L
S
GR
GS
[0.75 0 0 0.75 0 0] CT
0.4 GC
2 setlinecap
1 LJ
0.667 LW
N
1738 343.667 M
1723.24 343.667 L
S
GR
GS
[0.75 0 0 0.75 0 0] CT
0.4 GC
2 setlinecap
1 LJ
0.667 LW
N
1738 280 M
1723.24 280 L
S
GR
GS
[0.75 0 0 0.75 0 0] CT
0.4 GC
2 setlinecap
1 LJ
0.667 LW
N
1738 216.333 M
1723.24 216.333 L
S
GR
GS
[0.75 0 0 0.75 0 0] CT
0.4 GC
2 setlinecap
1 LJ
0.667 LW
N
1738 152.667 M
1723.24 152.667 L
S
GR
GS
[0.75 0 0 0.75 0 0] CT
0.4 GC
2 setlinecap
1 LJ
0.667 LW
N
1738 89 M
1723.24 89 L
S
GR
GS
[0.75 0 0 0.75 192.49999 353.25] CT
0.4 GC
/Helvetica 13.333 F
GS
[1 0 0 1 0 0] CT
-22 4.5 moveto 
1 -1 scale
(-50) t 
GR
GR
GS
[0.75 0 0 0.75 192.49999 305.50001] CT
0.4 GC
/Helvetica 13.333 F
GS
[1 0 0 1 0 0] CT
-22 4.5 moveto 
1 -1 scale
(-40) t 
GR
GR
GS
[0.75 0 0 0.75 192.49999 257.74999] CT
0.4 GC
/Helvetica 13.333 F
GS
[1 0 0 1 0 0] CT
-22 4.5 moveto 
1 -1 scale
(-30) t 
GR
GR
GS
[0.75 0 0 0.75 192.49999 210] CT
0.4 GC
/Helvetica 13.333 F
GS
[1 0 0 1 0 0] CT
-22 4.5 moveto 
1 -1 scale
(-20) t 
GR
GR
GS
[0.75 0 0 0.75 192.49999 162.25] CT
0.4 GC
/Helvetica 13.333 F
GS
[1 0 0 1 0 0] CT
-22 4.5 moveto 
1 -1 scale
(-10) t 
GR
GR
GS
[0.75 0 0 0.75 192.49999 114.5] CT
0.4 GC
/Helvetica 13.333 F
GS
[1 0 0 1 0 0] CT
-9 4.5 moveto 
1 -1 scale
(0) t 
GR
GR
GS
[0.75 0 0 0.75 192.49999 66.75] CT
0.4 GC
/Helvetica 13.333 F
GS
[1 0 0 1 0 0] CT
-17 4.5 moveto 
1 -1 scale
(10) t 
GR
GR
GS
[0 -0.75 0.75 0 173 209.99986] CT
/Helvetica 14.667 F
GS
[1 0 0 1 0 0] CT
-58 -4 moveto 
1 -1 scale
(Magnitude \(dB\)) t 
GR
GR
GS
[0.75 0 0 0.75 750.00069 64.875] CT
0.4 GC
/Helvetica 13.333 F
GS
[1 0 0 1 0 0] CT
-54 -4 moveto 
1 -1 scale
(From: u1  To: y1) t 
GR
GR
GS
[0.75 0 0 0.75 0 0] CT
0 0.447 0.741 RC
1 LJ
0.667 LW
N
261.824 330.144 M
261.925 330.148 L
261.991 330.152 L
262.067 330.159 L
262.157 330.167 L
262.261 330.179 L
262.382 330.194 L
262.524 330.215 L
262.689 330.244 L
262.881 330.283 L
263.106 330.336 L
263.368 330.409 L
263.673 330.507 L
264.03 330.64 L
264.445 330.82 L
264.929 331.063 L
265.494 331.392 L
266.153 331.834 L
266.921 332.425 L
267.817 333.21 L
268.518 333.887 L
269.585 335.004 L
270.681 336.222 L
271.791 337.47 L
272.901 338.655 L
273.998 339.667 L
275.073 340.392 L
276.116 340.73 L
277.24 340.568 L
278.594 339.498 L
280.241 336.789 L
282.265 331.503 L
284.779 322.829 L
287.942 310.559 L
291.976 295.188 L
295.64 282.516 L
301.309 265.622 L
307.919 249.49 L
315.629 234.402 L
324.619 220.517 L
335.103 207.9 L
347.329 196.475 L
361.587 185.945 L
363.551 184.651 L
364.792 183.848 L
378.873 175.32 L
379.698 174.843 L
393.917 166.758 L
408.429 158.312 L
422.212 149.589 L
435.129 140.474 L
447.098 131.24 L
458.077 122.672 L
468.064 116.001 L
477.081 112.286 L
486.492 111.706 L
497.922 114.961 L
511.909 121.612 L
529.17 129.562 L
550.686 136.751 L
573.913 141.224 L
589.132 142.501 L
598.221 142.637 L
614.684 141.619 L
621.139 140.753 L
638.262 137.165 L
659.809 130.318 L
679.335 123.127 L
696.904 117.633 L
715.21 114.339 L
723.695 113.746 L
745.989 114.532 L
766.016 117.635 L
786.871 122.696 L
799.116 125.995 L
821.364 131.445 L
840.948 136.398 L
858.089 144.27 L
875.737 158.355 L
897.223 179.404 L
923.531 201.532 L
942.204 212.252 L
968.973 219.612 L
992.315 218.661 L
1012.553 215.082 L
1030.019 217.236 L
1047.89 230.592 L
1069.668 253.702 L
1096.332 279.042 L
1129.163 302.478 L
1169.858 322.739 L
1220.706 339.748 L
1284.841 354.134 L
1292.085 355.452 L
1330.245 361.66 L
1358.147 365.528 L
1398.32 370.21 L
1415.904 371.93 L
1458.105 375.156 L
1465.905 375.598 L
1508.841 376.992 L
1545.462 376.477 L
1576.525 374.347 L
1602.752 370.706 L
1624.812 365.277 L
1643.31 357.047 L
1658.78 343.251 L
1671.691 314.643 L
1682.446 202.059 L
1693.284 348.903 L
1706.513 411.469 L
1722.691 429.733 L
1730.991 429.244 L
1738.044 428.907 L
S
GR
GS
[0.75 0 0 0.75 0 0] CT
1 LJ
0.667 LW
N
1738.044 471.046 M
1738.044 152.667 L
1738.044 88.954 L
S
GR
GS
[0.75 0 0 0.75 0 0] CT
1 0 1 RC
1 LJ
0.667 LW
N
261.824 356.301 M
264.495 355.274 L
267.46 355.098 L
270.425 354.716 L
273.39 354.407 L
276.354 352.696 L
279.319 349.817 L
282.284 345.122 L
285.249 338.449 L
288.214 329.659 L
291.179 320.066 L
294.144 308.143 L
297.109 295.653 L
300.074 283.129 L
303.038 271.087 L
306.003 259.761 L
308.968 251.43 L
311.933 244.089 L
314.898 237.678 L
317.863 232.15 L
320.828 227.165 L
323.793 221.91 L
326.758 217.243 L
329.722 213.064 L
332.687 209.304 L
335.652 205.899 L
338.617 202.763 L
341.582 199.878 L
344.547 197.24 L
347.512 194.772 L
350.477 192.454 L
353.441 190.249 L
356.406 188.141 L
359.371 186.092 L
362.336 184.121 L
365.301 182.205 L
368.266 180.37 L
371.231 178.605 L
374.196 176.936 L
377.161 175.335 L
380.125 173.813 L
383.09 172.315 L
386.055 170.833 L
389.02 169.317 L
391.985 167.746 L
394.95 166.064 L
397.915 164.277 L
400.88 162.348 L
403.845 160.275 L
406.809 158.052 L
409.774 155.725 L
412.739 153.294 L
415.704 150.787 L
418.669 148.185 L
421.634 145.529 L
424.599 142.782 L
427.564 139.95 L
430.529 137.019 L
433.493 134.038 L
436.458 130.982 L
439.423 127.88 L
442.388 124.759 L
445.353 121.64 L
448.318 118.524 L
451.283 115.448 L
454.248 112.443 L
457.213 109.537 L
460.177 106.786 L
463.142 104.249 L
466.107 101.972 L
469.072 100.008 L
472.037 98.408 L
475.002 97.202 L
477.967 96.41 L
480.932 96.04 L
483.897 96.069 L
486.861 96.481 L
489.826 97.224 L
492.791 98.25 L
495.756 99.513 L
498.721 100.975 L
501.686 102.566 L
504.651 104.261 L
507.616 106.022 L
510.58 107.801 L
513.545 109.577 L
516.51 111.331 L
519.475 113.033 L
522.44 114.653 L
525.405 116.208 L
528.37 117.682 L
531.335 119.082 L
534.3 120.409 L
537.264 121.688 L
540.229 122.903 L
543.194 124.047 L
546.159 125.111 L
549.124 126.105 L
552.089 127.022 L
555.054 127.865 L
558.019 128.632 L
560.984 129.346 L
563.948 130.004 L
566.913 130.594 L
569.878 131.12 L
572.843 131.61 L
575.808 132.042 L
578.773 132.392 L
581.738 132.692 L
584.703 132.937 L
587.668 133.099 L
590.632 133.187 L
593.597 133.235 L
596.562 133.216 L
599.527 133.145 L
602.492 133.028 L
605.457 132.878 L
608.422 132.668 L
611.387 132.42 L
614.352 132.122 L
617.316 131.78 L
620.281 131.375 L
623.246 130.945 L
626.211 130.453 L
629.176 129.906 L
632.141 129.305 L
635.106 128.661 L
638.071 127.955 L
641.036 127.211 L
644 126.433 L
646.965 125.606 L
649.93 124.741 L
652.895 123.828 L
655.86 122.866 L
658.825 121.855 L
661.79 120.814 L
664.755 119.724 L
667.719 118.598 L
670.684 117.448 L
673.649 116.274 L
676.614 115.076 L
679.579 113.866 L
682.544 112.66 L
685.509 111.449 L
688.474 110.251 L
691.439 109.061 L
694.403 107.901 L
697.368 106.767 L
700.333 105.681 L
703.298 104.646 L
706.263 103.683 L
709.228 102.798 L
712.193 102.002 L
715.158 101.302 L
718.123 100.706 L
721.087 100.221 L
724.052 99.845 L
727.017 99.587 L
729.982 99.443 L
732.947 99.411 L
735.912 99.486 L
738.877 99.669 L
741.842 99.948 L
744.807 100.32 L
747.771 100.774 L
750.736 101.299 L
753.701 101.878 L
756.666 102.505 L
759.631 103.163 L
762.596 103.847 L
765.561 104.55 L
768.526 105.258 L
771.491 105.96 L
774.455 106.65 L
777.42 107.319 L
780.385 107.963 L
783.35 108.584 L
786.315 109.18 L
789.28 109.755 L
792.245 110.308 L
795.21 110.842 L
798.174 111.367 L
801.139 111.885 L
804.104 112.405 L
807.069 112.934 L
810.034 113.476 L
812.999 114.04 L
815.964 114.647 L
818.929 115.308 L
821.894 116.038 L
824.858 116.863 L
827.823 117.792 L
830.788 118.83 L
833.753 119.994 L
836.718 121.304 L
839.683 122.749 L
842.648 124.359 L
845.613 126.117 L
848.578 128.026 L
851.542 130.072 L
854.507 132.267 L
857.472 134.573 L
860.437 136.991 L
863.402 139.505 L
866.367 142.096 L
869.332 144.739 L
872.297 147.418 L
875.262 150.139 L
878.226 152.869 L
881.191 155.583 L
884.156 158.228 L
887.121 160.792 L
890.086 163.21 L
893.051 165.462 L
896.016 167.555 L
898.981 169.558 L
901.945 171.484 L
904.91 173.411 L
907.875 175.39 L
910.84 177.428 L
913.805 179.504 L
916.77 181.61 L
919.735 183.694 L
922.7 185.745 L
925.665 187.752 L
928.63 189.691 L
931.594 191.56 L
934.559 193.381 L
937.524 195.124 L
940.489 196.798 L
943.454 198.407 L
946.419 199.96 L
949.384 201.435 L
952.349 202.853 L
955.313 204.207 L
958.278 205.496 L
961.243 206.705 L
964.208 207.847 L
967.173 208.908 L
970.138 209.873 L
973.103 210.767 L
976.068 211.589 L
979.033 212.323 L
981.997 212.971 L
984.962 213.557 L
987.927 214.086 L
990.892 214.517 L
993.857 214.85 L
996.822 215.093 L
999.787 215.242 L
1002.752 215.251 L
1005.717 215.194 L
1008.681 215.116 L
1011.646 215.018 L
1014.611 214.906 L
1017.576 214.82 L
1020.541 214.762 L
1023.506 214.715 L
1026.471 214.721 L
1029.436 214.802 L
1032.401 215.028 L
1035.365 215.455 L
1038.33 216.126 L
1041.295 217.104 L
1044.26 218.457 L
1047.225 220.182 L
1050.19 222.261 L
1053.155 224.727 L
1056.12 227.552 L
1059.084 230.657 L
1062.049 234.05 L
1065.014 237.677 L
1067.979 241.475 L
1070.944 245.392 L
1073.909 249.443 L
1076.874 253.495 L
1079.839 257.623 L
1082.804 261.794 L
1085.768 265.681 L
1088.733 269.544 L
1091.698 273.423 L
1094.663 277.17 L
1097.628 280.792 L
1100.593 284.896 L
1103.558 288.903 L
1106.523 292.842 L
1109.488 296.597 L
1112.453 299.871 L
1115.417 302.732 L
1118.382 305.388 L
1121.347 307.757 L
1124.312 310.175 L
1127.277 313.382 L
1130.242 316.074 L
1133.207 318.662 L
1136.172 321.335 L
1139.136 323.794 L
1142.101 325.481 L
1145.066 325.627 L
1148.031 325.805 L
1150.996 325.781 L
1153.961 325.092 L
1156.926 324.433 L
1159.891 327.626 L
1162.856 330.701 L
1165.82 333.65 L
1168.785 337.378 L
1171.75 341.054 L
1174.715 342.586 L
1177.68 342.471 L
1180.645 342.141 L
1183.61 341.82 L
1186.575 341.237 L
1189.54 340.448 L
1192.504 342.609 L
1195.469 344.948 L
1198.434 346.87 L
1201.399 349.046 L
1204.364 351.338 L
1207.329 351.848 L
1210.294 352.332 L
1213.259 352.414 L
1216.223 350.568 L
1219.188 348.335 L
1222.153 346.317 L
1225.118 343.957 L
1228.083 342.264 L
1231.048 343.185 L
1234.013 344.656 L
1236.978 346.088 L
1239.943 348.084 L
1242.907 349.845 L
1245.872 351.463 L
1248.837 352.809 L
1251.802 354.214 L
1254.767 354.526 L
1257.732 354.761 L
1260.697 351.715 L
1263.662 347.627 L
1266.627 343.435 L
1269.591 340.718 L
1272.556 337.973 L
1275.521 340.364 L
1278.486 344.738 L
1281.451 349.211 L
1284.416 352.461 L
1287.381 354.72 L
1290.346 354.4 L
1293.311 353.111 L
1296.275 351.602 L
1299.24 350.971 L
1302.205 352.238 L
1305.17 353.315 L
1308.135 354.455 L
1311.1 355.932 L
1314.065 356.944 L
1317.03 357.003 L
1319.995 357.308 L
1322.959 357.41 L
1325.924 357.149 L
1328.889 357.144 L
1331.854 356.035 L
1334.819 354.757 L
1337.784 353.321 L
1340.749 352.022 L
1343.714 349.911 L
1346.678 350.14 L
1349.643 350.545 L
1352.608 351.561 L
1355.573 352.767 L
1358.538 355.044 L
1361.503 355.959 L
1364.468 355.273 L
1367.433 352.514 L
1370.398 349.47 L
1373.362 346.025 L
1376.327 342.058 L
1379.292 340.988 L
1382.257 342.991 L
1385.222 345.085 L
1388.187 347.167 L
1391.152 350.702 L
1394.117 352.911 L
1397.082 354.085 L
1400.047 355.451 L
1403.011 356.83 L
1405.976 357.209 L
1408.941 357.496 L
1411.906 357.643 L
1414.871 357.462 L
1417.836 357.015 L
1420.801 357.017 L
1423.766 356.06 L
1426.73 354.736 L
1429.695 353.61 L
1432.66 352.806 L
1435.625 351.761 L
1438.59 352.701 L
1441.555 353.946 L
1444.52 355.075 L
1447.485 355.05 L
1450.449 355 L
1453.414 353.818 L
1456.379 350.463 L
1459.344 347.251 L
1462.309 346.113 L
1465.274 343.579 L
1468.239 341.088 L
1471.204 341.068 L
1474.169 341.036 L
1477.134 337.325 L
1480.098 336.456 L
1483.063 333.536 L
1486.028 331.202 L
1488.993 328.853 L
1491.958 331.799 L
1494.923 333.268 L
1497.888 339.107 L
1500.853 344.647 L
1503.818 350.051 L
1506.782 352.803 L
1509.747 354.997 L
1512.712 354.97 L
1515.677 353.296 L
1518.642 351.829 L
1521.607 350.361 L
1524.572 350.23 L
1527.537 350.075 L
1530.501 351.836 L
1533.466 352.263 L
1536.431 352.755 L
1539.396 352.534 L
1542.361 352.336 L
1545.326 351.166 L
1548.291 352.528 L
1551.256 353.784 L
1554.221 354.785 L
1557.186 355.743 L
1560.15 355.618 L
1563.115 353.973 L
1566.08 352.486 L
1569.045 351.466 L
1572.01 350.334 L
1574.975 351.435 L
1577.94 352.861 L
1580.905 354.203 L
1583.869 355.471 L
1586.834 356.87 L
1589.799 357.028 L
1592.764 357.171 L
1595.729 357.301 L
1598.694 356.177 L
1601.659 355.26 L
1604.624 354.364 L
1607.589 353.199 L
1610.553 351.901 L
1613.518 352.816 L
1616.483 352.596 L
1619.448 352.678 L
1622.413 352.99 L
1625.378 353.215 L
1628.343 352.321 L
1631.308 353.294 L
1634.273 353.84 L
1637.237 354.188 L
1640.202 351.715 L
1643.167 349.406 L
1646.132 345.991 L
1649.097 341.679 L
1652.062 337.518 L
1655.027 339.717 L
1657.992 341.676 L
1660.957 343.851 L
1663.921 345.833 L
1666.886 347.858 L
1669.851 344.658 L
1672.816 341.515 L
1675.781 338.081 L
1678.746 338.448 L
1681.711 338.855 L
1684.676 343.086 L
1687.64 347.335 L
1690.605 352.053 L
1693.57 354.306 L
1696.535 356.499 L
1699.5 356.686 L
1702.465 356.859 L
1705.43 356.589 L
1708.395 356.331 L
1711.36 355.916 L
1714.324 355.567 L
1717.289 355.268 L
1720.254 355.389 L
1723.219 355.524 L
1726.184 355.943 L
1729.149 356.591 L
1732.114 357.48 L
1735.079 358.314 L
1738.044 359.519 L
S
GR
GS
[0.75 0 0 0.75 0 0] CT
1 0 1 RC
1 LJ
0.667 LW
N
261.824 356.301 M
264.495 355.274 L
267.46 355.098 L
270.425 354.716 L
273.39 354.407 L
276.354 352.696 L
279.319 349.817 L
282.284 345.122 L
285.249 338.449 L
288.214 329.659 L
291.179 320.066 L
294.144 308.143 L
297.109 295.653 L
300.074 283.129 L
303.038 271.087 L
306.003 259.761 L
308.968 251.43 L
311.933 244.089 L
314.898 237.678 L
317.863 232.15 L
320.828 227.165 L
323.793 221.91 L
326.758 217.243 L
329.722 213.064 L
332.687 209.304 L
335.652 205.899 L
338.617 202.763 L
341.582 199.878 L
344.547 197.24 L
347.512 194.772 L
350.477 192.454 L
353.441 190.249 L
356.406 188.141 L
359.371 186.092 L
362.336 184.121 L
365.301 182.205 L
368.266 180.37 L
371.231 178.605 L
374.196 176.936 L
377.161 175.335 L
380.125 173.813 L
383.09 172.315 L
386.055 170.833 L
389.02 169.317 L
391.985 167.746 L
394.95 166.064 L
397.915 164.277 L
400.88 162.348 L
403.845 160.275 L
406.809 158.052 L
409.774 155.725 L
412.739 153.294 L
415.704 150.787 L
418.669 148.185 L
421.634 145.529 L
424.599 142.782 L
427.564 139.95 L
430.529 137.019 L
433.493 134.038 L
436.458 130.982 L
439.423 127.88 L
442.388 124.759 L
445.353 121.64 L
448.318 118.524 L
451.283 115.448 L
454.248 112.443 L
457.213 109.537 L
460.177 106.786 L
463.142 104.249 L
466.107 101.972 L
469.072 100.008 L
472.037 98.408 L
475.002 97.202 L
477.967 96.41 L
480.932 96.04 L
483.897 96.069 L
486.861 96.481 L
489.826 97.224 L
492.791 98.25 L
495.756 99.513 L
498.721 100.975 L
501.686 102.566 L
504.651 104.261 L
507.616 106.022 L
510.58 107.801 L
513.545 109.577 L
516.51 111.331 L
519.475 113.033 L
522.44 114.653 L
525.405 116.208 L
528.37 117.682 L
531.335 119.082 L
534.3 120.409 L
537.264 121.688 L
540.229 122.903 L
543.194 124.047 L
546.159 125.111 L
549.124 126.105 L
552.089 127.022 L
555.054 127.865 L
558.019 128.632 L
560.984 129.346 L
563.948 130.004 L
566.913 130.594 L
569.878 131.12 L
572.843 131.61 L
575.808 132.042 L
578.773 132.392 L
581.738 132.692 L
584.703 132.937 L
587.668 133.099 L
590.632 133.187 L
593.597 133.235 L
596.562 133.216 L
599.527 133.145 L
602.492 133.028 L
605.457 132.878 L
608.422 132.668 L
611.387 132.42 L
614.352 132.122 L
617.316 131.78 L
620.281 131.375 L
623.246 130.945 L
626.211 130.453 L
629.176 129.906 L
632.141 129.305 L
635.106 128.661 L
638.071 127.955 L
641.036 127.211 L
644 126.433 L
646.965 125.606 L
649.93 124.741 L
652.895 123.828 L
655.86 122.866 L
658.825 121.855 L
661.79 120.814 L
664.755 119.724 L
667.719 118.598 L
670.684 117.448 L
673.649 116.274 L
676.614 115.076 L
679.579 113.866 L
682.544 112.66 L
685.509 111.449 L
688.474 110.251 L
691.439 109.061 L
694.403 107.901 L
697.368 106.767 L
700.333 105.681 L
703.298 104.646 L
706.263 103.683 L
709.228 102.798 L
712.193 102.002 L
715.158 101.302 L
718.123 100.706 L
721.087 100.221 L
724.052 99.845 L
727.017 99.587 L
729.982 99.443 L
732.947 99.411 L
735.912 99.486 L
738.877 99.669 L
741.842 99.948 L
744.807 100.32 L
747.771 100.774 L
750.736 101.299 L
753.701 101.878 L
756.666 102.505 L
759.631 103.163 L
762.596 103.847 L
765.561 104.55 L
768.526 105.258 L
771.491 105.96 L
774.455 106.65 L
777.42 107.319 L
780.385 107.963 L
783.35 108.584 L
786.315 109.18 L
789.28 109.755 L
792.245 110.308 L
795.21 110.842 L
798.174 111.367 L
801.139 111.885 L
804.104 112.405 L
807.069 112.934 L
810.034 113.476 L
812.999 114.04 L
815.964 114.647 L
818.929 115.308 L
821.894 116.038 L
824.858 116.863 L
827.823 117.792 L
830.788 118.83 L
833.753 119.994 L
836.718 121.304 L
839.683 122.749 L
842.648 124.359 L
845.613 126.117 L
848.578 128.026 L
851.542 130.072 L
854.507 132.267 L
857.472 134.573 L
860.437 136.991 L
863.402 139.505 L
866.367 142.096 L
869.332 144.739 L
872.297 147.418 L
875.262 150.139 L
878.226 152.869 L
881.191 155.583 L
884.156 158.228 L
887.121 160.792 L
890.086 163.21 L
893.051 165.462 L
896.016 167.555 L
898.981 169.558 L
901.945 171.484 L
904.91 173.411 L
907.875 175.39 L
910.84 177.428 L
913.805 179.504 L
916.77 181.61 L
919.735 183.694 L
922.7 185.745 L
925.665 187.752 L
928.63 189.691 L
931.594 191.56 L
934.559 193.381 L
937.524 195.124 L
940.489 196.798 L
943.454 198.407 L
946.419 199.96 L
949.384 201.435 L
952.349 202.853 L
955.313 204.207 L
958.278 205.496 L
961.243 206.705 L
964.208 207.847 L
967.173 208.908 L
970.138 209.873 L
973.103 210.767 L
976.068 211.589 L
979.033 212.323 L
981.997 212.971 L
984.962 213.557 L
987.927 214.086 L
990.892 214.517 L
993.857 214.85 L
996.822 215.093 L
999.787 215.242 L
1002.752 215.251 L
1005.717 215.194 L
1008.681 215.116 L
1011.646 215.018 L
1014.611 214.906 L
1017.576 214.82 L
1020.541 214.762 L
1023.506 214.715 L
1026.471 214.721 L
1029.436 214.802 L
1032.401 215.028 L
1035.365 215.455 L
1038.33 216.126 L
1041.295 217.104 L
1044.26 218.457 L
1047.225 220.182 L
1050.19 222.261 L
1053.155 224.727 L
1056.12 227.552 L
1059.084 230.657 L
1062.049 234.05 L
1065.014 237.677 L
1067.979 241.475 L
1070.944 245.392 L
1073.909 249.443 L
1076.874 253.495 L
1079.839 257.623 L
1082.804 261.794 L
1085.768 265.681 L
1088.733 269.544 L
1091.698 273.423 L
1094.663 277.17 L
1097.628 280.792 L
1100.593 284.896 L
1103.558 288.903 L
1106.523 292.842 L
1109.488 296.597 L
1112.453 299.871 L
1115.417 302.732 L
1118.382 305.388 L
1121.347 307.757 L
1124.312 310.175 L
1127.277 313.382 L
1130.242 316.074 L
1133.207 318.662 L
1136.172 321.335 L
1139.136 323.794 L
1142.101 325.481 L
1145.066 325.627 L
1148.031 325.805 L
1150.996 325.781 L
1153.961 325.092 L
1156.926 324.433 L
1159.891 327.626 L
1162.856 330.701 L
1165.82 333.65 L
1168.785 337.378 L
1171.75 341.054 L
1174.715 342.586 L
1177.68 342.471 L
1180.645 342.141 L
1183.61 341.82 L
1186.575 341.237 L
1189.54 340.448 L
1192.504 342.609 L
1195.469 344.948 L
1198.434 346.87 L
1201.399 349.046 L
1204.364 351.338 L
1207.329 351.848 L
1210.294 352.332 L
1213.259 352.414 L
1216.223 350.568 L
1219.188 348.335 L
1222.153 346.317 L
1225.118 343.957 L
1228.083 342.264 L
1231.048 343.185 L
1234.013 344.656 L
1236.978 346.088 L
1239.943 348.084 L
1242.907 349.845 L
1245.872 351.463 L
1248.837 352.809 L
1251.802 354.214 L
1254.767 354.526 L
1257.732 354.761 L
1260.697 351.715 L
1263.662 347.627 L
1266.627 343.435 L
1269.591 340.718 L
1272.556 337.973 L
1275.521 340.364 L
1278.486 344.738 L
1281.451 349.211 L
1284.416 352.461 L
1287.381 354.72 L
1290.346 354.4 L
1293.311 353.111 L
1296.275 351.602 L
1299.24 350.971 L
1302.205 352.238 L
1305.17 353.315 L
1308.135 354.455 L
1311.1 355.932 L
1314.065 356.944 L
1317.03 357.003 L
1319.995 357.308 L
1322.959 357.41 L
1325.924 357.149 L
1328.889 357.144 L
1331.854 356.035 L
1334.819 354.757 L
1337.784 353.321 L
1340.749 352.022 L
1343.714 349.911 L
1346.678 350.14 L
1349.643 350.545 L
1352.608 351.561 L
1355.573 352.767 L
1358.538 355.044 L
1361.503 355.959 L
1364.468 355.273 L
1367.433 352.514 L
1370.398 349.47 L
1373.362 346.025 L
1376.327 342.058 L
1379.292 340.988 L
1382.257 342.991 L
1385.222 345.085 L
1388.187 347.167 L
1391.152 350.702 L
1394.117 352.911 L
1397.082 354.085 L
1400.047 355.451 L
1403.011 356.83 L
1405.976 357.209 L
1408.941 357.496 L
1411.906 357.643 L
1414.871 357.462 L
1417.836 357.015 L
1420.801 357.017 L
1423.766 356.06 L
1426.73 354.736 L
1429.695 353.61 L
1432.66 352.806 L
1435.625 351.761 L
1438.59 352.701 L
1441.555 353.946 L
1444.52 355.075 L
1447.485 355.05 L
1450.449 355 L
1453.414 353.818 L
1456.379 350.463 L
1459.344 347.251 L
1462.309 346.113 L
1465.274 343.579 L
1468.239 341.088 L
1471.204 341.068 L
1474.169 341.036 L
1477.134 337.325 L
1480.098 336.456 L
1483.063 333.536 L
1486.028 331.202 L
1488.993 328.853 L
1491.958 331.799 L
1494.923 333.268 L
1497.888 339.107 L
1500.853 344.647 L
1503.818 350.051 L
1506.782 352.803 L
1509.747 354.997 L
1512.712 354.97 L
1515.677 353.296 L
1518.642 351.829 L
1521.607 350.361 L
1524.572 350.23 L
1527.537 350.075 L
1530.501 351.836 L
1533.466 352.263 L
1536.431 352.755 L
1539.396 352.534 L
1542.361 352.336 L
1545.326 351.166 L
1548.291 352.528 L
1551.256 353.784 L
1554.221 354.785 L
1557.186 355.743 L
1560.15 355.618 L
1563.115 353.973 L
1566.08 352.486 L
1569.045 351.466 L
1572.01 350.334 L
1574.975 351.435 L
1577.94 352.861 L
1580.905 354.203 L
1583.869 355.471 L
1586.834 356.87 L
1589.799 357.028 L
1592.764 357.171 L
1595.729 357.301 L
1598.694 356.177 L
1601.659 355.26 L
1604.624 354.364 L
1607.589 353.199 L
1610.553 351.901 L
1613.518 352.816 L
1616.483 352.596 L
1619.448 352.678 L
1622.413 352.99 L
1625.378 353.215 L
1628.343 352.321 L
1631.308 353.294 L
1634.273 353.84 L
1637.237 354.188 L
1640.202 351.715 L
1643.167 349.406 L
1646.132 345.991 L
1649.097 341.679 L
1652.062 337.518 L
1655.027 339.717 L
1657.992 341.676 L
1660.957 343.851 L
1663.921 345.833 L
1666.886 347.858 L
1669.851 344.658 L
1672.816 341.515 L
1675.781 338.081 L
1678.746 338.448 L
1681.711 338.855 L
1684.676 343.086 L
1687.64 347.335 L
1690.605 352.053 L
1693.57 354.306 L
1696.535 356.499 L
1699.5 356.686 L
1702.465 356.859 L
1705.43 356.589 L
1708.395 356.331 L
1711.36 355.916 L
1714.324 355.567 L
1717.289 355.268 L
1720.254 355.389 L
1723.219 355.524 L
1726.184 355.943 L
1729.149 356.591 L
1732.114 357.48 L
1735.079 358.314 L
1738.044 359.519 L
S
GR
GS
[0.75 0 0 0.75 0 0] CT
1 GC
N
1542 137 M
1542 102 L
1725 102 L
1725 137 L
cp
f
GR
GS
[0.75 0 0 0.75 1184.25 83.72826] CT
/Helvetica 12 F
GS
[1 0 0 1 0 0] CT
0 4.5 moveto 
1 -1 scale
(Subspace) t 
GR
GR
GS
[0.75 0 0 0.75 0 0] CT
0 0.447 0.741 RC
1 LJ
0.667 LW
N
1546 111.638 M
1576 111.638 L
S
GR
GS
[0.75 0 0 0.75 1184.25 95.52174] CT
/Helvetica 12 F
GS
[1 0 0 1 0 0] CT
0 4.5 moveto 
1 -1 scale
(Experimental Bode plot) t 
GR
GR
GS
[0.75 0 0 0.75 0 0] CT
1 0 1 RC
1 LJ
0.667 LW
N
1546 127.362 M
1576 127.362 L
S
GR
GS
[0.75 0 0 0.75 0 0] CT
0.149 GC
10.0 ML
0.667 LW
N
1542 137 M
1542 102 L
1725 102 L
1725 137 L
cp
S
GR
GS
[0.75 0 0 0.75 0 0] CT
1 GC
N
262 822 M
1738 822 L
1738 483 L
262 483 L
cp
f
GR
GS
[0.75 0 0 0.75 0 0] CT
0.4 GC
2 setlinecap
1 LJ
0.667 LW
N
262 822 M
1738 822 L
S
GR
GS
[0.75 0 0 0.75 0 0] CT
0.4 GC
2 setlinecap
1 LJ
0.667 LW
N
262 483 M
1738 483 L
S
GR
GS
[0.75 0 0 0.75 0 0] CT
0.4 GC
2 setlinecap
1 LJ
0.667 LW
N
496.524 822 M
496.524 807.24 L
S
GR
GS
[0.75 0 0 0.75 0 0] CT
0.4 GC
2 setlinecap
1 LJ
0.667 LW
N
731.519 822 M
731.519 807.24 L
S
GR
GS
[0.75 0 0 0.75 0 0] CT
0.4 GC
2 setlinecap
1 LJ
0.667 LW
N
966.513 822 M
966.513 807.24 L
S
GR
GS
[0.75 0 0 0.75 0 0] CT
0.4 GC
2 setlinecap
1 LJ
0.667 LW
N
1201.508 822 M
1201.508 807.24 L
S
GR
GS
[0.75 0 0 0.75 0 0] CT
0.4 GC
2 setlinecap
1 LJ
0.667 LW
N
1436.502 822 M
1436.502 807.24 L
S
GR
GS
[0.75 0 0 0.75 0 0] CT
0.4 GC
2 setlinecap
1 LJ
0.667 LW
N
1671.497 822 M
1671.497 807.24 L
S
GR
GS
[0.75 0 0 0.75 0 0] CT
0.4 GC
2 setlinecap
1 LJ
0.667 LW
N
496.524 483 M
496.524 497.76 L
S
GR
GS
[0.75 0 0 0.75 0 0] CT
0.4 GC
2 setlinecap
1 LJ
0.667 LW
N
731.519 483 M
731.519 497.76 L
S
GR
GS
[0.75 0 0 0.75 0 0] CT
0.4 GC
2 setlinecap
1 LJ
0.667 LW
N
966.513 483 M
966.513 497.76 L
S
GR
GS
[0.75 0 0 0.75 0 0] CT
0.4 GC
2 setlinecap
1 LJ
0.667 LW
N
1201.508 483 M
1201.508 497.76 L
S
GR
GS
[0.75 0 0 0.75 0 0] CT
0.4 GC
2 setlinecap
1 LJ
0.667 LW
N
1436.502 483 M
1436.502 497.76 L
S
GR
GS
[0.75 0 0 0.75 0 0] CT
0.4 GC
2 setlinecap
1 LJ
0.667 LW
N
1671.497 483 M
1671.497 497.76 L
S
GR
GS
[0.75 0 0 0.75 372.39333 620.49998] CT
0.4 GC
/Helvetica 13.333 F
GS
[1 0 0 1 0 0] CT
-10.5 13 moveto 
1 -1 scale
(0.5) t 
GR
GR
GS
[0.75 0 0 0.75 548.63914 620.49998] CT
0.4 GC
/Helvetica 13.333 F
GS
[1 0 0 1 0 0] CT
-4.5 13 moveto 
1 -1 scale
(1) t 
GR
GR
GS
[0.75 0 0 0.75 724.88498 620.49998] CT
0.4 GC
/Helvetica 13.333 F
GS
[1 0 0 1 0 0] CT
-10.5 13 moveto 
1 -1 scale
(1.5) t 
GR
GR
GS
[0.75 0 0 0.75 901.13077 620.49998] CT
0.4 GC
/Helvetica 13.333 F
GS
[1 0 0 1 0 0] CT
-4.5 13 moveto 
1 -1 scale
(2) t 
GR
GR
GS
[0.75 0 0 0.75 1077.37665 620.49998] CT
0.4 GC
/Helvetica 13.333 F
GS
[1 0 0 1 0 0] CT
-10.5 13 moveto 
1 -1 scale
(2.5) t 
GR
GR
GS
[0.75 0 0 0.75 1253.62244 620.49998] CT
0.4 GC
/Helvetica 13.333 F
GS
[1 0 0 1 0 0] CT
-4.5 13 moveto 
1 -1 scale
(3) t 
GR
GR
GS
[0.75 0 0 0.75 0 0] CT
0.4 GC
2 setlinecap
1 LJ
0.667 LW
N
262 822 M
262 483 L
S
GR
GS
[0.75 0 0 0.75 0 0] CT
0.4 GC
2 setlinecap
1 LJ
0.667 LW
N
1738 822 M
1738 483 L
S
GR
GS
[0.75 0 0 0.75 0 0] CT
0.4 GC
2 setlinecap
1 LJ
0.667 LW
N
262 818.676 M
276.76 818.676 L
S
GR
GS
[0.75 0 0 0.75 0 0] CT
0.4 GC
2 setlinecap
1 LJ
0.667 LW
N
262 781.748 M
276.76 781.748 L
S
GR
GS
[0.75 0 0 0.75 0 0] CT
0.4 GC
2 setlinecap
1 LJ
0.667 LW
N
262 744.82 M
276.76 744.82 L
S
GR
GS
[0.75 0 0 0.75 0 0] CT
0.4 GC
2 setlinecap
1 LJ
0.667 LW
N
262 707.892 M
276.76 707.892 L
S
GR
GS
[0.75 0 0 0.75 0 0] CT
0.4 GC
2 setlinecap
1 LJ
0.667 LW
N
262 670.964 M
276.76 670.964 L
S
GR
GS
[0.75 0 0 0.75 0 0] CT
0.4 GC
2 setlinecap
1 LJ
0.667 LW
N
262 634.036 M
276.76 634.036 L
S
GR
GS
[0.75 0 0 0.75 0 0] CT
0.4 GC
2 setlinecap
1 LJ
0.667 LW
N
262 597.108 M
276.76 597.108 L
S
GR
GS
[0.75 0 0 0.75 0 0] CT
0.4 GC
2 setlinecap
1 LJ
0.667 LW
N
262 560.18 M
276.76 560.18 L
S
GR
GS
[0.75 0 0 0.75 0 0] CT
0.4 GC
2 setlinecap
1 LJ
0.667 LW
N
262 523.252 M
276.76 523.252 L
S
GR
GS
[0.75 0 0 0.75 0 0] CT
0.4 GC
2 setlinecap
1 LJ
0.667 LW
N
262 486.324 M
276.76 486.324 L
S
GR
GS
[0.75 0 0 0.75 0 0] CT
0.4 GC
2 setlinecap
1 LJ
0.667 LW
N
1738 818.676 M
1723.24 818.676 L
S
GR
GS
[0.75 0 0 0.75 0 0] CT
0.4 GC
2 setlinecap
1 LJ
0.667 LW
N
1738 781.748 M
1723.24 781.748 L
S
GR
GS
[0.75 0 0 0.75 0 0] CT
0.4 GC
2 setlinecap
1 LJ
0.667 LW
N
1738 744.82 M
1723.24 744.82 L
S
GR
GS
[0.75 0 0 0.75 0 0] CT
0.4 GC
2 setlinecap
1 LJ
0.667 LW
N
1738 707.892 M
1723.24 707.892 L
S
GR
GS
[0.75 0 0 0.75 0 0] CT
0.4 GC
2 setlinecap
1 LJ
0.667 LW
N
1738 670.964 M
1723.24 670.964 L
S
GR
GS
[0.75 0 0 0.75 0 0] CT
0.4 GC
2 setlinecap
1 LJ
0.667 LW
N
1738 634.036 M
1723.24 634.036 L
S
GR
GS
[0.75 0 0 0.75 0 0] CT
0.4 GC
2 setlinecap
1 LJ
0.667 LW
N
1738 597.108 M
1723.24 597.108 L
S
GR
GS
[0.75 0 0 0.75 0 0] CT
0.4 GC
2 setlinecap
1 LJ
0.667 LW
N
1738 560.18 M
1723.24 560.18 L
S
GR
GS
[0.75 0 0 0.75 0 0] CT
0.4 GC
2 setlinecap
1 LJ
0.667 LW
N
1738 523.252 M
1723.24 523.252 L
S
GR
GS
[0.75 0 0 0.75 0 0] CT
0.4 GC
2 setlinecap
1 LJ
0.667 LW
N
1738 486.324 M
1723.24 486.324 L
S
GR
GS
[0.75 0 0 0.75 192.49999 614.00734] CT
0.4 GC
/Helvetica 13.333 F
GS
[1 0 0 1 0 0] CT
-9 4.5 moveto 
1 -1 scale
(0) t 
GR
GR
GS
[0.75 0 0 0.75 192.49999 586.31126] CT
0.4 GC
/Helvetica 13.333 F
GS
[1 0 0 1 0 0] CT
-25 4.5 moveto 
1 -1 scale
(360) t 
GR
GR
GS
[0.75 0 0 0.75 192.49999 558.61519] CT
0.4 GC
/Helvetica 13.333 F
GS
[1 0 0 1 0 0] CT
-25 4.5 moveto 
1 -1 scale
(720) t 
GR
GR
GS
[0.75 0 0 0.75 192.49999 530.91911] CT
0.4 GC
/Helvetica 13.333 F
GS
[1 0 0 1 0 0] CT
-34 4.5 moveto 
1 -1 scale
(1080) t 
GR
GR
GS
[0.75 0 0 0.75 192.49999 503.22304] CT
0.4 GC
/Helvetica 13.333 F
GS
[1 0 0 1 0 0] CT
-34 4.5 moveto 
1 -1 scale
(1440) t 
GR
GR
GS
[0.75 0 0 0.75 192.49999 475.52696] CT
0.4 GC
/Helvetica 13.333 F
GS
[1 0 0 1 0 0] CT
-34 4.5 moveto 
1 -1 scale
(1800) t 
GR
GR
GS
[0.75 0 0 0.75 192.49999 447.83089] CT
0.4 GC
/Helvetica 13.333 F
GS
[1 0 0 1 0 0] CT
-34 4.5 moveto 
1 -1 scale
(2160) t 
GR
GR
GS
[0.75 0 0 0.75 192.49999 420.13481] CT
0.4 GC
/Helvetica 13.333 F
GS
[1 0 0 1 0 0] CT
-34 4.5 moveto 
1 -1 scale
(2520) t 
GR
GR
GS
[0.75 0 0 0.75 192.49999 392.43874] CT
0.4 GC
/Helvetica 13.333 F
GS
[1 0 0 1 0 0] CT
-34 4.5 moveto 
1 -1 scale
(2880) t 
GR
GR
GS
[0.75 0 0 0.75 192.49999 364.74264] CT
0.4 GC
/Helvetica 13.333 F
GS
[1 0 0 1 0 0] CT
-34 4.5 moveto 
1 -1 scale
(3240) t 
GR
GR
GS
[0 -0.75 0.75 0 164 489.37486] CT
/Helvetica 14.667 F
GS
[1 0 0 1 0 0] CT
-45 -4 moveto 
1 -1 scale
(Phase \(deg\)) t 
GR
GR
GS
[0.75 0 0 0.75 0 0] CT
0 0.447 0.741 RC
1 LJ
0.667 LW
N
261.824 504.935 M
261.925 504.986 L
261.991 505.018 L
262.067 505.057 L
262.157 505.102 L
262.261 505.154 L
262.382 505.215 L
262.524 505.286 L
262.689 505.369 L
262.881 505.466 L
263.106 505.579 L
263.368 505.712 L
263.673 505.867 L
264.03 506.048 L
264.445 506.261 L
264.929 506.511 L
265.494 506.806 L
266.153 507.155 L
266.921 507.571 L
267.817 508.069 L
268.518 508.47 L
269.585 509.104 L
270.681 509.788 L
271.791 510.521 L
272.901 511.298 L
273.998 512.114 L
275.073 512.959 L
276.116 513.818 L
277.24 514.78 L
278.594 515.969 L
280.241 517.417 L
282.265 519.116 L
284.779 521.007 L
287.942 522.999 L
291.976 525.035 L
295.64 526.555 L
301.309 528.536 L
307.919 530.515 L
315.629 532.564 L
324.619 534.736 L
335.103 537.071 L
347.329 539.604 L
361.587 542.388 L
363.551 542.761 L
364.792 542.996 L
378.873 545.634 L
379.698 545.788 L
393.917 548.454 L
408.429 551.267 L
422.212 554.118 L
435.129 557.05 L
447.098 560.102 L
458.077 563.284 L
468.064 566.547 L
477.081 569.744 L
486.492 573.164 L
497.922 577.136 L
511.909 581.483 L
529.17 586.156 L
550.686 591.311 L
573.913 596.442 L
589.132 599.702 L
598.221 601.643 L
614.684 605.196 L
621.139 606.615 L
638.262 610.494 L
659.809 615.703 L
679.335 620.826 L
696.904 625.747 L
715.21 631.05 L
723.695 633.523 L
745.989 639.984 L
766.016 645.732 L
786.871 651.638 L
799.116 655.067 L
821.364 661.36 L
840.948 667.229 L
858.089 672.682 L
875.737 678.166 L
897.223 684.018 L
923.531 690.048 L
942.204 693.896 L
968.973 699.212 L
992.315 704.098 L
1012.553 709.066 L
1030.019 714.099 L
1047.89 719.117 L
1069.668 723.927 L
1096.332 728.32 L
1129.163 732.587 L
1169.858 736.955 L
1220.706 741.549 L
1284.841 746.518 L
1292.085 747.043 L
1330.245 749.732 L
1358.147 751.65 L
1398.32 754.395 L
1415.904 755.607 L
1458.105 758.583 L
1465.905 759.148 L
1508.841 762.373 L
1545.462 765.328 L
1576.525 768.035 L
1602.752 770.516 L
1624.812 772.804 L
1643.31 774.948 L
1658.78 777.033 L
1671.691 779.292 L
1682.446 790.001 L
1693.284 801.337 L
1706.513 806.836 L
1722.691 813.998 L
1730.991 816.672 L
1738.044 818.676 L
S
GR
GS
[0.75 0 0 0.75 0 0] CT
1 LJ
0.667 LW
N
1738.044 822.04 M
1738.044 818.779 L
1738.044 818.676 L
1738.044 818.574 L
1738.044 716.098 L
1738.044 482.96 L
S
GR
GS
[0.75 0 0 0.75 749.25 48.705] CT
/Helvetica-Bold 14.667 F
GS
[1 0 0 1 0 0] CT
-60 -4 moveto 
1 -1 scale
(Bode Diagram) t 
GR
GR
GS
[0.75 0 0 0.75 749.25 632.75002] CT
/Helvetica 14.667 F
GS
[1 0 0 1 0 0] CT
-69 14 moveto 
1 -1 scale
(Frequency  \(rad/s\)) t 
GR
GR
%%Trailer
%%Pages: 1
%%EOF
