%!PS-Adobe-3.0 EPSF-3.0
%%Creator: (MATLAB, The Mathworks, Inc. Version 9.1.0.441655 \(R2016b\). Operating System: Windows 8)
%%Title: C:/Users/simon/Documents/Unief/M1/System_Identification_and_Modeling/Oefenzittingen/Oefenzitting_1/git/Oefenzitting_3/plots/bode_arx_9_16_exp.eps
%%CreationDate: 2016-12-21T18:04:33
%%Pages: (atend)
%%BoundingBox: 0 0 575 556
%%LanguageLevel: 3
%%EndComments
%%BeginProlog
%%BeginResource: procset (Apache XML Graphics Std ProcSet) 1.2 0
%%Version: 1.2 0
%%Copyright: (Copyright 2001-2003,2010 The Apache Software Foundation. License terms: http://www.apache.org/licenses/LICENSE-2.0)
/bd{bind def}bind def
/ld{load def}bd
/GR/grestore ld
/M/moveto ld
/LJ/setlinejoin ld
/C/curveto ld
/f/fill ld
/LW/setlinewidth ld
/GC/setgray ld
/t/show ld
/N/newpath ld
/CT/concat ld
/cp/closepath ld
/S/stroke ld
/L/lineto ld
/CC/setcmykcolor ld
/A/ashow ld
/GS/gsave ld
/RC/setrgbcolor ld
/RM/rmoveto ld
/ML/setmiterlimit ld
/re {4 2 roll M
1 index 0 rlineto
0 exch rlineto
neg 0 rlineto
cp } bd
/_ctm matrix def
/_tm matrix def
/BT { _ctm currentmatrix pop matrix _tm copy pop 0 0 moveto } bd
/ET { _ctm setmatrix } bd
/iTm { _ctm setmatrix _tm concat } bd
/Tm { _tm astore pop iTm 0 0 moveto } bd
/ux 0.0 def
/uy 0.0 def
/F {
  /Tp exch def
  /Tf exch def
  Tf findfont Tp scalefont setfont
  /cf Tf def  /cs Tp def
} bd
/ULS {currentpoint /uy exch def /ux exch def} bd
/ULE {
  /Tcx currentpoint pop def
  gsave
  newpath
  cf findfont cs scalefont dup
  /FontMatrix get 0 get /Ts exch def /FontInfo get dup
  /UnderlinePosition get Ts mul /To exch def
  /UnderlineThickness get Ts mul /Tt exch def
  ux uy To add moveto  Tcx uy To add lineto
  Tt setlinewidth stroke
  grestore
} bd
/OLE {
  /Tcx currentpoint pop def
  gsave
  newpath
  cf findfont cs scalefont dup
  /FontMatrix get 0 get /Ts exch def /FontInfo get dup
  /UnderlinePosition get Ts mul /To exch def
  /UnderlineThickness get Ts mul /Tt exch def
  ux uy To add cs add moveto Tcx uy To add cs add lineto
  Tt setlinewidth stroke
  grestore
} bd
/SOE {
  /Tcx currentpoint pop def
  gsave
  newpath
  cf findfont cs scalefont dup
  /FontMatrix get 0 get /Ts exch def /FontInfo get dup
  /UnderlinePosition get Ts mul /To exch def
  /UnderlineThickness get Ts mul /Tt exch def
  ux uy To add cs 10 mul 26 idiv add moveto Tcx uy To add cs 10 mul 26 idiv add lineto
  Tt setlinewidth stroke
  grestore
} bd
/QT {
/Y22 exch store
/X22 exch store
/Y21 exch store
/X21 exch store
currentpoint
/Y21 load 2 mul add 3 div exch
/X21 load 2 mul add 3 div exch
/X21 load 2 mul /X22 load add 3 div
/Y21 load 2 mul /Y22 load add 3 div
/X22 load /Y22 load curveto
} bd
/SSPD {
dup length /d exch dict def
{
/v exch def
/k exch def
currentpagedevice k known {
/cpdv currentpagedevice k get def
v cpdv ne {
/upd false def
/nullv v type /nulltype eq def
/nullcpdv cpdv type /nulltype eq def
nullv nullcpdv or
{
/upd true def
} {
/sametype v type cpdv type eq def
sametype {
v type /arraytype eq {
/vlen v length def
/cpdvlen cpdv length def
vlen cpdvlen eq {
0 1 vlen 1 sub {
/i exch def
/obj v i get def
/cpdobj cpdv i get def
obj cpdobj ne {
/upd true def
exit
} if
} for
} {
/upd true def
} ifelse
} {
v type /dicttype eq {
v {
/dv exch def
/dk exch def
/cpddv cpdv dk get def
dv cpddv ne {
/upd true def
exit
} if
} forall
} {
/upd true def
} ifelse
} ifelse
} if
} ifelse
upd true eq {
d k v put
} if
} if
} if
} forall
d length 0 gt {
d setpagedevice
} if
} bd
/RE { % /NewFontName [NewEncodingArray] /FontName RE -
  findfont dup length dict begin
  {
    1 index /FID ne
    {def} {pop pop} ifelse
  } forall
  /Encoding exch def
  /FontName 1 index def
  currentdict definefont pop
  end
} bind def
%%EndResource
%%BeginResource: procset (Apache XML Graphics EPS ProcSet) 1.0 0
%%Version: 1.0 0
%%Copyright: (Copyright 2002-2003 The Apache Software Foundation. License terms: http://www.apache.org/licenses/LICENSE-2.0)
/BeginEPSF { %def
/b4_Inc_state save def         % Save state for cleanup
/dict_count countdictstack def % Count objects on dict stack
/op_count count 1 sub def      % Count objects on operand stack
userdict begin                 % Push userdict on dict stack
/showpage { } def              % Redefine showpage, { } = null proc
0 setgray 0 setlinecap         % Prepare graphics state
1 setlinewidth 0 setlinejoin
10 setmiterlimit [ ] 0 setdash newpath
/languagelevel where           % If level not equal to 1 then
{pop languagelevel             % set strokeadjust and
1 ne                           % overprint to their defaults.
{false setstrokeadjust false setoverprint
} if
} if
} bd
/EndEPSF { %def
count op_count sub {pop} repeat            % Clean up stacks
countdictstack dict_count sub {end} repeat
b4_Inc_state restore
} bd
%%EndResource
%FOPBeginFontDict
%%IncludeResource: font Courier-Bold
%%IncludeResource: font Helvetica
%%IncludeResource: font Courier-BoldOblique
%%IncludeResource: font Courier-Oblique
%%IncludeResource: font Times-Roman
%%IncludeResource: font Helvetica-BoldOblique
%%IncludeResource: font Helvetica-Bold
%%IncludeResource: font Helvetica-Oblique
%%IncludeResource: font Times-BoldItalic
%%IncludeResource: font Courier
%%IncludeResource: font Times-Italic
%%IncludeResource: font Times-Bold
%%IncludeResource: font Symbol
%%IncludeResource: font ZapfDingbats
%FOPEndFontDict
%%BeginResource: encoding WinAnsiEncoding
/WinAnsiEncoding [
/.notdef /.notdef /.notdef /.notdef /.notdef
/.notdef /.notdef /.notdef /.notdef /.notdef
/.notdef /.notdef /.notdef /.notdef /.notdef
/.notdef /.notdef /.notdef /.notdef /.notdef
/.notdef /.notdef /.notdef /.notdef /.notdef
/.notdef /.notdef /.notdef /.notdef /.notdef
/.notdef /.notdef /space /exclam /quotedbl
/numbersign /dollar /percent /ampersand /quotesingle
/parenleft /parenright /asterisk /plus /comma
/hyphen /period /slash /zero /one
/two /three /four /five /six
/seven /eight /nine /colon /semicolon
/less /equal /greater /question /at
/A /B /C /D /E
/F /G /H /I /J
/K /L /M /N /O
/P /Q /R /S /T
/U /V /W /X /Y
/Z /bracketleft /backslash /bracketright /asciicircum
/underscore /quoteleft /a /b /c
/d /e /f /g /h
/i /j /k /l /m
/n /o /p /q /r
/s /t /u /v /w
/x /y /z /braceleft /bar
/braceright /asciitilde /bullet /Euro /bullet
/quotesinglbase /florin /quotedblbase /ellipsis /dagger
/daggerdbl /circumflex /perthousand /Scaron /guilsinglleft
/OE /bullet /Zcaron /bullet /bullet
/quoteleft /quoteright /quotedblleft /quotedblright /bullet
/endash /emdash /asciitilde /trademark /scaron
/guilsinglright /oe /bullet /zcaron /Ydieresis
/space /exclamdown /cent /sterling /currency
/yen /brokenbar /section /dieresis /copyright
/ordfeminine /guillemotleft /logicalnot /sfthyphen /registered
/macron /degree /plusminus /twosuperior /threesuperior
/acute /mu /paragraph /middot /cedilla
/onesuperior /ordmasculine /guillemotright /onequarter /onehalf
/threequarters /questiondown /Agrave /Aacute /Acircumflex
/Atilde /Adieresis /Aring /AE /Ccedilla
/Egrave /Eacute /Ecircumflex /Edieresis /Igrave
/Iacute /Icircumflex /Idieresis /Eth /Ntilde
/Ograve /Oacute /Ocircumflex /Otilde /Odieresis
/multiply /Oslash /Ugrave /Uacute /Ucircumflex
/Udieresis /Yacute /Thorn /germandbls /agrave
/aacute /acircumflex /atilde /adieresis /aring
/ae /ccedilla /egrave /eacute /ecircumflex
/edieresis /igrave /iacute /icircumflex /idieresis
/eth /ntilde /ograve /oacute /ocircumflex
/otilde /odieresis /divide /oslash /ugrave
/uacute /ucircumflex /udieresis /yacute /thorn
/ydieresis
] def
%%EndResource
%FOPBeginFontReencode
/Courier-Bold findfont
dup length dict begin
  {1 index /FID ne {def} {pop pop} ifelse} forall
  /Encoding WinAnsiEncoding def
  currentdict
end
/Courier-Bold exch definefont pop
/Helvetica findfont
dup length dict begin
  {1 index /FID ne {def} {pop pop} ifelse} forall
  /Encoding WinAnsiEncoding def
  currentdict
end
/Helvetica exch definefont pop
/Courier-BoldOblique findfont
dup length dict begin
  {1 index /FID ne {def} {pop pop} ifelse} forall
  /Encoding WinAnsiEncoding def
  currentdict
end
/Courier-BoldOblique exch definefont pop
/Courier-Oblique findfont
dup length dict begin
  {1 index /FID ne {def} {pop pop} ifelse} forall
  /Encoding WinAnsiEncoding def
  currentdict
end
/Courier-Oblique exch definefont pop
/Times-Roman findfont
dup length dict begin
  {1 index /FID ne {def} {pop pop} ifelse} forall
  /Encoding WinAnsiEncoding def
  currentdict
end
/Times-Roman exch definefont pop
/Helvetica-BoldOblique findfont
dup length dict begin
  {1 index /FID ne {def} {pop pop} ifelse} forall
  /Encoding WinAnsiEncoding def
  currentdict
end
/Helvetica-BoldOblique exch definefont pop
/Helvetica-Bold findfont
dup length dict begin
  {1 index /FID ne {def} {pop pop} ifelse} forall
  /Encoding WinAnsiEncoding def
  currentdict
end
/Helvetica-Bold exch definefont pop
/Helvetica-Oblique findfont
dup length dict begin
  {1 index /FID ne {def} {pop pop} ifelse} forall
  /Encoding WinAnsiEncoding def
  currentdict
end
/Helvetica-Oblique exch definefont pop
/Times-BoldItalic findfont
dup length dict begin
  {1 index /FID ne {def} {pop pop} ifelse} forall
  /Encoding WinAnsiEncoding def
  currentdict
end
/Times-BoldItalic exch definefont pop
/Courier findfont
dup length dict begin
  {1 index /FID ne {def} {pop pop} ifelse} forall
  /Encoding WinAnsiEncoding def
  currentdict
end
/Courier exch definefont pop
/Times-Italic findfont
dup length dict begin
  {1 index /FID ne {def} {pop pop} ifelse} forall
  /Encoding WinAnsiEncoding def
  currentdict
end
/Times-Italic exch definefont pop
/Times-Bold findfont
dup length dict begin
  {1 index /FID ne {def} {pop pop} ifelse} forall
  /Encoding WinAnsiEncoding def
  currentdict
end
/Times-Bold exch definefont pop
%FOPEndFontReencode
%%EndProlog
%%Page: 1 1
%%PageBoundingBox: 0 0 575 556
%%BeginPageSetup
[1 0 0 -1 0 556] CT
%%EndPageSetup
GS
[0.60063 0 0 0.6 0 0.40002] CT
N
0 0 M
957 0 L
957 926 L
0 926 L
0 0 L
cp
clip
1 GC
N
0 0 957 926 re
f
GR
GS
[0.60063 0 0 0.6 0 0.40002] CT
1 GC
N
0 0 957 926 re
f
GR
GS
[0.60063 0 0 0.6 0 0.40002] CT
1 GC
N
140 473 M
867 473 L
867 94 L
140 94 L
cp
f
GR
GS
[0.60063 0 0 0.6 0 0.40002] CT
0.4 GC
2 setlinecap
1 LJ
0.833 LW
N
140 473 M
867 473 L
S
GR
GS
[0.60063 0 0 0.6 0 0.40002] CT
0.4 GC
2 setlinecap
1 LJ
0.833 LW
N
140 94 M
867 94 L
S
GR
GS
[0.60063 0 0 0.6 0 0.40002] CT
0.4 GC
2 setlinecap
1 LJ
0.833 LW
N
255.514 473 M
255.514 465.73 L
S
GR
GS
[0.60063 0 0 0.6 0 0.40002] CT
0.4 GC
2 setlinecap
1 LJ
0.833 LW
N
371.26 473 M
371.26 465.73 L
S
GR
GS
[0.60063 0 0 0.6 0 0.40002] CT
0.4 GC
2 setlinecap
1 LJ
0.833 LW
N
487.006 473 M
487.006 465.73 L
S
GR
GS
[0.60063 0 0 0.6 0 0.40002] CT
0.4 GC
2 setlinecap
1 LJ
0.833 LW
N
602.752 473 M
602.752 465.73 L
S
GR
GS
[0.60063 0 0 0.6 0 0.40002] CT
0.4 GC
2 setlinecap
1 LJ
0.833 LW
N
718.498 473 M
718.498 465.73 L
S
GR
GS
[0.60063 0 0 0.6 0 0.40002] CT
0.4 GC
2 setlinecap
1 LJ
0.833 LW
N
834.244 473 M
834.244 465.73 L
S
GR
GS
[0.60063 0 0 0.6 0 0.40002] CT
0.4 GC
2 setlinecap
1 LJ
0.833 LW
N
255.514 94 M
255.514 101.27 L
S
GR
GS
[0.60063 0 0 0.6 0 0.40002] CT
0.4 GC
2 setlinecap
1 LJ
0.833 LW
N
371.26 94 M
371.26 101.27 L
S
GR
GS
[0.60063 0 0 0.6 0 0.40002] CT
0.4 GC
2 setlinecap
1 LJ
0.833 LW
N
487.006 94 M
487.006 101.27 L
S
GR
GS
[0.60063 0 0 0.6 0 0.40002] CT
0.4 GC
2 setlinecap
1 LJ
0.833 LW
N
602.752 94 M
602.752 101.27 L
S
GR
GS
[0.60063 0 0 0.6 0 0.40002] CT
0.4 GC
2 setlinecap
1 LJ
0.833 LW
N
718.498 94 M
718.498 101.27 L
S
GR
GS
[0.60063 0 0 0.6 0 0.40002] CT
0.4 GC
2 setlinecap
1 LJ
0.833 LW
N
834.244 94 M
834.244 101.27 L
S
GR
GS
[0.60063 0 0 0.6 0 0.40002] CT
0.4 GC
2 setlinecap
1 LJ
0.833 LW
N
140 473 M
140 94 L
S
GR
GS
[0.60063 0 0 0.6 0 0.40002] CT
0.4 GC
2 setlinecap
1 LJ
0.833 LW
N
867 473 M
867 94 L
S
GR
GS
[0.60063 0 0 0.6 0 0.40002] CT
0.4 GC
2 setlinecap
1 LJ
0.833 LW
N
140 473 M
147.27 473 L
S
GR
GS
[0.60063 0 0 0.6 0 0.40002] CT
0.4 GC
2 setlinecap
1 LJ
0.833 LW
N
140 425.625 M
147.27 425.625 L
S
GR
GS
[0.60063 0 0 0.6 0 0.40002] CT
0.4 GC
2 setlinecap
1 LJ
0.833 LW
N
140 378.25 M
147.27 378.25 L
S
GR
GS
[0.60063 0 0 0.6 0 0.40002] CT
0.4 GC
2 setlinecap
1 LJ
0.833 LW
N
140 330.875 M
147.27 330.875 L
S
GR
GS
[0.60063 0 0 0.6 0 0.40002] CT
0.4 GC
2 setlinecap
1 LJ
0.833 LW
N
140 283.5 M
147.27 283.5 L
S
GR
GS
[0.60063 0 0 0.6 0 0.40002] CT
0.4 GC
2 setlinecap
1 LJ
0.833 LW
N
140 236.125 M
147.27 236.125 L
S
GR
GS
[0.60063 0 0 0.6 0 0.40002] CT
0.4 GC
2 setlinecap
1 LJ
0.833 LW
N
140 188.75 M
147.27 188.75 L
S
GR
GS
[0.60063 0 0 0.6 0 0.40002] CT
0.4 GC
2 setlinecap
1 LJ
0.833 LW
N
140 141.375 M
147.27 141.375 L
S
GR
GS
[0.60063 0 0 0.6 0 0.40002] CT
0.4 GC
2 setlinecap
1 LJ
0.833 LW
N
140 94 M
147.27 94 L
S
GR
GS
[0.60063 0 0 0.6 0 0.40002] CT
0.4 GC
2 setlinecap
1 LJ
0.833 LW
N
867 473 M
859.73 473 L
S
GR
GS
[0.60063 0 0 0.6 0 0.40002] CT
0.4 GC
2 setlinecap
1 LJ
0.833 LW
N
867 425.625 M
859.73 425.625 L
S
GR
GS
[0.60063 0 0 0.6 0 0.40002] CT
0.4 GC
2 setlinecap
1 LJ
0.833 LW
N
867 378.25 M
859.73 378.25 L
S
GR
GS
[0.60063 0 0 0.6 0 0.40002] CT
0.4 GC
2 setlinecap
1 LJ
0.833 LW
N
867 330.875 M
859.73 330.875 L
S
GR
GS
[0.60063 0 0 0.6 0 0.40002] CT
0.4 GC
2 setlinecap
1 LJ
0.833 LW
N
867 283.5 M
859.73 283.5 L
S
GR
GS
[0.60063 0 0 0.6 0 0.40002] CT
0.4 GC
2 setlinecap
1 LJ
0.833 LW
N
867 236.125 M
859.73 236.125 L
S
GR
GS
[0.60063 0 0 0.6 0 0.40002] CT
0.4 GC
2 setlinecap
1 LJ
0.833 LW
N
867 188.75 M
859.73 188.75 L
S
GR
GS
[0.60063 0 0 0.6 0 0.40002] CT
0.4 GC
2 setlinecap
1 LJ
0.833 LW
N
867 141.375 M
859.73 141.375 L
S
GR
GS
[0.60063 0 0 0.6 0 0.40002] CT
0.4 GC
2 setlinecap
1 LJ
0.833 LW
N
867 94 M
859.73 94 L
S
GR
GS
[0.60063 0 0 0.6 80.08359 284.20001] CT
0.4 GC
/Helvetica 16.667 F
GS
[1 0 0 1 0 0] CT
-25 7 moveto 
1 -1 scale
(-60) t 
GR
GR
GS
[0.60063 0 0 0.6 80.08359 255.77501] CT
0.4 GC
/Helvetica 16.667 F
GS
[1 0 0 1 0 0] CT
-25 7 moveto 
1 -1 scale
(-50) t 
GR
GR
GS
[0.60063 0 0 0.6 80.08359 227.35001] CT
0.4 GC
/Helvetica 16.667 F
GS
[1 0 0 1 0 0] CT
-25 7 moveto 
1 -1 scale
(-40) t 
GR
GR
GS
[0.60063 0 0 0.6 80.08359 198.92502] CT
0.4 GC
/Helvetica 16.667 F
GS
[1 0 0 1 0 0] CT
-25 7 moveto 
1 -1 scale
(-30) t 
GR
GR
GS
[0.60063 0 0 0.6 80.08359 170.50002] CT
0.4 GC
/Helvetica 16.667 F
GS
[1 0 0 1 0 0] CT
-25 7 moveto 
1 -1 scale
(-20) t 
GR
GR
GS
[0.60063 0 0 0.6 80.08359 142.07502] CT
0.4 GC
/Helvetica 16.667 F
GS
[1 0 0 1 0 0] CT
-25 7 moveto 
1 -1 scale
(-10) t 
GR
GR
GS
[0.60063 0 0 0.6 80.08359 113.65002] CT
0.4 GC
/Helvetica 16.667 F
GS
[1 0 0 1 0 0] CT
-10 7 moveto 
1 -1 scale
(0) t 
GR
GR
GS
[0.60063 0 0 0.6 80.08359 85.22502] CT
0.4 GC
/Helvetica 16.667 F
GS
[1 0 0 1 0 0] CT
-19 7 moveto 
1 -1 scale
(10) t 
GR
GR
GS
[0.60063 0 0 0.6 80.08359 56.80002] CT
0.4 GC
/Helvetica 16.667 F
GS
[1 0 0 1 0 0] CT
-19 7 moveto 
1 -1 scale
(20) t 
GR
GR
GS
[0 -0.6 0.60063 0 62.06478 170.49991] CT
/Helvetica 18.333 F
GS
[1 0 0 1 0 0] CT
-62 -4 moveto 
1 -1 scale
(Magnitude \(dB\)) t 
GR
GR
GS
[0.60063 0 0 0.6 302.41596 55.30002] CT
0.4 GC
/Helvetica 16.667 F
GS
[1 0 0 1 0 0] CT
-62.5 -4 moveto 
1 -1 scale
(From: u1  To: y1) t 
GR
GR
GS
[0.60063 0 0 0.6 0 0.40002] CT
0 0.447 0.741 RC
1 LJ
0.833 LW
N
139.913 262.899 M
140.488 262.887 L
140.609 262.882 L
140.75 262.876 L
140.916 262.866 L
141.109 262.854 L
141.334 262.837 L
141.598 262.813 L
141.906 262.781 L
142.266 262.738 L
142.687 262.678 L
143.179 262.597 L
143.753 262.486 L
144.424 262.334 L
145.208 262.128 L
145.45 262.05 L
146.042 261.871 L
146.124 261.847 L
146.695 261.636 L
147.194 261.465 L
147.415 261.367 L
148.211 261.037 L
148.445 260.946 L
149.09 260.621 L
149.906 260.242 L
150.061 260.149 L
151.132 259.543 L
151.613 259.289 L
152.315 258.815 L
153.608 258.005 L
153.621 257.996 L
155.062 256.902 L
155.939 256.286 L
156.654 255.651 L
158.412 254.199 L
158.662 254.003 L
160.353 252.352 L
161.844 251.005 L
162.495 250.281 L
164.861 247.815 L
165.562 247.129 L
167.473 244.874 L
169.906 242.217 L
170.356 241.637 L
173.54 237.768 L
174.982 236.135 L
177.055 233.437 L
180.912 228.796 L
180.937 228.763 L
185.222 223.271 L
187.841 220.163 L
189.953 217.542 L
190.33 217.085 L
195.177 211.04 L
197.957 207.807 L
200.944 204.158 L
205.582 198.832 L
207.312 196.796 L
213.083 190.364 L
214.342 188.965 L
220.357 182.595 L
222.105 180.825 L
227.324 175.754 L
230.675 172.849 L
233.924 170.132 L
240.117 166.025 L
240.138 166.016 L
245.879 163.608 L
250.585 162.99 L
251.972 162.812 L
259.352 164.245 L
262.12 165.566 L
267.099 167.869 L
274.855 172.556 L
276.079 173.271 L
284.425 177.995 L
288.916 179.834 L
292.12 181.111 L
300.224 182.52 L
304.441 182.131 L
310.049 181.628 L
321.582 177.99 L
322.057 177.845 L
333.659 173.014 L
340.507 170.169 L
349.104 166.733 L
361.401 162.913 L
363.551 162.268 L
376.94 160.265 L
384.471 160.677 L
389.25 160.932 L
402.198 164.669 L
409.942 168.969 L
417.899 173.262 L
431.046 183.287 L
438.064 189.875 L
447.571 198.556 L
462.409 213.713 L
469.114 220.343 L
475.634 226.662 L
487.345 235.663 L
499.465 241.553 L
503.395 242.838 L
514.209 246.303 L
517.247 247.331 L
532.26 254.206 L
533.9 255.196 L
540.335 259.629 L
541.245 260.455 L
551.877 269.978 L
558.582 277.549 L
567.388 289.444 L
580.678 312.362 L
583.034 317.771 L
592 338.095 L
601.598 366.231 L
609.702 395.577 L
616.524 423.323 L
622.249 448.466 L
627.044 462.689 L
629.173 452.592 L
631.886 439.792 L
637.796 409.266 L
645.025 383.66 L
653.892 362.33 L
664.804 344.803 L
678.285 331.371 L
680.115 330.45 L
695.022 323.064 L
715.921 321.191 L
733.62 323.649 L
736.36 324.268 L
754.342 328.262 L
775.787 334.883 L
789.323 341.258 L
798.459 348.17 L
809.089 356.092 L
826.074 376.034 L
840.604 393.826 L
852.986 397.437 L
865.587 395.547 L
867.021 395.517 L
S
GR
GS
[0.60063 0 0 0.6 0 0.40002] CT
1 LJ
0.833 LW
N
867.021 473.045 M
867.021 473 L
867.021 188.75 L
867.021 93.955 L
S
GR
GS
[0.60063 0 0 0.6 0 0.40002] CT
1 0 1 RC
1 LJ
0.833 LW
N
139.913 340.276 M
141.229 339.512 L
142.689 339.381 L
144.15 339.097 L
145.61 338.867 L
147.07 337.594 L
148.531 335.452 L
149.991 331.958 L
151.451 326.992 L
152.912 320.452 L
154.372 313.314 L
155.832 304.442 L
157.293 295.148 L
158.753 285.828 L
160.213 276.868 L
161.674 268.44 L
163.134 262.241 L
164.594 256.778 L
166.055 252.008 L
167.515 247.894 L
168.975 244.185 L
170.436 240.275 L
171.896 236.802 L
173.356 233.692 L
174.817 230.895 L
176.277 228.361 L
177.738 226.028 L
179.198 223.88 L
180.658 221.917 L
182.119 220.081 L
183.579 218.356 L
185.039 216.715 L
186.5 215.147 L
187.96 213.622 L
189.42 212.156 L
190.881 210.73 L
192.341 209.364 L
193.801 208.051 L
195.262 206.809 L
196.722 205.617 L
198.182 204.485 L
199.643 203.371 L
201.103 202.268 L
202.563 201.14 L
204.024 199.97 L
205.484 198.719 L
206.944 197.389 L
208.405 195.954 L
209.865 194.411 L
211.326 192.757 L
212.786 191.026 L
214.246 189.217 L
215.707 187.351 L
217.167 185.415 L
218.627 183.439 L
220.088 181.395 L
221.548 179.287 L
223.008 177.107 L
224.469 174.888 L
225.929 172.614 L
227.389 170.306 L
228.85 167.983 L
230.31 165.663 L
231.77 163.344 L
233.231 161.055 L
234.691 158.819 L
236.151 156.657 L
237.612 154.609 L
239.072 152.722 L
240.532 151.027 L
241.993 149.566 L
243.453 148.376 L
244.914 147.478 L
246.374 146.889 L
247.834 146.613 L
249.295 146.635 L
250.755 146.941 L
252.215 147.495 L
253.676 148.258 L
255.136 149.198 L
256.596 150.286 L
258.057 151.47 L
259.517 152.731 L
260.977 154.041 L
262.438 155.365 L
263.898 156.687 L
265.358 157.992 L
266.819 159.258 L
268.279 160.464 L
269.739 161.621 L
271.2 162.718 L
272.66 163.759 L
274.12 164.747 L
275.581 165.698 L
277.041 166.602 L
278.501 167.454 L
279.962 168.245 L
281.422 168.985 L
282.883 169.668 L
284.343 170.295 L
285.803 170.865 L
287.264 171.397 L
288.724 171.886 L
290.184 172.325 L
291.645 172.717 L
293.105 173.082 L
294.565 173.403 L
296.026 173.664 L
297.486 173.887 L
298.946 174.069 L
300.407 174.189 L
301.867 174.255 L
303.327 174.291 L
304.788 174.277 L
306.248 174.223 L
307.708 174.136 L
309.169 174.025 L
310.629 173.869 L
312.089 173.684 L
313.55 173.462 L
315.01 173.208 L
316.471 172.907 L
317.931 172.587 L
319.391 172.221 L
320.852 171.814 L
322.312 171.366 L
323.772 170.887 L
325.233 170.362 L
326.693 169.808 L
328.153 169.229 L
329.614 168.614 L
331.074 167.97 L
332.534 167.291 L
333.995 166.575 L
335.455 165.822 L
336.915 165.048 L
338.376 164.237 L
339.836 163.399 L
341.296 162.544 L
342.757 161.67 L
344.217 160.779 L
345.677 159.878 L
347.138 158.981 L
348.598 158.079 L
350.059 157.188 L
351.519 156.303 L
352.979 155.439 L
354.44 154.595 L
355.9 153.788 L
357.36 153.018 L
358.821 152.301 L
360.281 151.642 L
361.741 151.05 L
363.202 150.529 L
364.662 150.085 L
366.122 149.725 L
367.583 149.445 L
369.043 149.253 L
370.503 149.146 L
371.964 149.122 L
373.424 149.178 L
374.884 149.314 L
376.345 149.521 L
377.805 149.798 L
379.265 150.136 L
380.726 150.527 L
382.186 150.957 L
383.647 151.425 L
385.107 151.914 L
386.567 152.423 L
388.028 152.946 L
389.488 153.473 L
390.948 153.995 L
392.409 154.509 L
393.869 155.007 L
395.329 155.485 L
396.79 155.948 L
398.25 156.391 L
399.71 156.819 L
401.171 157.231 L
402.631 157.628 L
404.091 158.018 L
405.552 158.404 L
407.012 158.791 L
408.472 159.184 L
409.933 159.588 L
411.393 160.008 L
412.853 160.459 L
414.314 160.951 L
415.774 161.494 L
417.234 162.108 L
418.695 162.799 L
420.155 163.572 L
421.616 164.438 L
423.076 165.412 L
424.536 166.488 L
425.997 167.686 L
427.457 168.994 L
428.917 170.414 L
430.378 171.937 L
431.838 173.57 L
433.298 175.286 L
434.759 177.086 L
436.219 178.956 L
437.679 180.884 L
439.14 182.851 L
440.6 184.845 L
442.06 186.869 L
443.521 188.9 L
444.981 190.92 L
446.441 192.889 L
447.902 194.796 L
449.362 196.596 L
450.822 198.271 L
452.283 199.829 L
453.743 201.319 L
455.203 202.752 L
456.664 204.186 L
458.124 205.659 L
459.585 207.175 L
461.045 208.72 L
462.505 210.287 L
463.966 211.838 L
465.426 213.364 L
466.886 214.857 L
468.347 216.3 L
469.807 217.691 L
471.267 219.046 L
472.728 220.343 L
474.188 221.589 L
475.648 222.786 L
477.109 223.941 L
478.569 225.039 L
480.029 226.094 L
481.49 227.102 L
482.95 228.061 L
484.41 228.961 L
485.871 229.81 L
487.331 230.6 L
488.792 231.318 L
490.252 231.983 L
491.712 232.594 L
493.173 233.141 L
494.633 233.623 L
496.093 234.059 L
497.554 234.452 L
499.014 234.774 L
500.474 235.022 L
501.935 235.202 L
503.395 235.313 L
504.855 235.319 L
506.316 235.277 L
507.776 235.219 L
509.236 235.146 L
510.697 235.063 L
512.157 234.999 L
513.617 234.956 L
515.078 234.921 L
516.538 234.925 L
517.998 234.985 L
519.459 235.154 L
520.919 235.472 L
522.38 235.971 L
523.84 236.698 L
525.3 237.705 L
526.76 238.989 L
528.221 240.536 L
529.681 242.371 L
531.142 244.473 L
532.602 246.783 L
534.062 249.308 L
535.523 252.007 L
536.983 254.834 L
538.443 257.748 L
539.904 260.762 L
541.364 263.777 L
542.824 266.849 L
544.285 269.953 L
545.745 272.845 L
547.205 275.72 L
548.666 278.606 L
550.126 281.394 L
551.586 284.09 L
553.047 287.143 L
554.507 290.125 L
555.967 293.056 L
557.428 295.85 L
558.888 298.286 L
560.349 300.415 L
561.809 302.391 L
563.269 304.154 L
564.73 305.953 L
566.19 308.34 L
567.65 310.343 L
569.111 312.268 L
570.571 314.258 L
572.031 316.088 L
573.492 317.343 L
574.952 317.452 L
576.412 317.584 L
577.873 317.566 L
579.333 317.053 L
580.793 316.563 L
582.254 318.939 L
583.714 321.227 L
585.174 323.421 L
586.635 326.196 L
588.095 328.931 L
589.555 330.071 L
591.016 329.985 L
592.476 329.74 L
593.937 329.501 L
595.397 329.067 L
596.857 328.48 L
598.318 330.088 L
599.778 331.829 L
601.238 333.258 L
602.699 334.878 L
604.159 336.583 L
605.619 336.963 L
607.08 337.323 L
608.54 337.384 L
610 336.011 L
611.461 334.349 L
612.921 332.847 L
614.381 331.091 L
615.842 329.831 L
617.302 330.517 L
618.762 331.611 L
620.223 332.676 L
621.683 334.162 L
623.143 335.472 L
624.604 336.676 L
626.064 337.678 L
627.525 338.723 L
628.985 338.955 L
630.445 339.131 L
631.906 336.864 L
633.366 333.822 L
634.826 330.703 L
636.287 328.681 L
637.747 326.638 L
639.207 328.417 L
640.668 331.672 L
642.128 335.001 L
643.588 337.419 L
645.049 339.1 L
646.509 338.862 L
647.969 337.903 L
649.43 336.78 L
650.89 336.31 L
652.35 337.253 L
653.811 338.054 L
655.271 338.903 L
656.731 340.002 L
658.192 340.755 L
659.652 340.799 L
661.112 341.026 L
662.573 341.101 L
664.033 340.907 L
665.494 340.904 L
666.954 340.079 L
668.414 339.128 L
669.875 338.059 L
671.335 337.092 L
672.795 335.522 L
674.256 335.692 L
675.716 335.993 L
677.176 336.749 L
678.637 337.647 L
680.097 339.341 L
681.557 340.022 L
683.018 339.512 L
684.478 337.459 L
685.938 335.193 L
687.399 332.63 L
688.859 329.678 L
690.319 328.882 L
691.78 330.372 L
693.24 331.93 L
694.7 333.479 L
696.161 336.11 L
697.621 337.754 L
699.082 338.627 L
700.542 339.644 L
702.002 340.67 L
703.463 340.952 L
704.923 341.166 L
706.383 341.275 L
707.844 341.14 L
709.304 340.808 L
710.764 340.809 L
712.225 340.097 L
713.685 339.112 L
715.145 338.274 L
716.606 337.676 L
718.066 336.898 L
719.526 337.598 L
720.987 338.524 L
722.447 339.364 L
723.907 339.345 L
725.368 339.308 L
726.828 338.428 L
728.288 335.932 L
729.749 333.543 L
731.209 332.696 L
732.669 330.81 L
734.13 328.956 L
735.59 328.942 L
737.051 328.918 L
738.511 326.156 L
739.971 325.509 L
741.432 323.337 L
742.892 321.6 L
744.352 319.852 L
745.813 322.044 L
747.273 323.137 L
748.733 327.482 L
750.194 331.605 L
751.654 335.626 L
753.114 337.674 L
754.575 339.306 L
756.035 339.286 L
757.495 338.04 L
758.956 336.949 L
760.416 335.856 L
761.876 335.759 L
763.337 335.643 L
764.797 336.954 L
766.258 337.272 L
767.718 337.638 L
769.178 337.474 L
770.638 337.326 L
772.099 336.455 L
773.559 337.469 L
775.02 338.403 L
776.48 339.148 L
777.94 339.861 L
779.401 339.768 L
780.861 338.544 L
782.321 337.437 L
783.782 336.678 L
785.242 335.836 L
786.702 336.656 L
788.163 337.717 L
789.623 338.715 L
791.083 339.659 L
792.544 340.7 L
794.004 340.817 L
795.464 340.924 L
796.925 341.021 L
798.385 340.184 L
799.845 339.502 L
801.306 338.835 L
802.766 337.968 L
804.227 337.003 L
805.687 337.683 L
807.147 337.519 L
808.608 337.58 L
810.068 337.813 L
811.528 337.98 L
812.989 337.315 L
814.449 338.039 L
815.909 338.445 L
817.37 338.704 L
818.83 336.864 L
820.29 335.146 L
821.751 332.604 L
823.211 329.396 L
824.671 326.3 L
826.132 327.936 L
827.592 329.394 L
829.052 331.012 L
830.513 332.487 L
831.973 333.994 L
833.433 331.612 L
834.894 329.274 L
836.354 326.719 L
837.815 326.992 L
839.275 327.295 L
840.735 330.443 L
842.195 333.604 L
843.656 337.116 L
845.116 338.792 L
846.577 340.423 L
848.037 340.563 L
849.497 340.692 L
850.958 340.491 L
852.418 340.299 L
853.878 339.99 L
855.339 339.73 L
856.799 339.508 L
858.259 339.598 L
859.72 339.698 L
861.18 340.01 L
862.64 340.492 L
864.101 341.153 L
865.561 341.775 L
867.021 342.671 L
S
GR
GS
[0.60063 0 0 0.6 0 0.40002] CT
1 GC
N
648 156 M
648 111 L
850 111 L
850 156 L
cp
f
GR
GS
[0.60063 0 0 0.6 416.95091 74.39728] CT
/Helvetica 15 F
GS
[1 0 0 1 0 0] CT
0 6 moveto 
1 -1 scale
(ARX) t 
GR
GR
GS
[0.60063 0 0 0.6 0 0.40002] CT
0 0.447 0.741 RC
1 LJ
0.833 LW
N
652.994 123.329 M
690.447 123.329 L
S
GR
GS
[0.60063 0 0 0.6 416.95091 86.60276] CT
/Helvetica 15 F
GS
[1 0 0 1 0 0] CT
0 6 moveto 
1 -1 scale
(Experimental Bodeplot) t 
GR
GR
GS
[0.60063 0 0 0.6 0 0.40002] CT
1 0 1 RC
1 LJ
0.833 LW
N
652.994 143.671 M
690.447 143.671 L
S
GR
GS
[0.60063 0 0 0.6 0 0.40002] CT
0.149 GC
10.0 ML
0.833 LW
N
648 156 M
648 111 L
850 111 L
850 156 L
cp
S
GR
GS
[0.60063 0 0 0.6 0 0.40002] CT
1 GC
N
140 824 M
867 824 L
867 488 L
140 488 L
cp
f
GR
GS
[0.60063 0 0 0.6 0 0.40002] CT
0.4 GC
2 setlinecap
1 LJ
0.833 LW
N
140 824 M
867 824 L
S
GR
GS
[0.60063 0 0 0.6 0 0.40002] CT
0.4 GC
2 setlinecap
1 LJ
0.833 LW
N
140 488 M
867 488 L
S
GR
GS
[0.60063 0 0 0.6 0 0.40002] CT
0.4 GC
2 setlinecap
1 LJ
0.833 LW
N
255.514 824 M
255.514 816.73 L
S
GR
GS
[0.60063 0 0 0.6 0 0.40002] CT
0.4 GC
2 setlinecap
1 LJ
0.833 LW
N
371.26 824 M
371.26 816.73 L
S
GR
GS
[0.60063 0 0 0.6 0 0.40002] CT
0.4 GC
2 setlinecap
1 LJ
0.833 LW
N
487.006 824 M
487.006 816.73 L
S
GR
GS
[0.60063 0 0 0.6 0 0.40002] CT
0.4 GC
2 setlinecap
1 LJ
0.833 LW
N
602.752 824 M
602.752 816.73 L
S
GR
GS
[0.60063 0 0 0.6 0 0.40002] CT
0.4 GC
2 setlinecap
1 LJ
0.833 LW
N
718.498 824 M
718.498 816.73 L
S
GR
GS
[0.60063 0 0 0.6 0 0.40002] CT
0.4 GC
2 setlinecap
1 LJ
0.833 LW
N
834.244 824 M
834.244 816.73 L
S
GR
GS
[0.60063 0 0 0.6 0 0.40002] CT
0.4 GC
2 setlinecap
1 LJ
0.833 LW
N
255.514 488 M
255.514 495.27 L
S
GR
GS
[0.60063 0 0 0.6 0 0.40002] CT
0.4 GC
2 setlinecap
1 LJ
0.833 LW
N
371.26 488 M
371.26 495.27 L
S
GR
GS
[0.60063 0 0 0.6 0 0.40002] CT
0.4 GC
2 setlinecap
1 LJ
0.833 LW
N
487.006 488 M
487.006 495.27 L
S
GR
GS
[0.60063 0 0 0.6 0 0.40002] CT
0.4 GC
2 setlinecap
1 LJ
0.833 LW
N
602.752 488 M
602.752 495.27 L
S
GR
GS
[0.60063 0 0 0.6 0 0.40002] CT
0.4 GC
2 setlinecap
1 LJ
0.833 LW
N
718.498 488 M
718.498 495.27 L
S
GR
GS
[0.60063 0 0 0.6 0 0.40002] CT
0.4 GC
2 setlinecap
1 LJ
0.833 LW
N
834.244 488 M
834.244 495.27 L
S
GR
GS
[0.60063 0 0 0.6 153.46884 498.80001] CT
0.4 GC
/Helvetica 16.667 F
GS
[1 0 0 1 0 0] CT
-12 18 moveto 
1 -1 scale
(0.5) t 
GR
GR
GS
[0.60063 0 0 0.6 222.98895 498.80001] CT
0.4 GC
/Helvetica 16.667 F
GS
[1 0 0 1 0 0] CT
-5 18 moveto 
1 -1 scale
(1) t 
GR
GR
GS
[0.60063 0 0 0.6 292.50904 498.80001] CT
0.4 GC
/Helvetica 16.667 F
GS
[1 0 0 1 0 0] CT
-12 18 moveto 
1 -1 scale
(1.5) t 
GR
GR
GS
[0.60063 0 0 0.6 362.02918 498.80001] CT
0.4 GC
/Helvetica 16.667 F
GS
[1 0 0 1 0 0] CT
-5 18 moveto 
1 -1 scale
(2) t 
GR
GR
GS
[0.60063 0 0 0.6 431.54925 498.80001] CT
0.4 GC
/Helvetica 16.667 F
GS
[1 0 0 1 0 0] CT
-12 18 moveto 
1 -1 scale
(2.5) t 
GR
GR
GS
[0.60063 0 0 0.6 501.06936 498.80001] CT
0.4 GC
/Helvetica 16.667 F
GS
[1 0 0 1 0 0] CT
-5 18 moveto 
1 -1 scale
(3) t 
GR
GR
GS
[0.60063 0 0 0.6 0 0.40002] CT
0.4 GC
2 setlinecap
1 LJ
0.833 LW
N
140 824 M
140 488 L
S
GR
GS
[0.60063 0 0 0.6 0 0.40002] CT
0.4 GC
2 setlinecap
1 LJ
0.833 LW
N
867 824 M
867 488 L
S
GR
GS
[0.60063 0 0 0.6 0 0.40002] CT
0.4 GC
2 setlinecap
1 LJ
0.833 LW
N
140 820.706 M
147.27 820.706 L
S
GR
GS
[0.60063 0 0 0.6 0 0.40002] CT
0.4 GC
2 setlinecap
1 LJ
0.833 LW
N
140 738.353 M
147.27 738.353 L
S
GR
GS
[0.60063 0 0 0.6 0 0.40002] CT
0.4 GC
2 setlinecap
1 LJ
0.833 LW
N
140 656 M
147.27 656 L
S
GR
GS
[0.60063 0 0 0.6 0 0.40002] CT
0.4 GC
2 setlinecap
1 LJ
0.833 LW
N
140 573.647 M
147.27 573.647 L
S
GR
GS
[0.60063 0 0 0.6 0 0.40002] CT
0.4 GC
2 setlinecap
1 LJ
0.833 LW
N
140 491.294 M
147.27 491.294 L
S
GR
GS
[0.60063 0 0 0.6 0 0.40002] CT
0.4 GC
2 setlinecap
1 LJ
0.833 LW
N
867 820.706 M
859.73 820.706 L
S
GR
GS
[0.60063 0 0 0.6 0 0.40002] CT
0.4 GC
2 setlinecap
1 LJ
0.833 LW
N
867 738.353 M
859.73 738.353 L
S
GR
GS
[0.60063 0 0 0.6 0 0.40002] CT
0.4 GC
2 setlinecap
1 LJ
0.833 LW
N
867 656 M
859.73 656 L
S
GR
GS
[0.60063 0 0 0.6 0 0.40002] CT
0.4 GC
2 setlinecap
1 LJ
0.833 LW
N
867 573.647 M
859.73 573.647 L
S
GR
GS
[0.60063 0 0 0.6 0 0.40002] CT
0.4 GC
2 setlinecap
1 LJ
0.833 LW
N
867 491.294 M
859.73 491.294 L
S
GR
GS
[0.60063 0 0 0.6 80.08359 492.82353] CT
0.4 GC
/Helvetica 16.667 F
GS
[1 0 0 1 0 0] CT
-44 7 moveto 
1 -1 scale
(-4320) t 
GR
GR
GS
[0.60063 0 0 0.6 80.08359 443.41178] CT
0.4 GC
/Helvetica 16.667 F
GS
[1 0 0 1 0 0] CT
-44 7 moveto 
1 -1 scale
(-2880) t 
GR
GR
GS
[0.60063 0 0 0.6 80.08359 394.00001] CT
0.4 GC
/Helvetica 16.667 F
GS
[1 0 0 1 0 0] CT
-44 7 moveto 
1 -1 scale
(-1440) t 
GR
GR
GS
[0.60063 0 0 0.6 80.08359 344.58823] CT
0.4 GC
/Helvetica 16.667 F
GS
[1 0 0 1 0 0] CT
-10 7 moveto 
1 -1 scale
(0) t 
GR
GR
GS
[0.60063 0 0 0.6 80.08359 295.17649] CT
0.4 GC
/Helvetica 16.667 F
GS
[1 0 0 1 0 0] CT
-38 7 moveto 
1 -1 scale
(1440) t 
GR
GR
GS
[0 -0.6 0.60063 0 50.65287 393.9999] CT
/Helvetica 18.333 F
GS
[1 0 0 1 0 0] CT
-49.5 -4 moveto 
1 -1 scale
(Phase \(deg\)) t 
GR
GR
GS
[0.60063 0 0 0.6 0 0.40002] CT
0 0.447 0.741 RC
1 LJ
0.833 LW
N
139.913 532.49 M
140.488 532.565 L
140.609 532.581 L
140.75 532.599 L
140.916 532.621 L
141.109 532.646 L
141.334 532.676 L
141.598 532.71 L
141.906 532.751 L
142.266 532.798 L
142.687 532.853 L
143.179 532.918 L
143.753 532.994 L
144.424 533.082 L
145.208 533.187 L
145.45 533.219 L
146.042 533.298 L
146.124 533.309 L
146.695 533.386 L
147.194 533.453 L
147.415 533.483 L
148.211 533.591 L
148.445 533.623 L
149.09 533.712 L
149.906 533.825 L
150.061 533.846 L
151.132 533.997 L
151.613 534.065 L
152.315 534.166 L
153.608 534.352 L
153.621 534.354 L
155.062 534.568 L
155.939 534.699 L
156.654 534.81 L
158.412 535.082 L
158.662 535.121 L
160.353 535.397 L
161.844 535.641 L
162.495 535.753 L
164.861 536.164 L
165.562 536.286 L
167.473 536.641 L
169.906 537.095 L
170.356 537.185 L
173.54 537.824 L
174.982 538.114 L
177.055 538.563 L
180.912 539.4 L
180.937 539.406 L
185.222 540.408 L
187.841 541.02 L
189.953 541.538 L
190.33 541.63 L
195.177 542.87 L
197.957 543.582 L
200.944 544.391 L
205.582 545.648 L
207.312 546.142 L
213.083 547.79 L
214.342 548.168 L
220.357 549.972 L
222.105 550.523 L
227.324 552.168 L
230.675 553.275 L
233.924 554.348 L
240.117 556.479 L
240.138 556.486 L
245.879 558.515 L
250.585 560.189 L
251.972 560.682 L
259.352 563.252 L
262.12 564.162 L
267.099 565.8 L
274.855 568.139 L
276.079 568.508 L
284.425 570.799 L
288.916 571.945 L
292.12 572.762 L
300.224 574.75 L
304.441 575.787 L
310.049 577.166 L
321.582 580.146 L
322.057 580.269 L
333.659 583.473 L
340.507 585.494 L
349.104 588.031 L
361.401 591.882 L
363.551 592.555 L
376.94 596.932 L
384.471 599.459 L
389.25 601.063 L
402.198 605.444 L
409.942 608.029 L
417.899 610.685 L
431.046 614.932 L
438.064 617.09 L
447.571 620.015 L
462.409 624.268 L
469.114 626.039 L
475.634 627.761 L
487.345 630.672 L
499.465 633.707 L
503.395 634.771 L
514.209 637.699 L
517.247 638.569 L
532.26 643.063 L
533.9 643.57 L
540.335 645.574 L
541.245 645.861 L
551.877 649.217 L
558.582 651.343 L
567.388 654.125 L
580.678 658.254 L
583.034 658.954 L
592 661.619 L
601.598 664.228 L
609.702 666.078 L
616.524 667.383 L
622.249 669.021 L
627.044 672.454 L
629.173 674.073 L
631.886 676.136 L
637.796 678.569 L
645.025 680.916 L
653.892 683.689 L
664.804 687.121 L
678.285 691.396 L
680.115 691.975 L
695.022 696.691 L
715.921 703.156 L
733.62 708.457 L
736.36 709.267 L
754.342 714.585 L
775.787 721.11 L
789.323 725.436 L
798.459 728.567 L
809.089 732.211 L
826.074 738.838 L
840.604 745.738 L
852.986 752.191 L
865.587 758.27 L
867.021 758.941 L
S
GR
GS
[0.60063 0 0 0.6 0 0.40002] CT
1 LJ
0.833 LW
N
867.021 824.04 M
867.021 630.837 L
867.021 573.704 L
867.021 573.647 L
867.021 573.59 L
867.021 516.458 L
867.021 487.96 L
S
GR
GS
[0.60063 0 0 0.6 301.80003 38.53602] CT
/Helvetica-Bold 18.333 F
GS
[1 0 0 1 0 0] CT
-61.5 -4 moveto 
1 -1 scale
(Bode Diagram) t 
GR
GR
GS
[0.60063 0 0 0.6 301.80003 511.49999] CT
/Helvetica 18.333 F
GS
[1 0 0 1 0 0] CT
-74 19 moveto 
1 -1 scale
(Frequency  \(rad/s\)) t 
GR
GR
%%Trailer
%%Pages: 1
%%EOF
