%!PS-Adobe-3.0 EPSF-3.0
%%Creator: (MATLAB, The Mathworks, Inc. Version 9.1.0.441655 \(R2016b\). Operating System: Linux)
%%Title: /users/start2016/r0461511/Documents/system-identification/Oefenzitting_3/plots/bode_bj.eps
%%CreationDate: 2016-12-20T17:45:24
%%Pages: (atend)
%%BoundingBox: 0 0 1440 693
%%LanguageLevel: 3
%%EndComments
%%BeginProlog
%%BeginResource: procset (Apache XML Graphics Std ProcSet) 1.2 0
%%Version: 1.2 0
%%Copyright: (Copyright 2001-2003,2010 The Apache Software Foundation. License terms: http://www.apache.org/licenses/LICENSE-2.0)
/bd{bind def}bind def
/ld{load def}bd
/GR/grestore ld
/M/moveto ld
/LJ/setlinejoin ld
/C/curveto ld
/f/fill ld
/LW/setlinewidth ld
/GC/setgray ld
/t/show ld
/N/newpath ld
/CT/concat ld
/cp/closepath ld
/S/stroke ld
/L/lineto ld
/CC/setcmykcolor ld
/A/ashow ld
/GS/gsave ld
/RC/setrgbcolor ld
/RM/rmoveto ld
/ML/setmiterlimit ld
/re {4 2 roll M
1 index 0 rlineto
0 exch rlineto
neg 0 rlineto
cp } bd
/_ctm matrix def
/_tm matrix def
/BT { _ctm currentmatrix pop matrix _tm copy pop 0 0 moveto } bd
/ET { _ctm setmatrix } bd
/iTm { _ctm setmatrix _tm concat } bd
/Tm { _tm astore pop iTm 0 0 moveto } bd
/ux 0.0 def
/uy 0.0 def
/F {
  /Tp exch def
  /Tf exch def
  Tf findfont Tp scalefont setfont
  /cf Tf def  /cs Tp def
} bd
/ULS {currentpoint /uy exch def /ux exch def} bd
/ULE {
  /Tcx currentpoint pop def
  gsave
  newpath
  cf findfont cs scalefont dup
  /FontMatrix get 0 get /Ts exch def /FontInfo get dup
  /UnderlinePosition get Ts mul /To exch def
  /UnderlineThickness get Ts mul /Tt exch def
  ux uy To add moveto  Tcx uy To add lineto
  Tt setlinewidth stroke
  grestore
} bd
/OLE {
  /Tcx currentpoint pop def
  gsave
  newpath
  cf findfont cs scalefont dup
  /FontMatrix get 0 get /Ts exch def /FontInfo get dup
  /UnderlinePosition get Ts mul /To exch def
  /UnderlineThickness get Ts mul /Tt exch def
  ux uy To add cs add moveto Tcx uy To add cs add lineto
  Tt setlinewidth stroke
  grestore
} bd
/SOE {
  /Tcx currentpoint pop def
  gsave
  newpath
  cf findfont cs scalefont dup
  /FontMatrix get 0 get /Ts exch def /FontInfo get dup
  /UnderlinePosition get Ts mul /To exch def
  /UnderlineThickness get Ts mul /Tt exch def
  ux uy To add cs 10 mul 26 idiv add moveto Tcx uy To add cs 10 mul 26 idiv add lineto
  Tt setlinewidth stroke
  grestore
} bd
/QT {
/Y22 exch store
/X22 exch store
/Y21 exch store
/X21 exch store
currentpoint
/Y21 load 2 mul add 3 div exch
/X21 load 2 mul add 3 div exch
/X21 load 2 mul /X22 load add 3 div
/Y21 load 2 mul /Y22 load add 3 div
/X22 load /Y22 load curveto
} bd
/SSPD {
dup length /d exch dict def
{
/v exch def
/k exch def
currentpagedevice k known {
/cpdv currentpagedevice k get def
v cpdv ne {
/upd false def
/nullv v type /nulltype eq def
/nullcpdv cpdv type /nulltype eq def
nullv nullcpdv or
{
/upd true def
} {
/sametype v type cpdv type eq def
sametype {
v type /arraytype eq {
/vlen v length def
/cpdvlen cpdv length def
vlen cpdvlen eq {
0 1 vlen 1 sub {
/i exch def
/obj v i get def
/cpdobj cpdv i get def
obj cpdobj ne {
/upd true def
exit
} if
} for
} {
/upd true def
} ifelse
} {
v type /dicttype eq {
v {
/dv exch def
/dk exch def
/cpddv cpdv dk get def
dv cpddv ne {
/upd true def
exit
} if
} forall
} {
/upd true def
} ifelse
} ifelse
} if
} ifelse
upd true eq {
d k v put
} if
} if
} if
} forall
d length 0 gt {
d setpagedevice
} if
} bd
/RE { % /NewFontName [NewEncodingArray] /FontName RE -
  findfont dup length dict begin
  {
    1 index /FID ne
    {def} {pop pop} ifelse
  } forall
  /Encoding exch def
  /FontName 1 index def
  currentdict definefont pop
  end
} bind def
%%EndResource
%%BeginResource: procset (Apache XML Graphics EPS ProcSet) 1.0 0
%%Version: 1.0 0
%%Copyright: (Copyright 2002-2003 The Apache Software Foundation. License terms: http://www.apache.org/licenses/LICENSE-2.0)
/BeginEPSF { %def
/b4_Inc_state save def         % Save state for cleanup
/dict_count countdictstack def % Count objects on dict stack
/op_count count 1 sub def      % Count objects on operand stack
userdict begin                 % Push userdict on dict stack
/showpage { } def              % Redefine showpage, { } = null proc
0 setgray 0 setlinecap         % Prepare graphics state
1 setlinewidth 0 setlinejoin
10 setmiterlimit [ ] 0 setdash newpath
/languagelevel where           % If level not equal to 1 then
{pop languagelevel             % set strokeadjust and
1 ne                           % overprint to their defaults.
{false setstrokeadjust false setoverprint
} if
} if
} bd
/EndEPSF { %def
count op_count sub {pop} repeat            % Clean up stacks
countdictstack dict_count sub {end} repeat
b4_Inc_state restore
} bd
%%EndResource
%FOPBeginFontDict
%%IncludeResource: font Courier-Bold
%%IncludeResource: font Helvetica
%%IncludeResource: font Courier-BoldOblique
%%IncludeResource: font Courier-Oblique
%%IncludeResource: font Times-Roman
%%IncludeResource: font Helvetica-BoldOblique
%%IncludeResource: font Helvetica-Bold
%%IncludeResource: font Helvetica-Oblique
%%IncludeResource: font Times-BoldItalic
%%IncludeResource: font Courier
%%IncludeResource: font Times-Italic
%%IncludeResource: font Times-Bold
%%IncludeResource: font Symbol
%%IncludeResource: font ZapfDingbats
%FOPEndFontDict
%%BeginResource: encoding WinAnsiEncoding
/WinAnsiEncoding [
/.notdef /.notdef /.notdef /.notdef /.notdef
/.notdef /.notdef /.notdef /.notdef /.notdef
/.notdef /.notdef /.notdef /.notdef /.notdef
/.notdef /.notdef /.notdef /.notdef /.notdef
/.notdef /.notdef /.notdef /.notdef /.notdef
/.notdef /.notdef /.notdef /.notdef /.notdef
/.notdef /.notdef /space /exclam /quotedbl
/numbersign /dollar /percent /ampersand /quotesingle
/parenleft /parenright /asterisk /plus /comma
/hyphen /period /slash /zero /one
/two /three /four /five /six
/seven /eight /nine /colon /semicolon
/less /equal /greater /question /at
/A /B /C /D /E
/F /G /H /I /J
/K /L /M /N /O
/P /Q /R /S /T
/U /V /W /X /Y
/Z /bracketleft /backslash /bracketright /asciicircum
/underscore /quoteleft /a /b /c
/d /e /f /g /h
/i /j /k /l /m
/n /o /p /q /r
/s /t /u /v /w
/x /y /z /braceleft /bar
/braceright /asciitilde /bullet /Euro /bullet
/quotesinglbase /florin /quotedblbase /ellipsis /dagger
/daggerdbl /circumflex /perthousand /Scaron /guilsinglleft
/OE /bullet /Zcaron /bullet /bullet
/quoteleft /quoteright /quotedblleft /quotedblright /bullet
/endash /emdash /asciitilde /trademark /scaron
/guilsinglright /oe /bullet /zcaron /Ydieresis
/space /exclamdown /cent /sterling /currency
/yen /brokenbar /section /dieresis /copyright
/ordfeminine /guillemotleft /logicalnot /sfthyphen /registered
/macron /degree /plusminus /twosuperior /threesuperior
/acute /mu /paragraph /middot /cedilla
/onesuperior /ordmasculine /guillemotright /onequarter /onehalf
/threequarters /questiondown /Agrave /Aacute /Acircumflex
/Atilde /Adieresis /Aring /AE /Ccedilla
/Egrave /Eacute /Ecircumflex /Edieresis /Igrave
/Iacute /Icircumflex /Idieresis /Eth /Ntilde
/Ograve /Oacute /Ocircumflex /Otilde /Odieresis
/multiply /Oslash /Ugrave /Uacute /Ucircumflex
/Udieresis /Yacute /Thorn /germandbls /agrave
/aacute /acircumflex /atilde /adieresis /aring
/ae /ccedilla /egrave /eacute /ecircumflex
/edieresis /igrave /iacute /icircumflex /idieresis
/eth /ntilde /ograve /oacute /ocircumflex
/otilde /odieresis /divide /oslash /ugrave
/uacute /ucircumflex /udieresis /yacute /thorn
/ydieresis
] def
%%EndResource
%FOPBeginFontReencode
/Courier-Bold findfont
dup length dict begin
  {1 index /FID ne {def} {pop pop} ifelse} forall
  /Encoding WinAnsiEncoding def
  currentdict
end
/Courier-Bold exch definefont pop
/Helvetica findfont
dup length dict begin
  {1 index /FID ne {def} {pop pop} ifelse} forall
  /Encoding WinAnsiEncoding def
  currentdict
end
/Helvetica exch definefont pop
/Courier-BoldOblique findfont
dup length dict begin
  {1 index /FID ne {def} {pop pop} ifelse} forall
  /Encoding WinAnsiEncoding def
  currentdict
end
/Courier-BoldOblique exch definefont pop
/Courier-Oblique findfont
dup length dict begin
  {1 index /FID ne {def} {pop pop} ifelse} forall
  /Encoding WinAnsiEncoding def
  currentdict
end
/Courier-Oblique exch definefont pop
/Times-Roman findfont
dup length dict begin
  {1 index /FID ne {def} {pop pop} ifelse} forall
  /Encoding WinAnsiEncoding def
  currentdict
end
/Times-Roman exch definefont pop
/Helvetica-BoldOblique findfont
dup length dict begin
  {1 index /FID ne {def} {pop pop} ifelse} forall
  /Encoding WinAnsiEncoding def
  currentdict
end
/Helvetica-BoldOblique exch definefont pop
/Helvetica-Bold findfont
dup length dict begin
  {1 index /FID ne {def} {pop pop} ifelse} forall
  /Encoding WinAnsiEncoding def
  currentdict
end
/Helvetica-Bold exch definefont pop
/Helvetica-Oblique findfont
dup length dict begin
  {1 index /FID ne {def} {pop pop} ifelse} forall
  /Encoding WinAnsiEncoding def
  currentdict
end
/Helvetica-Oblique exch definefont pop
/Times-BoldItalic findfont
dup length dict begin
  {1 index /FID ne {def} {pop pop} ifelse} forall
  /Encoding WinAnsiEncoding def
  currentdict
end
/Times-BoldItalic exch definefont pop
/Courier findfont
dup length dict begin
  {1 index /FID ne {def} {pop pop} ifelse} forall
  /Encoding WinAnsiEncoding def
  currentdict
end
/Courier exch definefont pop
/Times-Italic findfont
dup length dict begin
  {1 index /FID ne {def} {pop pop} ifelse} forall
  /Encoding WinAnsiEncoding def
  currentdict
end
/Times-Italic exch definefont pop
/Times-Bold findfont
dup length dict begin
  {1 index /FID ne {def} {pop pop} ifelse} forall
  /Encoding WinAnsiEncoding def
  currentdict
end
/Times-Bold exch definefont pop
%FOPEndFontReencode
%%EndProlog
%%Page: 1 1
%%PageBoundingBox: 0 0 1440 693
%%BeginPageSetup
[1 0 0 -1 0 693] CT
%%EndPageSetup
GS
[0.75 0 0 0.75 0 0] CT
1 GC
N
0 0 1920 924 re
f
GR
GS
[0.75 0 0 0.75 0 0] CT
1 GC
N
0 0 1920 924 re
f
GR
GS
[0.75 0 0 0.75 0 0] CT
1 GC
N
262 471 M
1738 471 L
1738 89 L
262 89 L
cp
f
GR
GS
[0.75 0 0 0.75 0 0] CT
0.4 GC
2 setlinecap
1 LJ
0.667 LW
N
262 471 M
1738 471 L
S
GR
GS
[0.75 0 0 0.75 0 0] CT
0.4 GC
2 setlinecap
1 LJ
0.667 LW
N
262 89 M
1738 89 L
S
GR
GS
[0.75 0 0 0.75 0 0] CT
0.4 GC
2 setlinecap
1 LJ
0.667 LW
N
496.992 471 M
496.992 456.24 L
S
GR
GS
[0.75 0 0 0.75 0 0] CT
0.4 GC
2 setlinecap
1 LJ
0.667 LW
N
732.032 471 M
732.032 456.24 L
S
GR
GS
[0.75 0 0 0.75 0 0] CT
0.4 GC
2 setlinecap
1 LJ
0.667 LW
N
967.071 471 M
967.071 456.24 L
S
GR
GS
[0.75 0 0 0.75 0 0] CT
0.4 GC
2 setlinecap
1 LJ
0.667 LW
N
1202.11 471 M
1202.11 456.24 L
S
GR
GS
[0.75 0 0 0.75 0 0] CT
0.4 GC
2 setlinecap
1 LJ
0.667 LW
N
1437.15 471 M
1437.15 456.24 L
S
GR
GS
[0.75 0 0 0.75 0 0] CT
0.4 GC
2 setlinecap
1 LJ
0.667 LW
N
1672.189 471 M
1672.189 456.24 L
S
GR
GS
[0.75 0 0 0.75 0 0] CT
0.4 GC
2 setlinecap
1 LJ
0.667 LW
N
496.992 89 M
496.992 103.76 L
S
GR
GS
[0.75 0 0 0.75 0 0] CT
0.4 GC
2 setlinecap
1 LJ
0.667 LW
N
732.032 89 M
732.032 103.76 L
S
GR
GS
[0.75 0 0 0.75 0 0] CT
0.4 GC
2 setlinecap
1 LJ
0.667 LW
N
967.071 89 M
967.071 103.76 L
S
GR
GS
[0.75 0 0 0.75 0 0] CT
0.4 GC
2 setlinecap
1 LJ
0.667 LW
N
1202.11 89 M
1202.11 103.76 L
S
GR
GS
[0.75 0 0 0.75 0 0] CT
0.4 GC
2 setlinecap
1 LJ
0.667 LW
N
1437.15 89 M
1437.15 103.76 L
S
GR
GS
[0.75 0 0 0.75 0 0] CT
0.4 GC
2 setlinecap
1 LJ
0.667 LW
N
1672.189 89 M
1672.189 103.76 L
S
GR
GS
[0.75 0 0 0.75 0 0] CT
0.4 GC
2 setlinecap
1 LJ
0.667 LW
N
262 471 M
262 89 L
S
GR
GS
[0.75 0 0 0.75 0 0] CT
0.4 GC
2 setlinecap
1 LJ
0.667 LW
N
1738 471 M
1738 89 L
S
GR
GS
[0.75 0 0 0.75 0 0] CT
0.4 GC
2 setlinecap
1 LJ
0.667 LW
N
262 471 M
276.76 471 L
S
GR
GS
[0.75 0 0 0.75 0 0] CT
0.4 GC
2 setlinecap
1 LJ
0.667 LW
N
262 416.429 M
276.76 416.429 L
S
GR
GS
[0.75 0 0 0.75 0 0] CT
0.4 GC
2 setlinecap
1 LJ
0.667 LW
N
262 361.857 M
276.76 361.857 L
S
GR
GS
[0.75 0 0 0.75 0 0] CT
0.4 GC
2 setlinecap
1 LJ
0.667 LW
N
262 307.286 M
276.76 307.286 L
S
GR
GS
[0.75 0 0 0.75 0 0] CT
0.4 GC
2 setlinecap
1 LJ
0.667 LW
N
262 252.714 M
276.76 252.714 L
S
GR
GS
[0.75 0 0 0.75 0 0] CT
0.4 GC
2 setlinecap
1 LJ
0.667 LW
N
262 198.143 M
276.76 198.143 L
S
GR
GS
[0.75 0 0 0.75 0 0] CT
0.4 GC
2 setlinecap
1 LJ
0.667 LW
N
262 143.571 M
276.76 143.571 L
S
GR
GS
[0.75 0 0 0.75 0 0] CT
0.4 GC
2 setlinecap
1 LJ
0.667 LW
N
262 89 M
276.76 89 L
S
GR
GS
[0.75 0 0 0.75 0 0] CT
0.4 GC
2 setlinecap
1 LJ
0.667 LW
N
1738 471 M
1723.24 471 L
S
GR
GS
[0.75 0 0 0.75 0 0] CT
0.4 GC
2 setlinecap
1 LJ
0.667 LW
N
1738 416.429 M
1723.24 416.429 L
S
GR
GS
[0.75 0 0 0.75 0 0] CT
0.4 GC
2 setlinecap
1 LJ
0.667 LW
N
1738 361.857 M
1723.24 361.857 L
S
GR
GS
[0.75 0 0 0.75 0 0] CT
0.4 GC
2 setlinecap
1 LJ
0.667 LW
N
1738 307.286 M
1723.24 307.286 L
S
GR
GS
[0.75 0 0 0.75 0 0] CT
0.4 GC
2 setlinecap
1 LJ
0.667 LW
N
1738 252.714 M
1723.24 252.714 L
S
GR
GS
[0.75 0 0 0.75 0 0] CT
0.4 GC
2 setlinecap
1 LJ
0.667 LW
N
1738 198.143 M
1723.24 198.143 L
S
GR
GS
[0.75 0 0 0.75 0 0] CT
0.4 GC
2 setlinecap
1 LJ
0.667 LW
N
1738 143.571 M
1723.24 143.571 L
S
GR
GS
[0.75 0 0 0.75 0 0] CT
0.4 GC
2 setlinecap
1 LJ
0.667 LW
N
1738 89 M
1723.24 89 L
S
GR
GS
[0.75 0 0 0.75 192.49999 353.25] CT
0.4 GC
/Helvetica 13.333 F
GS
[1 0 0 1 0 0] CT
-22 4.5 moveto 
1 -1 scale
(-60) t 
GR
GR
GS
[0.75 0 0 0.75 192.49999 312.32142] CT
0.4 GC
/Helvetica 13.333 F
GS
[1 0 0 1 0 0] CT
-22 4.5 moveto 
1 -1 scale
(-50) t 
GR
GR
GS
[0.75 0 0 0.75 192.49999 271.39286] CT
0.4 GC
/Helvetica 13.333 F
GS
[1 0 0 1 0 0] CT
-22 4.5 moveto 
1 -1 scale
(-40) t 
GR
GR
GS
[0.75 0 0 0.75 192.49999 230.46428] CT
0.4 GC
/Helvetica 13.333 F
GS
[1 0 0 1 0 0] CT
-22 4.5 moveto 
1 -1 scale
(-30) t 
GR
GR
GS
[0.75 0 0 0.75 192.49999 189.53571] CT
0.4 GC
/Helvetica 13.333 F
GS
[1 0 0 1 0 0] CT
-22 4.5 moveto 
1 -1 scale
(-20) t 
GR
GR
GS
[0.75 0 0 0.75 192.49999 148.60714] CT
0.4 GC
/Helvetica 13.333 F
GS
[1 0 0 1 0 0] CT
-22 4.5 moveto 
1 -1 scale
(-10) t 
GR
GR
GS
[0.75 0 0 0.75 192.49999 107.67857] CT
0.4 GC
/Helvetica 13.333 F
GS
[1 0 0 1 0 0] CT
-9 4.5 moveto 
1 -1 scale
(0) t 
GR
GR
GS
[0.75 0 0 0.75 192.49999 66.75] CT
0.4 GC
/Helvetica 13.333 F
GS
[1 0 0 1 0 0] CT
-17 4.5 moveto 
1 -1 scale
(10) t 
GR
GR
GS
[0 -0.75 0.75 0 173 209.99986] CT
/Helvetica 14.667 F
GS
[1 0 0 1 0 0] CT
-58 -4 moveto 
1 -1 scale
(Magnitude \(dB\)) t 
GR
GR
GS
[0.75 0 0 0.75 750.00073 64.875] CT
0.4 GC
/Helvetica 13.333 F
GS
[1 0 0 1 0 0] CT
-54 -4 moveto 
1 -1 scale
(From: u1  To: y1) t 
GR
GR
GS
[0.75 0 0 0.75 0 0] CT
0 0.447 0.741 RC
1 LJ
0.667 LW
N
261.953 410.761 M
261.953 410.761 L
261.953 410.761 L
261.953 410.761 L
261.955 410.761 L
261.969 410.751 L
261.971 410.748 L
261.974 410.743 L
261.978 410.737 L
261.982 410.729 L
261.987 410.717 L
261.993 410.701 L
261.999 410.68 L
262.007 410.65 L
262.016 410.611 L
262.026 410.557 L
262.038 410.484 L
262.053 410.385 L
262.069 410.252 L
262.088 410.071 L
262.111 409.828 L
262.137 409.501 L
262.168 409.063 L
262.203 408.481 L
262.245 407.711 L
262.293 406.704 L
262.35 405.399 L
262.416 403.732 L
262.493 401.639 L
262.582 399.061 L
262.687 395.952 L
262.809 392.289 L
262.951 388.072 L
263.116 383.328 L
263.31 378.102 L
263.535 372.454 L
263.798 366.451 L
264.104 360.154 L
264.461 353.624 L
264.878 346.91 L
265.363 340.053 L
265.93 333.088 L
266.59 326.041 L
267.36 318.931 L
268.258 311.775 L
269.306 304.583 L
270.527 297.363 L
271.951 290.123 L
273.49 283.355 L
273.611 282.864 L
274.691 278.669 L
275.547 275.591 L
276.017 273.978 L
277.481 269.281 L
277.805 268.302 L
279.098 264.576 L
280.438 260.999 L
280.882 259.866 L
282.853 255.149 L
283.507 253.678 L
285.028 250.421 L
287.087 246.337 L
287.43 245.688 L
290.082 240.939 L
291.262 238.968 L
293.01 236.177 L
296.129 231.564 L
296.242 231.404 L
299.811 226.6 L
301.805 224.11 L
303.752 221.775 L
308.103 216.928 L
308.424 216.589 L
312.907 212.024 L
316.142 208.972 L
318.21 207.081 L
324.066 202.084 L
325.141 201.217 L
330.531 196.979 L
335.636 193.261 L
337.67 191.797 L
345.551 186.475 L
347.873 185.002 L
354.253 180.932 L
362.142 176.27 L
363.86 175.259 L
365.714 174.187 L
374.468 169.083 L
381.31 165.363 L
386.179 162.541 L
396.628 156.843 L
399.11 155.367 L
411.405 148.432 L
413.386 147.196 L
425.443 140.007 L
429.149 137.569 L
438.602 131.587 L
446.552 126.216 L
450.796 123.444 L
461.984 116.231 L
465.767 114.231 L
472.161 110.934 L
481.352 108.36 L
486.982 108.556 L
490.945 108.691 L
502.597 112.649 L
510.405 116.612 L
516.854 119.792 L
522.991 122.864 L
534.449 127.952 L
536.267 128.617 L
542.698 130.934 L
556.381 134.55 L
564.82 135.942 L
566.727 136.251 L
584.036 137.394 L
588.174 137.394 L
596.345 136.717 L
616.699 135.102 L
631.152 132.34 L
643.163 130.126 L
667.444 123.78 L
669.582 123.139 L
689.514 117.321 L
709.411 112.312 L
712.012 111.979 L
727.225 110.063 L
745.748 110.874 L
758.858 113.245 L
768.262 114.908 L
791.137 119.294 L
810.581 121.573 L
812.2 121.759 L
830.688 123.612 L
846.826 128.239 L
863.422 138.2 L
867.687 141.436 L
883.631 153.336 L
884.808 154.185 L
908.376 169.078 L
912.974 171.511 L
930.737 179.493 L
938.874 183.079 L
947.453 186.341 L
976.753 196.401 L
989.996 200.678 L
1000.351 204.071 L
1024.232 211.72 L
1032.457 214.45 L
1075.287 229.752 L
1077.21 230.579 L
1112.803 245.529 L
1145.396 262.192 L
1162.07 272.908 L
1173.516 280.15 L
1197.64 299.962 L
1218.237 322.2 L
1235.752 345.497 L
1250.597 358.481 L
1255.763 355.509 L
1265.668 349.854 L
1284.052 331.954 L
1306.551 316.3 L
1334.195 304.608 L
1344.417 301.682 L
1348.103 300.77 L
1359.208 298.821 L
1376.198 295.877 L
1379.992 295.458 L
1403.156 293.962 L
1407.042 293.88 L
1425.917 294.16 L
1429.88 294.367 L
1445.062 295.714 L
1449.09 296.246 L
1461.115 298.46 L
1465.198 299.516 L
1473.421 302.606 L
1474.54 303.025 L
1478.669 305.472 L
1485.744 313.152 L
1489.911 324.285 L
1495.078 436.435 L
1499.277 177.915 L
1504.484 270.398 L
1508.714 281.653 L
1515.964 289.782 L
1520.234 292.604 L
1530.004 297.261 L
1534.322 298.954 L
1547.21 303.541 L
1551.586 305.043 L
1568.35 310.9 L
1572.798 312.522 L
1594.405 321.033 L
1598.942 322.967 L
1599.522 323.23 L
1617.815 331.462 L
1647.134 342.545 L
1672.141 337.003 L
1676.974 333.469 L
1701.179 307.737 L
1721.587 279.006 L
1738.176 262.49 L
S
GR
GS
[0.75 0 0 0.75 0 0] CT
1 0 1 RC
1 LJ
0.667 LW
N
261.953 318.212 M
264.918 317.235 L
267.884 317.084 L
270.849 316.756 L
273.815 316.491 L
276.78 315.025 L
279.746 312.558 L
282.711 308.533 L
285.677 302.813 L
288.642 295.279 L
291.608 287.057 L
294.573 276.837 L
297.538 266.131 L
300.504 255.396 L
303.469 245.074 L
306.435 235.367 L
309.4 228.226 L
312.366 221.934 L
315.331 216.438 L
318.297 211.7 L
321.262 207.428 L
324.228 202.923 L
327.193 198.923 L
330.158 195.34 L
333.124 192.118 L
336.089 189.199 L
339.055 186.512 L
342.02 184.038 L
344.986 181.777 L
347.951 179.662 L
350.917 177.675 L
353.882 175.785 L
356.848 173.978 L
359.813 172.222 L
362.778 170.533 L
365.744 168.89 L
368.709 167.317 L
371.675 165.805 L
374.64 164.373 L
377.606 163.001 L
380.571 161.697 L
383.537 160.413 L
386.502 159.143 L
389.467 157.843 L
392.433 156.496 L
395.398 155.055 L
398.364 153.523 L
401.329 151.87 L
404.295 150.093 L
407.26 148.188 L
410.226 146.193 L
413.191 144.109 L
416.157 141.96 L
419.122 139.73 L
422.087 137.453 L
425.053 135.099 L
428.018 132.671 L
430.984 130.159 L
433.949 127.604 L
436.915 124.985 L
439.88 122.325 L
442.846 119.65 L
445.811 116.977 L
448.777 114.307 L
451.742 111.67 L
454.707 109.094 L
457.673 106.603 L
460.638 104.245 L
463.604 102.071 L
466.569 100.119 L
469.535 98.436 L
472.5 97.064 L
475.466 96.03 L
478.431 95.351 L
481.397 95.034 L
484.362 95.059 L
487.327 95.412 L
490.293 96.049 L
493.258 96.929 L
496.224 98.011 L
499.189 99.264 L
502.155 100.628 L
505.12 102.081 L
508.086 103.59 L
511.051 105.116 L
514.016 106.637 L
516.982 108.141 L
519.947 109.6 L
522.913 110.988 L
525.878 112.321 L
528.844 113.585 L
531.809 114.784 L
534.775 115.922 L
537.74 117.018 L
540.706 118.06 L
543.671 119.041 L
546.636 119.952 L
549.602 120.804 L
552.567 121.591 L
555.533 122.313 L
558.498 122.97 L
561.464 123.582 L
564.429 124.146 L
567.395 124.652 L
570.36 125.103 L
573.326 125.523 L
576.291 125.893 L
579.256 126.193 L
582.222 126.451 L
585.187 126.66 L
588.153 126.799 L
591.118 126.875 L
594.084 126.916 L
597.049 126.899 L
600.015 126.838 L
602.98 126.738 L
605.946 126.61 L
608.911 126.43 L
611.876 126.217 L
614.842 125.961 L
617.807 125.669 L
620.773 125.322 L
623.738 124.953 L
626.704 124.531 L
629.669 124.062 L
632.635 123.547 L
635.6 122.996 L
638.566 122.39 L
641.531 121.752 L
644.496 121.085 L
647.462 120.376 L
650.427 119.635 L
653.393 118.852 L
656.358 118.028 L
659.324 117.161 L
662.289 116.269 L
665.255 115.335 L
668.22 114.37 L
671.186 113.384 L
674.151 112.377 L
677.116 111.351 L
680.082 110.314 L
683.047 109.28 L
686.013 108.242 L
688.978 107.215 L
691.944 106.195 L
694.909 105.201 L
697.875 104.229 L
700.84 103.298 L
703.805 102.411 L
706.771 101.585 L
709.736 100.827 L
712.702 100.145 L
715.667 99.545 L
718.633 99.034 L
721.598 98.618 L
724.564 98.296 L
727.529 98.074 L
730.495 97.951 L
733.46 97.924 L
736.426 97.988 L
739.391 98.145 L
742.356 98.384 L
745.322 98.703 L
748.287 99.092 L
751.253 99.542 L
754.218 100.038 L
757.184 100.576 L
760.149 101.14 L
763.115 101.726 L
766.08 102.328 L
769.045 102.935 L
772.011 103.537 L
774.976 104.129 L
777.942 104.702 L
780.907 105.254 L
783.873 105.786 L
786.838 106.297 L
789.804 106.79 L
792.769 107.264 L
795.735 107.722 L
798.7 108.171 L
801.665 108.616 L
804.631 109.062 L
807.596 109.514 L
810.562 109.979 L
813.527 110.463 L
816.493 110.983 L
819.458 111.549 L
822.424 112.175 L
825.389 112.883 L
828.355 113.679 L
831.32 114.569 L
834.285 115.566 L
837.251 116.689 L
840.216 117.928 L
843.182 119.307 L
846.147 120.814 L
849.113 122.451 L
852.078 124.205 L
855.044 126.086 L
858.009 128.062 L
860.974 130.135 L
863.94 132.29 L
866.905 134.511 L
869.871 136.776 L
872.836 139.073 L
875.802 141.405 L
878.767 143.745 L
881.733 146.071 L
884.698 148.339 L
887.664 150.536 L
890.629 152.609 L
893.595 154.539 L
896.56 156.333 L
899.525 158.05 L
902.491 159.7 L
905.456 161.352 L
908.422 163.049 L
911.387 164.796 L
914.353 166.575 L
917.318 168.38 L
920.284 170.166 L
923.249 171.925 L
926.214 173.645 L
929.18 175.306 L
932.145 176.909 L
935.111 178.47 L
938.076 179.964 L
941.042 181.399 L
944.007 182.777 L
946.973 184.108 L
949.938 185.373 L
952.904 186.589 L
955.869 187.749 L
958.835 188.854 L
961.8 189.89 L
964.765 190.869 L
967.731 191.778 L
970.696 192.605 L
973.662 193.372 L
976.627 194.076 L
979.593 194.706 L
982.558 195.261 L
985.524 195.764 L
988.489 196.216 L
991.454 196.586 L
994.42 196.872 L
997.385 197.079 L
1000.351 197.208 L
1003.316 197.215 L
1006.282 197.167 L
1009.247 197.1 L
1012.213 197.015 L
1015.178 196.919 L
1018.144 196.846 L
1021.109 196.796 L
1024.074 196.755 L
1027.04 196.761 L
1030.005 196.83 L
1032.971 197.024 L
1035.936 197.39 L
1038.902 197.965 L
1041.867 198.803 L
1044.833 199.963 L
1047.798 201.442 L
1050.764 203.223 L
1053.729 205.337 L
1056.694 207.759 L
1059.66 210.42 L
1062.625 213.329 L
1065.591 216.438 L
1068.556 219.693 L
1071.522 223.051 L
1074.487 226.523 L
1077.453 229.995 L
1080.418 233.534 L
1083.384 237.109 L
1086.349 240.441 L
1089.314 243.752 L
1092.28 247.077 L
1095.245 250.289 L
1098.211 253.393 L
1101.176 256.911 L
1104.142 260.345 L
1107.107 263.722 L
1110.073 266.94 L
1113.038 269.746 L
1116.004 272.199 L
1118.969 274.475 L
1121.934 276.506 L
1124.9 278.578 L
1127.865 281.327 L
1130.831 283.635 L
1133.796 285.853 L
1136.762 288.144 L
1139.727 290.252 L
1142.693 291.698 L
1145.658 291.823 L
1148.623 291.976 L
1151.589 291.955 L
1154.554 291.365 L
1157.52 290.799 L
1160.485 293.537 L
1163.451 296.172 L
1166.416 298.7 L
1169.382 301.896 L
1172.347 305.046 L
1175.313 306.36 L
1178.278 306.261 L
1181.244 305.978 L
1184.209 305.703 L
1187.174 305.203 L
1190.14 304.527 L
1193.105 306.38 L
1196.071 308.384 L
1199.036 310.031 L
1202.002 311.897 L
1204.967 313.861 L
1207.932 314.299 L
1210.898 314.713 L
1213.863 314.783 L
1216.829 313.201 L
1219.794 311.287 L
1222.76 309.557 L
1225.725 307.534 L
1228.691 306.083 L
1231.656 306.873 L
1234.622 308.133 L
1237.587 309.361 L
1240.552 311.072 L
1243.518 312.581 L
1246.484 313.968 L
1249.449 315.122 L
1252.414 316.326 L
1255.38 316.593 L
1258.345 316.795 L
1261.311 314.185 L
1264.276 310.68 L
1267.242 307.087 L
1270.207 304.758 L
1273.173 302.405 L
1276.138 304.455 L
1279.103 308.204 L
1282.069 312.038 L
1285.034 314.824 L
1288 316.76 L
1290.965 316.486 L
1293.931 315.381 L
1296.896 314.088 L
1299.862 313.547 L
1302.827 314.633 L
1305.792 315.556 L
1308.758 316.533 L
1311.723 317.799 L
1314.689 318.666 L
1317.654 318.717 L
1320.62 318.978 L
1323.585 319.065 L
1326.551 318.842 L
1329.516 318.838 L
1332.482 317.888 L
1335.447 316.792 L
1338.412 315.561 L
1341.378 314.448 L
1344.343 312.638 L
1347.309 312.834 L
1350.274 313.182 L
1353.24 314.052 L
1356.205 315.086 L
1359.171 317.038 L
1362.136 317.822 L
1365.102 317.234 L
1368.067 314.87 L
1371.032 312.26 L
1373.998 309.307 L
1376.963 305.907 L
1379.929 304.99 L
1382.894 306.707 L
1385.86 308.501 L
1388.825 310.286 L
1391.791 313.316 L
1394.756 315.209 L
1397.722 316.216 L
1400.687 317.386 L
1403.652 318.568 L
1406.618 318.893 L
1409.583 319.14 L
1412.549 319.265 L
1415.514 319.11 L
1418.48 318.727 L
1421.445 318.729 L
1424.411 317.909 L
1427.376 316.774 L
1430.342 315.808 L
1433.307 315.119 L
1436.272 314.224 L
1439.238 315.03 L
1442.203 316.096 L
1445.169 317.064 L
1448.134 317.043 L
1451.1 317 L
1454.065 315.987 L
1457.031 313.111 L
1459.996 310.358 L
1462.962 309.383 L
1465.927 307.211 L
1468.892 305.075 L
1471.858 305.059 L
1474.823 305.031 L
1477.789 301.85 L
1480.754 301.105 L
1483.72 298.602 L
1486.685 296.601 L
1489.651 294.588 L
1492.616 297.113 L
1495.582 298.372 L
1498.547 303.378 L
1501.512 308.126 L
1504.478 312.758 L
1507.443 315.117 L
1510.409 316.997 L
1513.374 316.975 L
1516.34 315.539 L
1519.305 314.282 L
1522.271 313.023 L
1525.236 312.912 L
1528.201 312.779 L
1531.167 314.288 L
1534.132 314.654 L
1537.098 315.076 L
1540.063 314.887 L
1543.029 314.716 L
1545.994 313.714 L
1548.96 314.881 L
1551.925 315.957 L
1554.891 316.816 L
1557.856 317.637 L
1560.822 317.53 L
1563.787 316.12 L
1566.752 314.845 L
1569.718 313.971 L
1572.683 313.001 L
1575.649 313.945 L
1578.614 315.167 L
1581.58 316.317 L
1584.545 317.404 L
1587.511 318.603 L
1590.476 318.738 L
1593.442 318.861 L
1596.407 318.973 L
1599.372 318.009 L
1602.338 317.223 L
1605.303 316.454 L
1608.269 315.456 L
1611.234 314.344 L
1614.2 315.128 L
1617.165 314.939 L
1620.131 315.009 L
1623.096 315.277 L
1626.061 315.47 L
1629.027 314.704 L
1631.992 315.538 L
1634.958 316.006 L
1637.923 316.304 L
1640.889 314.184 L
1643.854 312.205 L
1646.82 309.278 L
1649.785 305.582 L
1652.75 302.015 L
1655.716 303.9 L
1658.681 305.58 L
1661.647 307.444 L
1664.612 309.143 L
1667.578 310.878 L
1670.543 308.135 L
1673.509 305.442 L
1676.474 302.498 L
1679.44 302.813 L
1682.405 303.162 L
1685.37 306.788 L
1688.336 310.43 L
1691.301 314.474 L
1694.267 316.405 L
1697.232 318.284 L
1700.198 318.445 L
1703.163 318.594 L
1706.129 318.362 L
1709.094 318.141 L
1712.06 317.785 L
1715.025 317.486 L
1717.991 317.23 L
1720.956 317.333 L
1723.921 317.449 L
1726.887 317.808 L
1729.852 318.363 L
1732.818 319.126 L
1735.783 319.841 L
1738.176 320.674 L
S
GR
GS
[0.75 0 0 0.75 0 0] CT
1 GC
N
1542 137 M
1542 102 L
1725 102 L
1725 137 L
cp
f
GR
GS
[0.75 0 0 0.75 1184.25 83.72826] CT
/Helvetica 12 F
GS
[1 0 0 1 0 0] CT
0 4.5 moveto 
1 -1 scale
(BJ) t 
GR
GR
GS
[0.75 0 0 0.75 0 0] CT
0 0.447 0.741 RC
1 LJ
0.667 LW
N
1546 111.638 M
1576 111.638 L
S
GR
GS
[0.75 0 0 0.75 1184.25 95.52174] CT
/Helvetica 12 F
GS
[1 0 0 1 0 0] CT
0 4.5 moveto 
1 -1 scale
(Experimental Bode plot) t 
GR
GR
GS
[0.75 0 0 0.75 0 0] CT
1 0 1 RC
1 LJ
0.667 LW
N
1546 127.362 M
1576 127.362 L
S
GR
GS
[0.75 0 0 0.75 0 0] CT
0.149 GC
10.0 ML
0.667 LW
N
1542 137 M
1542 102 L
1725 102 L
1725 137 L
cp
S
GR
GS
[0.75 0 0 0.75 0 0] CT
1 GC
N
262 822 M
1738 822 L
1738 483 L
262 483 L
cp
f
GR
GS
[0.75 0 0 0.75 0 0] CT
0.4 GC
2 setlinecap
1 LJ
0.667 LW
N
262 822 M
1738 822 L
S
GR
GS
[0.75 0 0 0.75 0 0] CT
0.4 GC
2 setlinecap
1 LJ
0.667 LW
N
262 483 M
1738 483 L
S
GR
GS
[0.75 0 0 0.75 0 0] CT
0.4 GC
2 setlinecap
1 LJ
0.667 LW
N
496.992 822 M
496.992 807.24 L
S
GR
GS
[0.75 0 0 0.75 0 0] CT
0.4 GC
2 setlinecap
1 LJ
0.667 LW
N
732.032 822 M
732.032 807.24 L
S
GR
GS
[0.75 0 0 0.75 0 0] CT
0.4 GC
2 setlinecap
1 LJ
0.667 LW
N
967.071 822 M
967.071 807.24 L
S
GR
GS
[0.75 0 0 0.75 0 0] CT
0.4 GC
2 setlinecap
1 LJ
0.667 LW
N
1202.11 822 M
1202.11 807.24 L
S
GR
GS
[0.75 0 0 0.75 0 0] CT
0.4 GC
2 setlinecap
1 LJ
0.667 LW
N
1437.15 822 M
1437.15 807.24 L
S
GR
GS
[0.75 0 0 0.75 0 0] CT
0.4 GC
2 setlinecap
1 LJ
0.667 LW
N
1672.189 822 M
1672.189 807.24 L
S
GR
GS
[0.75 0 0 0.75 0 0] CT
0.4 GC
2 setlinecap
1 LJ
0.667 LW
N
496.992 483 M
496.992 497.76 L
S
GR
GS
[0.75 0 0 0.75 0 0] CT
0.4 GC
2 setlinecap
1 LJ
0.667 LW
N
732.032 483 M
732.032 497.76 L
S
GR
GS
[0.75 0 0 0.75 0 0] CT
0.4 GC
2 setlinecap
1 LJ
0.667 LW
N
967.071 483 M
967.071 497.76 L
S
GR
GS
[0.75 0 0 0.75 0 0] CT
0.4 GC
2 setlinecap
1 LJ
0.667 LW
N
1202.11 483 M
1202.11 497.76 L
S
GR
GS
[0.75 0 0 0.75 0 0] CT
0.4 GC
2 setlinecap
1 LJ
0.667 LW
N
1437.15 483 M
1437.15 497.76 L
S
GR
GS
[0.75 0 0 0.75 0 0] CT
0.4 GC
2 setlinecap
1 LJ
0.667 LW
N
1672.189 483 M
1672.189 497.76 L
S
GR
GS
[0.75 0 0 0.75 372.74423 620.49998] CT
0.4 GC
/Helvetica 13.333 F
GS
[1 0 0 1 0 0] CT
-10.5 13 moveto 
1 -1 scale
(0.5) t 
GR
GR
GS
[0.75 0 0 0.75 549.02376 620.49998] CT
0.4 GC
/Helvetica 13.333 F
GS
[1 0 0 1 0 0] CT
-4.5 13 moveto 
1 -1 scale
(1) t 
GR
GR
GS
[0.75 0 0 0.75 725.30324 620.49998] CT
0.4 GC
/Helvetica 13.333 F
GS
[1 0 0 1 0 0] CT
-10.5 13 moveto 
1 -1 scale
(1.5) t 
GR
GR
GS
[0.75 0 0 0.75 901.58276 620.49998] CT
0.4 GC
/Helvetica 13.333 F
GS
[1 0 0 1 0 0] CT
-4.5 13 moveto 
1 -1 scale
(2) t 
GR
GR
GS
[0.75 0 0 0.75 1077.86224 620.49998] CT
0.4 GC
/Helvetica 13.333 F
GS
[1 0 0 1 0 0] CT
-10.5 13 moveto 
1 -1 scale
(2.5) t 
GR
GR
GS
[0.75 0 0 0.75 1254.14172 620.49998] CT
0.4 GC
/Helvetica 13.333 F
GS
[1 0 0 1 0 0] CT
-4.5 13 moveto 
1 -1 scale
(3) t 
GR
GR
GS
[0.75 0 0 0.75 0 0] CT
0.4 GC
2 setlinecap
1 LJ
0.667 LW
N
262 822 M
262 483 L
S
GR
GS
[0.75 0 0 0.75 0 0] CT
0.4 GC
2 setlinecap
1 LJ
0.667 LW
N
1738 822 M
1738 483 L
S
GR
GS
[0.75 0 0 0.75 0 0] CT
0.4 GC
2 setlinecap
1 LJ
0.667 LW
N
262 818.676 M
276.76 818.676 L
S
GR
GS
[0.75 0 0 0.75 0 0] CT
0.4 GC
2 setlinecap
1 LJ
0.667 LW
N
262 790.98 M
276.76 790.98 L
S
GR
GS
[0.75 0 0 0.75 0 0] CT
0.4 GC
2 setlinecap
1 LJ
0.667 LW
N
262 763.284 M
276.76 763.284 L
S
GR
GS
[0.75 0 0 0.75 0 0] CT
0.4 GC
2 setlinecap
1 LJ
0.667 LW
N
262 735.588 M
276.76 735.588 L
S
GR
GS
[0.75 0 0 0.75 0 0] CT
0.4 GC
2 setlinecap
1 LJ
0.667 LW
N
262 707.892 M
276.76 707.892 L
S
GR
GS
[0.75 0 0 0.75 0 0] CT
0.4 GC
2 setlinecap
1 LJ
0.667 LW
N
262 680.196 M
276.76 680.196 L
S
GR
GS
[0.75 0 0 0.75 0 0] CT
0.4 GC
2 setlinecap
1 LJ
0.667 LW
N
262 652.5 M
276.76 652.5 L
S
GR
GS
[0.75 0 0 0.75 0 0] CT
0.4 GC
2 setlinecap
1 LJ
0.667 LW
N
262 624.804 M
276.76 624.804 L
S
GR
GS
[0.75 0 0 0.75 0 0] CT
0.4 GC
2 setlinecap
1 LJ
0.667 LW
N
262 597.108 M
276.76 597.108 L
S
GR
GS
[0.75 0 0 0.75 0 0] CT
0.4 GC
2 setlinecap
1 LJ
0.667 LW
N
262 569.412 M
276.76 569.412 L
S
GR
GS
[0.75 0 0 0.75 0 0] CT
0.4 GC
2 setlinecap
1 LJ
0.667 LW
N
262 541.716 M
276.76 541.716 L
S
GR
GS
[0.75 0 0 0.75 0 0] CT
0.4 GC
2 setlinecap
1 LJ
0.667 LW
N
262 514.02 M
276.76 514.02 L
S
GR
GS
[0.75 0 0 0.75 0 0] CT
0.4 GC
2 setlinecap
1 LJ
0.667 LW
N
262 486.324 M
276.76 486.324 L
S
GR
GS
[0.75 0 0 0.75 0 0] CT
0.4 GC
2 setlinecap
1 LJ
0.667 LW
N
1738 818.676 M
1723.24 818.676 L
S
GR
GS
[0.75 0 0 0.75 0 0] CT
0.4 GC
2 setlinecap
1 LJ
0.667 LW
N
1738 790.98 M
1723.24 790.98 L
S
GR
GS
[0.75 0 0 0.75 0 0] CT
0.4 GC
2 setlinecap
1 LJ
0.667 LW
N
1738 763.284 M
1723.24 763.284 L
S
GR
GS
[0.75 0 0 0.75 0 0] CT
0.4 GC
2 setlinecap
1 LJ
0.667 LW
N
1738 735.588 M
1723.24 735.588 L
S
GR
GS
[0.75 0 0 0.75 0 0] CT
0.4 GC
2 setlinecap
1 LJ
0.667 LW
N
1738 707.892 M
1723.24 707.892 L
S
GR
GS
[0.75 0 0 0.75 0 0] CT
0.4 GC
2 setlinecap
1 LJ
0.667 LW
N
1738 680.196 M
1723.24 680.196 L
S
GR
GS
[0.75 0 0 0.75 0 0] CT
0.4 GC
2 setlinecap
1 LJ
0.667 LW
N
1738 652.5 M
1723.24 652.5 L
S
GR
GS
[0.75 0 0 0.75 0 0] CT
0.4 GC
2 setlinecap
1 LJ
0.667 LW
N
1738 624.804 M
1723.24 624.804 L
S
GR
GS
[0.75 0 0 0.75 0 0] CT
0.4 GC
2 setlinecap
1 LJ
0.667 LW
N
1738 597.108 M
1723.24 597.108 L
S
GR
GS
[0.75 0 0 0.75 0 0] CT
0.4 GC
2 setlinecap
1 LJ
0.667 LW
N
1738 569.412 M
1723.24 569.412 L
S
GR
GS
[0.75 0 0 0.75 0 0] CT
0.4 GC
2 setlinecap
1 LJ
0.667 LW
N
1738 541.716 M
1723.24 541.716 L
S
GR
GS
[0.75 0 0 0.75 0 0] CT
0.4 GC
2 setlinecap
1 LJ
0.667 LW
N
1738 514.02 M
1723.24 514.02 L
S
GR
GS
[0.75 0 0 0.75 0 0] CT
0.4 GC
2 setlinecap
1 LJ
0.667 LW
N
1738 486.324 M
1723.24 486.324 L
S
GR
GS
[0.75 0 0 0.75 192.49999 614.00734] CT
0.4 GC
/Helvetica 13.333 F
GS
[1 0 0 1 0 0] CT
-38 4.5 moveto 
1 -1 scale
(-3240) t 
GR
GR
GS
[0.75 0 0 0.75 192.49999 593.23531] CT
0.4 GC
/Helvetica 13.333 F
GS
[1 0 0 1 0 0] CT
-38 4.5 moveto 
1 -1 scale
(-2880) t 
GR
GR
GS
[0.75 0 0 0.75 192.49999 572.46323] CT
0.4 GC
/Helvetica 13.333 F
GS
[1 0 0 1 0 0] CT
-38 4.5 moveto 
1 -1 scale
(-2520) t 
GR
GR
GS
[0.75 0 0 0.75 192.49999 551.69119] CT
0.4 GC
/Helvetica 13.333 F
GS
[1 0 0 1 0 0] CT
-38 4.5 moveto 
1 -1 scale
(-2160) t 
GR
GR
GS
[0.75 0 0 0.75 192.49999 530.91911] CT
0.4 GC
/Helvetica 13.333 F
GS
[1 0 0 1 0 0] CT
-38 4.5 moveto 
1 -1 scale
(-1800) t 
GR
GR
GS
[0.75 0 0 0.75 192.49999 510.14708] CT
0.4 GC
/Helvetica 13.333 F
GS
[1 0 0 1 0 0] CT
-38 4.5 moveto 
1 -1 scale
(-1440) t 
GR
GR
GS
[0.75 0 0 0.75 192.49999 489.375] CT
0.4 GC
/Helvetica 13.333 F
GS
[1 0 0 1 0 0] CT
-38 4.5 moveto 
1 -1 scale
(-1080) t 
GR
GR
GS
[0.75 0 0 0.75 192.49999 468.60292] CT
0.4 GC
/Helvetica 13.333 F
GS
[1 0 0 1 0 0] CT
-30 4.5 moveto 
1 -1 scale
(-720) t 
GR
GR
GS
[0.75 0 0 0.75 192.49999 447.83089] CT
0.4 GC
/Helvetica 13.333 F
GS
[1 0 0 1 0 0] CT
-30 4.5 moveto 
1 -1 scale
(-360) t 
GR
GR
GS
[0.75 0 0 0.75 192.49999 427.05881] CT
0.4 GC
/Helvetica 13.333 F
GS
[1 0 0 1 0 0] CT
-9 4.5 moveto 
1 -1 scale
(0) t 
GR
GR
GS
[0.75 0 0 0.75 192.49999 406.28677] CT
0.4 GC
/Helvetica 13.333 F
GS
[1 0 0 1 0 0] CT
-25 4.5 moveto 
1 -1 scale
(360) t 
GR
GR
GS
[0.75 0 0 0.75 192.49999 385.51469] CT
0.4 GC
/Helvetica 13.333 F
GS
[1 0 0 1 0 0] CT
-25 4.5 moveto 
1 -1 scale
(720) t 
GR
GR
GS
[0.75 0 0 0.75 192.49999 364.74264] CT
0.4 GC
/Helvetica 13.333 F
GS
[1 0 0 1 0 0] CT
-34 4.5 moveto 
1 -1 scale
(1080) t 
GR
GR
GS
[0 -0.75 0.75 0 161 489.37486] CT
/Helvetica 14.667 F
GS
[1 0 0 1 0 0] CT
-45 -4 moveto 
1 -1 scale
(Phase \(deg\)) t 
GR
GR
GS
[0.75 0 0 0.75 0 0] CT
0 0.447 0.741 RC
1 LJ
0.667 LW
N
261.953 514.02 M
261.953 514.02 L
261.953 514.02 L
261.953 514.02 L
261.955 514.011 L
261.969 513.934 L
261.971 513.92 L
261.974 513.904 L
261.978 513.884 L
261.982 513.862 L
261.987 513.836 L
261.993 513.805 L
261.999 513.77 L
262.007 513.728 L
262.016 513.68 L
262.026 513.624 L
262.038 513.559 L
262.053 513.483 L
262.069 513.395 L
262.088 513.294 L
262.111 513.176 L
262.137 513.041 L
262.168 512.886 L
262.203 512.708 L
262.245 512.508 L
262.293 512.283 L
262.35 512.034 L
262.416 511.762 L
262.493 511.469 L
262.582 511.162 L
262.687 510.846 L
262.809 510.53 L
262.951 510.221 L
263.116 509.929 L
263.31 509.659 L
263.535 509.417 L
263.798 509.207 L
264.104 509.031 L
264.461 508.889 L
264.878 508.783 L
265.363 508.712 L
265.93 508.675 L
266.59 508.674 L
267.36 508.709 L
268.258 508.781 L
269.306 508.893 L
270.527 509.047 L
271.951 509.247 L
273.49 509.479 L
273.611 509.497 L
274.691 509.669 L
275.547 509.805 L
276.017 509.882 L
277.481 510.123 L
277.805 510.176 L
279.098 510.394 L
280.438 510.62 L
280.882 510.696 L
282.853 511.035 L
283.507 511.147 L
285.028 511.412 L
287.087 511.771 L
287.43 511.831 L
290.082 512.297 L
291.262 512.504 L
293.01 512.814 L
296.129 513.366 L
296.242 513.386 L
299.811 514.021 L
301.805 514.376 L
303.752 514.724 L
308.103 515.501 L
308.424 515.558 L
312.907 516.361 L
316.142 516.94 L
318.21 517.312 L
324.066 518.363 L
325.141 518.556 L
330.531 519.525 L
335.636 520.443 L
337.67 520.809 L
345.551 522.229 L
347.873 522.647 L
354.253 523.799 L
362.142 525.223 L
363.86 525.534 L
365.714 525.87 L
374.468 527.459 L
381.31 528.701 L
386.179 529.593 L
396.628 531.506 L
399.11 531.968 L
411.405 534.255 L
413.386 534.634 L
425.443 536.937 L
429.149 537.676 L
438.602 539.562 L
446.552 541.252 L
450.796 542.154 L
461.984 544.736 L
465.767 545.686 L
472.161 547.291 L
481.352 549.734 L
486.982 551.241 L
490.945 552.301 L
502.597 555.235 L
510.405 556.97 L
516.854 558.402 L
522.991 559.636 L
534.449 561.79 L
536.267 562.113 L
542.698 563.254 L
556.381 565.589 L
564.82 566.995 L
566.727 567.312 L
584.036 570.175 L
588.174 570.862 L
596.345 572.238 L
616.699 575.665 L
631.152 578.199 L
643.163 580.304 L
667.444 584.798 L
669.582 585.221 L
689.514 589.171 L
709.411 593.408 L
712.012 593.991 L
727.225 597.402 L
745.748 601.597 L
758.858 604.461 L
768.262 606.515 L
791.137 611.274 L
810.581 615.318 L
812.2 615.655 L
830.688 619.756 L
846.826 623.586 L
863.422 627.429 L
867.687 628.295 L
883.631 631.533 L
884.808 631.754 L
908.376 635.947 L
912.974 636.736 L
930.737 639.769 L
938.874 641.158 L
947.453 642.63 L
976.753 647.721 L
989.996 650.054 L
1000.351 651.904 L
1024.232 656.17 L
1032.457 657.655 L
1075.287 665.474 L
1077.21 665.831 L
1112.803 672.439 L
1145.396 678.6 L
1162.07 681.838 L
1173.516 684.061 L
1197.64 688.98 L
1218.237 693.633 L
1235.752 698.561 L
1250.597 704.189 L
1255.763 706.13 L
1265.668 709.853 L
1284.052 714.945 L
1306.551 719.968 L
1334.195 725.578 L
1344.417 727.588 L
1348.103 728.307 L
1359.208 730.453 L
1376.198 733.735 L
1379.992 734.462 L
1403.156 738.886 L
1407.042 739.626 L
1425.917 743.214 L
1429.88 743.967 L
1445.062 746.85 L
1449.09 747.615 L
1461.115 749.9 L
1465.198 750.676 L
1473.421 752.241 L
1474.54 752.454 L
1478.669 753.239 L
1485.744 754.579 L
1489.911 755.338 L
1495.078 749.782 L
1499.277 750.468 L
1504.484 757.971 L
1508.714 758.877 L
1515.964 760.313 L
1520.234 761.146 L
1530.004 763.045 L
1534.322 763.886 L
1547.21 766.408 L
1551.586 767.271 L
1568.35 770.614 L
1572.798 771.515 L
1594.405 776.01 L
1598.942 776.988 L
1599.522 777.12 L
1617.815 781.258 L
1647.134 788.947 L
1672.141 796.57 L
1676.974 798.038 L
1701.179 805.087 L
1721.587 811.429 L
1738.176 818.435 L
S
GR
GS
[0.75 0 0 0.75 749.25 48.705] CT
/Helvetica-Bold 14.667 F
GS
[1 0 0 1 0 0] CT
-60 -4 moveto 
1 -1 scale
(Bode Diagram) t 
GR
GR
GS
[0.75 0 0 0.75 749.25 632.75002] CT
/Helvetica 14.667 F
GS
[1 0 0 1 0 0] CT
-69 14 moveto 
1 -1 scale
(Frequency  \(rad/s\)) t 
GR
GR
%%Trailer
%%Pages: 1
%%EOF
