%!PS-Adobe-3.0 EPSF-3.0
%%Creator: (MATLAB, The Mathworks, Inc. Version 9.1.0.441655 \(R2016b\). Operating System: Windows 8)
%%Title: C:/Users/simon/Documents/Unief/M1/System_Identification_and_Modeling/Oefenzittingen/Oefenzitting_1/git/Oefenzitting_3/plots/cra_delay2.eps
%%CreationDate: 2016-12-21T18:29:14
%%Pages: (atend)
%%BoundingBox: 0 0 575 556
%%LanguageLevel: 3
%%EndComments
%%BeginProlog
%%BeginResource: procset (Apache XML Graphics Std ProcSet) 1.2 0
%%Version: 1.2 0
%%Copyright: (Copyright 2001-2003,2010 The Apache Software Foundation. License terms: http://www.apache.org/licenses/LICENSE-2.0)
/bd{bind def}bind def
/ld{load def}bd
/GR/grestore ld
/M/moveto ld
/LJ/setlinejoin ld
/C/curveto ld
/f/fill ld
/LW/setlinewidth ld
/GC/setgray ld
/t/show ld
/N/newpath ld
/CT/concat ld
/cp/closepath ld
/S/stroke ld
/L/lineto ld
/CC/setcmykcolor ld
/A/ashow ld
/GS/gsave ld
/RC/setrgbcolor ld
/RM/rmoveto ld
/ML/setmiterlimit ld
/re {4 2 roll M
1 index 0 rlineto
0 exch rlineto
neg 0 rlineto
cp } bd
/_ctm matrix def
/_tm matrix def
/BT { _ctm currentmatrix pop matrix _tm copy pop 0 0 moveto } bd
/ET { _ctm setmatrix } bd
/iTm { _ctm setmatrix _tm concat } bd
/Tm { _tm astore pop iTm 0 0 moveto } bd
/ux 0.0 def
/uy 0.0 def
/F {
  /Tp exch def
  /Tf exch def
  Tf findfont Tp scalefont setfont
  /cf Tf def  /cs Tp def
} bd
/ULS {currentpoint /uy exch def /ux exch def} bd
/ULE {
  /Tcx currentpoint pop def
  gsave
  newpath
  cf findfont cs scalefont dup
  /FontMatrix get 0 get /Ts exch def /FontInfo get dup
  /UnderlinePosition get Ts mul /To exch def
  /UnderlineThickness get Ts mul /Tt exch def
  ux uy To add moveto  Tcx uy To add lineto
  Tt setlinewidth stroke
  grestore
} bd
/OLE {
  /Tcx currentpoint pop def
  gsave
  newpath
  cf findfont cs scalefont dup
  /FontMatrix get 0 get /Ts exch def /FontInfo get dup
  /UnderlinePosition get Ts mul /To exch def
  /UnderlineThickness get Ts mul /Tt exch def
  ux uy To add cs add moveto Tcx uy To add cs add lineto
  Tt setlinewidth stroke
  grestore
} bd
/SOE {
  /Tcx currentpoint pop def
  gsave
  newpath
  cf findfont cs scalefont dup
  /FontMatrix get 0 get /Ts exch def /FontInfo get dup
  /UnderlinePosition get Ts mul /To exch def
  /UnderlineThickness get Ts mul /Tt exch def
  ux uy To add cs 10 mul 26 idiv add moveto Tcx uy To add cs 10 mul 26 idiv add lineto
  Tt setlinewidth stroke
  grestore
} bd
/QT {
/Y22 exch store
/X22 exch store
/Y21 exch store
/X21 exch store
currentpoint
/Y21 load 2 mul add 3 div exch
/X21 load 2 mul add 3 div exch
/X21 load 2 mul /X22 load add 3 div
/Y21 load 2 mul /Y22 load add 3 div
/X22 load /Y22 load curveto
} bd
/SSPD {
dup length /d exch dict def
{
/v exch def
/k exch def
currentpagedevice k known {
/cpdv currentpagedevice k get def
v cpdv ne {
/upd false def
/nullv v type /nulltype eq def
/nullcpdv cpdv type /nulltype eq def
nullv nullcpdv or
{
/upd true def
} {
/sametype v type cpdv type eq def
sametype {
v type /arraytype eq {
/vlen v length def
/cpdvlen cpdv length def
vlen cpdvlen eq {
0 1 vlen 1 sub {
/i exch def
/obj v i get def
/cpdobj cpdv i get def
obj cpdobj ne {
/upd true def
exit
} if
} for
} {
/upd true def
} ifelse
} {
v type /dicttype eq {
v {
/dv exch def
/dk exch def
/cpddv cpdv dk get def
dv cpddv ne {
/upd true def
exit
} if
} forall
} {
/upd true def
} ifelse
} ifelse
} if
} ifelse
upd true eq {
d k v put
} if
} if
} if
} forall
d length 0 gt {
d setpagedevice
} if
} bd
/RE { % /NewFontName [NewEncodingArray] /FontName RE -
  findfont dup length dict begin
  {
    1 index /FID ne
    {def} {pop pop} ifelse
  } forall
  /Encoding exch def
  /FontName 1 index def
  currentdict definefont pop
  end
} bind def
%%EndResource
%%BeginResource: procset (Apache XML Graphics EPS ProcSet) 1.0 0
%%Version: 1.0 0
%%Copyright: (Copyright 2002-2003 The Apache Software Foundation. License terms: http://www.apache.org/licenses/LICENSE-2.0)
/BeginEPSF { %def
/b4_Inc_state save def         % Save state for cleanup
/dict_count countdictstack def % Count objects on dict stack
/op_count count 1 sub def      % Count objects on operand stack
userdict begin                 % Push userdict on dict stack
/showpage { } def              % Redefine showpage, { } = null proc
0 setgray 0 setlinecap         % Prepare graphics state
1 setlinewidth 0 setlinejoin
10 setmiterlimit [ ] 0 setdash newpath
/languagelevel where           % If level not equal to 1 then
{pop languagelevel             % set strokeadjust and
1 ne                           % overprint to their defaults.
{false setstrokeadjust false setoverprint
} if
} if
} bd
/EndEPSF { %def
count op_count sub {pop} repeat            % Clean up stacks
countdictstack dict_count sub {end} repeat
b4_Inc_state restore
} bd
%%EndResource
%FOPBeginFontDict
%%IncludeResource: font Courier-Bold
%%IncludeResource: font Helvetica
%%IncludeResource: font Courier-BoldOblique
%%IncludeResource: font Courier-Oblique
%%IncludeResource: font Times-Roman
%%IncludeResource: font Helvetica-BoldOblique
%%IncludeResource: font Helvetica-Bold
%%IncludeResource: font Helvetica-Oblique
%%IncludeResource: font Times-BoldItalic
%%IncludeResource: font Courier
%%IncludeResource: font Times-Italic
%%IncludeResource: font Times-Bold
%%IncludeResource: font Symbol
%%IncludeResource: font ZapfDingbats
%FOPEndFontDict
%%BeginResource: encoding WinAnsiEncoding
/WinAnsiEncoding [
/.notdef /.notdef /.notdef /.notdef /.notdef
/.notdef /.notdef /.notdef /.notdef /.notdef
/.notdef /.notdef /.notdef /.notdef /.notdef
/.notdef /.notdef /.notdef /.notdef /.notdef
/.notdef /.notdef /.notdef /.notdef /.notdef
/.notdef /.notdef /.notdef /.notdef /.notdef
/.notdef /.notdef /space /exclam /quotedbl
/numbersign /dollar /percent /ampersand /quotesingle
/parenleft /parenright /asterisk /plus /comma
/hyphen /period /slash /zero /one
/two /three /four /five /six
/seven /eight /nine /colon /semicolon
/less /equal /greater /question /at
/A /B /C /D /E
/F /G /H /I /J
/K /L /M /N /O
/P /Q /R /S /T
/U /V /W /X /Y
/Z /bracketleft /backslash /bracketright /asciicircum
/underscore /quoteleft /a /b /c
/d /e /f /g /h
/i /j /k /l /m
/n /o /p /q /r
/s /t /u /v /w
/x /y /z /braceleft /bar
/braceright /asciitilde /bullet /Euro /bullet
/quotesinglbase /florin /quotedblbase /ellipsis /dagger
/daggerdbl /circumflex /perthousand /Scaron /guilsinglleft
/OE /bullet /Zcaron /bullet /bullet
/quoteleft /quoteright /quotedblleft /quotedblright /bullet
/endash /emdash /asciitilde /trademark /scaron
/guilsinglright /oe /bullet /zcaron /Ydieresis
/space /exclamdown /cent /sterling /currency
/yen /brokenbar /section /dieresis /copyright
/ordfeminine /guillemotleft /logicalnot /sfthyphen /registered
/macron /degree /plusminus /twosuperior /threesuperior
/acute /mu /paragraph /middot /cedilla
/onesuperior /ordmasculine /guillemotright /onequarter /onehalf
/threequarters /questiondown /Agrave /Aacute /Acircumflex
/Atilde /Adieresis /Aring /AE /Ccedilla
/Egrave /Eacute /Ecircumflex /Edieresis /Igrave
/Iacute /Icircumflex /Idieresis /Eth /Ntilde
/Ograve /Oacute /Ocircumflex /Otilde /Odieresis
/multiply /Oslash /Ugrave /Uacute /Ucircumflex
/Udieresis /Yacute /Thorn /germandbls /agrave
/aacute /acircumflex /atilde /adieresis /aring
/ae /ccedilla /egrave /eacute /ecircumflex
/edieresis /igrave /iacute /icircumflex /idieresis
/eth /ntilde /ograve /oacute /ocircumflex
/otilde /odieresis /divide /oslash /ugrave
/uacute /ucircumflex /udieresis /yacute /thorn
/ydieresis
] def
%%EndResource
%FOPBeginFontReencode
/Courier-Bold findfont
dup length dict begin
  {1 index /FID ne {def} {pop pop} ifelse} forall
  /Encoding WinAnsiEncoding def
  currentdict
end
/Courier-Bold exch definefont pop
/Helvetica findfont
dup length dict begin
  {1 index /FID ne {def} {pop pop} ifelse} forall
  /Encoding WinAnsiEncoding def
  currentdict
end
/Helvetica exch definefont pop
/Courier-BoldOblique findfont
dup length dict begin
  {1 index /FID ne {def} {pop pop} ifelse} forall
  /Encoding WinAnsiEncoding def
  currentdict
end
/Courier-BoldOblique exch definefont pop
/Courier-Oblique findfont
dup length dict begin
  {1 index /FID ne {def} {pop pop} ifelse} forall
  /Encoding WinAnsiEncoding def
  currentdict
end
/Courier-Oblique exch definefont pop
/Times-Roman findfont
dup length dict begin
  {1 index /FID ne {def} {pop pop} ifelse} forall
  /Encoding WinAnsiEncoding def
  currentdict
end
/Times-Roman exch definefont pop
/Helvetica-BoldOblique findfont
dup length dict begin
  {1 index /FID ne {def} {pop pop} ifelse} forall
  /Encoding WinAnsiEncoding def
  currentdict
end
/Helvetica-BoldOblique exch definefont pop
/Helvetica-Bold findfont
dup length dict begin
  {1 index /FID ne {def} {pop pop} ifelse} forall
  /Encoding WinAnsiEncoding def
  currentdict
end
/Helvetica-Bold exch definefont pop
/Helvetica-Oblique findfont
dup length dict begin
  {1 index /FID ne {def} {pop pop} ifelse} forall
  /Encoding WinAnsiEncoding def
  currentdict
end
/Helvetica-Oblique exch definefont pop
/Times-BoldItalic findfont
dup length dict begin
  {1 index /FID ne {def} {pop pop} ifelse} forall
  /Encoding WinAnsiEncoding def
  currentdict
end
/Times-BoldItalic exch definefont pop
/Courier findfont
dup length dict begin
  {1 index /FID ne {def} {pop pop} ifelse} forall
  /Encoding WinAnsiEncoding def
  currentdict
end
/Courier exch definefont pop
/Times-Italic findfont
dup length dict begin
  {1 index /FID ne {def} {pop pop} ifelse} forall
  /Encoding WinAnsiEncoding def
  currentdict
end
/Times-Italic exch definefont pop
/Times-Bold findfont
dup length dict begin
  {1 index /FID ne {def} {pop pop} ifelse} forall
  /Encoding WinAnsiEncoding def
  currentdict
end
/Times-Bold exch definefont pop
%FOPEndFontReencode
%%EndProlog
%%Page: 1 1
%%PageBoundingBox: 0 0 575 556
%%BeginPageSetup
[1 0 0 -1 0 556] CT
%%EndPageSetup
GS
[0.60063 0 0 0.6 0 0.40002] CT
N
0 0 M
957 0 L
957 926 L
0 926 L
0 0 L
cp
clip
1 GC
N
0 0 957 926 re
f
GR
GS
[0.60063 0 0 0.6 0 0.40002] CT
1 GC
N
0 0 957 926 re
f
GR
GS
[0.60063 0 0 0.6 0 0.40002] CT
1 GC
N
125 824 M
867 824 L
867 69 L
125 69 L
cp
f
GR
GS
[0.60063 0 0 0.6 0 0.40002] CT
0.149 GC
2 setlinecap
1 LJ
0.833 LW
N
125 824 M
867 824 L
S
GR
GS
[0.60063 0 0 0.6 0 0.40002] CT
0.149 GC
2 setlinecap
1 LJ
0.833 LW
N
125 69 M
867 69 L
S
GR
GS
[0.60063 0 0 0.6 0 0.40002] CT
0.149 GC
2 setlinecap
1 LJ
0.833 LW
N
125 824 M
125 816.45 L
S
GR
GS
[0.60063 0 0 0.6 0 0.40002] CT
0.149 GC
2 setlinecap
1 LJ
0.833 LW
N
199.2 824 M
199.2 816.45 L
S
GR
GS
[0.60063 0 0 0.6 0 0.40002] CT
0.149 GC
2 setlinecap
1 LJ
0.833 LW
N
273.4 824 M
273.4 816.45 L
S
GR
GS
[0.60063 0 0 0.6 0 0.40002] CT
0.149 GC
2 setlinecap
1 LJ
0.833 LW
N
347.6 824 M
347.6 816.45 L
S
GR
GS
[0.60063 0 0 0.6 0 0.40002] CT
0.149 GC
2 setlinecap
1 LJ
0.833 LW
N
421.8 824 M
421.8 816.45 L
S
GR
GS
[0.60063 0 0 0.6 0 0.40002] CT
0.149 GC
2 setlinecap
1 LJ
0.833 LW
N
496 824 M
496 816.45 L
S
GR
GS
[0.60063 0 0 0.6 0 0.40002] CT
0.149 GC
2 setlinecap
1 LJ
0.833 LW
N
570.2 824 M
570.2 816.45 L
S
GR
GS
[0.60063 0 0 0.6 0 0.40002] CT
0.149 GC
2 setlinecap
1 LJ
0.833 LW
N
644.4 824 M
644.4 816.45 L
S
GR
GS
[0.60063 0 0 0.6 0 0.40002] CT
0.149 GC
2 setlinecap
1 LJ
0.833 LW
N
718.6 824 M
718.6 816.45 L
S
GR
GS
[0.60063 0 0 0.6 0 0.40002] CT
0.149 GC
2 setlinecap
1 LJ
0.833 LW
N
792.8 824 M
792.8 816.45 L
S
GR
GS
[0.60063 0 0 0.6 0 0.40002] CT
0.149 GC
2 setlinecap
1 LJ
0.833 LW
N
867 824 M
867 816.45 L
S
GR
GS
[0.60063 0 0 0.6 0 0.40002] CT
0.149 GC
2 setlinecap
1 LJ
0.833 LW
N
125 69 M
125 76.55 L
S
GR
GS
[0.60063 0 0 0.6 0 0.40002] CT
0.149 GC
2 setlinecap
1 LJ
0.833 LW
N
199.2 69 M
199.2 76.55 L
S
GR
GS
[0.60063 0 0 0.6 0 0.40002] CT
0.149 GC
2 setlinecap
1 LJ
0.833 LW
N
273.4 69 M
273.4 76.55 L
S
GR
GS
[0.60063 0 0 0.6 0 0.40002] CT
0.149 GC
2 setlinecap
1 LJ
0.833 LW
N
347.6 69 M
347.6 76.55 L
S
GR
GS
[0.60063 0 0 0.6 0 0.40002] CT
0.149 GC
2 setlinecap
1 LJ
0.833 LW
N
421.8 69 M
421.8 76.55 L
S
GR
GS
[0.60063 0 0 0.6 0 0.40002] CT
0.149 GC
2 setlinecap
1 LJ
0.833 LW
N
496 69 M
496 76.55 L
S
GR
GS
[0.60063 0 0 0.6 0 0.40002] CT
0.149 GC
2 setlinecap
1 LJ
0.833 LW
N
570.2 69 M
570.2 76.55 L
S
GR
GS
[0.60063 0 0 0.6 0 0.40002] CT
0.149 GC
2 setlinecap
1 LJ
0.833 LW
N
644.4 69 M
644.4 76.55 L
S
GR
GS
[0.60063 0 0 0.6 0 0.40002] CT
0.149 GC
2 setlinecap
1 LJ
0.833 LW
N
718.6 69 M
718.6 76.55 L
S
GR
GS
[0.60063 0 0 0.6 0 0.40002] CT
0.149 GC
2 setlinecap
1 LJ
0.833 LW
N
792.8 69 M
792.8 76.55 L
S
GR
GS
[0.60063 0 0 0.6 0 0.40002] CT
0.149 GC
2 setlinecap
1 LJ
0.833 LW
N
867 69 M
867 76.55 L
S
GR
GS
[0.60063 0 0 0.6 75.07837 498.80001] CT
0.149 GC
/Helvetica 16.667 F
GS
[1 0 0 1 0 0] CT
-5 18 moveto 
1 -1 scale
(0) t 
GR
GR
GS
[0.60063 0 0 0.6 119.64489 498.80001] CT
0.149 GC
/Helvetica 16.667 F
GS
[1 0 0 1 0 0] CT
-5 18 moveto 
1 -1 scale
(2) t 
GR
GR
GS
[0.60063 0 0 0.6 164.2114 498.80001] CT
0.149 GC
/Helvetica 16.667 F
GS
[1 0 0 1 0 0] CT
-5 18 moveto 
1 -1 scale
(4) t 
GR
GR
GS
[0.60063 0 0 0.6 208.77793 498.80001] CT
0.149 GC
/Helvetica 16.667 F
GS
[1 0 0 1 0 0] CT
-5 18 moveto 
1 -1 scale
(6) t 
GR
GR
GS
[0.60063 0 0 0.6 253.34444 498.80001] CT
0.149 GC
/Helvetica 16.667 F
GS
[1 0 0 1 0 0] CT
-5 18 moveto 
1 -1 scale
(8) t 
GR
GR
GS
[0.60063 0 0 0.6 297.91097 498.80001] CT
0.149 GC
/Helvetica 16.667 F
GS
[1 0 0 1 0 0] CT
-9.5 18 moveto 
1 -1 scale
(10) t 
GR
GR
GS
[0.60063 0 0 0.6 342.47749 498.80001] CT
0.149 GC
/Helvetica 16.667 F
GS
[1 0 0 1 0 0] CT
-9.5 18 moveto 
1 -1 scale
(12) t 
GR
GR
GS
[0.60063 0 0 0.6 387.04402 498.80001] CT
0.149 GC
/Helvetica 16.667 F
GS
[1 0 0 1 0 0] CT
-9.5 18 moveto 
1 -1 scale
(14) t 
GR
GR
GS
[0.60063 0 0 0.6 431.61051 498.80001] CT
0.149 GC
/Helvetica 16.667 F
GS
[1 0 0 1 0 0] CT
-9.5 18 moveto 
1 -1 scale
(16) t 
GR
GR
GS
[0.60063 0 0 0.6 476.17704 498.80001] CT
0.149 GC
/Helvetica 16.667 F
GS
[1 0 0 1 0 0] CT
-9.5 18 moveto 
1 -1 scale
(18) t 
GR
GR
GS
[0.60063 0 0 0.6 520.74356 498.80001] CT
0.149 GC
/Helvetica 16.667 F
GS
[1 0 0 1 0 0] CT
-9.5 18 moveto 
1 -1 scale
(20) t 
GR
GR
GS
[0.60063 0 0 0.6 297.91119 512.99999] CT
0.149 GC
/Helvetica 18.333 F
GS
[1 0 0 1 0 0] CT
-20 19 moveto 
1 -1 scale
(Lags) t 
GR
GR
GS
[0.60063 0 0 0.6 0 0.40002] CT
0.149 GC
2 setlinecap
1 LJ
0.833 LW
N
125 824 M
125 69 L
S
GR
GS
[0.60063 0 0 0.6 0 0.40002] CT
0.149 GC
2 setlinecap
1 LJ
0.833 LW
N
867 824 M
867 69 L
S
GR
GS
[0.60063 0 0 0.6 0 0.40002] CT
0.149 GC
2 setlinecap
1 LJ
0.833 LW
N
125 824 M
132.55 824 L
S
GR
GS
[0.60063 0 0 0.6 0 0.40002] CT
0.149 GC
2 setlinecap
1 LJ
0.833 LW
N
125 748.5 M
132.55 748.5 L
S
GR
GS
[0.60063 0 0 0.6 0 0.40002] CT
0.149 GC
2 setlinecap
1 LJ
0.833 LW
N
125 673 M
132.55 673 L
S
GR
GS
[0.60063 0 0 0.6 0 0.40002] CT
0.149 GC
2 setlinecap
1 LJ
0.833 LW
N
125 597.5 M
132.55 597.5 L
S
GR
GS
[0.60063 0 0 0.6 0 0.40002] CT
0.149 GC
2 setlinecap
1 LJ
0.833 LW
N
125 522 M
132.55 522 L
S
GR
GS
[0.60063 0 0 0.6 0 0.40002] CT
0.149 GC
2 setlinecap
1 LJ
0.833 LW
N
125 446.5 M
132.55 446.5 L
S
GR
GS
[0.60063 0 0 0.6 0 0.40002] CT
0.149 GC
2 setlinecap
1 LJ
0.833 LW
N
125 371 M
132.55 371 L
S
GR
GS
[0.60063 0 0 0.6 0 0.40002] CT
0.149 GC
2 setlinecap
1 LJ
0.833 LW
N
125 295.5 M
132.55 295.5 L
S
GR
GS
[0.60063 0 0 0.6 0 0.40002] CT
0.149 GC
2 setlinecap
1 LJ
0.833 LW
N
125 220 M
132.55 220 L
S
GR
GS
[0.60063 0 0 0.6 0 0.40002] CT
0.149 GC
2 setlinecap
1 LJ
0.833 LW
N
125 144.5 M
132.55 144.5 L
S
GR
GS
[0.60063 0 0 0.6 0 0.40002] CT
0.149 GC
2 setlinecap
1 LJ
0.833 LW
N
125 69 M
132.55 69 L
S
GR
GS
[0.60063 0 0 0.6 0 0.40002] CT
0.149 GC
2 setlinecap
1 LJ
0.833 LW
N
867 824 M
859.45 824 L
S
GR
GS
[0.60063 0 0 0.6 0 0.40002] CT
0.149 GC
2 setlinecap
1 LJ
0.833 LW
N
867 748.5 M
859.45 748.5 L
S
GR
GS
[0.60063 0 0 0.6 0 0.40002] CT
0.149 GC
2 setlinecap
1 LJ
0.833 LW
N
867 673 M
859.45 673 L
S
GR
GS
[0.60063 0 0 0.6 0 0.40002] CT
0.149 GC
2 setlinecap
1 LJ
0.833 LW
N
867 597.5 M
859.45 597.5 L
S
GR
GS
[0.60063 0 0 0.6 0 0.40002] CT
0.149 GC
2 setlinecap
1 LJ
0.833 LW
N
867 522 M
859.45 522 L
S
GR
GS
[0.60063 0 0 0.6 0 0.40002] CT
0.149 GC
2 setlinecap
1 LJ
0.833 LW
N
867 446.5 M
859.45 446.5 L
S
GR
GS
[0.60063 0 0 0.6 0 0.40002] CT
0.149 GC
2 setlinecap
1 LJ
0.833 LW
N
867 371 M
859.45 371 L
S
GR
GS
[0.60063 0 0 0.6 0 0.40002] CT
0.149 GC
2 setlinecap
1 LJ
0.833 LW
N
867 295.5 M
859.45 295.5 L
S
GR
GS
[0.60063 0 0 0.6 0 0.40002] CT
0.149 GC
2 setlinecap
1 LJ
0.833 LW
N
867 220 M
859.45 220 L
S
GR
GS
[0.60063 0 0 0.6 0 0.40002] CT
0.149 GC
2 setlinecap
1 LJ
0.833 LW
N
867 144.5 M
859.45 144.5 L
S
GR
GS
[0.60063 0 0 0.6 0 0.40002] CT
0.149 GC
2 setlinecap
1 LJ
0.833 LW
N
867 69 M
859.45 69 L
S
GR
GS
[0.60063 0 0 0.6 71.07419 494.8] CT
0.149 GC
/Helvetica 16.667 F
GS
[1 0 0 1 0 0] CT
-39 7 moveto 
1 -1 scale
(-0.05) t 
GR
GR
GS
[0.60063 0 0 0.6 71.07419 449.5] CT
0.149 GC
/Helvetica 16.667 F
GS
[1 0 0 1 0 0] CT
-10 7 moveto 
1 -1 scale
(0) t 
GR
GR
GS
[0.60063 0 0 0.6 71.07419 404.20001] CT
0.149 GC
/Helvetica 16.667 F
GS
[1 0 0 1 0 0] CT
-34 7 moveto 
1 -1 scale
(0.05) t 
GR
GR
GS
[0.60063 0 0 0.6 71.07419 358.90001] CT
0.149 GC
/Helvetica 16.667 F
GS
[1 0 0 1 0 0] CT
-24 7 moveto 
1 -1 scale
(0.1) t 
GR
GR
GS
[0.60063 0 0 0.6 71.07419 313.60001] CT
0.149 GC
/Helvetica 16.667 F
GS
[1 0 0 1 0 0] CT
-34 7 moveto 
1 -1 scale
(0.15) t 
GR
GR
GS
[0.60063 0 0 0.6 71.07419 268.30001] CT
0.149 GC
/Helvetica 16.667 F
GS
[1 0 0 1 0 0] CT
-24 7 moveto 
1 -1 scale
(0.2) t 
GR
GR
GS
[0.60063 0 0 0.6 71.07419 223.00001] CT
0.149 GC
/Helvetica 16.667 F
GS
[1 0 0 1 0 0] CT
-34 7 moveto 
1 -1 scale
(0.25) t 
GR
GR
GS
[0.60063 0 0 0.6 71.07419 177.7] CT
0.149 GC
/Helvetica 16.667 F
GS
[1 0 0 1 0 0] CT
-24 7 moveto 
1 -1 scale
(0.3) t 
GR
GR
GS
[0.60063 0 0 0.6 71.07419 132.40003] CT
0.149 GC
/Helvetica 16.667 F
GS
[1 0 0 1 0 0] CT
-34 7 moveto 
1 -1 scale
(0.35) t 
GR
GR
GS
[0.60063 0 0 0.6 71.07419 87.10001] CT
0.149 GC
/Helvetica 16.667 F
GS
[1 0 0 1 0 0] CT
-24 7 moveto 
1 -1 scale
(0.4) t 
GR
GR
GS
[0.60063 0 0 0.6 71.07419 41.80003] CT
0.149 GC
/Helvetica 16.667 F
GS
[1 0 0 1 0 0] CT
-34 7 moveto 
1 -1 scale
(0.45) t 
GR
GR
GS
[0.60063 0 0 0.6 297.91124 40.15004] CT
/Helvetica-Bold 18.333 F
GS
[1 0 0 1 0 0] CT
-116 -4 moveto 
1 -1 scale
(Impulse response estimate) t 
GR
GR
GS
[0.60063 0 0 0.6 0 0.40002] CT
0.149 GC
1 LJ
0.833 LW
N
125 748.5 M
867 748.5 L
S
GR
GS
[0.60063 0 0 0.6 75.07837 463.96372] CT
0 0.447 0.741 RC
10.0 ML
0.833 LW
N
4.5 -0.5 M
4.5 -3.261 2.261 -5.5 -0.5 -5.5 C
-3.261 -5.5 -5.5 -3.261 -5.5 -0.5 C
-5.5 2.261 -3.261 4.5 -0.5 4.5 C
2.261 4.5 4.5 2.261 4.5 -0.5 C
S
GR
GS
[0.60063 0 0 0.6 97.36163 470.23809] CT
0 0.447 0.741 RC
10.0 ML
0.833 LW
N
4.5 -0.5 M
4.5 -3.261 2.261 -5.5 -0.5 -5.5 C
-3.261 -5.5 -5.5 -3.261 -5.5 -0.5 C
-5.5 2.261 -3.261 4.5 -0.5 4.5 C
2.261 4.5 4.5 2.261 4.5 -0.5 C
S
GR
GS
[0.60063 0 0 0.6 119.64489 463.94757] CT
0 0.447 0.741 RC
10.0 ML
0.833 LW
N
4.5 -0.5 M
4.5 -3.261 2.261 -5.5 -0.5 -5.5 C
-3.261 -5.5 -5.5 -3.261 -5.5 -0.5 C
-5.5 2.261 -3.261 4.5 -0.5 4.5 C
2.261 4.5 4.5 2.261 4.5 -0.5 C
S
GR
GS
[0.60063 0 0 0.6 141.92815 457.21083] CT
0 0.447 0.741 RC
10.0 ML
0.833 LW
N
4.5 -0.5 M
4.5 -3.261 2.261 -5.5 -0.5 -5.5 C
-3.261 -5.5 -5.5 -3.261 -5.5 -0.5 C
-5.5 2.261 -3.261 4.5 -0.5 4.5 C
2.261 4.5 4.5 2.261 4.5 -0.5 C
S
GR
GS
[0.60063 0 0 0.6 164.2114 457.55481] CT
0 0.447 0.741 RC
10.0 ML
0.833 LW
N
4.5 -0.5 M
4.5 -3.261 2.261 -5.5 -0.5 -5.5 C
-3.261 -5.5 -5.5 -3.261 -5.5 -0.5 C
-5.5 2.261 -3.261 4.5 -0.5 4.5 C
2.261 4.5 4.5 2.261 4.5 -0.5 C
S
GR
GS
[0.60063 0 0 0.6 186.49467 452.86893] CT
0 0.447 0.741 RC
10.0 ML
0.833 LW
N
4.5 -0.5 M
4.5 -3.261 2.261 -5.5 -0.5 -5.5 C
-3.261 -5.5 -5.5 -3.261 -5.5 -0.5 C
-5.5 2.261 -3.261 4.5 -0.5 4.5 C
2.261 4.5 4.5 2.261 4.5 -0.5 C
S
GR
GS
[0.60063 0 0 0.6 208.77793 466.66171] CT
0 0.447 0.741 RC
10.0 ML
0.833 LW
N
4.5 -0.5 M
4.5 -3.261 2.261 -5.5 -0.5 -5.5 C
-3.261 -5.5 -5.5 -3.261 -5.5 -0.5 C
-5.5 2.261 -3.261 4.5 -0.5 4.5 C
2.261 4.5 4.5 2.261 4.5 -0.5 C
S
GR
GS
[0.60063 0 0 0.6 231.06119 459.19299] CT
0 0.447 0.741 RC
10.0 ML
0.833 LW
N
4.5 -0.5 M
4.5 -3.261 2.261 -5.5 -0.5 -5.5 C
-3.261 -5.5 -5.5 -3.261 -5.5 -0.5 C
-5.5 2.261 -3.261 4.5 -0.5 4.5 C
2.261 4.5 4.5 2.261 4.5 -0.5 C
S
GR
GS
[0.60063 0 0 0.6 253.34444 467.08663] CT
0 0.447 0.741 RC
10.0 ML
0.833 LW
N
4.5 -0.5 M
4.5 -3.261 2.261 -5.5 -0.5 -5.5 C
-3.261 -5.5 -5.5 -3.261 -5.5 -0.5 C
-5.5 2.261 -3.261 4.5 -0.5 4.5 C
2.261 4.5 4.5 2.261 4.5 -0.5 C
S
GR
GS
[0.60063 0 0 0.6 275.6277 463.2691] CT
0 0.447 0.741 RC
10.0 ML
0.833 LW
N
4.5 -0.5 M
4.5 -3.261 2.261 -5.5 -0.5 -5.5 C
-3.261 -5.5 -5.5 -3.261 -5.5 -0.5 C
-5.5 2.261 -3.261 4.5 -0.5 4.5 C
2.261 4.5 4.5 2.261 4.5 -0.5 C
S
GR
GS
[0.60063 0 0 0.6 297.91097 452.28833] CT
0 0.447 0.741 RC
10.0 ML
0.833 LW
N
4.5 -0.5 M
4.5 -3.261 2.261 -5.5 -0.5 -5.5 C
-3.261 -5.5 -5.5 -3.261 -5.5 -0.5 C
-5.5 2.261 -3.261 4.5 -0.5 4.5 C
2.261 4.5 4.5 2.261 4.5 -0.5 C
S
GR
GS
[0.60063 0 0 0.6 320.19421 454.16956] CT
0 0.447 0.741 RC
10.0 ML
0.833 LW
N
4.5 -0.5 M
4.5 -3.261 2.261 -5.5 -0.5 -5.5 C
-3.261 -5.5 -5.5 -3.261 -5.5 -0.5 C
-5.5 2.261 -3.261 4.5 -0.5 4.5 C
2.261 4.5 4.5 2.261 4.5 -0.5 C
S
GR
GS
[0.60063 0 0 0.6 342.47749 460.83793] CT
0 0.447 0.741 RC
10.0 ML
0.833 LW
N
4.5 -0.5 M
4.5 -3.261 2.261 -5.5 -0.5 -5.5 C
-3.261 -5.5 -5.5 -3.261 -5.5 -0.5 C
-5.5 2.261 -3.261 4.5 -0.5 4.5 C
2.261 4.5 4.5 2.261 4.5 -0.5 C
S
GR
GS
[0.60063 0 0 0.6 364.76074 475.52947] CT
0 0.447 0.741 RC
10.0 ML
0.833 LW
N
4.5 -0.5 M
4.5 -3.261 2.261 -5.5 -0.5 -5.5 C
-3.261 -5.5 -5.5 -3.261 -5.5 -0.5 C
-5.5 2.261 -3.261 4.5 -0.5 4.5 C
2.261 4.5 4.5 2.261 4.5 -0.5 C
S
GR
GS
[0.60063 0 0 0.6 387.04402 461.03927] CT
0 0.447 0.741 RC
10.0 ML
0.833 LW
N
4.5 -0.5 M
4.5 -3.261 2.261 -5.5 -0.5 -5.5 C
-3.261 -5.5 -5.5 -3.261 -5.5 -0.5 C
-5.5 2.261 -3.261 4.5 -0.5 4.5 C
2.261 4.5 4.5 2.261 4.5 -0.5 C
S
GR
GS
[0.60063 0 0 0.6 409.32726 458.55212] CT
0 0.447 0.741 RC
10.0 ML
0.833 LW
N
4.5 -0.5 M
4.5 -3.261 2.261 -5.5 -0.5 -5.5 C
-3.261 -5.5 -5.5 -3.261 -5.5 -0.5 C
-5.5 2.261 -3.261 4.5 -0.5 4.5 C
2.261 4.5 4.5 2.261 4.5 -0.5 C
S
GR
GS
[0.60063 0 0 0.6 431.61051 470.37381] CT
0 0.447 0.741 RC
10.0 ML
0.833 LW
N
4.5 -0.5 M
4.5 -3.261 2.261 -5.5 -0.5 -5.5 C
-3.261 -5.5 -5.5 -3.261 -5.5 -0.5 C
-5.5 2.261 -3.261 4.5 -0.5 4.5 C
2.261 4.5 4.5 2.261 4.5 -0.5 C
S
GR
GS
[0.60063 0 0 0.6 453.89379 421.97794] CT
0 0.447 0.741 RC
10.0 ML
0.833 LW
N
4.5 -0.5 M
4.5 -3.261 2.261 -5.5 -0.5 -5.5 C
-3.261 -5.5 -5.5 -3.261 -5.5 -0.5 C
-5.5 2.261 -3.261 4.5 -0.5 4.5 C
2.261 4.5 4.5 2.261 4.5 -0.5 C
S
GR
GS
[0.60063 0 0 0.6 476.17704 241.60263] CT
0 0.447 0.741 RC
10.0 ML
0.833 LW
N
4.5 -0.5 M
4.5 -3.261 2.261 -5.5 -0.5 -5.5 C
-3.261 -5.5 -5.5 -3.261 -5.5 -0.5 C
-5.5 2.261 -3.261 4.5 -0.5 4.5 C
2.261 4.5 4.5 2.261 4.5 -0.5 C
S
GR
GS
[0.60063 0 0 0.6 498.46032 63.655] CT
0 0.447 0.741 RC
10.0 ML
0.833 LW
N
4.5 -0.5 M
4.5 -3.261 2.261 -5.5 -0.5 -5.5 C
-3.261 -5.5 -5.5 -3.261 -5.5 -0.5 C
-5.5 2.261 -3.261 4.5 -0.5 4.5 C
2.261 4.5 4.5 2.261 4.5 -0.5 C
S
GR
GS
[0.60063 0 0 0.6 520.74356 116.92813] CT
0 0.447 0.741 RC
10.0 ML
0.833 LW
N
4.5 -0.5 M
4.5 -3.261 2.261 -5.5 -0.5 -5.5 C
-3.261 -5.5 -5.5 -3.261 -5.5 -0.5 C
-5.5 2.261 -3.261 4.5 -0.5 4.5 C
2.261 4.5 4.5 2.261 4.5 -0.5 C
S
GR
GS
[0.60063 0 0 0.6 0 0.40002] CT
0 0.447 0.741 RC
1 LJ
0.833 LW
N
125 748.5 M
125 772.606 L
S
GR
GS
[0.60063 0 0 0.6 0 0.40002] CT
0 0.447 0.741 RC
1 LJ
0.833 LW
N
162.1 748.5 M
162.1 783.063 L
S
GR
GS
[0.60063 0 0 0.6 0 0.40002] CT
0 0.447 0.741 RC
1 LJ
0.833 LW
N
199.2 748.5 M
199.2 772.579 L
S
GR
GS
[0.60063 0 0 0.6 0 0.40002] CT
0 0.447 0.741 RC
1 LJ
0.833 LW
N
236.3 748.5 M
236.3 761.351 L
S
GR
GS
[0.60063 0 0 0.6 0 0.40002] CT
0 0.447 0.741 RC
1 LJ
0.833 LW
N
273.4 748.5 M
273.4 761.925 L
S
GR
GS
[0.60063 0 0 0.6 0 0.40002] CT
0 0.447 0.741 RC
1 LJ
0.833 LW
N
310.5 748.5 M
310.5 754.115 L
S
GR
GS
[0.60063 0 0 0.6 0 0.40002] CT
0 0.447 0.741 RC
1 LJ
0.833 LW
N
347.6 748.5 M
347.6 777.103 L
S
GR
GS
[0.60063 0 0 0.6 0 0.40002] CT
0 0.447 0.741 RC
1 LJ
0.833 LW
N
384.7 748.5 M
384.7 764.655 L
S
GR
GS
[0.60063 0 0 0.6 0 0.40002] CT
0 0.447 0.741 RC
1 LJ
0.833 LW
N
421.8 748.5 M
421.8 777.811 L
S
GR
GS
[0.60063 0 0 0.6 0 0.40002] CT
0 0.447 0.741 RC
1 LJ
0.833 LW
N
458.9 748.5 M
458.9 771.448 L
S
GR
GS
[0.60063 0 0 0.6 0 0.40002] CT
0 0.447 0.741 RC
1 LJ
0.833 LW
N
496 748.5 M
496 753.147 L
S
GR
GS
[0.60063 0 0 0.6 0 0.40002] CT
0 0.447 0.741 RC
1 LJ
0.833 LW
N
533.1 748.5 M
533.1 756.283 L
S
GR
GS
[0.60063 0 0 0.6 0 0.40002] CT
0 0.447 0.741 RC
1 LJ
0.833 LW
N
570.2 748.5 M
570.2 767.397 L
S
GR
GS
[0.60063 0 0 0.6 0 0.40002] CT
0 0.447 0.741 RC
1 LJ
0.833 LW
N
607.3 748.5 M
607.3 791.882 L
S
GR
GS
[0.60063 0 0 0.6 0 0.40002] CT
0 0.447 0.741 RC
1 LJ
0.833 LW
N
644.4 748.5 M
644.4 767.732 L
S
GR
GS
[0.60063 0 0 0.6 0 0.40002] CT
0 0.447 0.741 RC
1 LJ
0.833 LW
N
681.5 748.5 M
681.5 763.587 L
S
GR
GS
[0.60063 0 0 0.6 0 0.40002] CT
0 0.447 0.741 RC
1 LJ
0.833 LW
N
718.6 748.5 M
718.6 783.29 L
S
GR
GS
[0.60063 0 0 0.6 0 0.40002] CT
0 0.447 0.741 RC
1 LJ
0.833 LW
N
755.7 748.5 M
755.7 702.63 L
S
GR
GS
[0.60063 0 0 0.6 0 0.40002] CT
0 0.447 0.741 RC
1 LJ
0.833 LW
N
792.8 748.5 M
792.8 402.004 L
S
GR
GS
[0.60063 0 0 0.6 0 0.40002] CT
0 0.447 0.741 RC
1 LJ
0.833 LW
N
829.9 748.5 M
829.9 105.425 L
S
GR
GS
[0.60063 0 0 0.6 0 0.40002] CT
0 0.447 0.741 RC
1 LJ
0.833 LW
N
867 748.5 M
867 194.214 L
S
GR
GS
[0.60063 0 0 0.6 0 0.40002] CT
0 0.447 0.741 RC
[8 3 2 3] 0 setdash
2 LJ
0.833 LW
N
125 674.605 M
162.1 674.605 L
199.2 674.605 L
236.3 674.605 L
273.4 674.605 L
310.5 674.605 L
347.6 674.605 L
384.7 674.605 L
421.8 674.605 L
458.9 674.605 L
496 674.605 L
533.1 674.605 L
570.2 674.605 L
607.3 674.605 L
644.4 674.605 L
681.5 674.605 L
718.6 674.605 L
755.7 674.605 L
792.8 674.605 L
829.9 674.605 L
867 674.605 L
S
GR
GS
[0.60063 0 0 0.6 0 0.40002] CT
0 0.447 0.741 RC
[8 3 2 3] 0 setdash
2 LJ
0.833 LW
N
125 822.395 M
162.1 822.395 L
199.2 822.395 L
236.3 822.395 L
273.4 822.395 L
310.5 822.395 L
347.6 822.395 L
384.7 822.395 L
421.8 822.395 L
458.9 822.395 L
496 822.395 L
533.1 822.395 L
570.2 822.395 L
607.3 822.395 L
644.4 822.395 L
681.5 822.395 L
718.6 822.395 L
755.7 822.395 L
792.8 822.395 L
829.9 822.395 L
867 822.395 L
S
GR
%%Trailer
%%Pages: 1
%%EOF
