%!PS-Adobe-3.0 EPSF-3.0
%%Creator: (MATLAB, The Mathworks, Inc. Version 9.1.0.441655 \(R2016b\). Operating System: Linux)
%%Title: /users/start2016/r0461511/Documents/system-identification/Oefenzitting_3/plots/exp_bode.eps
%%CreationDate: 2016-12-20T15:02:08
%%Pages: (atend)
%%BoundingBox: 0 0 1440 693
%%LanguageLevel: 3
%%EndComments
%%BeginProlog
%%BeginResource: procset (Apache XML Graphics Std ProcSet) 1.2 0
%%Version: 1.2 0
%%Copyright: (Copyright 2001-2003,2010 The Apache Software Foundation. License terms: http://www.apache.org/licenses/LICENSE-2.0)
/bd{bind def}bind def
/ld{load def}bd
/GR/grestore ld
/M/moveto ld
/LJ/setlinejoin ld
/C/curveto ld
/f/fill ld
/LW/setlinewidth ld
/GC/setgray ld
/t/show ld
/N/newpath ld
/CT/concat ld
/cp/closepath ld
/S/stroke ld
/L/lineto ld
/CC/setcmykcolor ld
/A/ashow ld
/GS/gsave ld
/RC/setrgbcolor ld
/RM/rmoveto ld
/ML/setmiterlimit ld
/re {4 2 roll M
1 index 0 rlineto
0 exch rlineto
neg 0 rlineto
cp } bd
/_ctm matrix def
/_tm matrix def
/BT { _ctm currentmatrix pop matrix _tm copy pop 0 0 moveto } bd
/ET { _ctm setmatrix } bd
/iTm { _ctm setmatrix _tm concat } bd
/Tm { _tm astore pop iTm 0 0 moveto } bd
/ux 0.0 def
/uy 0.0 def
/F {
  /Tp exch def
  /Tf exch def
  Tf findfont Tp scalefont setfont
  /cf Tf def  /cs Tp def
} bd
/ULS {currentpoint /uy exch def /ux exch def} bd
/ULE {
  /Tcx currentpoint pop def
  gsave
  newpath
  cf findfont cs scalefont dup
  /FontMatrix get 0 get /Ts exch def /FontInfo get dup
  /UnderlinePosition get Ts mul /To exch def
  /UnderlineThickness get Ts mul /Tt exch def
  ux uy To add moveto  Tcx uy To add lineto
  Tt setlinewidth stroke
  grestore
} bd
/OLE {
  /Tcx currentpoint pop def
  gsave
  newpath
  cf findfont cs scalefont dup
  /FontMatrix get 0 get /Ts exch def /FontInfo get dup
  /UnderlinePosition get Ts mul /To exch def
  /UnderlineThickness get Ts mul /Tt exch def
  ux uy To add cs add moveto Tcx uy To add cs add lineto
  Tt setlinewidth stroke
  grestore
} bd
/SOE {
  /Tcx currentpoint pop def
  gsave
  newpath
  cf findfont cs scalefont dup
  /FontMatrix get 0 get /Ts exch def /FontInfo get dup
  /UnderlinePosition get Ts mul /To exch def
  /UnderlineThickness get Ts mul /Tt exch def
  ux uy To add cs 10 mul 26 idiv add moveto Tcx uy To add cs 10 mul 26 idiv add lineto
  Tt setlinewidth stroke
  grestore
} bd
/QT {
/Y22 exch store
/X22 exch store
/Y21 exch store
/X21 exch store
currentpoint
/Y21 load 2 mul add 3 div exch
/X21 load 2 mul add 3 div exch
/X21 load 2 mul /X22 load add 3 div
/Y21 load 2 mul /Y22 load add 3 div
/X22 load /Y22 load curveto
} bd
/SSPD {
dup length /d exch dict def
{
/v exch def
/k exch def
currentpagedevice k known {
/cpdv currentpagedevice k get def
v cpdv ne {
/upd false def
/nullv v type /nulltype eq def
/nullcpdv cpdv type /nulltype eq def
nullv nullcpdv or
{
/upd true def
} {
/sametype v type cpdv type eq def
sametype {
v type /arraytype eq {
/vlen v length def
/cpdvlen cpdv length def
vlen cpdvlen eq {
0 1 vlen 1 sub {
/i exch def
/obj v i get def
/cpdobj cpdv i get def
obj cpdobj ne {
/upd true def
exit
} if
} for
} {
/upd true def
} ifelse
} {
v type /dicttype eq {
v {
/dv exch def
/dk exch def
/cpddv cpdv dk get def
dv cpddv ne {
/upd true def
exit
} if
} forall
} {
/upd true def
} ifelse
} ifelse
} if
} ifelse
upd true eq {
d k v put
} if
} if
} if
} forall
d length 0 gt {
d setpagedevice
} if
} bd
/RE { % /NewFontName [NewEncodingArray] /FontName RE -
  findfont dup length dict begin
  {
    1 index /FID ne
    {def} {pop pop} ifelse
  } forall
  /Encoding exch def
  /FontName 1 index def
  currentdict definefont pop
  end
} bind def
%%EndResource
%%BeginResource: procset (Apache XML Graphics EPS ProcSet) 1.0 0
%%Version: 1.0 0
%%Copyright: (Copyright 2002-2003 The Apache Software Foundation. License terms: http://www.apache.org/licenses/LICENSE-2.0)
/BeginEPSF { %def
/b4_Inc_state save def         % Save state for cleanup
/dict_count countdictstack def % Count objects on dict stack
/op_count count 1 sub def      % Count objects on operand stack
userdict begin                 % Push userdict on dict stack
/showpage { } def              % Redefine showpage, { } = null proc
0 setgray 0 setlinecap         % Prepare graphics state
1 setlinewidth 0 setlinejoin
10 setmiterlimit [ ] 0 setdash newpath
/languagelevel where           % If level not equal to 1 then
{pop languagelevel             % set strokeadjust and
1 ne                           % overprint to their defaults.
{false setstrokeadjust false setoverprint
} if
} if
} bd
/EndEPSF { %def
count op_count sub {pop} repeat            % Clean up stacks
countdictstack dict_count sub {end} repeat
b4_Inc_state restore
} bd
%%EndResource
%FOPBeginFontDict
%%IncludeResource: font Courier-Bold
%%IncludeResource: font Helvetica
%%IncludeResource: font Courier-BoldOblique
%%IncludeResource: font Courier-Oblique
%%IncludeResource: font Times-Roman
%%IncludeResource: font Helvetica-BoldOblique
%%IncludeResource: font Helvetica-Bold
%%IncludeResource: font Helvetica-Oblique
%%IncludeResource: font Times-BoldItalic
%%IncludeResource: font Courier
%%IncludeResource: font Times-Italic
%%IncludeResource: font Times-Bold
%%IncludeResource: font Symbol
%%IncludeResource: font ZapfDingbats
%FOPEndFontDict
%%BeginResource: encoding WinAnsiEncoding
/WinAnsiEncoding [
/.notdef /.notdef /.notdef /.notdef /.notdef
/.notdef /.notdef /.notdef /.notdef /.notdef
/.notdef /.notdef /.notdef /.notdef /.notdef
/.notdef /.notdef /.notdef /.notdef /.notdef
/.notdef /.notdef /.notdef /.notdef /.notdef
/.notdef /.notdef /.notdef /.notdef /.notdef
/.notdef /.notdef /space /exclam /quotedbl
/numbersign /dollar /percent /ampersand /quotesingle
/parenleft /parenright /asterisk /plus /comma
/hyphen /period /slash /zero /one
/two /three /four /five /six
/seven /eight /nine /colon /semicolon
/less /equal /greater /question /at
/A /B /C /D /E
/F /G /H /I /J
/K /L /M /N /O
/P /Q /R /S /T
/U /V /W /X /Y
/Z /bracketleft /backslash /bracketright /asciicircum
/underscore /quoteleft /a /b /c
/d /e /f /g /h
/i /j /k /l /m
/n /o /p /q /r
/s /t /u /v /w
/x /y /z /braceleft /bar
/braceright /asciitilde /bullet /Euro /bullet
/quotesinglbase /florin /quotedblbase /ellipsis /dagger
/daggerdbl /circumflex /perthousand /Scaron /guilsinglleft
/OE /bullet /Zcaron /bullet /bullet
/quoteleft /quoteright /quotedblleft /quotedblright /bullet
/endash /emdash /asciitilde /trademark /scaron
/guilsinglright /oe /bullet /zcaron /Ydieresis
/space /exclamdown /cent /sterling /currency
/yen /brokenbar /section /dieresis /copyright
/ordfeminine /guillemotleft /logicalnot /sfthyphen /registered
/macron /degree /plusminus /twosuperior /threesuperior
/acute /mu /paragraph /middot /cedilla
/onesuperior /ordmasculine /guillemotright /onequarter /onehalf
/threequarters /questiondown /Agrave /Aacute /Acircumflex
/Atilde /Adieresis /Aring /AE /Ccedilla
/Egrave /Eacute /Ecircumflex /Edieresis /Igrave
/Iacute /Icircumflex /Idieresis /Eth /Ntilde
/Ograve /Oacute /Ocircumflex /Otilde /Odieresis
/multiply /Oslash /Ugrave /Uacute /Ucircumflex
/Udieresis /Yacute /Thorn /germandbls /agrave
/aacute /acircumflex /atilde /adieresis /aring
/ae /ccedilla /egrave /eacute /ecircumflex
/edieresis /igrave /iacute /icircumflex /idieresis
/eth /ntilde /ograve /oacute /ocircumflex
/otilde /odieresis /divide /oslash /ugrave
/uacute /ucircumflex /udieresis /yacute /thorn
/ydieresis
] def
%%EndResource
%FOPBeginFontReencode
/Courier-Bold findfont
dup length dict begin
  {1 index /FID ne {def} {pop pop} ifelse} forall
  /Encoding WinAnsiEncoding def
  currentdict
end
/Courier-Bold exch definefont pop
/Helvetica findfont
dup length dict begin
  {1 index /FID ne {def} {pop pop} ifelse} forall
  /Encoding WinAnsiEncoding def
  currentdict
end
/Helvetica exch definefont pop
/Courier-BoldOblique findfont
dup length dict begin
  {1 index /FID ne {def} {pop pop} ifelse} forall
  /Encoding WinAnsiEncoding def
  currentdict
end
/Courier-BoldOblique exch definefont pop
/Courier-Oblique findfont
dup length dict begin
  {1 index /FID ne {def} {pop pop} ifelse} forall
  /Encoding WinAnsiEncoding def
  currentdict
end
/Courier-Oblique exch definefont pop
/Times-Roman findfont
dup length dict begin
  {1 index /FID ne {def} {pop pop} ifelse} forall
  /Encoding WinAnsiEncoding def
  currentdict
end
/Times-Roman exch definefont pop
/Helvetica-BoldOblique findfont
dup length dict begin
  {1 index /FID ne {def} {pop pop} ifelse} forall
  /Encoding WinAnsiEncoding def
  currentdict
end
/Helvetica-BoldOblique exch definefont pop
/Helvetica-Bold findfont
dup length dict begin
  {1 index /FID ne {def} {pop pop} ifelse} forall
  /Encoding WinAnsiEncoding def
  currentdict
end
/Helvetica-Bold exch definefont pop
/Helvetica-Oblique findfont
dup length dict begin
  {1 index /FID ne {def} {pop pop} ifelse} forall
  /Encoding WinAnsiEncoding def
  currentdict
end
/Helvetica-Oblique exch definefont pop
/Times-BoldItalic findfont
dup length dict begin
  {1 index /FID ne {def} {pop pop} ifelse} forall
  /Encoding WinAnsiEncoding def
  currentdict
end
/Times-BoldItalic exch definefont pop
/Courier findfont
dup length dict begin
  {1 index /FID ne {def} {pop pop} ifelse} forall
  /Encoding WinAnsiEncoding def
  currentdict
end
/Courier exch definefont pop
/Times-Italic findfont
dup length dict begin
  {1 index /FID ne {def} {pop pop} ifelse} forall
  /Encoding WinAnsiEncoding def
  currentdict
end
/Times-Italic exch definefont pop
/Times-Bold findfont
dup length dict begin
  {1 index /FID ne {def} {pop pop} ifelse} forall
  /Encoding WinAnsiEncoding def
  currentdict
end
/Times-Bold exch definefont pop
%FOPEndFontReencode
%%EndProlog
%%Page: 1 1
%%PageBoundingBox: 0 0 1440 693
%%BeginPageSetup
[1 0 0 -1 0 693] CT
%%EndPageSetup
GS
[0.75 0 0 0.75 0 0] CT
1 GC
N
0 0 1920 924 re
f
GR
GS
[0.75 0 0 0.75 0 0] CT
1 GC
N
0 0 1920 924 re
f
GR
GS
[0.75 0 0 0.75 0 0] CT
1 GC
N
250 822 M
1738 822 L
1738 69 L
250 69 L
cp
f
GR
GS
[0.75 0 0 0.75 0 0] CT
0.149 GC
2 setlinecap
1 LJ
0.667 LW
N
250 822 M
1738 822 L
S
GR
GS
[0.75 0 0 0.75 0 0] CT
0.149 GC
2 setlinecap
1 LJ
0.667 LW
N
250 69 M
1738 69 L
S
GR
GS
[0.75 0 0 0.75 0 0] CT
0.149 GC
2 setlinecap
1 LJ
0.667 LW
N
250 822 M
250 807.12 L
S
GR
GS
[0.75 0 0 0.75 0 0] CT
0.149 GC
2 setlinecap
1 LJ
0.667 LW
N
462.571 822 M
462.571 807.12 L
S
GR
GS
[0.75 0 0 0.75 0 0] CT
0.149 GC
2 setlinecap
1 LJ
0.667 LW
N
675.143 822 M
675.143 807.12 L
S
GR
GS
[0.75 0 0 0.75 0 0] CT
0.149 GC
2 setlinecap
1 LJ
0.667 LW
N
887.714 822 M
887.714 807.12 L
S
GR
GS
[0.75 0 0 0.75 0 0] CT
0.149 GC
2 setlinecap
1 LJ
0.667 LW
N
1100.286 822 M
1100.286 807.12 L
S
GR
GS
[0.75 0 0 0.75 0 0] CT
0.149 GC
2 setlinecap
1 LJ
0.667 LW
N
1312.857 822 M
1312.857 807.12 L
S
GR
GS
[0.75 0 0 0.75 0 0] CT
0.149 GC
2 setlinecap
1 LJ
0.667 LW
N
1525.429 822 M
1525.429 807.12 L
S
GR
GS
[0.75 0 0 0.75 0 0] CT
0.149 GC
2 setlinecap
1 LJ
0.667 LW
N
1738 822 M
1738 807.12 L
S
GR
GS
[0.75 0 0 0.75 0 0] CT
0.149 GC
2 setlinecap
1 LJ
0.667 LW
N
250 69 M
250 83.88 L
S
GR
GS
[0.75 0 0 0.75 0 0] CT
0.149 GC
2 setlinecap
1 LJ
0.667 LW
N
462.571 69 M
462.571 83.88 L
S
GR
GS
[0.75 0 0 0.75 0 0] CT
0.149 GC
2 setlinecap
1 LJ
0.667 LW
N
675.143 69 M
675.143 83.88 L
S
GR
GS
[0.75 0 0 0.75 0 0] CT
0.149 GC
2 setlinecap
1 LJ
0.667 LW
N
887.714 69 M
887.714 83.88 L
S
GR
GS
[0.75 0 0 0.75 0 0] CT
0.149 GC
2 setlinecap
1 LJ
0.667 LW
N
1100.286 69 M
1100.286 83.88 L
S
GR
GS
[0.75 0 0 0.75 0 0] CT
0.149 GC
2 setlinecap
1 LJ
0.667 LW
N
1312.857 69 M
1312.857 83.88 L
S
GR
GS
[0.75 0 0 0.75 0 0] CT
0.149 GC
2 setlinecap
1 LJ
0.667 LW
N
1525.429 69 M
1525.429 83.88 L
S
GR
GS
[0.75 0 0 0.75 0 0] CT
0.149 GC
2 setlinecap
1 LJ
0.667 LW
N
1738 69 M
1738 83.88 L
S
GR
GS
[0.75 0 0 0.75 187.5 620.49998] CT
0.149 GC
/Helvetica 13.333 F
GS
[1 0 0 1 0 0] CT
-4.5 13 moveto 
1 -1 scale
(0) t 
GR
GR
GS
[0.75 0 0 0.75 346.92858 620.49998] CT
0.149 GC
/Helvetica 13.333 F
GS
[1 0 0 1 0 0] CT
-10.5 13 moveto 
1 -1 scale
(0.5) t 
GR
GR
GS
[0.75 0 0 0.75 506.35716 620.49998] CT
0.149 GC
/Helvetica 13.333 F
GS
[1 0 0 1 0 0] CT
-4.5 13 moveto 
1 -1 scale
(1) t 
GR
GR
GS
[0.75 0 0 0.75 665.78572 620.49998] CT
0.149 GC
/Helvetica 13.333 F
GS
[1 0 0 1 0 0] CT
-10.5 13 moveto 
1 -1 scale
(1.5) t 
GR
GR
GS
[0.75 0 0 0.75 825.21432 620.49998] CT
0.149 GC
/Helvetica 13.333 F
GS
[1 0 0 1 0 0] CT
-4.5 13 moveto 
1 -1 scale
(2) t 
GR
GR
GS
[0.75 0 0 0.75 984.64288 620.49998] CT
0.149 GC
/Helvetica 13.333 F
GS
[1 0 0 1 0 0] CT
-10.5 13 moveto 
1 -1 scale
(2.5) t 
GR
GR
GS
[0.75 0 0 0.75 1144.07144 620.49998] CT
0.149 GC
/Helvetica 13.333 F
GS
[1 0 0 1 0 0] CT
-4.5 13 moveto 
1 -1 scale
(3) t 
GR
GR
GS
[0.75 0 0 0.75 1303.5 620.49998] CT
0.149 GC
/Helvetica 13.333 F
GS
[1 0 0 1 0 0] CT
-10.5 13 moveto 
1 -1 scale
(3.5) t 
GR
GR
GS
[0.75 0 0 0.75 745.50055 634.25002] CT
0.149 GC
/Helvetica 14.667 F
GS
[1 0 0 1 0 0] CT
-83 14 moveto 
1 -1 scale
(Normalized frequency) t 
GR
GR
GS
[0.75 0 0 0.75 0 0] CT
0.149 GC
2 setlinecap
1 LJ
0.667 LW
N
250 822 M
250 69 L
S
GR
GS
[0.75 0 0 0.75 0 0] CT
0.149 GC
2 setlinecap
1 LJ
0.667 LW
N
1738 822 M
1738 69 L
S
GR
GS
[0.75 0 0 0.75 0 0] CT
0.149 GC
2 setlinecap
1 LJ
0.667 LW
N
250 822 M
264.88 822 L
S
GR
GS
[0.75 0 0 0.75 0 0] CT
0.149 GC
2 setlinecap
1 LJ
0.667 LW
N
250 746.7 M
264.88 746.7 L
S
GR
GS
[0.75 0 0 0.75 0 0] CT
0.149 GC
2 setlinecap
1 LJ
0.667 LW
N
250 671.4 M
264.88 671.4 L
S
GR
GS
[0.75 0 0 0.75 0 0] CT
0.149 GC
2 setlinecap
1 LJ
0.667 LW
N
250 596.1 M
264.88 596.1 L
S
GR
GS
[0.75 0 0 0.75 0 0] CT
0.149 GC
2 setlinecap
1 LJ
0.667 LW
N
250 520.8 M
264.88 520.8 L
S
GR
GS
[0.75 0 0 0.75 0 0] CT
0.149 GC
2 setlinecap
1 LJ
0.667 LW
N
250 445.5 M
264.88 445.5 L
S
GR
GS
[0.75 0 0 0.75 0 0] CT
0.149 GC
2 setlinecap
1 LJ
0.667 LW
N
250 370.2 M
264.88 370.2 L
S
GR
GS
[0.75 0 0 0.75 0 0] CT
0.149 GC
2 setlinecap
1 LJ
0.667 LW
N
250 294.9 M
264.88 294.9 L
S
GR
GS
[0.75 0 0 0.75 0 0] CT
0.149 GC
2 setlinecap
1 LJ
0.667 LW
N
250 219.6 M
264.88 219.6 L
S
GR
GS
[0.75 0 0 0.75 0 0] CT
0.149 GC
2 setlinecap
1 LJ
0.667 LW
N
250 144.3 M
264.88 144.3 L
S
GR
GS
[0.75 0 0 0.75 0 0] CT
0.149 GC
2 setlinecap
1 LJ
0.667 LW
N
250 69 M
264.88 69 L
S
GR
GS
[0.75 0 0 0.75 0 0] CT
0.149 GC
2 setlinecap
1 LJ
0.667 LW
N
1738 822 M
1723.12 822 L
S
GR
GS
[0.75 0 0 0.75 0 0] CT
0.149 GC
2 setlinecap
1 LJ
0.667 LW
N
1738 746.7 M
1723.12 746.7 L
S
GR
GS
[0.75 0 0 0.75 0 0] CT
0.149 GC
2 setlinecap
1 LJ
0.667 LW
N
1738 671.4 M
1723.12 671.4 L
S
GR
GS
[0.75 0 0 0.75 0 0] CT
0.149 GC
2 setlinecap
1 LJ
0.667 LW
N
1738 596.1 M
1723.12 596.1 L
S
GR
GS
[0.75 0 0 0.75 0 0] CT
0.149 GC
2 setlinecap
1 LJ
0.667 LW
N
1738 520.8 M
1723.12 520.8 L
S
GR
GS
[0.75 0 0 0.75 0 0] CT
0.149 GC
2 setlinecap
1 LJ
0.667 LW
N
1738 445.5 M
1723.12 445.5 L
S
GR
GS
[0.75 0 0 0.75 0 0] CT
0.149 GC
2 setlinecap
1 LJ
0.667 LW
N
1738 370.2 M
1723.12 370.2 L
S
GR
GS
[0.75 0 0 0.75 0 0] CT
0.149 GC
2 setlinecap
1 LJ
0.667 LW
N
1738 294.9 M
1723.12 294.9 L
S
GR
GS
[0.75 0 0 0.75 0 0] CT
0.149 GC
2 setlinecap
1 LJ
0.667 LW
N
1738 219.6 M
1723.12 219.6 L
S
GR
GS
[0.75 0 0 0.75 0 0] CT
0.149 GC
2 setlinecap
1 LJ
0.667 LW
N
1738 144.3 M
1723.12 144.3 L
S
GR
GS
[0.75 0 0 0.75 0 0] CT
0.149 GC
2 setlinecap
1 LJ
0.667 LW
N
1738 69 M
1723.12 69 L
S
GR
GS
[0.75 0 0 0.75 183.5 616.5] CT
0.149 GC
/Helvetica 13.333 F
GS
[1 0 0 1 0 0] CT
-22 4.5 moveto 
1 -1 scale
(-40) t 
GR
GR
GS
[0.75 0 0 0.75 183.5 560.02501] CT
0.149 GC
/Helvetica 13.333 F
GS
[1 0 0 1 0 0] CT
-22 4.5 moveto 
1 -1 scale
(-35) t 
GR
GR
GS
[0.75 0 0 0.75 183.5 503.55002] CT
0.149 GC
/Helvetica 13.333 F
GS
[1 0 0 1 0 0] CT
-22 4.5 moveto 
1 -1 scale
(-30) t 
GR
GR
GS
[0.75 0 0 0.75 183.5 447.07498] CT
0.149 GC
/Helvetica 13.333 F
GS
[1 0 0 1 0 0] CT
-22 4.5 moveto 
1 -1 scale
(-25) t 
GR
GR
GS
[0.75 0 0 0.75 183.5 390.59999] CT
0.149 GC
/Helvetica 13.333 F
GS
[1 0 0 1 0 0] CT
-22 4.5 moveto 
1 -1 scale
(-20) t 
GR
GR
GS
[0.75 0 0 0.75 183.5 334.125] CT
0.149 GC
/Helvetica 13.333 F
GS
[1 0 0 1 0 0] CT
-22 4.5 moveto 
1 -1 scale
(-15) t 
GR
GR
GS
[0.75 0 0 0.75 183.5 277.65001] CT
0.149 GC
/Helvetica 13.333 F
GS
[1 0 0 1 0 0] CT
-22 4.5 moveto 
1 -1 scale
(-10) t 
GR
GR
GS
[0.75 0 0 0.75 183.5 221.175] CT
0.149 GC
/Helvetica 13.333 F
GS
[1 0 0 1 0 0] CT
-13 4.5 moveto 
1 -1 scale
(-5) t 
GR
GR
GS
[0.75 0 0 0.75 183.5 164.7] CT
0.149 GC
/Helvetica 13.333 F
GS
[1 0 0 1 0 0] CT
-9 4.5 moveto 
1 -1 scale
(0) t 
GR
GR
GS
[0.75 0 0 0.75 183.5 108.225] CT
0.149 GC
/Helvetica 13.333 F
GS
[1 0 0 1 0 0] CT
-9 4.5 moveto 
1 -1 scale
(5) t 
GR
GR
GS
[0.75 0 0 0.75 183.5 51.75] CT
0.149 GC
/Helvetica 13.333 F
GS
[1 0 0 1 0 0] CT
-17 4.5 moveto 
1 -1 scale
(10) t 
GR
GR
GS
[0 -0.75 0.75 0 164 334.12473] CT
0.149 GC
/Helvetica 14.667 F
GS
[1 0 0 1 0 0] CT
-58 -4 moveto 
1 -1 scale
(Magnitude \(dB\)) t 
GR
GR
GS
[0.75 0 0 0.75 745.50073 49.6875] CT
/Helvetica-Bold 14.667 F
GS
[1 0 0 1 0 0] CT
-135.5 -4 moveto 
1 -1 scale
(Experimental bodeplot with FFT) t 
GR
GR
GS
[0.75 0 0 0.75 0 0] CT
0 0.447 0.741 RC
1 LJ
0.667 LW
N
250 777.354 M
252.682 790.817 L
255.364 785.232 L
258.046 780.659 L
260.728 769.573 L
263.41 754.087 L
266.092 736.037 L
268.774 720.853 L
271.456 698.813 L
274.138 671.501 L
276.82 641.519 L
279.502 608.88 L
282.184 572.936 L
284.866 541.2 L
287.548 512.461 L
290.23 486.835 L
292.912 463.933 L
295.594 443.817 L
298.276 425.25 L
300.958 408.909 L
303.64 394.542 L
306.322 382.262 L
309.004 371.354 L
311.686 361.729 L
314.367 353.118 L
317.049 345.294 L
319.731 337.989 L
322.413 331.272 L
325.095 325.017 L
327.777 319.155 L
330.459 313.644 L
333.141 308.399 L
335.823 303.388 L
338.505 298.573 L
341.187 293.931 L
343.869 289.438 L
346.551 285.103 L
349.233 280.947 L
351.915 276.97 L
354.597 273.189 L
357.279 269.588 L
359.961 266.096 L
362.643 262.616 L
365.325 259.076 L
368.007 255.347 L
370.689 251.359 L
373.371 247.069 L
376.053 242.453 L
378.735 237.515 L
381.417 232.292 L
384.099 226.784 L
386.781 221.033 L
389.463 215.075 L
392.145 208.904 L
394.827 202.517 L
397.509 195.956 L
400.191 189.23 L
402.873 182.327 L
405.555 175.273 L
408.237 168.102 L
410.919 160.837 L
413.601 153.472 L
416.283 146.087 L
418.965 138.733 L
421.647 131.472 L
424.329 124.362 L
427.011 117.525 L
429.693 111.048 L
432.375 105.037 L
435.057 99.622 L
437.739 94.951 L
440.421 91.122 L
443.103 88.226 L
445.784 86.332 L
448.466 85.452 L
451.148 85.534 L
453.83 86.517 L
456.512 88.303 L
459.194 90.772 L
461.876 93.788 L
464.558 97.248 L
467.24 101.034 L
469.922 105.038 L
472.604 109.157 L
475.286 113.322 L
477.968 117.467 L
480.65 121.537 L
483.332 125.501 L
486.014 129.353 L
488.696 133.071 L
491.378 136.615 L
494.06 140.004 L
496.742 143.22 L
499.424 146.25 L
502.106 149.104 L
504.788 151.804 L
507.47 154.316 L
510.152 156.658 L
512.834 158.84 L
515.516 160.847 L
518.198 162.695 L
520.88 164.41 L
523.562 165.972 L
526.244 167.371 L
528.926 168.637 L
531.608 169.744 L
534.29 170.698 L
536.972 171.504 L
539.654 172.189 L
542.336 172.721 L
545.018 173.118 L
547.7 173.366 L
550.382 173.501 L
553.064 173.499 L
555.746 173.378 L
558.428 173.146 L
561.11 172.802 L
563.792 172.323 L
566.474 171.714 L
569.156 170.996 L
571.838 170.159 L
574.519 169.209 L
577.201 168.146 L
579.883 166.978 L
582.565 165.673 L
585.247 164.244 L
587.929 162.71 L
590.611 161.057 L
593.293 159.293 L
595.975 157.433 L
598.657 155.46 L
601.339 153.365 L
604.021 151.174 L
606.703 148.887 L
609.385 146.5 L
612.067 144.034 L
614.749 141.486 L
617.431 138.849 L
620.113 136.138 L
622.795 133.372 L
625.477 130.557 L
628.159 127.718 L
630.841 124.877 L
633.523 122.04 L
636.205 119.212 L
638.887 116.422 L
641.569 113.681 L
644.251 111.008 L
646.933 108.437 L
649.615 105.996 L
652.297 103.71 L
654.979 101.595 L
657.661 99.69 L
660.343 98.009 L
663.025 96.573 L
665.707 95.385 L
668.389 94.482 L
671.071 93.853 L
673.753 93.497 L
676.435 93.42 L
679.117 93.624 L
681.799 94.081 L
684.481 94.773 L
687.163 95.685 L
689.845 96.781 L
692.527 98.029 L
695.209 99.404 L
697.891 100.879 L
700.573 102.436 L
703.254 104.043 L
705.936 105.683 L
708.618 107.336 L
711.3 108.983 L
713.982 110.599 L
716.664 112.186 L
719.346 113.716 L
722.028 115.194 L
724.71 116.617 L
727.392 117.98 L
730.074 119.289 L
732.756 120.564 L
735.438 121.803 L
738.12 123.02 L
740.802 124.24 L
743.484 125.477 L
746.166 126.752 L
748.848 128.084 L
751.53 129.519 L
754.212 131.085 L
756.894 132.825 L
759.576 134.77 L
762.258 136.974 L
764.94 139.452 L
767.622 142.239 L
770.304 145.353 L
772.986 148.807 L
775.668 152.614 L
778.35 156.778 L
781.032 161.288 L
783.714 166.143 L
786.396 171.318 L
789.078 176.776 L
791.76 182.478 L
794.442 188.406 L
797.124 194.495 L
799.806 200.745 L
802.488 207.082 L
805.17 213.496 L
807.852 219.887 L
810.534 226.215 L
813.216 232.38 L
815.898 238.34 L
818.58 243.986 L
821.262 249.329 L
823.944 254.372 L
826.626 259.162 L
829.307 263.812 L
831.99 268.456 L
834.671 273.166 L
837.353 277.986 L
840.035 282.926 L
842.717 287.912 L
845.399 292.872 L
848.081 297.755 L
850.763 302.5 L
853.445 307.097 L
856.127 311.547 L
858.809 315.844 L
861.491 319.977 L
864.173 323.96 L
866.855 327.771 L
869.537 331.416 L
872.219 334.898 L
874.901 338.223 L
877.583 341.415 L
880.265 344.451 L
882.947 347.305 L
885.629 349.99 L
888.311 352.49 L
890.993 354.764 L
893.675 356.841 L
896.357 358.763 L
899.039 360.491 L
901.721 362.057 L
904.403 363.469 L
907.085 364.737 L
909.767 365.789 L
912.449 366.644 L
915.131 367.266 L
917.813 367.678 L
920.495 367.842 L
923.177 367.836 L
925.859 367.685 L
928.541 367.438 L
931.223 367.106 L
933.905 366.776 L
936.587 366.492 L
939.269 366.283 L
941.951 366.25 L
944.633 366.474 L
947.315 367.046 L
949.997 368.049 L
952.679 369.687 L
955.361 372.011 L
958.042 375.15 L
960.724 379.145 L
963.406 384.06 L
966.088 389.837 L
968.77 396.461 L
971.452 403.889 L
974.134 412.05 L
976.816 420.846 L
979.498 430.162 L
982.18 439.868 L
984.862 449.791 L
987.544 459.842 L
990.226 469.546 L
992.908 479.143 L
995.59 488.658 L
998.272 498.129 L
1000.954 507.592 L
1003.636 517.641 L
1006.318 527.634 L
1009 537.57 L
1011.682 547.305 L
1014.364 556.699 L
1017.046 565.597 L
1019.728 574.417 L
1022.41 582.93 L
1025.092 591.116 L
1027.774 598.381 L
1030.456 605.431 L
1033.138 612.072 L
1035.82 618.51 L
1038.502 624.972 L
1041.184 632.901 L
1043.866 640.609 L
1046.548 648.342 L
1049.23 656.16 L
1051.912 663.752 L
1054.594 669.905 L
1057.276 675.988 L
1059.958 681.191 L
1062.64 685.964 L
1065.322 690.599 L
1068.004 694.231 L
1070.686 697.778 L
1073.368 702.315 L
1076.05 704.388 L
1078.732 706.386 L
1081.414 711.416 L
1084.096 716.34 L
1086.777 720.453 L
1089.459 728.808 L
1092.141 736.754 L
1094.823 739.716 L
1097.505 740.544 L
1100.188 741.5 L
1102.869 740.442 L
1105.551 739.278 L
1108.233 738.235 L
1110.915 736.784 L
1113.597 733.642 L
1116.279 730.609 L
1118.961 727.258 L
1121.643 731.596 L
1124.325 741.533 L
1127.007 753.234 L
1129.689 764.144 L
1132.371 775.005 L
1135.053 779.039 L
1137.735 779.161 L
1140.417 779.193 L
1143.099 779.423 L
1145.781 780.205 L
1148.463 781.129 L
1151.145 779.938 L
1153.827 778.468 L
1156.509 769.714 L
1159.191 758.619 L
1161.873 751.376 L
1164.555 742.719 L
1167.237 733.647 L
1169.919 738.67 L
1172.601 746.45 L
1175.283 750.167 L
1177.965 762.059 L
1180.647 772.026 L
1183.329 774.279 L
1186.011 776.375 L
1188.693 781.116 L
1191.375 781.831 L
1194.057 786.195 L
1196.739 791.64 L
1199.421 796.366 L
1202.103 799.996 L
1204.785 803.1 L
1207.467 804.666 L
1210.149 806.236 L
1212.831 805.386 L
1215.513 803.453 L
1218.194 801.25 L
1220.877 798.599 L
1223.558 795.126 L
1226.24 796.202 L
1228.922 795.417 L
1231.604 794.893 L
1234.286 792.907 L
1236.968 788.352 L
1239.65 780.952 L
1242.332 775.7 L
1245.014 770.28 L
1247.696 767.994 L
1250.378 771.978 L
1253.06 770.846 L
1255.742 774.577 L
1258.424 777.911 L
1261.106 779.742 L
1263.788 778.066 L
1266.47 787.782 L
1269.152 793.016 L
1271.834 797.097 L
1274.516 797.608 L
1277.198 798.199 L
1279.88 792.945 L
1282.562 787.53 L
1285.244 779.586 L
1287.926 779.151 L
1290.608 776.806 L
1293.29 774.331 L
1295.972 772.391 L
1298.654 780.187 L
1301.336 780.51 L
1304.018 780.549 L
1306.7 779.458 L
1309.382 778.069 L
1312.064 770.691 L
1314.746 767.349 L
1317.428 770.729 L
1320.11 776.631 L
1322.792 781.324 L
1325.474 782.385 L
1328.156 779.686 L
1330.838 772.106 L
1333.52 759.86 L
1336.202 749.962 L
1338.884 747.743 L
1341.566 754.497 L
1344.248 758.448 L
1346.93 768.378 L
1349.611 777.521 L
1352.293 782.029 L
1354.975 772.013 L
1357.657 768.625 L
1360.339 763.805 L
1363.021 758.89 L
1365.703 751.228 L
1368.385 761.58 L
1371.067 768.518 L
1373.749 772.096 L
1376.431 775.015 L
1379.113 786.04 L
1381.795 787.699 L
1384.477 788.35 L
1387.159 793.618 L
1389.841 796.633 L
1392.523 795.21 L
1395.205 793.84 L
1397.887 793.96 L
1400.569 783.612 L
1403.251 778.746 L
1405.933 773.892 L
1408.615 768.408 L
1411.297 763.085 L
1413.979 769.644 L
1416.661 773.97 L
1419.343 778.081 L
1422.025 782.232 L
1424.707 785.859 L
1427.389 790.217 L
1430.071 793.846 L
1432.753 797.564 L
1435.435 802.512 L
1438.117 807.374 L
1440.799 803.28 L
1443.481 799.193 L
1446.163 791.112 L
1448.845 783.167 L
1451.527 771.752 L
1454.209 768.998 L
1456.891 763.636 L
1459.573 766.125 L
1462.255 768.056 L
1464.937 776.506 L
1467.619 775.717 L
1470.301 777.325 L
1472.983 775.321 L
1475.665 766.588 L
1478.347 754.056 L
1481.028 751.458 L
1483.71 752.866 L
1486.392 751.683 L
1489.074 763.09 L
1491.756 776.053 L
1494.438 784.262 L
1497.12 788.338 L
1499.802 796.902 L
1502.484 795.618 L
1505.166 792.407 L
1507.848 788.1 L
1510.53 784.458 L
1513.212 773.876 L
1515.894 765.978 L
1518.576 759.783 L
1521.258 749.314 L
1523.94 734.377 L
1526.622 728.758 L
1529.304 729.896 L
1531.986 728.736 L
1534.668 739.143 L
1537.35 758.433 L
1540.032 767.975 L
1542.714 767.079 L
1545.396 770.343 L
1548.078 763.337 L
1550.76 751.679 L
1553.442 751.323 L
1556.124 760.777 L
1558.806 766.712 L
1561.488 778.445 L
1564.17 789.171 L
1566.852 793.558 L
1569.534 791.006 L
1572.216 789.637 L
1574.898 781.908 L
1577.58 770.222 L
1580.262 741.181 L
1582.944 713.824 L
1585.626 646.572 L
S
GR
%%Trailer
%%Pages: 1
%%EOF
