%!PS-Adobe-3.0 EPSF-3.0
%%Creator: (MATLAB, The Mathworks, Inc. Version 9.1.0.441655 \(R2016b\). Operating System: Linux)
%%Title: /users/start2016/r0461511/Documents/system-identification/Oefenzitting_3/plots/fft_out.eps
%%CreationDate: 2016-12-20T17:32:25
%%Pages: (atend)
%%BoundingBox: 0 0 1440 693
%%LanguageLevel: 3
%%EndComments
%%BeginProlog
%%BeginResource: procset (Apache XML Graphics Std ProcSet) 1.2 0
%%Version: 1.2 0
%%Copyright: (Copyright 2001-2003,2010 The Apache Software Foundation. License terms: http://www.apache.org/licenses/LICENSE-2.0)
/bd{bind def}bind def
/ld{load def}bd
/GR/grestore ld
/M/moveto ld
/LJ/setlinejoin ld
/C/curveto ld
/f/fill ld
/LW/setlinewidth ld
/GC/setgray ld
/t/show ld
/N/newpath ld
/CT/concat ld
/cp/closepath ld
/S/stroke ld
/L/lineto ld
/CC/setcmykcolor ld
/A/ashow ld
/GS/gsave ld
/RC/setrgbcolor ld
/RM/rmoveto ld
/ML/setmiterlimit ld
/re {4 2 roll M
1 index 0 rlineto
0 exch rlineto
neg 0 rlineto
cp } bd
/_ctm matrix def
/_tm matrix def
/BT { _ctm currentmatrix pop matrix _tm copy pop 0 0 moveto } bd
/ET { _ctm setmatrix } bd
/iTm { _ctm setmatrix _tm concat } bd
/Tm { _tm astore pop iTm 0 0 moveto } bd
/ux 0.0 def
/uy 0.0 def
/F {
  /Tp exch def
  /Tf exch def
  Tf findfont Tp scalefont setfont
  /cf Tf def  /cs Tp def
} bd
/ULS {currentpoint /uy exch def /ux exch def} bd
/ULE {
  /Tcx currentpoint pop def
  gsave
  newpath
  cf findfont cs scalefont dup
  /FontMatrix get 0 get /Ts exch def /FontInfo get dup
  /UnderlinePosition get Ts mul /To exch def
  /UnderlineThickness get Ts mul /Tt exch def
  ux uy To add moveto  Tcx uy To add lineto
  Tt setlinewidth stroke
  grestore
} bd
/OLE {
  /Tcx currentpoint pop def
  gsave
  newpath
  cf findfont cs scalefont dup
  /FontMatrix get 0 get /Ts exch def /FontInfo get dup
  /UnderlinePosition get Ts mul /To exch def
  /UnderlineThickness get Ts mul /Tt exch def
  ux uy To add cs add moveto Tcx uy To add cs add lineto
  Tt setlinewidth stroke
  grestore
} bd
/SOE {
  /Tcx currentpoint pop def
  gsave
  newpath
  cf findfont cs scalefont dup
  /FontMatrix get 0 get /Ts exch def /FontInfo get dup
  /UnderlinePosition get Ts mul /To exch def
  /UnderlineThickness get Ts mul /Tt exch def
  ux uy To add cs 10 mul 26 idiv add moveto Tcx uy To add cs 10 mul 26 idiv add lineto
  Tt setlinewidth stroke
  grestore
} bd
/QT {
/Y22 exch store
/X22 exch store
/Y21 exch store
/X21 exch store
currentpoint
/Y21 load 2 mul add 3 div exch
/X21 load 2 mul add 3 div exch
/X21 load 2 mul /X22 load add 3 div
/Y21 load 2 mul /Y22 load add 3 div
/X22 load /Y22 load curveto
} bd
/SSPD {
dup length /d exch dict def
{
/v exch def
/k exch def
currentpagedevice k known {
/cpdv currentpagedevice k get def
v cpdv ne {
/upd false def
/nullv v type /nulltype eq def
/nullcpdv cpdv type /nulltype eq def
nullv nullcpdv or
{
/upd true def
} {
/sametype v type cpdv type eq def
sametype {
v type /arraytype eq {
/vlen v length def
/cpdvlen cpdv length def
vlen cpdvlen eq {
0 1 vlen 1 sub {
/i exch def
/obj v i get def
/cpdobj cpdv i get def
obj cpdobj ne {
/upd true def
exit
} if
} for
} {
/upd true def
} ifelse
} {
v type /dicttype eq {
v {
/dv exch def
/dk exch def
/cpddv cpdv dk get def
dv cpddv ne {
/upd true def
exit
} if
} forall
} {
/upd true def
} ifelse
} ifelse
} if
} ifelse
upd true eq {
d k v put
} if
} if
} if
} forall
d length 0 gt {
d setpagedevice
} if
} bd
/RE { % /NewFontName [NewEncodingArray] /FontName RE -
  findfont dup length dict begin
  {
    1 index /FID ne
    {def} {pop pop} ifelse
  } forall
  /Encoding exch def
  /FontName 1 index def
  currentdict definefont pop
  end
} bind def
%%EndResource
%%BeginResource: procset (Apache XML Graphics EPS ProcSet) 1.0 0
%%Version: 1.0 0
%%Copyright: (Copyright 2002-2003 The Apache Software Foundation. License terms: http://www.apache.org/licenses/LICENSE-2.0)
/BeginEPSF { %def
/b4_Inc_state save def         % Save state for cleanup
/dict_count countdictstack def % Count objects on dict stack
/op_count count 1 sub def      % Count objects on operand stack
userdict begin                 % Push userdict on dict stack
/showpage { } def              % Redefine showpage, { } = null proc
0 setgray 0 setlinecap         % Prepare graphics state
1 setlinewidth 0 setlinejoin
10 setmiterlimit [ ] 0 setdash newpath
/languagelevel where           % If level not equal to 1 then
{pop languagelevel             % set strokeadjust and
1 ne                           % overprint to their defaults.
{false setstrokeadjust false setoverprint
} if
} if
} bd
/EndEPSF { %def
count op_count sub {pop} repeat            % Clean up stacks
countdictstack dict_count sub {end} repeat
b4_Inc_state restore
} bd
%%EndResource
%FOPBeginFontDict
%%IncludeResource: font Courier-Bold
%%IncludeResource: font Helvetica
%%IncludeResource: font Courier-BoldOblique
%%IncludeResource: font Courier-Oblique
%%IncludeResource: font Times-Roman
%%IncludeResource: font Helvetica-BoldOblique
%%IncludeResource: font Helvetica-Bold
%%IncludeResource: font Helvetica-Oblique
%%IncludeResource: font Times-BoldItalic
%%IncludeResource: font Courier
%%IncludeResource: font Times-Italic
%%IncludeResource: font Times-Bold
%%IncludeResource: font Symbol
%%IncludeResource: font ZapfDingbats
%FOPEndFontDict
%%BeginResource: encoding WinAnsiEncoding
/WinAnsiEncoding [
/.notdef /.notdef /.notdef /.notdef /.notdef
/.notdef /.notdef /.notdef /.notdef /.notdef
/.notdef /.notdef /.notdef /.notdef /.notdef
/.notdef /.notdef /.notdef /.notdef /.notdef
/.notdef /.notdef /.notdef /.notdef /.notdef
/.notdef /.notdef /.notdef /.notdef /.notdef
/.notdef /.notdef /space /exclam /quotedbl
/numbersign /dollar /percent /ampersand /quotesingle
/parenleft /parenright /asterisk /plus /comma
/hyphen /period /slash /zero /one
/two /three /four /five /six
/seven /eight /nine /colon /semicolon
/less /equal /greater /question /at
/A /B /C /D /E
/F /G /H /I /J
/K /L /M /N /O
/P /Q /R /S /T
/U /V /W /X /Y
/Z /bracketleft /backslash /bracketright /asciicircum
/underscore /quoteleft /a /b /c
/d /e /f /g /h
/i /j /k /l /m
/n /o /p /q /r
/s /t /u /v /w
/x /y /z /braceleft /bar
/braceright /asciitilde /bullet /Euro /bullet
/quotesinglbase /florin /quotedblbase /ellipsis /dagger
/daggerdbl /circumflex /perthousand /Scaron /guilsinglleft
/OE /bullet /Zcaron /bullet /bullet
/quoteleft /quoteright /quotedblleft /quotedblright /bullet
/endash /emdash /asciitilde /trademark /scaron
/guilsinglright /oe /bullet /zcaron /Ydieresis
/space /exclamdown /cent /sterling /currency
/yen /brokenbar /section /dieresis /copyright
/ordfeminine /guillemotleft /logicalnot /sfthyphen /registered
/macron /degree /plusminus /twosuperior /threesuperior
/acute /mu /paragraph /middot /cedilla
/onesuperior /ordmasculine /guillemotright /onequarter /onehalf
/threequarters /questiondown /Agrave /Aacute /Acircumflex
/Atilde /Adieresis /Aring /AE /Ccedilla
/Egrave /Eacute /Ecircumflex /Edieresis /Igrave
/Iacute /Icircumflex /Idieresis /Eth /Ntilde
/Ograve /Oacute /Ocircumflex /Otilde /Odieresis
/multiply /Oslash /Ugrave /Uacute /Ucircumflex
/Udieresis /Yacute /Thorn /germandbls /agrave
/aacute /acircumflex /atilde /adieresis /aring
/ae /ccedilla /egrave /eacute /ecircumflex
/edieresis /igrave /iacute /icircumflex /idieresis
/eth /ntilde /ograve /oacute /ocircumflex
/otilde /odieresis /divide /oslash /ugrave
/uacute /ucircumflex /udieresis /yacute /thorn
/ydieresis
] def
%%EndResource
%FOPBeginFontReencode
/Courier-Bold findfont
dup length dict begin
  {1 index /FID ne {def} {pop pop} ifelse} forall
  /Encoding WinAnsiEncoding def
  currentdict
end
/Courier-Bold exch definefont pop
/Helvetica findfont
dup length dict begin
  {1 index /FID ne {def} {pop pop} ifelse} forall
  /Encoding WinAnsiEncoding def
  currentdict
end
/Helvetica exch definefont pop
/Courier-BoldOblique findfont
dup length dict begin
  {1 index /FID ne {def} {pop pop} ifelse} forall
  /Encoding WinAnsiEncoding def
  currentdict
end
/Courier-BoldOblique exch definefont pop
/Courier-Oblique findfont
dup length dict begin
  {1 index /FID ne {def} {pop pop} ifelse} forall
  /Encoding WinAnsiEncoding def
  currentdict
end
/Courier-Oblique exch definefont pop
/Times-Roman findfont
dup length dict begin
  {1 index /FID ne {def} {pop pop} ifelse} forall
  /Encoding WinAnsiEncoding def
  currentdict
end
/Times-Roman exch definefont pop
/Helvetica-BoldOblique findfont
dup length dict begin
  {1 index /FID ne {def} {pop pop} ifelse} forall
  /Encoding WinAnsiEncoding def
  currentdict
end
/Helvetica-BoldOblique exch definefont pop
/Helvetica-Bold findfont
dup length dict begin
  {1 index /FID ne {def} {pop pop} ifelse} forall
  /Encoding WinAnsiEncoding def
  currentdict
end
/Helvetica-Bold exch definefont pop
/Helvetica-Oblique findfont
dup length dict begin
  {1 index /FID ne {def} {pop pop} ifelse} forall
  /Encoding WinAnsiEncoding def
  currentdict
end
/Helvetica-Oblique exch definefont pop
/Times-BoldItalic findfont
dup length dict begin
  {1 index /FID ne {def} {pop pop} ifelse} forall
  /Encoding WinAnsiEncoding def
  currentdict
end
/Times-BoldItalic exch definefont pop
/Courier findfont
dup length dict begin
  {1 index /FID ne {def} {pop pop} ifelse} forall
  /Encoding WinAnsiEncoding def
  currentdict
end
/Courier exch definefont pop
/Times-Italic findfont
dup length dict begin
  {1 index /FID ne {def} {pop pop} ifelse} forall
  /Encoding WinAnsiEncoding def
  currentdict
end
/Times-Italic exch definefont pop
/Times-Bold findfont
dup length dict begin
  {1 index /FID ne {def} {pop pop} ifelse} forall
  /Encoding WinAnsiEncoding def
  currentdict
end
/Times-Bold exch definefont pop
%FOPEndFontReencode
%%EndProlog
%%Page: 1 1
%%PageBoundingBox: 0 0 1440 693
%%BeginPageSetup
[1 0 0 -1 0 693] CT
%%EndPageSetup
GS
[0.75 0 0 0.75 0 0] CT
1 GC
N
0 0 1920 924 re
f
GR
GS
[0.75 0 0 0.75 0 0] CT
1 GC
N
0 0 1920 924 re
f
GR
GS
[0.75 0 0 0.75 0 0] CT
1 GC
N
250 822 M
1738 822 L
1738 69 L
250 69 L
cp
f
GR
GS
[0.75 0 0 0.75 0 0] CT
0.149 GC
2 setlinecap
1 LJ
0.667 LW
N
250 822 M
1738 822 L
S
GR
GS
[0.75 0 0 0.75 0 0] CT
0.149 GC
2 setlinecap
1 LJ
0.667 LW
N
250 69 M
1738 69 L
S
GR
GS
[0.75 0 0 0.75 0 0] CT
0.149 GC
2 setlinecap
1 LJ
0.667 LW
N
250 822 M
250 807.12 L
S
GR
GS
[0.75 0 0 0.75 0 0] CT
0.149 GC
2 setlinecap
1 LJ
0.667 LW
N
398.8 822 M
398.8 807.12 L
S
GR
GS
[0.75 0 0 0.75 0 0] CT
0.149 GC
2 setlinecap
1 LJ
0.667 LW
N
547.6 822 M
547.6 807.12 L
S
GR
GS
[0.75 0 0 0.75 0 0] CT
0.149 GC
2 setlinecap
1 LJ
0.667 LW
N
696.4 822 M
696.4 807.12 L
S
GR
GS
[0.75 0 0 0.75 0 0] CT
0.149 GC
2 setlinecap
1 LJ
0.667 LW
N
845.2 822 M
845.2 807.12 L
S
GR
GS
[0.75 0 0 0.75 0 0] CT
0.149 GC
2 setlinecap
1 LJ
0.667 LW
N
994 822 M
994 807.12 L
S
GR
GS
[0.75 0 0 0.75 0 0] CT
0.149 GC
2 setlinecap
1 LJ
0.667 LW
N
1142.8 822 M
1142.8 807.12 L
S
GR
GS
[0.75 0 0 0.75 0 0] CT
0.149 GC
2 setlinecap
1 LJ
0.667 LW
N
1291.6 822 M
1291.6 807.12 L
S
GR
GS
[0.75 0 0 0.75 0 0] CT
0.149 GC
2 setlinecap
1 LJ
0.667 LW
N
1440.4 822 M
1440.4 807.12 L
S
GR
GS
[0.75 0 0 0.75 0 0] CT
0.149 GC
2 setlinecap
1 LJ
0.667 LW
N
1589.2 822 M
1589.2 807.12 L
S
GR
GS
[0.75 0 0 0.75 0 0] CT
0.149 GC
2 setlinecap
1 LJ
0.667 LW
N
1738 822 M
1738 807.12 L
S
GR
GS
[0.75 0 0 0.75 0 0] CT
0.149 GC
2 setlinecap
1 LJ
0.667 LW
N
250 69 M
250 83.88 L
S
GR
GS
[0.75 0 0 0.75 0 0] CT
0.149 GC
2 setlinecap
1 LJ
0.667 LW
N
398.8 69 M
398.8 83.88 L
S
GR
GS
[0.75 0 0 0.75 0 0] CT
0.149 GC
2 setlinecap
1 LJ
0.667 LW
N
547.6 69 M
547.6 83.88 L
S
GR
GS
[0.75 0 0 0.75 0 0] CT
0.149 GC
2 setlinecap
1 LJ
0.667 LW
N
696.4 69 M
696.4 83.88 L
S
GR
GS
[0.75 0 0 0.75 0 0] CT
0.149 GC
2 setlinecap
1 LJ
0.667 LW
N
845.2 69 M
845.2 83.88 L
S
GR
GS
[0.75 0 0 0.75 0 0] CT
0.149 GC
2 setlinecap
1 LJ
0.667 LW
N
994 69 M
994 83.88 L
S
GR
GS
[0.75 0 0 0.75 0 0] CT
0.149 GC
2 setlinecap
1 LJ
0.667 LW
N
1142.8 69 M
1142.8 83.88 L
S
GR
GS
[0.75 0 0 0.75 0 0] CT
0.149 GC
2 setlinecap
1 LJ
0.667 LW
N
1291.6 69 M
1291.6 83.88 L
S
GR
GS
[0.75 0 0 0.75 0 0] CT
0.149 GC
2 setlinecap
1 LJ
0.667 LW
N
1440.4 69 M
1440.4 83.88 L
S
GR
GS
[0.75 0 0 0.75 0 0] CT
0.149 GC
2 setlinecap
1 LJ
0.667 LW
N
1589.2 69 M
1589.2 83.88 L
S
GR
GS
[0.75 0 0 0.75 0 0] CT
0.149 GC
2 setlinecap
1 LJ
0.667 LW
N
1738 69 M
1738 83.88 L
S
GR
GS
[0.75 0 0 0.75 187.5 620.49998] CT
0.149 GC
/Helvetica 13.333 F
GS
[1 0 0 1 0 0] CT
-4.5 13 moveto 
1 -1 scale
(0) t 
GR
GR
GS
[0.75 0 0 0.75 299.09999 620.49998] CT
0.149 GC
/Helvetica 13.333 F
GS
[1 0 0 1 0 0] CT
-10.5 13 moveto 
1 -1 scale
(0.2) t 
GR
GR
GS
[0.75 0 0 0.75 410.69998 620.49998] CT
0.149 GC
/Helvetica 13.333 F
GS
[1 0 0 1 0 0] CT
-10.5 13 moveto 
1 -1 scale
(0.4) t 
GR
GR
GS
[0.75 0 0 0.75 522.30002 620.49998] CT
0.149 GC
/Helvetica 13.333 F
GS
[1 0 0 1 0 0] CT
-10.5 13 moveto 
1 -1 scale
(0.6) t 
GR
GR
GS
[0.75 0 0 0.75 633.90001 620.49998] CT
0.149 GC
/Helvetica 13.333 F
GS
[1 0 0 1 0 0] CT
-10.5 13 moveto 
1 -1 scale
(0.8) t 
GR
GR
GS
[0.75 0 0 0.75 745.5 620.49998] CT
0.149 GC
/Helvetica 13.333 F
GS
[1 0 0 1 0 0] CT
-4.5 13 moveto 
1 -1 scale
(1) t 
GR
GR
GS
[0.75 0 0 0.75 857.10004 620.49998] CT
0.149 GC
/Helvetica 13.333 F
GS
[1 0 0 1 0 0] CT
-10.5 13 moveto 
1 -1 scale
(1.2) t 
GR
GR
GS
[0.75 0 0 0.75 968.69998 620.49998] CT
0.149 GC
/Helvetica 13.333 F
GS
[1 0 0 1 0 0] CT
-10.5 13 moveto 
1 -1 scale
(1.4) t 
GR
GR
GS
[0.75 0 0 0.75 1080.30002 620.49998] CT
0.149 GC
/Helvetica 13.333 F
GS
[1 0 0 1 0 0] CT
-10.5 13 moveto 
1 -1 scale
(1.6) t 
GR
GR
GS
[0.75 0 0 0.75 1191.89996 620.49998] CT
0.149 GC
/Helvetica 13.333 F
GS
[1 0 0 1 0 0] CT
-10.5 13 moveto 
1 -1 scale
(1.8) t 
GR
GR
GS
[0.75 0 0 0.75 1303.5 620.49998] CT
0.149 GC
/Helvetica 13.333 F
GS
[1 0 0 1 0 0] CT
-4.5 13 moveto 
1 -1 scale
(2) t 
GR
GR
GS
[0.75 0 0 0.75 745.50055 634.25002] CT
0.149 GC
/Helvetica 14.667 F
GS
[1 0 0 1 0 0] CT
-83 14 moveto 
1 -1 scale
(Normalized frequency) t 
GR
GR
GS
[0.75 0 0 0.75 0 0] CT
0.149 GC
2 setlinecap
1 LJ
0.667 LW
N
250 822 M
250 69 L
S
GR
GS
[0.75 0 0 0.75 0 0] CT
0.149 GC
2 setlinecap
1 LJ
0.667 LW
N
1738 822 M
1738 69 L
S
GR
GS
[0.75 0 0 0.75 0 0] CT
0.149 GC
2 setlinecap
1 LJ
0.667 LW
N
250 822 M
264.88 822 L
S
GR
GS
[0.75 0 0 0.75 0 0] CT
0.149 GC
2 setlinecap
1 LJ
0.667 LW
N
250 571 M
264.88 571 L
S
GR
GS
[0.75 0 0 0.75 0 0] CT
0.149 GC
2 setlinecap
1 LJ
0.667 LW
N
250 320 M
264.88 320 L
S
GR
GS
[0.75 0 0 0.75 0 0] CT
0.149 GC
2 setlinecap
1 LJ
0.667 LW
N
250 69 M
264.88 69 L
S
GR
GS
[0.75 0 0 0.75 0 0] CT
0.149 GC
2 setlinecap
1 LJ
0.667 LW
N
1738 822 M
1723.12 822 L
S
GR
GS
[0.75 0 0 0.75 0 0] CT
0.149 GC
2 setlinecap
1 LJ
0.667 LW
N
1738 571 M
1723.12 571 L
S
GR
GS
[0.75 0 0 0.75 0 0] CT
0.149 GC
2 setlinecap
1 LJ
0.667 LW
N
1738 320 M
1723.12 320 L
S
GR
GS
[0.75 0 0 0.75 0 0] CT
0.149 GC
2 setlinecap
1 LJ
0.667 LW
N
1738 69 M
1723.12 69 L
S
GR
GS
[0.75 0 0 0.75 183.5 616.5] CT
0.149 GC
/Helvetica 13.333 F
GS
[1 0 0 1 0 0] CT
-9 4.5 moveto 
1 -1 scale
(0) t 
GR
GR
GS
[0.75 0 0 0.75 183.5 428.25] CT
0.149 GC
/Helvetica 13.333 F
GS
[1 0 0 1 0 0] CT
-17 4.5 moveto 
1 -1 scale
(50) t 
GR
GR
GS
[0.75 0 0 0.75 183.5 240] CT
0.149 GC
/Helvetica 13.333 F
GS
[1 0 0 1 0 0] CT
-25 4.5 moveto 
1 -1 scale
(100) t 
GR
GR
GS
[0.75 0 0 0.75 183.5 51.75] CT
0.149 GC
/Helvetica 13.333 F
GS
[1 0 0 1 0 0] CT
-25 4.5 moveto 
1 -1 scale
(150) t 
GR
GR
GS
[0 -0.75 0.75 0 161.75 334.12475] CT
0.149 GC
/Helvetica 14.667 F
GS
[1 0 0 1 0 0] CT
-86 -4 moveto 
1 -1 scale
(Magnitude FFT\(output\)) t 
GR
GR
GS
[0.75 0 0 0.75 745.50073 49.68751] CT
/Helvetica-Bold 14.667 F
GS
[1 0 0 1 0 0] CT
-107 -4 moveto 
1 -1 scale
(FFT output for zero input) t 
GR
GR
GS
[0.75 0 0 0.75 0 0] CT
0 0.447 0.741 RC
1 LJ
0.667 LW
N
250 617.923 M
250.496 500.937 L
250.992 389.95 L
251.488 610.878 L
251.985 306.109 L
252.481 596.886 L
252.977 238.035 L
253.473 543.345 L
253.969 628.995 L
254.465 495.52 L
254.962 83 L
255.458 199.678 L
255.954 657.915 L
256.45 512.744 L
256.946 604.08 L
257.442 521.106 L
257.939 448.79 L
258.435 132.395 L
258.931 350.665 L
259.427 567.992 L
259.923 798.673 L
260.419 452.701 L
260.916 707.145 L
261.412 626.897 L
261.908 727.522 L
262.404 489.996 L
262.9 780.551 L
263.396 678.151 L
263.893 716.41 L
264.389 734.137 L
264.885 652.302 L
265.381 652.202 L
265.877 614.165 L
266.373 789.87 L
266.87 794.219 L
267.366 581.557 L
267.862 637.449 L
268.358 752.851 L
268.854 795.955 L
269.35 746.277 L
269.847 722.159 L
270.343 747.472 L
270.839 754.366 L
271.335 745.361 L
271.831 766.763 L
272.327 747.988 L
272.824 756.008 L
273.32 766.91 L
273.816 651.513 L
274.312 776.451 L
274.808 704.786 L
275.304 804.026 L
275.801 765.369 L
276.297 788.599 L
276.793 799.593 L
277.289 696.916 L
277.785 723.863 L
278.281 792.4 L
278.778 755.442 L
279.274 809.476 L
279.77 790.067 L
280.266 717.223 L
280.762 758.282 L
281.258 736.33 L
281.755 764.848 L
282.251 681.479 L
282.747 800.947 L
283.243 699.285 L
283.739 749.404 L
284.235 791.838 L
284.732 786.234 L
285.228 751.876 L
285.724 719.57 L
286.22 639.217 L
286.716 783.867 L
287.212 740.215 L
287.709 779.723 L
288.205 691.231 L
288.701 793.797 L
289.197 769.635 L
289.693 782.173 L
290.189 750.882 L
290.686 792.121 L
291.182 779.188 L
291.678 719.545 L
292.174 773.424 L
292.67 768.857 L
293.166 812.673 L
293.663 820.106 L
294.159 769.201 L
294.655 771.38 L
295.151 767.902 L
295.647 737.939 L
296.143 789.781 L
296.64 774.48 L
297.136 774.24 L
297.632 770.471 L
298.128 767.422 L
298.624 708.924 L
299.12 771.542 L
299.617 762.132 L
300.113 714.601 L
300.609 734.181 L
301.105 788.413 L
301.601 734.506 L
302.097 797.571 L
302.594 770.693 L
303.09 747.18 L
303.586 746.306 L
304.082 768.22 L
304.578 758.549 L
305.074 720.463 L
305.571 819.315 L
306.067 817.161 L
306.563 745.534 L
307.059 806.616 L
307.555 783.742 L
308.051 783.186 L
308.548 729.581 L
309.044 779.203 L
309.54 786.73 L
310.036 791.893 L
310.532 776.021 L
311.028 787.078 L
311.525 737.337 L
312.021 761.402 L
312.517 773.823 L
313.013 683.214 L
313.509 786.633 L
314.005 730.024 L
314.501 788.232 L
314.998 790.074 L
315.494 762.477 L
315.99 761.95 L
316.486 727.648 L
316.982 714.602 L
317.478 786.213 L
317.975 700.15 L
318.471 784.981 L
318.967 674.28 L
319.463 774.375 L
319.959 768.945 L
320.455 807.849 L
320.952 790.585 L
321.448 778.28 L
321.944 781.2 L
322.44 681.933 L
322.936 764.295 L
323.432 798.054 L
323.929 733.633 L
324.425 778.428 L
324.921 787.647 L
325.417 774.708 L
325.913 804.834 L
326.409 769.998 L
326.906 735.447 L
327.402 743.566 L
327.898 787.12 L
328.394 779.101 L
328.89 749.274 L
329.386 799.623 L
329.883 727.731 L
330.379 795.885 L
330.875 756.078 L
331.371 721.174 L
331.867 795.183 L
332.363 769.569 L
332.86 767.798 L
333.356 754.284 L
333.852 700.973 L
334.348 743.208 L
334.844 775.898 L
335.34 789.837 L
335.837 700.245 L
336.333 771.63 L
336.829 755.544 L
337.325 725.998 L
337.821 762.148 L
338.317 696.229 L
338.814 803.705 L
339.31 737.204 L
339.806 788.304 L
340.302 790.393 L
340.798 717.76 L
341.294 736.33 L
341.791 798.765 L
342.287 780.608 L
342.783 804.008 L
343.279 766.701 L
343.775 744.506 L
344.271 809.889 L
344.768 735.185 L
345.264 797.792 L
345.76 777.352 L
346.256 737.399 L
346.752 765.908 L
347.248 730.077 L
347.745 797.086 L
348.241 805.51 L
348.737 750.367 L
349.233 740.07 L
349.729 777.541 L
350.225 722.935 L
350.722 746.306 L
351.218 804.052 L
351.714 778.083 L
352.21 746.623 L
352.706 738.596 L
353.202 700.997 L
353.699 749.474 L
354.195 743.582 L
354.691 768.425 L
355.187 765.289 L
355.683 771.657 L
356.179 801.794 L
356.676 763.196 L
357.172 723.294 L
357.668 777.435 L
358.164 797.649 L
358.66 783.34 L
359.156 762.034 L
359.653 784.956 L
360.149 791.993 L
360.645 775.615 L
361.141 755.735 L
361.637 814.214 L
362.133 807.754 L
362.63 801.654 L
363.126 766.196 L
363.622 798.23 L
364.118 771.215 L
364.614 765.267 L
365.11 728.804 L
365.607 805.687 L
366.103 739.42 L
366.599 790.748 L
367.095 807.176 L
367.591 787.034 L
368.087 797.631 L
368.584 743.407 L
369.08 776.198 L
369.576 799.366 L
370.072 751.451 L
370.568 761.07 L
371.064 773.793 L
371.561 753.793 L
372.057 772.202 L
372.553 814.637 L
373.049 784.348 L
373.545 757.528 L
374.041 759.04 L
374.538 803.366 L
375.034 753.941 L
375.53 718.295 L
376.026 810.237 L
376.522 702.958 L
377.018 785.319 L
377.514 803.025 L
378.011 800.474 L
378.507 752.119 L
379.003 695.987 L
379.499 803.949 L
379.995 773.012 L
380.491 755.041 L
380.988 748.453 L
381.484 786.405 L
381.98 788.809 L
382.476 762.481 L
382.972 760.485 L
383.468 779.081 L
383.965 774.181 L
384.461 737.196 L
384.957 788.157 L
385.453 727.594 L
385.949 739.396 L
386.445 780.19 L
386.942 779.313 L
387.438 780.005 L
387.934 800.431 L
388.43 770.279 L
388.926 806.072 L
389.422 791.89 L
389.919 775.845 L
390.415 730.957 L
390.911 764.712 L
391.407 782.06 L
391.903 721.068 L
392.399 746.484 L
392.896 729.035 L
393.392 751.979 L
393.888 747.258 L
394.384 793.867 L
394.88 756.288 L
395.376 790.428 L
395.873 796.154 L
396.369 775.814 L
396.865 804.135 L
397.361 725.815 L
397.857 767.997 L
398.353 804.314 L
398.85 717.706 L
399.346 767.864 L
399.842 671.968 L
400.338 757.017 L
400.834 790.579 L
401.33 801.671 L
401.827 730.804 L
402.323 790.889 L
402.819 801.891 L
403.315 799.564 L
403.811 765.369 L
404.307 797.66 L
404.804 716.525 L
405.3 753.015 L
405.796 734.16 L
406.292 783.918 L
406.788 781.473 L
407.284 702.869 L
407.781 759.145 L
408.277 795.5 L
408.773 805.177 L
409.269 747.411 L
409.765 767.674 L
410.261 749.22 L
410.758 782.696 L
411.254 779.192 L
411.75 785.8 L
412.246 710.737 L
412.742 791.358 L
413.238 764.434 L
413.735 773.071 L
414.231 766.856 L
414.727 728.588 L
415.223 770.799 L
415.719 816.673 L
416.215 765.829 L
416.712 745.087 L
417.208 720.386 L
417.704 768.275 L
418.2 778.503 L
418.696 787.201 L
419.192 779.034 L
419.689 813.584 L
420.185 746.135 L
420.681 728.809 L
421.177 771.484 L
421.673 767.891 L
422.169 758.572 L
422.666 800.542 L
423.162 809.057 L
423.658 765.838 L
424.154 770.291 L
424.65 734.889 L
425.146 761.566 L
425.643 791.81 L
426.139 782.212 L
426.635 787.343 L
427.131 807.843 L
427.627 791.713 L
428.123 705.653 L
428.62 750.752 L
429.116 773.846 L
429.612 759.448 L
430.108 813.886 L
430.604 787.775 L
431.1 791.218 L
431.597 813.226 L
432.093 766.326 L
432.589 818.796 L
433.085 804.53 L
433.581 757.258 L
434.077 723.31 L
434.574 779.998 L
435.07 801.88 L
435.566 780.342 L
436.062 693.988 L
436.558 732.727 L
437.054 780.362 L
437.551 816.375 L
438.047 800.308 L
438.543 768.641 L
439.039 808.389 L
439.535 780.635 L
440.031 741.266 L
440.528 782.265 L
441.024 797.048 L
441.52 740.842 L
442.016 751.554 L
442.512 797.631 L
443.008 786.738 L
443.504 750.285 L
444.001 800.264 L
444.497 808.12 L
444.993 803.989 L
445.489 792.148 L
445.985 719.95 L
446.482 753.468 L
446.978 775.688 L
447.474 753.538 L
447.97 802.849 L
448.466 793.577 L
448.962 773.649 L
449.458 769.605 L
449.955 748.428 L
450.451 780.897 L
450.947 722.068 L
451.443 804.118 L
451.939 758.764 L
452.435 722.538 L
452.932 798.731 L
453.428 777.534 L
453.924 782.882 L
454.42 741.052 L
454.916 772.414 L
455.412 781.871 L
455.909 741.131 L
456.405 745.122 L
456.901 808.387 L
457.397 800.018 L
457.893 743.853 L
458.389 753.245 L
458.886 794.065 L
459.382 757.964 L
459.878 806.917 L
460.374 768.118 L
460.87 745.005 L
461.366 761.667 L
461.863 756.827 L
462.359 796.973 L
462.855 768.453 L
463.351 731.317 L
463.847 761.031 L
464.343 730.412 L
464.84 808.305 L
465.336 727.419 L
465.832 722.408 L
466.328 787.397 L
466.824 795.979 L
467.32 794.458 L
467.817 782.797 L
468.313 708.256 L
468.809 797.739 L
469.305 777.176 L
469.801 789.998 L
470.297 786.004 L
470.794 768.107 L
471.29 796.97 L
471.786 797.306 L
472.282 772.012 L
472.778 763.615 L
473.274 718.933 L
473.771 709.867 L
474.267 780.892 L
474.763 786.418 L
475.259 730.564 L
475.755 773.05 L
476.251 778.572 L
476.748 777.798 L
477.244 755.918 L
477.74 771.546 L
478.236 690.444 L
478.732 740.386 L
479.228 770.136 L
479.725 796.121 L
480.221 703.258 L
480.717 762.263 L
481.213 753.207 L
481.709 793.382 L
482.205 806.293 L
482.702 798.775 L
483.198 754.912 L
483.694 783.33 L
484.19 750.939 L
484.686 760.635 L
485.182 727.037 L
485.679 779.825 L
486.175 744.522 L
486.671 769.777 L
487.167 794.157 L
487.663 755.18 L
488.159 757.75 L
488.656 814.207 L
489.152 750.941 L
489.648 789.281 L
490.144 776.289 L
490.64 757.174 L
491.136 786.778 L
491.633 736.742 L
492.129 756.346 L
492.625 813.282 L
493.121 803.589 L
493.617 805.052 L
494.113 635.079 L
494.61 808.627 L
495.106 769.976 L
495.602 733.387 L
496.098 746.507 L
496.594 786.783 L
497.09 790.29 L
497.587 760.88 L
498.083 798.474 L
498.579 782.013 L
499.075 794.157 L
499.571 797.41 L
500.067 792.86 L
500.564 798.876 L
501.06 773.297 L
501.556 760.712 L
502.052 797.992 L
502.548 777.299 L
503.044 757.763 L
503.54 767.918 L
504.037 726.552 L
504.533 803.694 L
505.029 812.232 L
505.525 785.174 L
506.021 782.946 L
506.518 763.401 L
507.014 729.295 L
507.51 746.319 L
508.006 766.762 L
508.502 739.382 L
508.998 785.901 L
509.495 774.109 L
509.991 810.051 L
510.487 681.82 L
510.983 759.367 L
511.479 719.296 L
511.975 716.405 L
512.471 750.357 L
512.968 764.007 L
513.464 767.461 L
513.96 792.358 L
514.456 788.362 L
514.952 727.726 L
515.448 769.507 L
515.945 778.227 L
516.441 788.69 L
516.937 789.339 L
517.433 800.499 L
517.929 712.318 L
518.425 781.556 L
518.922 745.971 L
519.418 749.672 L
519.914 797.54 L
520.41 775.196 L
520.906 756.985 L
521.402 753.631 L
521.899 770.573 L
522.395 738.419 L
522.891 745.809 L
523.387 806.856 L
523.883 738.437 L
524.379 731.99 L
524.876 791.897 L
525.372 780.715 L
525.868 769.732 L
526.364 786.808 L
526.86 763.612 L
527.356 779.365 L
527.853 806.258 L
528.349 743.537 L
528.845 762.417 L
529.341 766.401 L
529.837 781.62 L
530.333 775.725 L
530.83 816.745 L
531.326 755.482 L
531.822 765.013 L
532.318 785.133 L
532.814 795.614 L
533.31 754.997 L
533.807 708.577 L
534.303 718.798 L
534.799 771.08 L
535.295 790.827 L
535.791 747.693 L
536.287 750.773 L
536.784 751.531 L
537.28 752.994 L
537.776 793.108 L
538.272 772.008 L
538.768 784.36 L
539.264 730.327 L
539.761 778.456 L
540.257 646.963 L
540.753 782.922 L
541.249 768.072 L
541.745 683.326 L
542.241 792.914 L
542.738 758.149 L
543.234 776.513 L
543.73 764.519 L
544.226 749.535 L
544.722 800.82 L
545.218 703.845 L
545.715 793.987 L
546.211 729.192 L
546.707 753.945 L
547.203 781.323 L
547.699 759.737 L
548.195 741.167 L
548.692 773.317 L
549.188 750.32 L
549.684 788.891 L
550.18 687.306 L
550.676 738.954 L
551.172 717.073 L
551.669 729.847 L
552.165 794.846 L
552.661 769.435 L
553.157 755.574 L
553.653 735.488 L
554.149 768.479 L
554.646 784.049 L
555.142 725.516 L
555.638 718.519 L
556.134 769.659 L
556.63 761.675 L
557.126 744.665 L
557.623 760.457 L
558.119 742.941 L
558.615 702.464 L
559.111 758.401 L
559.607 780.358 L
560.103 804.204 L
560.6 731.019 L
561.096 719.983 L
561.592 733.159 L
562.088 778.504 L
562.584 809.334 L
563.08 807.031 L
563.577 815.318 L
564.073 774.047 L
564.569 753.703 L
565.065 741.998 L
565.561 749.706 L
566.057 770.124 L
566.554 714.194 L
567.05 730.816 L
567.546 798.178 L
568.042 793.738 L
568.538 741.201 L
569.034 767.788 L
569.531 808.122 L
570.027 781.337 L
570.523 789.402 L
571.019 807.368 L
571.515 733.708 L
572.011 759.891 L
572.508 765.968 L
573.004 726.598 L
573.5 760.527 L
573.996 765.294 L
574.492 789.836 L
574.988 760.825 L
575.484 711.112 L
575.981 705.873 L
576.477 813.016 L
576.973 797.03 L
577.469 693.307 L
577.965 773.472 L
578.461 776.84 L
578.958 717.69 L
579.454 761.84 L
579.95 716.103 L
580.446 741.788 L
580.942 753.633 L
581.438 754.874 L
581.935 732.771 L
582.431 755.72 L
582.927 763.214 L
583.423 735.265 L
583.919 717.579 L
584.415 754.99 L
584.912 700.25 L
585.408 788.657 L
585.904 692.064 L
586.4 745.297 L
586.896 748.887 L
587.392 725.077 L
587.889 748.697 L
588.385 738.79 L
588.881 696.122 L
589.377 811.417 L
589.873 770.539 L
590.369 772.277 L
590.866 739.115 L
591.362 766.027 L
591.858 714.422 L
592.354 742.698 L
592.85 770.024 L
593.346 734.228 L
593.843 787.739 L
594.339 757.43 L
594.835 800.805 L
595.331 810.5 L
595.827 731.577 L
596.323 754.351 L
596.82 764.037 L
597.316 770.384 L
597.812 704.675 L
598.308 755.656 L
598.804 739.427 L
599.3 743.543 L
599.797 801.757 L
600.293 638.709 L
600.789 708.92 L
601.285 779.156 L
601.781 795.468 L
602.277 785.171 L
602.774 759.822 L
603.27 779.374 L
603.766 772.151 L
604.262 727.409 L
604.758 748.459 L
605.254 755.416 L
605.751 785.876 L
606.247 813.856 L
606.743 773.683 L
607.239 768.917 L
607.735 745.563 L
608.231 722.579 L
608.728 766.829 L
609.224 707.965 L
609.72 808.496 L
610.216 671.987 L
610.712 701.695 L
611.208 718.321 L
611.705 739.08 L
612.201 769.834 L
612.697 784.828 L
613.193 715.071 L
613.689 653.898 L
614.185 643.136 L
614.682 666.686 L
615.178 707.547 L
615.674 761.99 L
616.17 795.375 L
616.666 696.243 L
617.162 691.017 L
617.659 790.017 L
618.155 795.566 L
618.651 778.844 L
619.147 801.447 L
619.643 809.965 L
620.139 798.206 L
620.636 696.13 L
621.132 735.372 L
621.628 747.73 L
622.124 760.209 L
622.62 682.415 L
623.116 733.813 L
623.613 747.986 L
624.109 710.067 L
624.605 722.066 L
625.101 778.43 L
625.597 773.685 L
626.093 780.773 L
626.59 761.026 L
627.086 776.81 L
627.582 734.282 L
628.078 805.512 L
628.574 764.207 L
629.07 737.181 L
629.567 775.804 L
630.063 764.641 L
630.559 763.596 L
631.055 759.827 L
631.551 773.083 L
632.047 722.392 L
632.544 736.208 L
633.04 765.997 L
633.536 684.556 L
634.032 779.993 L
634.528 788.044 L
635.024 775.656 L
635.521 743.46 L
636.017 700.637 L
636.513 669.964 L
637.009 752.959 L
637.505 711.329 L
638.001 779.548 L
638.497 777.844 L
638.994 652.766 L
639.49 779.329 L
639.986 776.754 L
640.482 712.536 L
640.978 791.636 L
641.474 717.35 L
641.971 749.058 L
642.467 767.71 L
642.963 753.496 L
643.459 737.931 L
643.955 786.632 L
644.451 788.269 L
644.948 750.562 L
645.444 720.584 L
645.94 767.306 L
646.436 738.154 L
646.932 799.507 L
647.428 783.791 L
647.925 784.343 L
648.421 769.341 L
648.917 804.79 L
649.413 662.154 L
649.909 739.227 L
650.405 730.765 L
650.902 768.864 L
651.398 776.027 L
651.894 815.421 L
652.39 819.345 L
652.886 762.763 L
653.382 753.24 L
653.879 661.292 L
654.375 714.53 L
654.871 731.834 L
655.367 715.837 L
655.863 713.389 L
656.359 789.176 L
656.856 746.371 L
657.352 757.645 L
657.848 734.063 L
658.344 731.204 L
658.84 741.757 L
659.336 777.079 L
659.833 794.882 L
660.329 706.144 L
660.825 756.259 L
661.321 798.427 L
661.817 751.39 L
662.313 709.794 L
662.81 785.837 L
663.306 735.989 L
663.802 780.177 L
664.298 733.081 L
664.794 719.108 L
665.29 747.819 L
665.787 696.24 L
666.283 764.033 L
666.779 736.817 L
667.275 775.462 L
667.771 762.592 L
668.267 725.628 L
668.764 775.661 L
669.26 727.362 L
669.756 782.939 L
670.252 711.403 L
670.748 762.501 L
671.244 762.405 L
671.741 729.685 L
672.237 776.871 L
672.733 676.22 L
673.229 728.708 L
673.725 721.282 L
674.221 747.953 L
674.718 738.957 L
675.214 755.581 L
675.71 744.031 L
676.206 716.241 L
676.702 789.5 L
677.198 789.577 L
677.695 752.03 L
678.191 736.343 L
678.687 725.317 L
679.183 690.874 L
679.679 768.543 L
680.175 762.093 L
680.672 753.236 L
681.168 758.005 L
681.664 719.384 L
682.16 792.501 L
682.656 807.076 L
683.152 762.234 L
683.649 785.967 L
684.145 774.492 L
684.641 745.773 L
685.137 797.871 L
685.633 726.334 L
686.129 718.126 L
686.626 769.657 L
687.122 728.522 L
687.618 782.403 L
688.114 771.769 L
688.61 672.894 L
689.106 779.257 L
689.603 752.422 L
690.099 759.58 L
690.595 712.282 L
691.091 803.2 L
691.587 757.054 L
692.083 766.833 L
692.58 738.462 L
693.076 747.074 L
693.572 756.211 L
694.068 779.127 L
694.564 788.974 L
695.06 788.29 L
695.557 677.981 L
696.053 720.96 L
696.549 755.206 L
697.045 746.365 L
697.541 687.293 L
698.037 792.767 L
698.534 752.73 L
699.03 744.324 L
699.526 704.764 L
700.022 736.471 L
700.518 774.876 L
701.014 730.927 L
701.51 768.927 L
702.007 727.361 L
702.503 772.768 L
702.999 700.307 L
703.495 761.106 L
703.991 722.962 L
704.487 716.941 L
704.984 742.116 L
705.48 754.111 L
705.976 683.587 L
706.472 748.818 L
706.968 755.772 L
707.464 775.238 L
707.961 793.291 L
708.457 803.793 L
708.953 766.317 L
709.449 687.383 L
709.945 699.063 L
710.441 703.556 L
710.938 762.026 L
711.434 748.722 L
711.93 760.804 L
712.426 770.525 L
712.922 735.183 L
713.419 752.719 L
713.915 731.503 L
714.411 769.131 L
714.907 789.369 L
715.403 702.637 L
715.899 732.179 L
716.395 766.666 L
716.892 735.691 L
717.388 719.818 L
717.884 758.783 L
718.38 723.869 L
718.876 765.264 L
719.372 739.197 L
719.869 764.144 L
720.365 707.112 L
720.861 758.663 L
721.357 749.218 L
721.853 762.426 L
722.349 682.165 L
722.846 774.148 L
723.342 779.031 L
723.838 809.621 L
724.334 786.259 L
724.83 750.517 L
725.326 772.217 L
725.823 778.203 L
726.319 736.764 L
726.815 709.761 L
727.311 785.609 L
727.807 727.657 L
728.303 690.315 L
728.8 697.172 L
729.296 817.507 L
729.792 701.265 L
730.288 770.054 L
730.784 625.472 L
731.28 746.894 L
731.777 772.922 L
732.273 676.029 L
732.769 682.571 L
733.265 706.668 L
733.761 738.306 L
734.257 736.946 L
734.754 780.378 L
735.25 798.618 L
735.746 735.621 L
736.242 781.486 L
736.738 751.375 L
737.234 798.183 L
737.731 703.426 L
738.227 735.193 L
738.723 772.987 L
739.219 761.124 L
739.715 730.159 L
740.211 793.67 L
740.708 791.688 L
741.204 735.395 L
741.7 752.057 L
742.196 727.136 L
742.692 800.015 L
743.188 752.329 L
743.685 754.963 L
744.181 762.331 L
744.677 764.288 L
745.173 751.837 L
745.669 810.04 L
746.165 775.285 L
746.662 791.348 L
747.158 787.341 L
747.654 757.405 L
748.15 757.735 L
748.646 773.346 L
749.142 781.918 L
749.639 702.365 L
750.135 695.118 L
750.631 633.557 L
751.127 758.926 L
751.623 747.162 L
752.119 776.892 L
752.616 698.66 L
753.112 729.791 L
753.608 756.62 L
754.104 766.099 L
754.6 787.747 L
755.096 787.41 L
755.593 754.069 L
756.089 706.519 L
756.585 660.979 L
757.081 778.95 L
757.577 760.039 L
758.073 810.464 L
758.57 780.2 L
759.066 801.257 L
759.562 766.494 L
760.058 695.353 L
760.554 745.339 L
761.05 778.26 L
761.547 766.785 L
762.043 791.917 L
762.539 757.658 L
763.035 775.311 L
763.531 803.855 L
764.027 766.663 L
764.523 686.717 L
765.02 730.126 L
765.516 714.966 L
766.012 788.406 L
766.508 795.497 L
767.004 679.592 L
767.5 778.245 L
767.997 667.004 L
768.493 762.545 L
768.989 782.653 L
769.485 747.682 L
769.981 717.476 L
770.477 770.189 L
770.974 724.357 L
771.47 747.649 L
771.966 780.885 L
772.462 720.377 L
772.958 721.407 L
773.454 733.636 L
773.951 770.123 L
774.447 810.222 L
774.943 796.846 L
775.439 767.851 L
775.935 741.322 L
776.431 736.48 L
776.928 739.312 L
777.424 762.578 L
777.92 801.627 L
778.416 778.674 L
778.912 772.077 L
779.408 684.45 L
779.905 733.526 L
780.401 788.218 L
780.897 683.885 L
781.393 746.198 L
781.889 782.49 L
782.385 752.275 L
782.882 712.743 L
783.378 784.243 L
783.874 700.618 L
784.37 767.766 L
784.866 732.995 L
785.362 735.678 L
785.859 819.09 L
786.355 751.93 L
786.851 778.832 L
787.347 731.799 L
787.843 710.501 L
788.339 792.877 L
788.836 729.45 L
789.332 740.898 L
789.828 801.208 L
790.324 797.563 L
790.82 770.119 L
791.316 723.944 L
791.813 733.503 L
792.309 756.672 L
792.805 789.27 L
793.301 741.412 L
793.797 811.967 L
794.293 757.8 L
794.79 746.724 L
795.286 723.52 L
795.782 766.49 L
796.278 747.571 L
796.774 798.919 L
797.27 736.409 L
797.767 759.16 L
798.263 794.993 L
798.759 772.87 L
799.255 794.457 L
799.751 720.969 L
800.247 790.751 L
800.744 738.618 L
801.24 765.393 L
801.736 803.639 L
802.232 764.781 L
802.728 770.308 L
803.224 795.464 L
803.721 786.23 L
804.217 751.823 L
804.713 773.21 L
805.209 806.067 L
805.705 806.551 L
806.201 795.585 L
806.698 784.765 L
807.194 784.625 L
807.69 747.218 L
808.186 759.335 L
808.682 775.441 L
809.178 730.03 L
809.675 761.027 L
810.171 772.495 L
810.667 690.622 L
811.163 767.513 L
811.659 743.761 L
812.155 745.778 L
812.652 695.007 L
813.148 789.841 L
813.644 718.502 L
814.14 781.927 L
814.636 799.104 L
815.132 768.084 L
815.629 803.126 L
816.125 695.178 L
816.621 764.953 L
817.117 770.952 L
817.613 738.475 L
818.109 794.025 L
818.606 774.97 L
819.102 807.079 L
819.598 768.03 L
820.094 791.922 L
820.59 713.181 L
821.086 807.893 L
821.583 810.228 L
822.079 753.766 L
822.575 702.682 L
823.071 760.933 L
823.567 761.677 L
824.063 711.654 L
824.56 786.643 L
825.056 722.094 L
825.552 781.288 L
826.048 808.689 L
826.544 696.752 L
827.04 732.572 L
827.536 790.948 L
828.033 800.939 L
828.529 798.004 L
829.025 741.285 L
829.521 803.686 L
830.017 756.923 L
830.513 761.327 L
831.01 751.709 L
831.506 777.871 L
832.002 723.204 L
832.498 811.857 L
832.994 801.363 L
833.49 791.724 L
833.987 807.559 L
834.483 759.258 L
834.979 787.825 L
835.475 781.305 L
835.971 763.18 L
836.467 730.988 L
836.964 751.83 L
837.46 764.511 L
837.956 796.179 L
838.452 781.776 L
838.948 749.55 L
839.445 721.075 L
839.941 721.143 L
840.437 771.555 L
840.933 710.008 L
841.429 758.227 L
841.925 735.603 L
842.421 801.875 L
842.918 792.729 L
843.414 763.142 L
843.91 757.292 L
844.406 783.304 L
844.902 706.45 L
845.398 769.894 L
845.895 775.142 L
846.391 774.583 L
846.887 796.003 L
847.383 749.985 L
847.879 770.024 L
848.375 668.569 L
848.872 754.263 L
849.368 704.293 L
849.864 731.311 L
850.36 798.409 L
850.856 779.05 L
851.352 782.811 L
851.849 765.334 L
852.345 799.996 L
852.841 686.777 L
853.337 794.088 L
853.833 776.102 L
854.329 699.84 L
854.826 783.671 L
855.322 774.897 L
855.818 718.109 L
856.314 807.911 L
856.81 751.193 L
857.306 744.956 L
857.803 789.637 L
858.299 795.833 L
858.795 790.805 L
859.291 818.773 L
859.787 747.252 L
860.283 762.01 L
860.78 732.361 L
861.276 750.647 L
861.772 738.107 L
862.268 695.756 L
862.764 805.915 L
863.26 766.822 L
863.757 679.828 L
864.253 768.018 L
864.749 703.127 L
865.245 747.304 L
865.741 674.653 L
866.237 735.858 L
866.734 713.421 L
867.23 741.205 L
867.726 765.268 L
868.222 718.063 L
868.718 747.799 L
869.214 769.951 L
869.711 764.686 L
870.207 768.267 L
870.703 771.579 L
871.199 787.605 L
871.695 807.608 L
872.191 771.05 L
872.688 754.411 L
873.184 810.379 L
873.68 752.576 L
874.176 774.818 L
874.672 774.621 L
875.168 797.277 L
875.665 768.007 L
876.161 778.381 L
876.657 790.321 L
877.153 788.664 L
877.649 726.899 L
878.145 744.772 L
878.642 753.009 L
879.138 794.638 L
879.634 777.784 L
880.13 798.868 L
880.626 793.212 L
881.122 777.92 L
881.619 744.927 L
882.115 800.855 L
882.611 779.762 L
883.107 787.9 L
883.603 761.017 L
884.099 755.516 L
884.596 759.923 L
885.092 763.194 L
885.588 775.33 L
886.084 722.676 L
886.58 720.871 L
887.076 730.242 L
887.573 760.319 L
888.069 808.247 L
888.565 810.075 L
889.061 790.061 L
889.557 742.839 L
890.053 697.627 L
890.549 789.796 L
891.046 771.325 L
891.542 765.592 L
892.038 734.434 L
892.534 726.55 L
893.03 658.469 L
893.527 808.784 L
894.023 818.105 L
894.519 758.077 L
895.015 706.554 L
895.511 769.159 L
896.007 780.522 L
896.503 778.749 L
897 790.167 L
897.496 784.98 L
897.992 799.6 L
898.488 786.236 L
898.984 787.616 L
899.48 738.525 L
899.977 736.983 L
900.473 801.098 L
900.969 785.044 L
901.465 741.594 L
901.961 802.684 L
902.457 730.115 L
902.954 777.445 L
903.45 730.778 L
903.946 751.297 L
904.442 740.87 L
904.938 791.4 L
905.435 766.292 L
905.931 784.083 L
906.427 786.435 L
906.923 799.668 L
907.419 737.325 L
907.915 766.31 L
908.411 794.549 L
908.908 716.894 L
909.404 745.787 L
909.9 722.069 L
910.396 730.696 L
910.892 781.603 L
911.388 725.274 L
911.885 767.902 L
912.381 734.922 L
912.877 755.982 L
913.373 665.366 L
913.869 797.793 L
914.365 764.266 L
914.862 782.57 L
915.358 765.405 L
915.854 718.681 L
916.35 803.157 L
916.846 784.095 L
917.342 734.876 L
917.839 713.732 L
918.335 751.342 L
918.831 728.615 L
919.327 753.711 L
919.823 790.291 L
920.319 702.168 L
920.816 791.708 L
921.312 745.37 L
921.808 770.905 L
922.304 751.428 L
922.8 798.378 L
923.296 734.259 L
923.793 786.173 L
924.289 803.677 L
924.785 745.569 L
925.281 773.25 L
925.777 740.603 L
926.273 746.569 L
926.77 698.617 L
927.266 807.008 L
927.762 756.224 L
928.258 810.659 L
928.754 811.249 L
929.25 815.852 L
929.747 725.79 L
930.243 790.024 L
930.739 715.967 L
931.235 742.462 L
931.731 804.421 L
932.227 742.788 L
932.724 769.176 L
933.22 799.947 L
933.716 733.152 L
934.212 793.239 L
934.708 715.176 L
935.204 742.999 L
935.701 794.137 L
936.197 787.301 L
936.693 794.56 L
937.189 776.502 L
937.685 702.778 L
938.181 709.098 L
938.678 735.908 L
939.174 757.927 L
939.67 733.668 L
940.166 775.455 L
940.662 720.881 L
941.158 798.349 L
941.655 729.6 L
942.151 777.636 L
942.647 763.485 L
943.143 761.39 L
943.639 788.575 L
944.135 739.509 L
944.632 665.119 L
945.128 706.723 L
945.624 744.203 L
946.12 746.097 L
946.616 736.468 L
947.112 775.329 L
947.609 801.606 L
948.105 698.205 L
948.601 701.062 L
949.097 804.476 L
949.593 747.17 L
950.089 798.263 L
950.586 766.327 L
951.082 810.949 L
951.578 782.687 L
952.074 766.942 L
952.57 759.917 L
953.066 807.523 L
953.563 749.029 L
954.059 742.221 L
954.555 754.794 L
955.051 793.827 L
955.547 809.434 L
956.043 821.137 L
956.539 738.154 L
957.036 713.354 L
957.532 752.348 L
958.028 806.858 L
958.524 778.455 L
959.02 752.831 L
959.516 770.057 L
960.013 776.647 L
960.509 707.756 L
961.005 719.229 L
961.501 749.603 L
961.997 766.874 L
962.494 773.734 L
962.99 717.564 L
963.486 740.169 L
963.982 785.028 L
964.478 736.852 L
964.974 784.109 L
965.471 731.971 L
965.967 743.136 L
966.463 772.224 L
966.959 733.925 L
967.455 777.518 L
967.951 751.438 L
968.447 800.13 L
968.944 707.626 L
969.44 780.143 L
969.936 812.781 L
970.432 755.79 L
970.928 695.477 L
971.424 738.066 L
971.921 756.659 L
972.417 783.22 L
972.913 750.057 L
973.409 777.138 L
973.905 772.495 L
974.401 735.679 L
974.898 748.962 L
975.394 745.925 L
975.89 783.502 L
976.386 798.35 L
976.882 760.089 L
977.378 792.766 L
977.875 798.399 L
978.371 762.259 L
978.867 738.023 L
979.363 772.081 L
979.859 732.563 L
980.355 746.802 L
980.852 800.517 L
981.348 784.468 L
981.844 786.44 L
982.34 730.015 L
982.836 791.298 L
983.332 785.047 L
983.829 809.419 L
984.325 768.585 L
984.821 747.021 L
985.317 778.804 L
985.813 769.155 L
986.309 756.155 L
986.806 753.504 L
987.302 794.176 L
987.798 764.651 L
988.294 761.765 L
988.79 746.042 L
989.286 792.023 L
989.783 728.896 L
990.279 714.77 L
990.775 762.128 L
991.271 753.252 L
991.767 777.134 L
992.263 701.526 L
992.76 718.036 L
993.256 790.599 L
993.752 736.981 L
994.248 792.696 L
994.744 736.981 L
995.24 790.599 L
995.737 718.036 L
996.233 701.526 L
996.729 777.134 L
997.225 753.252 L
997.721 762.128 L
998.217 714.77 L
998.714 728.896 L
999.21 792.023 L
999.706 746.042 L
1000.202 761.765 L
1000.698 764.651 L
1001.194 794.176 L
1001.691 753.504 L
1002.187 756.155 L
1002.683 769.155 L
1003.179 778.804 L
1003.675 747.021 L
1004.171 768.585 L
1004.668 809.419 L
1005.164 785.047 L
1005.66 791.298 L
1006.156 730.015 L
1006.652 786.44 L
1007.148 784.468 L
1007.645 800.517 L
1008.141 746.802 L
1008.637 732.563 L
1009.133 772.081 L
1009.629 738.023 L
1010.125 762.259 L
1010.622 798.399 L
1011.118 792.766 L
1011.614 760.089 L
1012.11 798.35 L
1012.606 783.502 L
1013.102 745.925 L
1013.599 748.962 L
1014.095 735.679 L
1014.591 772.495 L
1015.087 777.138 L
1015.583 750.057 L
1016.079 783.22 L
1016.576 756.659 L
1017.072 738.066 L
1017.568 695.477 L
1018.064 755.79 L
1018.56 812.781 L
1019.056 780.143 L
1019.553 707.626 L
1020.049 800.13 L
1020.545 751.438 L
1021.041 777.518 L
1021.537 733.925 L
1022.033 772.224 L
1022.53 743.136 L
1023.026 731.971 L
1023.522 784.109 L
1024.018 736.852 L
1024.514 785.028 L
1025.01 740.169 L
1025.506 717.564 L
1026.003 773.734 L
1026.499 766.874 L
1026.995 749.603 L
1027.491 719.229 L
1027.987 707.756 L
1028.484 776.647 L
1028.98 770.057 L
1029.476 752.831 L
1029.972 778.455 L
1030.468 806.858 L
1030.964 752.348 L
1031.46 713.354 L
1031.957 738.154 L
1032.453 821.137 L
1032.949 809.434 L
1033.445 793.827 L
1033.941 754.794 L
1034.438 742.221 L
1034.934 749.029 L
1035.43 807.523 L
1035.926 759.917 L
1036.422 766.942 L
1036.918 782.687 L
1037.415 810.949 L
1037.911 766.327 L
1038.407 798.263 L
1038.903 747.17 L
1039.399 804.476 L
1039.895 701.062 L
1040.391 698.205 L
1040.888 801.606 L
1041.384 775.329 L
1041.88 736.468 L
1042.376 746.097 L
1042.872 744.203 L
1043.368 706.723 L
1043.865 665.119 L
1044.361 739.509 L
1044.857 788.575 L
1045.353 761.39 L
1045.849 763.485 L
1046.345 777.636 L
1046.842 729.6 L
1047.338 798.349 L
1047.834 720.881 L
1048.33 775.455 L
1048.826 733.668 L
1049.322 757.927 L
1049.819 735.908 L
1050.315 709.098 L
1050.811 702.778 L
1051.307 776.502 L
1051.803 794.56 L
1052.299 787.301 L
1052.796 794.137 L
1053.292 742.999 L
1053.788 715.176 L
1054.284 793.239 L
1054.78 733.152 L
1055.276 799.947 L
1055.773 769.176 L
1056.269 742.788 L
1056.765 804.421 L
1057.261 742.462 L
1057.757 715.967 L
1058.253 790.024 L
1058.75 725.79 L
1059.246 815.852 L
1059.742 811.249 L
1060.238 810.659 L
1060.734 756.224 L
1061.23 807.008 L
1061.727 698.617 L
1062.223 746.569 L
1062.719 740.603 L
1063.215 773.25 L
1063.711 745.569 L
1064.207 803.677 L
1064.703 786.173 L
1065.2 734.259 L
1065.696 798.378 L
1066.192 751.428 L
1066.688 770.905 L
1067.184 745.37 L
1067.681 791.708 L
1068.177 702.168 L
1068.673 790.291 L
1069.169 753.711 L
1069.665 728.615 L
1070.161 751.342 L
1070.658 713.732 L
1071.154 734.876 L
1071.65 784.095 L
1072.146 803.157 L
1072.642 718.681 L
1073.138 765.405 L
1073.635 782.57 L
1074.131 764.266 L
1074.627 797.793 L
1075.123 665.366 L
1075.619 755.982 L
1076.115 734.922 L
1076.612 767.902 L
1077.108 725.274 L
1077.604 781.603 L
1078.1 730.696 L
1078.596 722.069 L
1079.092 745.787 L
1079.589 716.894 L
1080.085 794.549 L
1080.581 766.31 L
1081.077 737.325 L
1081.573 799.668 L
1082.069 786.435 L
1082.566 784.083 L
1083.062 766.292 L
1083.558 791.4 L
1084.054 740.87 L
1084.55 751.297 L
1085.046 730.778 L
1085.542 777.445 L
1086.039 730.115 L
1086.535 802.684 L
1087.031 741.594 L
1087.527 785.044 L
1088.023 801.098 L
1088.519 736.983 L
1089.016 738.525 L
1089.512 787.616 L
1090.008 786.236 L
1090.504 799.6 L
1091 784.98 L
1091.496 790.167 L
1091.993 778.749 L
1092.489 780.522 L
1092.985 769.159 L
1093.481 706.554 L
1093.977 758.077 L
1094.474 818.105 L
1094.97 808.784 L
1095.466 658.469 L
1095.962 726.55 L
1096.458 734.434 L
1096.954 765.592 L
1097.45 771.325 L
1097.947 789.796 L
1098.443 697.627 L
1098.939 742.839 L
1099.435 790.061 L
1099.931 810.075 L
1100.427 808.247 L
1100.924 760.319 L
1101.42 730.242 L
1101.916 720.871 L
1102.412 722.676 L
1102.908 775.33 L
1103.405 763.194 L
1103.901 759.923 L
1104.397 755.516 L
1104.893 761.017 L
1105.389 787.9 L
1105.885 779.762 L
1106.381 800.855 L
1106.878 744.927 L
1107.374 777.92 L
1107.87 793.212 L
1108.366 798.868 L
1108.862 777.784 L
1109.359 794.638 L
1109.855 753.009 L
1110.351 744.772 L
1110.847 726.899 L
1111.343 788.664 L
1111.839 790.321 L
1112.335 778.381 L
1112.832 768.007 L
1113.328 797.277 L
1113.824 774.621 L
1114.32 774.818 L
1114.816 752.576 L
1115.312 810.379 L
1115.809 754.411 L
1116.305 771.05 L
1116.801 807.608 L
1117.297 787.605 L
1117.793 771.579 L
1118.289 768.267 L
1118.786 764.686 L
1119.282 769.951 L
1119.778 747.799 L
1120.274 718.063 L
1120.77 765.268 L
1121.266 741.205 L
1121.763 713.421 L
1122.259 735.858 L
1122.755 674.653 L
1123.251 747.304 L
1123.747 703.127 L
1124.243 768.018 L
1124.74 679.828 L
1125.236 766.822 L
1125.732 805.915 L
1126.228 695.756 L
1126.724 738.107 L
1127.22 750.647 L
1127.717 732.361 L
1128.213 762.01 L
1128.709 747.252 L
1129.205 818.773 L
1129.701 790.805 L
1130.197 795.833 L
1130.693 789.637 L
1131.19 744.956 L
1131.686 751.193 L
1132.182 807.911 L
1132.678 718.109 L
1133.174 774.897 L
1133.671 783.671 L
1134.167 699.84 L
1134.663 776.102 L
1135.159 794.088 L
1135.655 686.777 L
1136.151 799.996 L
1136.648 765.334 L
1137.144 782.811 L
1137.64 779.05 L
1138.136 798.409 L
1138.632 731.311 L
1139.128 704.293 L
1139.625 754.263 L
1140.121 668.569 L
1140.617 770.024 L
1141.113 749.985 L
1141.609 796.003 L
1142.105 774.583 L
1142.602 775.142 L
1143.098 769.894 L
1143.594 706.45 L
1144.09 783.304 L
1144.586 757.292 L
1145.082 763.142 L
1145.579 792.729 L
1146.075 801.875 L
1146.571 735.603 L
1147.067 758.227 L
1147.563 710.008 L
1148.059 771.555 L
1148.556 721.143 L
1149.052 721.075 L
1149.548 749.55 L
1150.044 781.776 L
1150.54 796.179 L
1151.036 764.511 L
1151.533 751.83 L
1152.029 730.988 L
1152.525 763.18 L
1153.021 781.305 L
1153.517 787.825 L
1154.013 759.258 L
1154.51 807.559 L
1155.006 791.724 L
1155.502 801.363 L
1155.998 811.857 L
1156.494 723.204 L
1156.99 777.871 L
1157.486 751.709 L
1157.983 761.327 L
1158.479 756.923 L
1158.975 803.686 L
1159.471 741.285 L
1159.967 798.004 L
1160.464 800.939 L
1160.96 790.948 L
1161.456 732.572 L
1161.952 696.752 L
1162.448 808.689 L
1162.944 781.288 L
1163.44 722.094 L
1163.937 786.643 L
1164.433 711.654 L
1164.929 761.677 L
1165.425 760.933 L
1165.921 702.682 L
1166.417 753.766 L
1166.914 810.228 L
1167.41 807.893 L
1167.906 713.181 L
1168.402 791.922 L
1168.898 768.03 L
1169.394 807.079 L
1169.891 774.97 L
1170.387 794.025 L
1170.883 738.475 L
1171.379 770.952 L
1171.875 764.953 L
1172.371 695.178 L
1172.868 803.126 L
1173.364 768.084 L
1173.86 799.104 L
1174.356 781.927 L
1174.852 718.502 L
1175.349 789.841 L
1175.845 695.007 L
1176.341 745.778 L
1176.837 743.761 L
1177.333 767.513 L
1177.829 690.622 L
1178.325 772.495 L
1178.822 761.027 L
1179.318 730.03 L
1179.814 775.441 L
1180.31 759.335 L
1180.806 747.218 L
1181.302 784.625 L
1181.799 784.765 L
1182.295 795.585 L
1182.791 806.551 L
1183.287 806.067 L
1183.783 773.21 L
1184.279 751.823 L
1184.776 786.23 L
1185.272 795.464 L
1185.768 770.308 L
1186.264 764.781 L
1186.76 803.639 L
1187.256 765.393 L
1187.753 738.618 L
1188.249 790.751 L
1188.745 720.969 L
1189.241 794.457 L
1189.737 772.87 L
1190.233 794.993 L
1190.73 759.16 L
1191.226 736.409 L
1191.722 798.919 L
1192.218 747.571 L
1192.714 766.49 L
1193.21 723.52 L
1193.707 746.724 L
1194.203 757.8 L
1194.699 811.967 L
1195.195 741.412 L
1195.691 789.27 L
1196.187 756.672 L
1196.683 733.503 L
1197.18 723.944 L
1197.676 770.119 L
1198.172 797.563 L
1198.668 801.208 L
1199.164 740.898 L
1199.661 729.45 L
1200.157 792.877 L
1200.653 710.501 L
1201.149 731.799 L
1201.645 778.832 L
1202.141 751.93 L
1202.638 819.09 L
1203.134 735.678 L
1203.63 732.995 L
1204.126 767.766 L
1204.622 700.618 L
1205.118 784.243 L
1205.615 712.743 L
1206.111 752.275 L
1206.607 782.49 L
1207.103 746.198 L
1207.599 683.885 L
1208.095 788.218 L
1208.592 733.526 L
1209.088 684.45 L
1209.584 772.077 L
1210.08 778.674 L
1210.576 801.627 L
1211.072 762.578 L
1211.568 739.312 L
1212.065 736.48 L
1212.561 741.322 L
1213.057 767.851 L
1213.553 796.846 L
1214.049 810.222 L
1214.546 770.123 L
1215.042 733.636 L
1215.538 721.407 L
1216.034 720.377 L
1216.53 780.885 L
1217.026 747.649 L
1217.523 724.357 L
1218.019 770.189 L
1218.515 717.476 L
1219.011 747.682 L
1219.507 782.653 L
1220.003 762.545 L
1220.5 667.004 L
1220.996 778.245 L
1221.492 679.592 L
1221.988 795.497 L
1222.484 788.406 L
1222.98 714.966 L
1223.476 730.126 L
1223.973 686.717 L
1224.469 766.663 L
1224.965 803.855 L
1225.461 775.311 L
1225.957 757.658 L
1226.453 791.917 L
1226.95 766.785 L
1227.446 778.26 L
1227.942 745.339 L
1228.438 695.353 L
1228.934 766.494 L
1229.43 801.257 L
1229.927 780.2 L
1230.423 810.464 L
1230.919 760.039 L
1231.415 778.95 L
1231.911 660.979 L
1232.407 706.519 L
1232.904 754.069 L
1233.4 787.41 L
1233.896 787.747 L
1234.392 766.099 L
1234.888 756.62 L
1235.384 729.791 L
1235.881 698.66 L
1236.377 776.892 L
1236.873 747.162 L
1237.369 758.926 L
1237.865 633.557 L
1238.361 695.118 L
1238.858 702.365 L
1239.354 781.918 L
1239.85 773.346 L
1240.346 757.735 L
1240.842 757.405 L
1241.339 787.341 L
1241.835 791.348 L
1242.331 775.285 L
1242.827 810.04 L
1243.323 751.837 L
1243.819 764.288 L
1244.315 762.331 L
1244.812 754.963 L
1245.308 752.329 L
1245.804 800.015 L
1246.3 727.136 L
1246.796 752.057 L
1247.292 735.395 L
1247.789 791.688 L
1248.285 793.67 L
1248.781 730.159 L
1249.277 761.124 L
1249.773 772.987 L
1250.269 735.193 L
1250.766 703.426 L
1251.262 798.183 L
1251.758 751.375 L
1252.254 781.486 L
1252.75 735.621 L
1253.246 798.618 L
1253.743 780.378 L
1254.239 736.946 L
1254.735 738.306 L
1255.231 706.668 L
1255.727 682.571 L
1256.223 676.029 L
1256.72 772.922 L
1257.216 746.894 L
1257.712 625.472 L
1258.208 770.054 L
1258.704 701.265 L
1259.2 817.507 L
1259.697 697.172 L
1260.193 690.315 L
1260.689 727.657 L
1261.185 785.609 L
1261.681 709.761 L
1262.177 736.764 L
1262.674 778.203 L
1263.17 772.217 L
1263.666 750.517 L
1264.162 786.259 L
1264.658 809.621 L
1265.154 779.031 L
1265.651 774.148 L
1266.147 682.165 L
1266.643 762.426 L
1267.139 749.218 L
1267.635 758.663 L
1268.131 707.112 L
1268.627 764.144 L
1269.124 739.197 L
1269.62 765.264 L
1270.116 723.869 L
1270.612 758.783 L
1271.108 719.818 L
1271.604 735.691 L
1272.101 766.666 L
1272.597 732.179 L
1273.093 702.637 L
1273.589 789.369 L
1274.085 769.131 L
1274.582 731.503 L
1275.078 752.719 L
1275.574 735.183 L
1276.07 770.525 L
1276.566 760.804 L
1277.062 748.722 L
1277.558 762.026 L
1278.055 703.556 L
1278.551 699.063 L
1279.047 687.383 L
1279.543 766.317 L
1280.039 803.793 L
1280.536 793.291 L
1281.032 775.238 L
1281.528 755.772 L
1282.024 748.818 L
1282.52 683.587 L
1283.016 754.111 L
1283.513 742.116 L
1284.009 716.941 L
1284.505 722.962 L
1285.001 761.106 L
1285.497 700.307 L
1285.993 772.768 L
1286.49 727.361 L
1286.986 768.927 L
1287.482 730.927 L
1287.978 774.876 L
1288.474 736.471 L
1288.97 704.764 L
1289.467 744.324 L
1289.963 752.73 L
1290.459 792.767 L
1290.955 687.293 L
1291.451 746.365 L
1291.947 755.206 L
1292.443 720.96 L
1292.94 677.981 L
1293.436 788.29 L
1293.932 788.974 L
1294.428 779.127 L
1294.924 756.211 L
1295.42 747.074 L
1295.917 738.462 L
1296.413 766.833 L
1296.909 757.054 L
1297.405 803.2 L
1297.901 712.282 L
1298.397 759.58 L
1298.894 752.422 L
1299.39 779.257 L
1299.886 672.894 L
1300.382 771.769 L
1300.878 782.403 L
1301.374 728.522 L
1301.871 769.657 L
1302.367 718.126 L
1302.863 726.334 L
1303.359 797.871 L
1303.855 745.773 L
1304.351 774.492 L
1304.848 785.967 L
1305.344 762.234 L
1305.84 807.076 L
1306.336 792.501 L
1306.832 719.384 L
1307.328 758.005 L
1307.825 753.236 L
1308.321 762.093 L
1308.817 768.543 L
1309.313 690.874 L
1309.809 725.317 L
1310.305 736.343 L
1310.802 752.03 L
1311.298 789.577 L
1311.794 789.5 L
1312.29 716.241 L
1312.786 744.031 L
1313.282 755.581 L
1313.779 738.957 L
1314.275 747.953 L
1314.771 721.282 L
1315.267 728.708 L
1315.763 676.22 L
1316.259 776.871 L
1316.756 729.685 L
1317.252 762.405 L
1317.748 762.501 L
1318.244 711.403 L
1318.74 782.939 L
1319.236 727.362 L
1319.733 775.661 L
1320.229 725.628 L
1320.725 762.592 L
1321.221 775.462 L
1321.717 736.817 L
1322.213 764.033 L
1322.71 696.24 L
1323.206 747.819 L
1323.702 719.108 L
1324.198 733.081 L
1324.694 780.177 L
1325.19 735.989 L
1325.687 785.837 L
1326.183 709.794 L
1326.679 751.39 L
1327.175 798.427 L
1327.671 756.259 L
1328.167 706.144 L
1328.664 794.882 L
1329.16 777.079 L
1329.656 741.757 L
1330.152 731.204 L
1330.648 734.063 L
1331.144 757.645 L
1331.641 746.371 L
1332.137 789.176 L
1332.633 713.389 L
1333.129 715.837 L
1333.625 731.834 L
1334.121 714.53 L
1334.618 661.292 L
1335.114 753.24 L
1335.61 762.763 L
1336.106 819.345 L
1336.602 815.421 L
1337.098 776.027 L
1337.594 768.864 L
1338.091 730.765 L
1338.587 739.227 L
1339.083 662.154 L
1339.579 804.79 L
1340.075 769.341 L
1340.572 784.343 L
1341.068 783.791 L
1341.564 799.507 L
1342.06 738.154 L
1342.556 767.306 L
1343.052 720.584 L
1343.548 750.562 L
1344.045 788.269 L
1344.541 786.632 L
1345.037 737.931 L
1345.533 753.496 L
1346.029 767.71 L
1346.526 749.058 L
1347.022 717.35 L
1347.518 791.636 L
1348.014 712.536 L
1348.51 776.754 L
1349.006 779.329 L
1349.503 652.766 L
1349.999 777.844 L
1350.495 779.548 L
1350.991 711.329 L
1351.487 752.959 L
1351.983 669.964 L
1352.479 700.637 L
1352.976 743.46 L
1353.472 775.656 L
1353.968 788.044 L
1354.464 779.993 L
1354.96 684.556 L
1355.457 765.997 L
1355.953 736.208 L
1356.449 722.392 L
1356.945 773.083 L
1357.441 759.827 L
1357.937 763.596 L
1358.433 764.641 L
1358.93 775.804 L
1359.426 737.181 L
1359.922 764.207 L
1360.418 805.512 L
1360.914 734.282 L
1361.411 776.81 L
1361.907 761.026 L
1362.403 780.773 L
1362.899 773.685 L
1363.395 778.43 L
1363.891 722.066 L
1364.387 710.067 L
1364.884 747.986 L
1365.38 733.813 L
1365.876 682.415 L
1366.372 760.209 L
1366.868 747.73 L
1367.364 735.372 L
1367.861 696.13 L
1368.357 798.206 L
1368.853 809.965 L
1369.349 801.447 L
1369.845 778.844 L
1370.341 795.566 L
1370.838 790.017 L
1371.334 691.017 L
1371.83 696.243 L
1372.326 795.375 L
1372.822 761.99 L
1373.318 707.547 L
1373.815 666.686 L
1374.311 643.136 L
1374.807 653.898 L
1375.303 715.071 L
1375.799 784.828 L
1376.295 769.834 L
1376.792 739.08 L
1377.288 718.321 L
1377.784 701.695 L
1378.28 671.987 L
1378.776 808.496 L
1379.272 707.965 L
1379.769 766.829 L
1380.265 722.579 L
1380.761 745.563 L
1381.257 768.917 L
1381.753 773.683 L
1382.249 813.856 L
1382.746 785.876 L
1383.242 755.416 L
1383.738 748.459 L
1384.234 727.409 L
1384.73 772.151 L
1385.226 779.374 L
1385.723 759.822 L
1386.219 785.171 L
1386.715 795.468 L
1387.211 779.156 L
1387.707 708.92 L
1388.203 638.709 L
1388.7 801.757 L
1389.196 743.543 L
1389.692 739.427 L
1390.188 755.656 L
1390.684 704.675 L
1391.18 770.384 L
1391.677 764.037 L
1392.173 754.351 L
1392.669 731.577 L
1393.165 810.5 L
1393.661 800.805 L
1394.157 757.43 L
1394.654 787.739 L
1395.15 734.228 L
1395.646 770.024 L
1396.142 742.698 L
1396.638 714.422 L
1397.134 766.027 L
1397.631 739.115 L
1398.127 772.277 L
1398.623 770.539 L
1399.119 811.417 L
1399.615 696.122 L
1400.111 738.79 L
1400.608 748.697 L
1401.104 725.077 L
1401.6 748.887 L
1402.096 745.297 L
1402.592 692.064 L
1403.088 788.657 L
1403.584 700.25 L
1404.081 754.99 L
1404.577 717.579 L
1405.073 735.265 L
1405.569 763.214 L
1406.065 755.72 L
1406.562 732.771 L
1407.058 754.874 L
1407.554 753.633 L
1408.05 741.788 L
1408.546 716.103 L
1409.042 761.84 L
1409.538 717.69 L
1410.035 776.84 L
1410.531 773.472 L
1411.027 693.307 L
1411.523 797.03 L
1412.019 813.016 L
1412.516 705.873 L
1413.012 711.112 L
1413.508 760.825 L
1414.004 789.836 L
1414.5 765.294 L
1414.996 760.527 L
1415.492 726.598 L
1415.989 765.968 L
1416.485 759.891 L
1416.981 733.708 L
1417.477 807.368 L
1417.973 789.402 L
1418.469 781.337 L
1418.966 808.122 L
1419.462 767.788 L
1419.958 741.201 L
1420.454 793.738 L
1420.95 798.178 L
1421.447 730.816 L
1421.943 714.194 L
1422.439 770.124 L
1422.935 749.706 L
1423.431 741.998 L
1423.927 753.703 L
1424.423 774.047 L
1424.92 815.318 L
1425.416 807.031 L
1425.912 809.334 L
1426.408 778.504 L
1426.904 733.159 L
1427.401 719.983 L
1427.897 731.019 L
1428.393 804.204 L
1428.889 780.358 L
1429.385 758.401 L
1429.881 702.464 L
1430.377 742.941 L
1430.874 760.457 L
1431.37 744.665 L
1431.866 761.675 L
1432.362 769.659 L
1432.858 718.519 L
1433.354 725.516 L
1433.851 784.049 L
1434.347 768.479 L
1434.843 735.488 L
1435.339 755.574 L
1435.835 769.435 L
1436.331 794.846 L
1436.828 729.847 L
1437.324 717.073 L
1437.82 738.954 L
1438.316 687.306 L
1438.812 788.891 L
1439.308 750.32 L
1439.805 773.317 L
1440.301 741.167 L
1440.797 759.737 L
1441.293 781.323 L
1441.789 753.945 L
1442.285 729.192 L
1442.782 793.987 L
1443.278 703.845 L
1443.774 800.82 L
1444.27 749.535 L
1444.766 764.519 L
1445.262 776.513 L
1445.759 758.149 L
1446.255 792.914 L
1446.751 683.326 L
1447.247 768.072 L
1447.743 782.922 L
1448.239 646.963 L
1448.736 778.456 L
1449.232 730.327 L
1449.728 784.36 L
1450.224 772.008 L
1450.72 793.108 L
1451.216 752.994 L
1451.713 751.531 L
1452.209 750.773 L
1452.705 747.693 L
1453.201 790.827 L
1453.697 771.08 L
1454.193 718.798 L
1454.69 708.577 L
1455.186 754.997 L
1455.682 795.614 L
1456.178 785.133 L
1456.674 765.013 L
1457.17 755.482 L
1457.667 816.745 L
1458.163 775.725 L
1458.659 781.62 L
1459.155 766.401 L
1459.651 762.417 L
1460.147 743.537 L
1460.644 806.258 L
1461.14 779.365 L
1461.636 763.612 L
1462.132 786.808 L
1462.628 769.732 L
1463.124 780.715 L
1463.621 791.897 L
1464.117 731.99 L
1464.613 738.437 L
1465.109 806.856 L
1465.605 745.809 L
1466.101 738.419 L
1466.598 770.573 L
1467.094 753.631 L
1467.59 756.985 L
1468.086 775.196 L
1468.582 797.54 L
1469.078 749.672 L
1469.575 745.971 L
1470.071 781.556 L
1470.567 712.318 L
1471.063 800.499 L
1471.559 789.339 L
1472.055 788.69 L
1472.552 778.227 L
1473.048 769.507 L
1473.544 727.726 L
1474.04 788.362 L
1474.536 792.358 L
1475.032 767.461 L
1475.528 764.007 L
1476.025 750.357 L
1476.521 716.405 L
1477.017 719.296 L
1477.513 759.367 L
1478.009 681.82 L
1478.505 810.051 L
1479.002 774.109 L
1479.498 785.901 L
1479.994 739.382 L
1480.49 766.762 L
1480.986 746.319 L
1481.482 729.295 L
1481.979 763.401 L
1482.475 782.946 L
1482.971 785.174 L
1483.467 812.232 L
1483.963 803.694 L
1484.459 726.552 L
1484.956 767.918 L
1485.452 757.763 L
1485.948 777.299 L
1486.444 797.992 L
1486.94 760.712 L
1487.437 773.297 L
1487.933 798.876 L
1488.429 792.86 L
1488.925 797.41 L
1489.421 794.157 L
1489.917 782.013 L
1490.413 798.474 L
1490.91 760.88 L
1491.406 790.29 L
1491.902 786.783 L
1492.398 746.507 L
1492.894 733.387 L
1493.391 769.976 L
1493.887 808.627 L
1494.383 635.079 L
1494.879 805.052 L
1495.375 803.589 L
1495.871 813.282 L
1496.367 756.346 L
1496.864 736.742 L
1497.36 786.778 L
1497.856 757.174 L
1498.352 776.289 L
1498.848 789.281 L
1499.344 750.941 L
1499.841 814.207 L
1500.337 757.75 L
1500.833 755.18 L
1501.329 794.157 L
1501.825 769.777 L
1502.321 744.522 L
1502.818 779.825 L
1503.314 727.037 L
1503.81 760.635 L
1504.306 750.939 L
1504.802 783.33 L
1505.298 754.912 L
1505.795 798.775 L
1506.291 806.293 L
1506.787 793.382 L
1507.283 753.207 L
1507.779 762.263 L
1508.275 703.258 L
1508.772 796.121 L
1509.268 770.136 L
1509.764 740.386 L
1510.26 690.444 L
1510.756 771.546 L
1511.252 755.918 L
1511.749 777.798 L
1512.245 778.572 L
1512.741 773.05 L
1513.237 730.564 L
1513.733 786.418 L
1514.229 780.892 L
1514.726 709.867 L
1515.222 718.933 L
1515.718 763.615 L
1516.214 772.012 L
1516.71 797.306 L
1517.206 796.97 L
1517.703 768.107 L
1518.199 786.004 L
1518.695 789.998 L
1519.191 777.176 L
1519.687 797.739 L
1520.183 708.256 L
1520.68 782.797 L
1521.176 794.458 L
1521.672 795.979 L
1522.168 787.397 L
1522.664 722.408 L
1523.16 727.419 L
1523.656 808.305 L
1524.153 730.412 L
1524.649 761.031 L
1525.145 731.317 L
1525.641 768.453 L
1526.137 796.973 L
1526.634 756.827 L
1527.13 761.667 L
1527.626 745.005 L
1528.122 768.118 L
1528.618 806.917 L
1529.114 757.964 L
1529.611 794.065 L
1530.107 753.245 L
1530.603 743.853 L
1531.099 800.018 L
1531.595 808.387 L
1532.091 745.122 L
1532.588 741.131 L
1533.084 781.871 L
1533.58 772.414 L
1534.076 741.052 L
1534.572 782.882 L
1535.068 777.534 L
1535.565 798.731 L
1536.061 722.538 L
1536.557 758.764 L
1537.053 804.118 L
1537.549 722.068 L
1538.045 780.897 L
1538.542 748.428 L
1539.038 769.605 L
1539.534 773.649 L
1540.03 793.577 L
1540.526 802.849 L
1541.022 753.538 L
1541.519 775.688 L
1542.015 753.468 L
1542.511 719.95 L
1543.007 792.148 L
1543.503 803.989 L
1543.999 808.12 L
1544.495 800.264 L
1544.992 750.285 L
1545.488 786.738 L
1545.984 797.631 L
1546.48 751.554 L
1546.976 740.842 L
1547.472 797.048 L
1547.969 782.265 L
1548.465 741.266 L
1548.961 780.635 L
1549.457 808.389 L
1549.953 768.641 L
1550.449 800.308 L
1550.946 816.375 L
1551.442 780.362 L
1551.938 732.727 L
1552.434 693.988 L
1552.93 780.342 L
1553.427 801.88 L
1553.923 779.998 L
1554.419 723.31 L
1554.915 757.258 L
1555.411 804.53 L
1555.907 818.796 L
1556.403 766.326 L
1556.9 813.226 L
1557.396 791.218 L
1557.892 787.775 L
1558.388 813.886 L
1558.884 759.448 L
1559.38 773.846 L
1559.877 750.752 L
1560.373 705.653 L
1560.869 791.713 L
1561.365 807.843 L
1561.861 787.343 L
1562.357 782.212 L
1562.854 791.81 L
1563.35 761.566 L
1563.846 734.889 L
1564.342 770.291 L
1564.838 765.838 L
1565.334 809.057 L
1565.831 800.542 L
1566.327 758.572 L
1566.823 767.891 L
1567.319 771.484 L
1567.815 728.809 L
1568.312 746.135 L
1568.808 813.584 L
1569.304 779.034 L
1569.8 787.201 L
1570.296 778.503 L
1570.792 768.275 L
1571.288 720.386 L
1571.785 745.087 L
1572.281 765.829 L
1572.777 816.673 L
1573.273 770.799 L
1573.769 728.588 L
1574.265 766.856 L
1574.762 773.071 L
1575.258 764.434 L
1575.754 791.358 L
1576.25 710.737 L
1576.746 785.8 L
1577.242 779.192 L
1577.739 782.696 L
1578.235 749.22 L
1578.731 767.674 L
1579.227 747.411 L
1579.723 805.177 L
1580.219 795.5 L
1580.716 759.145 L
1581.212 702.869 L
1581.708 781.473 L
1582.204 783.918 L
1582.7 734.16 L
1583.196 753.015 L
1583.693 716.525 L
1584.189 797.66 L
1584.685 765.369 L
1585.181 799.564 L
1585.677 801.891 L
1586.173 790.889 L
1586.67 730.804 L
1587.166 801.671 L
1587.662 790.579 L
1588.158 757.017 L
1588.654 671.968 L
1589.15 767.864 L
1589.646 717.706 L
1590.143 804.314 L
1590.639 767.997 L
1591.135 725.815 L
1591.631 804.135 L
1592.127 775.814 L
1592.624 796.154 L
1593.12 790.428 L
1593.616 756.288 L
1594.112 793.867 L
1594.608 747.258 L
1595.104 751.979 L
1595.6 729.035 L
1596.097 746.484 L
1596.593 721.068 L
1597.089 782.06 L
1597.585 764.712 L
1598.081 730.957 L
1598.578 775.845 L
1599.074 791.89 L
1599.57 806.072 L
1600.066 770.279 L
1600.562 800.431 L
1601.058 780.005 L
1601.555 779.313 L
1602.051 780.19 L
1602.547 739.396 L
1603.043 727.594 L
1603.539 788.157 L
1604.035 737.196 L
1604.531 774.181 L
1605.028 779.081 L
1605.524 760.485 L
1606.02 762.481 L
1606.516 788.809 L
1607.012 786.405 L
1607.509 748.453 L
1608.005 755.041 L
1608.501 773.012 L
1608.997 803.949 L
1609.493 695.987 L
1609.989 752.119 L
1610.485 800.474 L
1610.982 803.025 L
1611.478 785.319 L
1611.974 702.958 L
1612.47 810.237 L
1612.966 718.295 L
1613.463 753.941 L
1613.959 803.366 L
1614.455 759.04 L
1614.951 757.528 L
1615.447 784.348 L
1615.943 814.637 L
1616.439 772.202 L
1616.936 753.793 L
1617.432 773.793 L
1617.928 761.07 L
1618.424 751.451 L
1618.92 799.366 L
1619.416 776.198 L
1619.913 743.407 L
1620.409 797.631 L
1620.905 787.034 L
1621.401 807.176 L
1621.897 790.748 L
1622.393 739.42 L
1622.89 805.687 L
1623.386 728.804 L
1623.882 765.267 L
1624.378 771.215 L
1624.874 798.23 L
1625.37 766.196 L
1625.867 801.654 L
1626.363 807.754 L
1626.859 814.214 L
1627.355 755.735 L
1627.851 775.615 L
1628.347 791.993 L
1628.844 784.956 L
1629.34 762.034 L
1629.836 783.34 L
1630.332 797.649 L
1630.828 777.435 L
1631.324 723.294 L
1631.821 763.196 L
1632.317 801.794 L
1632.813 771.657 L
1633.309 765.289 L
1633.805 768.425 L
1634.302 743.582 L
1634.798 749.474 L
1635.294 700.997 L
1635.79 738.596 L
1636.286 746.623 L
1636.782 778.083 L
1637.278 804.052 L
1637.775 746.306 L
1638.271 722.935 L
1638.767 777.541 L
1639.263 740.07 L
1639.759 750.367 L
1640.255 805.51 L
1640.752 797.086 L
1641.248 730.077 L
1641.744 765.908 L
1642.24 737.399 L
1642.736 777.352 L
1643.232 797.792 L
1643.729 735.185 L
1644.225 809.889 L
1644.721 744.506 L
1645.217 766.701 L
1645.713 804.008 L
1646.209 780.608 L
1646.706 798.765 L
1647.202 736.33 L
1647.698 717.76 L
1648.194 790.393 L
1648.69 788.304 L
1649.186 737.204 L
1649.683 803.705 L
1650.179 696.229 L
1650.675 762.148 L
1651.171 725.998 L
1651.667 755.544 L
1652.163 771.63 L
1652.66 700.245 L
1653.156 789.837 L
1653.652 775.898 L
1654.148 743.208 L
1654.644 700.973 L
1655.14 754.284 L
1655.636 767.798 L
1656.133 769.569 L
1656.629 795.183 L
1657.125 721.174 L
1657.621 756.078 L
1658.117 795.885 L
1658.614 727.731 L
1659.11 799.623 L
1659.606 749.274 L
1660.102 779.101 L
1660.598 787.12 L
1661.094 743.566 L
1661.59 735.447 L
1662.087 769.998 L
1662.583 804.834 L
1663.079 774.708 L
1663.575 787.647 L
1664.071 778.428 L
1664.568 733.633 L
1665.064 798.054 L
1665.56 764.295 L
1666.056 681.933 L
1666.552 781.2 L
1667.048 778.28 L
1667.545 790.585 L
1668.041 807.849 L
1668.537 768.945 L
1669.033 774.375 L
1669.529 674.28 L
1670.025 784.981 L
1670.521 700.15 L
1671.018 786.213 L
1671.514 714.602 L
1672.01 727.648 L
1672.506 761.95 L
1673.002 762.477 L
1673.499 790.074 L
1673.995 788.232 L
1674.491 730.024 L
1674.987 786.633 L
1675.483 683.214 L
1675.979 773.823 L
1676.476 761.402 L
1676.972 737.337 L
1677.468 787.078 L
1677.964 776.021 L
1678.46 791.893 L
1678.956 786.73 L
1679.453 779.203 L
1679.949 729.581 L
1680.445 783.186 L
1680.941 783.742 L
1681.437 806.616 L
1681.933 745.534 L
1682.429 817.161 L
1682.926 819.315 L
1683.422 720.463 L
1683.918 758.549 L
1684.414 768.22 L
1684.91 746.306 L
1685.406 747.18 L
1685.903 770.693 L
1686.399 797.571 L
1686.895 734.506 L
1687.391 788.413 L
1687.887 734.181 L
1688.383 714.601 L
1688.88 762.132 L
1689.376 771.542 L
1689.872 708.924 L
1690.368 767.422 L
1690.864 770.471 L
1691.36 774.24 L
1691.857 774.48 L
1692.353 789.781 L
1692.849 737.939 L
1693.345 767.902 L
1693.841 771.38 L
1694.337 769.201 L
1694.834 820.106 L
1695.33 812.673 L
1695.826 768.857 L
1696.322 773.424 L
1696.818 719.545 L
1697.314 779.188 L
1697.811 792.121 L
1698.307 750.882 L
1698.803 782.173 L
1699.299 769.635 L
1699.795 793.797 L
1700.291 691.231 L
1700.788 779.723 L
1701.284 740.215 L
1701.78 783.867 L
1702.276 639.217 L
1702.772 719.57 L
1703.268 751.876 L
1703.765 786.234 L
1704.261 791.838 L
1704.757 749.404 L
1705.253 699.285 L
1705.749 800.947 L
1706.245 681.479 L
1706.742 764.848 L
1707.238 736.33 L
1707.734 758.282 L
1708.23 717.223 L
1708.726 790.067 L
1709.222 809.476 L
1709.719 755.442 L
1710.215 792.4 L
1710.711 723.863 L
1711.207 696.916 L
1711.703 799.593 L
1712.199 788.599 L
1712.696 765.369 L
1713.192 804.026 L
1713.688 704.786 L
1714.184 776.451 L
1714.68 651.513 L
1715.176 766.91 L
1715.673 756.008 L
1716.169 747.988 L
1716.665 766.763 L
1717.161 745.361 L
1717.657 754.366 L
1718.153 747.472 L
1718.65 722.159 L
1719.146 746.277 L
1719.642 795.955 L
1720.138 752.851 L
1720.634 637.449 L
1721.13 581.557 L
1721.627 794.219 L
1722.123 789.87 L
1722.619 614.165 L
1723.115 652.202 L
1723.611 652.302 L
1724.107 734.137 L
1724.604 716.41 L
1725.1 678.151 L
1725.596 780.551 L
1726.092 489.996 L
1726.588 727.522 L
1727.084 626.897 L
1727.58 707.145 L
1728.077 452.701 L
1728.573 798.673 L
1729.069 567.992 L
1729.565 350.665 L
1730.061 132.395 L
1730.557 448.79 L
1731.054 521.106 L
1731.55 604.08 L
1732.046 512.744 L
1732.542 657.915 L
1733.038 199.678 L
1733.535 83 L
1734.031 495.52 L
1734.527 628.995 L
1735.023 543.345 L
1735.519 238.035 L
1736.015 596.886 L
1736.511 306.109 L
1737.008 610.878 L
1737.504 389.95 L
1738 500.937 L
S
GR
%%Trailer
%%Pages: 1
%%EOF
