%!PS-Adobe-3.0 EPSF-3.0
%%Creator: (MATLAB, The Mathworks, Inc. Version 9.1.0.441655 \(R2016b\). Operating System: Linux)
%%Title: /users/start2016/r0461511/Documents/system-identification/Oefenzitting_3/plots/hankel_oe_16_9.eps
%%CreationDate: 2016-12-20T17:06:39
%%Pages: (atend)
%%BoundingBox: 0 0 420 315
%%LanguageLevel: 3
%%EndComments
%%BeginProlog
%%BeginResource: procset (Apache XML Graphics Std ProcSet) 1.2 0
%%Version: 1.2 0
%%Copyright: (Copyright 2001-2003,2010 The Apache Software Foundation. License terms: http://www.apache.org/licenses/LICENSE-2.0)
/bd{bind def}bind def
/ld{load def}bd
/GR/grestore ld
/M/moveto ld
/LJ/setlinejoin ld
/C/curveto ld
/f/fill ld
/LW/setlinewidth ld
/GC/setgray ld
/t/show ld
/N/newpath ld
/CT/concat ld
/cp/closepath ld
/S/stroke ld
/L/lineto ld
/CC/setcmykcolor ld
/A/ashow ld
/GS/gsave ld
/RC/setrgbcolor ld
/RM/rmoveto ld
/ML/setmiterlimit ld
/re {4 2 roll M
1 index 0 rlineto
0 exch rlineto
neg 0 rlineto
cp } bd
/_ctm matrix def
/_tm matrix def
/BT { _ctm currentmatrix pop matrix _tm copy pop 0 0 moveto } bd
/ET { _ctm setmatrix } bd
/iTm { _ctm setmatrix _tm concat } bd
/Tm { _tm astore pop iTm 0 0 moveto } bd
/ux 0.0 def
/uy 0.0 def
/F {
  /Tp exch def
  /Tf exch def
  Tf findfont Tp scalefont setfont
  /cf Tf def  /cs Tp def
} bd
/ULS {currentpoint /uy exch def /ux exch def} bd
/ULE {
  /Tcx currentpoint pop def
  gsave
  newpath
  cf findfont cs scalefont dup
  /FontMatrix get 0 get /Ts exch def /FontInfo get dup
  /UnderlinePosition get Ts mul /To exch def
  /UnderlineThickness get Ts mul /Tt exch def
  ux uy To add moveto  Tcx uy To add lineto
  Tt setlinewidth stroke
  grestore
} bd
/OLE {
  /Tcx currentpoint pop def
  gsave
  newpath
  cf findfont cs scalefont dup
  /FontMatrix get 0 get /Ts exch def /FontInfo get dup
  /UnderlinePosition get Ts mul /To exch def
  /UnderlineThickness get Ts mul /Tt exch def
  ux uy To add cs add moveto Tcx uy To add cs add lineto
  Tt setlinewidth stroke
  grestore
} bd
/SOE {
  /Tcx currentpoint pop def
  gsave
  newpath
  cf findfont cs scalefont dup
  /FontMatrix get 0 get /Ts exch def /FontInfo get dup
  /UnderlinePosition get Ts mul /To exch def
  /UnderlineThickness get Ts mul /Tt exch def
  ux uy To add cs 10 mul 26 idiv add moveto Tcx uy To add cs 10 mul 26 idiv add lineto
  Tt setlinewidth stroke
  grestore
} bd
/QT {
/Y22 exch store
/X22 exch store
/Y21 exch store
/X21 exch store
currentpoint
/Y21 load 2 mul add 3 div exch
/X21 load 2 mul add 3 div exch
/X21 load 2 mul /X22 load add 3 div
/Y21 load 2 mul /Y22 load add 3 div
/X22 load /Y22 load curveto
} bd
/SSPD {
dup length /d exch dict def
{
/v exch def
/k exch def
currentpagedevice k known {
/cpdv currentpagedevice k get def
v cpdv ne {
/upd false def
/nullv v type /nulltype eq def
/nullcpdv cpdv type /nulltype eq def
nullv nullcpdv or
{
/upd true def
} {
/sametype v type cpdv type eq def
sametype {
v type /arraytype eq {
/vlen v length def
/cpdvlen cpdv length def
vlen cpdvlen eq {
0 1 vlen 1 sub {
/i exch def
/obj v i get def
/cpdobj cpdv i get def
obj cpdobj ne {
/upd true def
exit
} if
} for
} {
/upd true def
} ifelse
} {
v type /dicttype eq {
v {
/dv exch def
/dk exch def
/cpddv cpdv dk get def
dv cpddv ne {
/upd true def
exit
} if
} forall
} {
/upd true def
} ifelse
} ifelse
} if
} ifelse
upd true eq {
d k v put
} if
} if
} if
} forall
d length 0 gt {
d setpagedevice
} if
} bd
/RE { % /NewFontName [NewEncodingArray] /FontName RE -
  findfont dup length dict begin
  {
    1 index /FID ne
    {def} {pop pop} ifelse
  } forall
  /Encoding exch def
  /FontName 1 index def
  currentdict definefont pop
  end
} bind def
%%EndResource
%%BeginResource: procset (Apache XML Graphics EPS ProcSet) 1.0 0
%%Version: 1.0 0
%%Copyright: (Copyright 2002-2003 The Apache Software Foundation. License terms: http://www.apache.org/licenses/LICENSE-2.0)
/BeginEPSF { %def
/b4_Inc_state save def         % Save state for cleanup
/dict_count countdictstack def % Count objects on dict stack
/op_count count 1 sub def      % Count objects on operand stack
userdict begin                 % Push userdict on dict stack
/showpage { } def              % Redefine showpage, { } = null proc
0 setgray 0 setlinecap         % Prepare graphics state
1 setlinewidth 0 setlinejoin
10 setmiterlimit [ ] 0 setdash newpath
/languagelevel where           % If level not equal to 1 then
{pop languagelevel             % set strokeadjust and
1 ne                           % overprint to their defaults.
{false setstrokeadjust false setoverprint
} if
} if
} bd
/EndEPSF { %def
count op_count sub {pop} repeat            % Clean up stacks
countdictstack dict_count sub {end} repeat
b4_Inc_state restore
} bd
%%EndResource
%FOPBeginFontDict
%%IncludeResource: font Courier-Bold
%%IncludeResource: font Helvetica
%%IncludeResource: font Courier-BoldOblique
%%IncludeResource: font Courier-Oblique
%%IncludeResource: font Times-Roman
%%IncludeResource: font Helvetica-BoldOblique
%%IncludeResource: font Helvetica-Bold
%%IncludeResource: font Helvetica-Oblique
%%IncludeResource: font Times-BoldItalic
%%IncludeResource: font Courier
%%IncludeResource: font Times-Italic
%%IncludeResource: font Times-Bold
%%IncludeResource: font Symbol
%%IncludeResource: font ZapfDingbats
%FOPEndFontDict
%%BeginResource: encoding WinAnsiEncoding
/WinAnsiEncoding [
/.notdef /.notdef /.notdef /.notdef /.notdef
/.notdef /.notdef /.notdef /.notdef /.notdef
/.notdef /.notdef /.notdef /.notdef /.notdef
/.notdef /.notdef /.notdef /.notdef /.notdef
/.notdef /.notdef /.notdef /.notdef /.notdef
/.notdef /.notdef /.notdef /.notdef /.notdef
/.notdef /.notdef /space /exclam /quotedbl
/numbersign /dollar /percent /ampersand /quotesingle
/parenleft /parenright /asterisk /plus /comma
/hyphen /period /slash /zero /one
/two /three /four /five /six
/seven /eight /nine /colon /semicolon
/less /equal /greater /question /at
/A /B /C /D /E
/F /G /H /I /J
/K /L /M /N /O
/P /Q /R /S /T
/U /V /W /X /Y
/Z /bracketleft /backslash /bracketright /asciicircum
/underscore /quoteleft /a /b /c
/d /e /f /g /h
/i /j /k /l /m
/n /o /p /q /r
/s /t /u /v /w
/x /y /z /braceleft /bar
/braceright /asciitilde /bullet /Euro /bullet
/quotesinglbase /florin /quotedblbase /ellipsis /dagger
/daggerdbl /circumflex /perthousand /Scaron /guilsinglleft
/OE /bullet /Zcaron /bullet /bullet
/quoteleft /quoteright /quotedblleft /quotedblright /bullet
/endash /emdash /asciitilde /trademark /scaron
/guilsinglright /oe /bullet /zcaron /Ydieresis
/space /exclamdown /cent /sterling /currency
/yen /brokenbar /section /dieresis /copyright
/ordfeminine /guillemotleft /logicalnot /sfthyphen /registered
/macron /degree /plusminus /twosuperior /threesuperior
/acute /mu /paragraph /middot /cedilla
/onesuperior /ordmasculine /guillemotright /onequarter /onehalf
/threequarters /questiondown /Agrave /Aacute /Acircumflex
/Atilde /Adieresis /Aring /AE /Ccedilla
/Egrave /Eacute /Ecircumflex /Edieresis /Igrave
/Iacute /Icircumflex /Idieresis /Eth /Ntilde
/Ograve /Oacute /Ocircumflex /Otilde /Odieresis
/multiply /Oslash /Ugrave /Uacute /Ucircumflex
/Udieresis /Yacute /Thorn /germandbls /agrave
/aacute /acircumflex /atilde /adieresis /aring
/ae /ccedilla /egrave /eacute /ecircumflex
/edieresis /igrave /iacute /icircumflex /idieresis
/eth /ntilde /ograve /oacute /ocircumflex
/otilde /odieresis /divide /oslash /ugrave
/uacute /ucircumflex /udieresis /yacute /thorn
/ydieresis
] def
%%EndResource
%FOPBeginFontReencode
/Courier-Bold findfont
dup length dict begin
  {1 index /FID ne {def} {pop pop} ifelse} forall
  /Encoding WinAnsiEncoding def
  currentdict
end
/Courier-Bold exch definefont pop
/Helvetica findfont
dup length dict begin
  {1 index /FID ne {def} {pop pop} ifelse} forall
  /Encoding WinAnsiEncoding def
  currentdict
end
/Helvetica exch definefont pop
/Courier-BoldOblique findfont
dup length dict begin
  {1 index /FID ne {def} {pop pop} ifelse} forall
  /Encoding WinAnsiEncoding def
  currentdict
end
/Courier-BoldOblique exch definefont pop
/Courier-Oblique findfont
dup length dict begin
  {1 index /FID ne {def} {pop pop} ifelse} forall
  /Encoding WinAnsiEncoding def
  currentdict
end
/Courier-Oblique exch definefont pop
/Times-Roman findfont
dup length dict begin
  {1 index /FID ne {def} {pop pop} ifelse} forall
  /Encoding WinAnsiEncoding def
  currentdict
end
/Times-Roman exch definefont pop
/Helvetica-BoldOblique findfont
dup length dict begin
  {1 index /FID ne {def} {pop pop} ifelse} forall
  /Encoding WinAnsiEncoding def
  currentdict
end
/Helvetica-BoldOblique exch definefont pop
/Helvetica-Bold findfont
dup length dict begin
  {1 index /FID ne {def} {pop pop} ifelse} forall
  /Encoding WinAnsiEncoding def
  currentdict
end
/Helvetica-Bold exch definefont pop
/Helvetica-Oblique findfont
dup length dict begin
  {1 index /FID ne {def} {pop pop} ifelse} forall
  /Encoding WinAnsiEncoding def
  currentdict
end
/Helvetica-Oblique exch definefont pop
/Times-BoldItalic findfont
dup length dict begin
  {1 index /FID ne {def} {pop pop} ifelse} forall
  /Encoding WinAnsiEncoding def
  currentdict
end
/Times-BoldItalic exch definefont pop
/Courier findfont
dup length dict begin
  {1 index /FID ne {def} {pop pop} ifelse} forall
  /Encoding WinAnsiEncoding def
  currentdict
end
/Courier exch definefont pop
/Times-Italic findfont
dup length dict begin
  {1 index /FID ne {def} {pop pop} ifelse} forall
  /Encoding WinAnsiEncoding def
  currentdict
end
/Times-Italic exch definefont pop
/Times-Bold findfont
dup length dict begin
  {1 index /FID ne {def} {pop pop} ifelse} forall
  /Encoding WinAnsiEncoding def
  currentdict
end
/Times-Bold exch definefont pop
%FOPEndFontReencode
%%EndProlog
%%Page: 1 1
%%PageBoundingBox: 0 0 420 315
%%BeginPageSetup
[1 0 0 -1 0 315] CT
%%EndPageSetup
GS
[0.75 0 0 0.75 0 0] CT
1 GC
N
0 0 560 420 re
f
GR
GS
[0.75 0 0 0.75 0 0] CT
1 GC
N
0 0 560 420 re
f
GR
GS
[0.75 0 0 0.75 0 0] CT
1 GC
N
73 374 M
507 374 L
507 31 L
73 31 L
cp
f
GR
GS
[0.75 0 0 0.75 0 0] CT
0.873 GC
1 LJ
0.667 LW
N
73 374 M
73 31 L
S
GR
GS
[0.75 0 0 0.75 0 0] CT
0.873 GC
1 LJ
0.667 LW
N
124.059 374 M
124.059 31 L
S
GR
GS
[0.75 0 0 0.75 0 0] CT
0.873 GC
1 LJ
0.667 LW
N
175.118 374 M
175.118 31 L
S
GR
GS
[0.75 0 0 0.75 0 0] CT
0.873 GC
1 LJ
0.667 LW
N
226.176 374 M
226.176 31 L
S
GR
GS
[0.75 0 0 0.75 0 0] CT
0.873 GC
1 LJ
0.667 LW
N
277.235 374 M
277.235 31 L
S
GR
GS
[0.75 0 0 0.75 0 0] CT
0.873 GC
1 LJ
0.667 LW
N
328.294 374 M
328.294 31 L
S
GR
GS
[0.75 0 0 0.75 0 0] CT
0.873 GC
1 LJ
0.667 LW
N
379.353 374 M
379.353 31 L
S
GR
GS
[0.75 0 0 0.75 0 0] CT
0.873 GC
1 LJ
0.667 LW
N
430.412 374 M
430.412 31 L
S
GR
GS
[0.75 0 0 0.75 0 0] CT
0.873 GC
1 LJ
0.667 LW
N
481.471 374 M
481.471 31 L
S
GR
GS
[0.75 0 0 0.75 0 0] CT
0.873 GC
1 LJ
0.667 LW
N
507 374 M
73 374 L
S
GR
GS
[0.75 0 0 0.75 0 0] CT
0.873 GC
1 LJ
0.667 LW
N
507 331.125 M
73 331.125 L
S
GR
GS
[0.75 0 0 0.75 0 0] CT
0.873 GC
1 LJ
0.667 LW
N
507 288.25 M
73 288.25 L
S
GR
GS
[0.75 0 0 0.75 0 0] CT
0.873 GC
1 LJ
0.667 LW
N
507 245.375 M
73 245.375 L
S
GR
GS
[0.75 0 0 0.75 0 0] CT
0.873 GC
1 LJ
0.667 LW
N
507 202.5 M
73 202.5 L
S
GR
GS
[0.75 0 0 0.75 0 0] CT
0.873 GC
1 LJ
0.667 LW
N
507 159.625 M
73 159.625 L
S
GR
GS
[0.75 0 0 0.75 0 0] CT
0.873 GC
1 LJ
0.667 LW
N
507 116.75 M
73 116.75 L
S
GR
GS
[0.75 0 0 0.75 0 0] CT
0.873 GC
1 LJ
0.667 LW
N
507 73.875 M
73 73.875 L
S
GR
GS
[0.75 0 0 0.75 0 0] CT
0.873 GC
1 LJ
0.667 LW
N
507 31 M
73 31 L
S
GR
GS
[0.75 0 0 0.75 0 0] CT
2 setlinecap
1 LJ
0.667 LW
N
73 374 M
507 374 L
S
GR
GS
[0.75 0 0 0.75 0 0] CT
2 setlinecap
1 LJ
0.667 LW
N
73 31 M
507 31 L
S
GR
GS
[0.75 0 0 0.75 0 0] CT
2 setlinecap
1 LJ
0.667 LW
N
73 374 M
73 369.66 L
S
GR
GS
[0.75 0 0 0.75 0 0] CT
2 setlinecap
1 LJ
0.667 LW
N
124.059 374 M
124.059 369.66 L
S
GR
GS
[0.75 0 0 0.75 0 0] CT
2 setlinecap
1 LJ
0.667 LW
N
175.118 374 M
175.118 369.66 L
S
GR
GS
[0.75 0 0 0.75 0 0] CT
2 setlinecap
1 LJ
0.667 LW
N
226.176 374 M
226.176 369.66 L
S
GR
GS
[0.75 0 0 0.75 0 0] CT
2 setlinecap
1 LJ
0.667 LW
N
277.235 374 M
277.235 369.66 L
S
GR
GS
[0.75 0 0 0.75 0 0] CT
2 setlinecap
1 LJ
0.667 LW
N
328.294 374 M
328.294 369.66 L
S
GR
GS
[0.75 0 0 0.75 0 0] CT
2 setlinecap
1 LJ
0.667 LW
N
379.353 374 M
379.353 369.66 L
S
GR
GS
[0.75 0 0 0.75 0 0] CT
2 setlinecap
1 LJ
0.667 LW
N
430.412 374 M
430.412 369.66 L
S
GR
GS
[0.75 0 0 0.75 0 0] CT
2 setlinecap
1 LJ
0.667 LW
N
481.471 374 M
481.471 369.66 L
S
GR
GS
[0.75 0 0 0.75 0 0] CT
2 setlinecap
1 LJ
0.667 LW
N
73 31 M
73 35.34 L
S
GR
GS
[0.75 0 0 0.75 0 0] CT
2 setlinecap
1 LJ
0.667 LW
N
124.059 31 M
124.059 35.34 L
S
GR
GS
[0.75 0 0 0.75 0 0] CT
2 setlinecap
1 LJ
0.667 LW
N
175.118 31 M
175.118 35.34 L
S
GR
GS
[0.75 0 0 0.75 0 0] CT
2 setlinecap
1 LJ
0.667 LW
N
226.176 31 M
226.176 35.34 L
S
GR
GS
[0.75 0 0 0.75 0 0] CT
2 setlinecap
1 LJ
0.667 LW
N
277.235 31 M
277.235 35.34 L
S
GR
GS
[0.75 0 0 0.75 0 0] CT
2 setlinecap
1 LJ
0.667 LW
N
328.294 31 M
328.294 35.34 L
S
GR
GS
[0.75 0 0 0.75 0 0] CT
2 setlinecap
1 LJ
0.667 LW
N
379.353 31 M
379.353 35.34 L
S
GR
GS
[0.75 0 0 0.75 0 0] CT
2 setlinecap
1 LJ
0.667 LW
N
430.412 31 M
430.412 35.34 L
S
GR
GS
[0.75 0 0 0.75 0 0] CT
2 setlinecap
1 LJ
0.667 LW
N
481.471 31 M
481.471 35.34 L
S
GR
GS
[0.75 0 0 0.75 54.75 284.09999] CT
/Helvetica 10.667 F
GS
[1 0 0 1 0 0] CT
-3.5 11 moveto 
1 -1 scale
(0) t 
GR
GR
GS
[0.75 0 0 0.75 93.04412 284.09999] CT
/Helvetica 10.667 F
GS
[1 0 0 1 0 0] CT
-3.5 11 moveto 
1 -1 scale
(2) t 
GR
GR
GS
[0.75 0 0 0.75 131.33823 284.09999] CT
/Helvetica 10.667 F
GS
[1 0 0 1 0 0] CT
-3.5 11 moveto 
1 -1 scale
(4) t 
GR
GR
GS
[0.75 0 0 0.75 169.63235 284.09999] CT
/Helvetica 10.667 F
GS
[1 0 0 1 0 0] CT
-3.5 11 moveto 
1 -1 scale
(6) t 
GR
GR
GS
[0.75 0 0 0.75 207.92647 284.09999] CT
/Helvetica 10.667 F
GS
[1 0 0 1 0 0] CT
-3.5 11 moveto 
1 -1 scale
(8) t 
GR
GR
GS
[0.75 0 0 0.75 246.2206 284.09999] CT
/Helvetica 10.667 F
GS
[1 0 0 1 0 0] CT
-7 11 moveto 
1 -1 scale
(10) t 
GR
GR
GS
[0.75 0 0 0.75 284.5147 284.09999] CT
/Helvetica 10.667 F
GS
[1 0 0 1 0 0] CT
-7 11 moveto 
1 -1 scale
(12) t 
GR
GR
GS
[0.75 0 0 0.75 322.80883 284.09999] CT
/Helvetica 10.667 F
GS
[1 0 0 1 0 0] CT
-7 11 moveto 
1 -1 scale
(14) t 
GR
GR
GS
[0.75 0 0 0.75 361.10294 284.09999] CT
/Helvetica 10.667 F
GS
[1 0 0 1 0 0] CT
-7 11 moveto 
1 -1 scale
(16) t 
GR
GR
GS
[0.75 0 0 0.75 217.50016 295.6] CT
/Helvetica 10.667 F
GS
[1 0 0 1 0 0] CT
-15 11 moveto 
1 -1 scale
(State) t 
GR
GR
GS
[0.75 0 0 0.75 0 0] CT
2 setlinecap
1 LJ
0.667 LW
N
73 374 M
73 31 L
S
GR
GS
[0.75 0 0 0.75 0 0] CT
2 setlinecap
1 LJ
0.667 LW
N
507 374 M
507 31 L
S
GR
GS
[0.75 0 0 0.75 0 0] CT
2 setlinecap
1 LJ
0.667 LW
N
73 374 M
77.34 374 L
S
GR
GS
[0.75 0 0 0.75 0 0] CT
2 setlinecap
1 LJ
0.667 LW
N
73 331.125 M
77.34 331.125 L
S
GR
GS
[0.75 0 0 0.75 0 0] CT
2 setlinecap
1 LJ
0.667 LW
N
73 288.25 M
77.34 288.25 L
S
GR
GS
[0.75 0 0 0.75 0 0] CT
2 setlinecap
1 LJ
0.667 LW
N
73 245.375 M
77.34 245.375 L
S
GR
GS
[0.75 0 0 0.75 0 0] CT
2 setlinecap
1 LJ
0.667 LW
N
73 202.5 M
77.34 202.5 L
S
GR
GS
[0.75 0 0 0.75 0 0] CT
2 setlinecap
1 LJ
0.667 LW
N
73 159.625 M
77.34 159.625 L
S
GR
GS
[0.75 0 0 0.75 0 0] CT
2 setlinecap
1 LJ
0.667 LW
N
73 116.75 M
77.34 116.75 L
S
GR
GS
[0.75 0 0 0.75 0 0] CT
2 setlinecap
1 LJ
0.667 LW
N
73 73.875 M
77.34 73.875 L
S
GR
GS
[0.75 0 0 0.75 0 0] CT
2 setlinecap
1 LJ
0.667 LW
N
73 31 M
77.34 31 L
S
GR
GS
[0.75 0 0 0.75 0 0] CT
2 setlinecap
1 LJ
0.667 LW
N
507 374 M
502.66 374 L
S
GR
GS
[0.75 0 0 0.75 0 0] CT
2 setlinecap
1 LJ
0.667 LW
N
507 331.125 M
502.66 331.125 L
S
GR
GS
[0.75 0 0 0.75 0 0] CT
2 setlinecap
1 LJ
0.667 LW
N
507 288.25 M
502.66 288.25 L
S
GR
GS
[0.75 0 0 0.75 0 0] CT
2 setlinecap
1 LJ
0.667 LW
N
507 245.375 M
502.66 245.375 L
S
GR
GS
[0.75 0 0 0.75 0 0] CT
2 setlinecap
1 LJ
0.667 LW
N
507 202.5 M
502.66 202.5 L
S
GR
GS
[0.75 0 0 0.75 0 0] CT
2 setlinecap
1 LJ
0.667 LW
N
507 159.625 M
502.66 159.625 L
S
GR
GS
[0.75 0 0 0.75 0 0] CT
2 setlinecap
1 LJ
0.667 LW
N
507 116.75 M
502.66 116.75 L
S
GR
GS
[0.75 0 0 0.75 0 0] CT
2 setlinecap
1 LJ
0.667 LW
N
507 73.875 M
502.66 73.875 L
S
GR
GS
[0.75 0 0 0.75 0 0] CT
2 setlinecap
1 LJ
0.667 LW
N
507 31 M
502.66 31 L
S
GR
GS
[0.75 0 0 0.75 51.15 280.5] CT
/Helvetica 10.667 F
GS
[1 0 0 1 0 0] CT
-7 4 moveto 
1 -1 scale
(0) t 
GR
GR
GS
[0.75 0 0 0.75 51.15 248.34375] CT
/Helvetica 10.667 F
GS
[1 0 0 1 0 0] CT
-18 4 moveto 
1 -1 scale
(0.2) t 
GR
GR
GS
[0.75 0 0 0.75 51.15 216.1875] CT
/Helvetica 10.667 F
GS
[1 0 0 1 0 0] CT
-18 4 moveto 
1 -1 scale
(0.4) t 
GR
GR
GS
[0.75 0 0 0.75 51.15 184.03125] CT
/Helvetica 10.667 F
GS
[1 0 0 1 0 0] CT
-18 4 moveto 
1 -1 scale
(0.6) t 
GR
GR
GS
[0.75 0 0 0.75 51.15 151.875] CT
/Helvetica 10.667 F
GS
[1 0 0 1 0 0] CT
-18 4 moveto 
1 -1 scale
(0.8) t 
GR
GR
GS
[0.75 0 0 0.75 51.15 119.71875] CT
/Helvetica 10.667 F
GS
[1 0 0 1 0 0] CT
-7 4 moveto 
1 -1 scale
(1) t 
GR
GR
GS
[0.75 0 0 0.75 51.15 87.56249] CT
/Helvetica 10.667 F
GS
[1 0 0 1 0 0] CT
-18 4 moveto 
1 -1 scale
(1.2) t 
GR
GR
GS
[0.75 0 0 0.75 51.15 55.40626] CT
/Helvetica 10.667 F
GS
[1 0 0 1 0 0] CT
-18 4 moveto 
1 -1 scale
(1.4) t 
GR
GR
GS
[0.75 0 0 0.75 51.15 23.25] CT
/Helvetica 10.667 F
GS
[1 0 0 1 0 0] CT
-18 4 moveto 
1 -1 scale
(1.6) t 
GR
GR
GS
[0 -0.75 0.75 0 34.65 151.87487] CT
/Helvetica 10.667 F
GS
[1 0 0 1 0 0] CT
-36 -3 moveto 
1 -1 scale
(State Energy) t 
GR
GR
GS
[0.75 0 0 0.75 217.50021 21.75] CT
/Helvetica 10.667 F
GS
[1 0 0 1 0 0] CT
-123 -3 moveto 
1 -1 scale
(Hankel Singular Values \(State Contributions\)) t 
GR
GR
GS
[0.75 0 0 0.75 0 0] CT
1 LJ
0.667 LW
N
73 374 M
507 374 L
S
GR
GS
[0.75 0 0 0.75 0 0] CT
0 0 0.6 RC
N
88.318 374 M
108.741 374 L
108.741 44.988 L
88.318 44.988 L
cp
f
GR
GS
[0.75 0 0 0.75 0 0] CT
0 0 0.6 RC
N
113.847 374 M
134.271 374 L
134.271 83.831 L
113.847 83.831 L
cp
f
GR
GS
[0.75 0 0 0.75 0 0] CT
0 0 0.6 RC
N
139.376 374 M
159.8 374 L
159.8 197.025 L
139.376 197.025 L
cp
f
GR
GS
[0.75 0 0 0.75 0 0] CT
0 0 0.6 RC
N
164.906 374 M
185.329 374 L
185.329 222.015 L
164.906 222.015 L
cp
f
GR
GS
[0.75 0 0 0.75 0 0] CT
0 0 0.6 RC
N
190.435 374 M
210.859 374 L
210.859 322.436 L
190.435 322.436 L
cp
f
GR
GS
[0.75 0 0 0.75 0 0] CT
0 0 0.6 RC
N
215.965 374 M
236.388 374 L
236.388 334.005 L
215.965 334.005 L
cp
f
GR
GS
[0.75 0 0 0.75 0 0] CT
0 0 0.6 RC
N
241.494 374 M
261.918 374 L
261.918 351.709 L
241.494 351.709 L
cp
f
GR
GS
[0.75 0 0 0.75 0 0] CT
0 0 0.6 RC
N
267.024 374 M
287.447 374 L
287.447 351.726 L
267.024 351.726 L
cp
f
GR
GS
[0.75 0 0 0.75 0 0] CT
0 0 0.6 RC
N
292.553 374 M
312.976 374 L
312.976 361.987 L
292.553 361.987 L
cp
f
GR
GS
[0.75 0 0 0.75 0 0] CT
0 0 0.6 RC
N
318.082 374 M
338.506 374 L
338.506 362.794 L
318.082 362.794 L
cp
f
GR
GS
[0.75 0 0 0.75 0 0] CT
0 0 0.6 RC
N
343.612 374 M
364.035 374 L
364.035 363.226 L
343.612 363.226 L
cp
f
GR
GS
[0.75 0 0 0.75 0 0] CT
0 0 0.6 RC
N
369.141 374 M
389.565 374 L
389.565 364.394 L
369.141 364.394 L
cp
f
GR
GS
[0.75 0 0 0.75 0 0] CT
0 0 0.6 RC
N
394.671 374 M
415.094 374 L
415.094 367.133 L
394.671 367.133 L
cp
f
GR
GS
[0.75 0 0 0.75 0 0] CT
0 0 0.6 RC
N
420.2 374 M
440.624 374 L
440.624 372.788 L
420.2 372.788 L
cp
f
GR
GS
[0.75 0 0 0.75 0 0] CT
0 0 0.6 RC
N
445.729 374 M
466.153 374 L
466.153 373.364 L
445.729 373.364 L
cp
f
GR
GS
[0.75 0 0 0.75 0 0] CT
0 0 0.6 RC
N
471.259 374 M
491.682 374 L
491.682 373.992 L
471.259 373.992 L
cp
f
GR
GS
[0.75 0 0 0.75 0 0] CT
0 0 0.6 RC
10.0 ML
0.667 LW
N
88.318 374 M
88.318 44.988 L
108.741 44.988 L
108.741 374 L
cp
S
GR
GS
[0.75 0 0 0.75 0 0] CT
0 0 0.6 RC
10.0 ML
0.667 LW
N
113.847 374 M
113.847 83.831 L
134.271 83.831 L
134.271 374 L
cp
S
GR
GS
[0.75 0 0 0.75 0 0] CT
0 0 0.6 RC
10.0 ML
0.667 LW
N
139.376 374 M
139.376 197.025 L
159.8 197.025 L
159.8 374 L
cp
S
GR
GS
[0.75 0 0 0.75 0 0] CT
0 0 0.6 RC
10.0 ML
0.667 LW
N
164.906 374 M
164.906 222.015 L
185.329 222.015 L
185.329 374 L
cp
S
GR
GS
[0.75 0 0 0.75 0 0] CT
0 0 0.6 RC
10.0 ML
0.667 LW
N
190.435 374 M
190.435 322.436 L
210.859 322.436 L
210.859 374 L
cp
S
GR
GS
[0.75 0 0 0.75 0 0] CT
0 0 0.6 RC
10.0 ML
0.667 LW
N
215.965 374 M
215.965 334.005 L
236.388 334.005 L
236.388 374 L
cp
S
GR
GS
[0.75 0 0 0.75 0 0] CT
0 0 0.6 RC
10.0 ML
0.667 LW
N
241.494 374 M
241.494 351.709 L
261.918 351.709 L
261.918 374 L
cp
S
GR
GS
[0.75 0 0 0.75 0 0] CT
0 0 0.6 RC
10.0 ML
0.667 LW
N
267.024 374 M
267.024 351.726 L
287.447 351.726 L
287.447 374 L
cp
S
GR
GS
[0.75 0 0 0.75 0 0] CT
0 0 0.6 RC
10.0 ML
0.667 LW
N
292.553 374 M
292.553 361.987 L
312.976 361.987 L
312.976 374 L
cp
S
GR
GS
[0.75 0 0 0.75 0 0] CT
0 0 0.6 RC
10.0 ML
0.667 LW
N
318.082 374 M
318.082 362.794 L
338.506 362.794 L
338.506 374 L
cp
S
GR
GS
[0.75 0 0 0.75 0 0] CT
0 0 0.6 RC
10.0 ML
0.667 LW
N
343.612 374 M
343.612 363.226 L
364.035 363.226 L
364.035 374 L
cp
S
GR
GS
[0.75 0 0 0.75 0 0] CT
0 0 0.6 RC
10.0 ML
0.667 LW
N
369.141 374 M
369.141 364.394 L
389.565 364.394 L
389.565 374 L
cp
S
GR
GS
[0.75 0 0 0.75 0 0] CT
0 0 0.6 RC
10.0 ML
0.667 LW
N
394.671 374 M
394.671 367.133 L
415.094 367.133 L
415.094 374 L
cp
S
GR
GS
[0.75 0 0 0.75 0 0] CT
0 0 0.6 RC
10.0 ML
0.667 LW
N
420.2 374 M
420.2 372.788 L
440.624 372.788 L
440.624 374 L
cp
S
GR
GS
[0.75 0 0 0.75 0 0] CT
0 0 0.6 RC
10.0 ML
0.667 LW
N
445.729 374 M
445.729 373.364 L
466.153 373.364 L
466.153 374 L
cp
S
GR
GS
[0.75 0 0 0.75 0 0] CT
0 0 0.6 RC
10.0 ML
0.667 LW
N
471.259 374 M
471.259 373.992 L
491.682 373.992 L
491.682 374 L
cp
S
GR
GS
[0.75 0 0 0.75 0 0] CT
1 GC
N
377 62 M
377 44 L
494 44 L
494 62 L
cp
f
GR
GS
[0.75 0 0 0.75 310.5 39.75] CT
/Helvetica 10.667 F
GS
[1 0 0 1 0 0] CT
0 4 moveto 
1 -1 scale
(Stable modes) t 
GR
GR
GS
[0.75 0 0 0.75 0 0] CT
0 0 0.6 RC
N
381 58.35 M
381 47.65 L
411 47.65 L
411 58.35 L
cp
f
GR
GS
[0.75 0 0 0.75 0 0] CT
0 0 0.6 RC
10.0 ML
0.667 LW
N
381 58.35 M
381 47.65 L
411 47.65 L
411 58.35 L
cp
S
GR
GS
[0.75 0 0 0.75 0 0] CT
0.149 GC
10.0 ML
0.667 LW
N
377 62 M
377 44 L
494 44 L
494 62 L
cp
S
GR
%%Trailer
%%Pages: 1
%%EOF
