%!PS-Adobe-3.0 EPSF-3.0
%%Creator: (MATLAB, The Mathworks, Inc. Version 9.1.0.441655 \(R2016b\). Operating System: Linux)
%%Title: /users/start2016/r0461511/Documents/system-identification/Oefenzitting_3/plots/hankel_oe_10_10.eps
%%CreationDate: 2016-12-20T17:05:20
%%Pages: (atend)
%%BoundingBox: 0 0 1440 693
%%LanguageLevel: 3
%%EndComments
%%BeginProlog
%%BeginResource: procset (Apache XML Graphics Std ProcSet) 1.2 0
%%Version: 1.2 0
%%Copyright: (Copyright 2001-2003,2010 The Apache Software Foundation. License terms: http://www.apache.org/licenses/LICENSE-2.0)
/bd{bind def}bind def
/ld{load def}bd
/GR/grestore ld
/M/moveto ld
/LJ/setlinejoin ld
/C/curveto ld
/f/fill ld
/LW/setlinewidth ld
/GC/setgray ld
/t/show ld
/N/newpath ld
/CT/concat ld
/cp/closepath ld
/S/stroke ld
/L/lineto ld
/CC/setcmykcolor ld
/A/ashow ld
/GS/gsave ld
/RC/setrgbcolor ld
/RM/rmoveto ld
/ML/setmiterlimit ld
/re {4 2 roll M
1 index 0 rlineto
0 exch rlineto
neg 0 rlineto
cp } bd
/_ctm matrix def
/_tm matrix def
/BT { _ctm currentmatrix pop matrix _tm copy pop 0 0 moveto } bd
/ET { _ctm setmatrix } bd
/iTm { _ctm setmatrix _tm concat } bd
/Tm { _tm astore pop iTm 0 0 moveto } bd
/ux 0.0 def
/uy 0.0 def
/F {
  /Tp exch def
  /Tf exch def
  Tf findfont Tp scalefont setfont
  /cf Tf def  /cs Tp def
} bd
/ULS {currentpoint /uy exch def /ux exch def} bd
/ULE {
  /Tcx currentpoint pop def
  gsave
  newpath
  cf findfont cs scalefont dup
  /FontMatrix get 0 get /Ts exch def /FontInfo get dup
  /UnderlinePosition get Ts mul /To exch def
  /UnderlineThickness get Ts mul /Tt exch def
  ux uy To add moveto  Tcx uy To add lineto
  Tt setlinewidth stroke
  grestore
} bd
/OLE {
  /Tcx currentpoint pop def
  gsave
  newpath
  cf findfont cs scalefont dup
  /FontMatrix get 0 get /Ts exch def /FontInfo get dup
  /UnderlinePosition get Ts mul /To exch def
  /UnderlineThickness get Ts mul /Tt exch def
  ux uy To add cs add moveto Tcx uy To add cs add lineto
  Tt setlinewidth stroke
  grestore
} bd
/SOE {
  /Tcx currentpoint pop def
  gsave
  newpath
  cf findfont cs scalefont dup
  /FontMatrix get 0 get /Ts exch def /FontInfo get dup
  /UnderlinePosition get Ts mul /To exch def
  /UnderlineThickness get Ts mul /Tt exch def
  ux uy To add cs 10 mul 26 idiv add moveto Tcx uy To add cs 10 mul 26 idiv add lineto
  Tt setlinewidth stroke
  grestore
} bd
/QT {
/Y22 exch store
/X22 exch store
/Y21 exch store
/X21 exch store
currentpoint
/Y21 load 2 mul add 3 div exch
/X21 load 2 mul add 3 div exch
/X21 load 2 mul /X22 load add 3 div
/Y21 load 2 mul /Y22 load add 3 div
/X22 load /Y22 load curveto
} bd
/SSPD {
dup length /d exch dict def
{
/v exch def
/k exch def
currentpagedevice k known {
/cpdv currentpagedevice k get def
v cpdv ne {
/upd false def
/nullv v type /nulltype eq def
/nullcpdv cpdv type /nulltype eq def
nullv nullcpdv or
{
/upd true def
} {
/sametype v type cpdv type eq def
sametype {
v type /arraytype eq {
/vlen v length def
/cpdvlen cpdv length def
vlen cpdvlen eq {
0 1 vlen 1 sub {
/i exch def
/obj v i get def
/cpdobj cpdv i get def
obj cpdobj ne {
/upd true def
exit
} if
} for
} {
/upd true def
} ifelse
} {
v type /dicttype eq {
v {
/dv exch def
/dk exch def
/cpddv cpdv dk get def
dv cpddv ne {
/upd true def
exit
} if
} forall
} {
/upd true def
} ifelse
} ifelse
} if
} ifelse
upd true eq {
d k v put
} if
} if
} if
} forall
d length 0 gt {
d setpagedevice
} if
} bd
/RE { % /NewFontName [NewEncodingArray] /FontName RE -
  findfont dup length dict begin
  {
    1 index /FID ne
    {def} {pop pop} ifelse
  } forall
  /Encoding exch def
  /FontName 1 index def
  currentdict definefont pop
  end
} bind def
%%EndResource
%%BeginResource: procset (Apache XML Graphics EPS ProcSet) 1.0 0
%%Version: 1.0 0
%%Copyright: (Copyright 2002-2003 The Apache Software Foundation. License terms: http://www.apache.org/licenses/LICENSE-2.0)
/BeginEPSF { %def
/b4_Inc_state save def         % Save state for cleanup
/dict_count countdictstack def % Count objects on dict stack
/op_count count 1 sub def      % Count objects on operand stack
userdict begin                 % Push userdict on dict stack
/showpage { } def              % Redefine showpage, { } = null proc
0 setgray 0 setlinecap         % Prepare graphics state
1 setlinewidth 0 setlinejoin
10 setmiterlimit [ ] 0 setdash newpath
/languagelevel where           % If level not equal to 1 then
{pop languagelevel             % set strokeadjust and
1 ne                           % overprint to their defaults.
{false setstrokeadjust false setoverprint
} if
} if
} bd
/EndEPSF { %def
count op_count sub {pop} repeat            % Clean up stacks
countdictstack dict_count sub {end} repeat
b4_Inc_state restore
} bd
%%EndResource
%FOPBeginFontDict
%%IncludeResource: font Courier-Bold
%%IncludeResource: font Helvetica
%%IncludeResource: font Courier-BoldOblique
%%IncludeResource: font Courier-Oblique
%%IncludeResource: font Times-Roman
%%IncludeResource: font Helvetica-BoldOblique
%%IncludeResource: font Helvetica-Bold
%%IncludeResource: font Helvetica-Oblique
%%IncludeResource: font Times-BoldItalic
%%IncludeResource: font Courier
%%IncludeResource: font Times-Italic
%%IncludeResource: font Times-Bold
%%IncludeResource: font Symbol
%%IncludeResource: font ZapfDingbats
%FOPEndFontDict
%%BeginResource: encoding WinAnsiEncoding
/WinAnsiEncoding [
/.notdef /.notdef /.notdef /.notdef /.notdef
/.notdef /.notdef /.notdef /.notdef /.notdef
/.notdef /.notdef /.notdef /.notdef /.notdef
/.notdef /.notdef /.notdef /.notdef /.notdef
/.notdef /.notdef /.notdef /.notdef /.notdef
/.notdef /.notdef /.notdef /.notdef /.notdef
/.notdef /.notdef /space /exclam /quotedbl
/numbersign /dollar /percent /ampersand /quotesingle
/parenleft /parenright /asterisk /plus /comma
/hyphen /period /slash /zero /one
/two /three /four /five /six
/seven /eight /nine /colon /semicolon
/less /equal /greater /question /at
/A /B /C /D /E
/F /G /H /I /J
/K /L /M /N /O
/P /Q /R /S /T
/U /V /W /X /Y
/Z /bracketleft /backslash /bracketright /asciicircum
/underscore /quoteleft /a /b /c
/d /e /f /g /h
/i /j /k /l /m
/n /o /p /q /r
/s /t /u /v /w
/x /y /z /braceleft /bar
/braceright /asciitilde /bullet /Euro /bullet
/quotesinglbase /florin /quotedblbase /ellipsis /dagger
/daggerdbl /circumflex /perthousand /Scaron /guilsinglleft
/OE /bullet /Zcaron /bullet /bullet
/quoteleft /quoteright /quotedblleft /quotedblright /bullet
/endash /emdash /asciitilde /trademark /scaron
/guilsinglright /oe /bullet /zcaron /Ydieresis
/space /exclamdown /cent /sterling /currency
/yen /brokenbar /section /dieresis /copyright
/ordfeminine /guillemotleft /logicalnot /sfthyphen /registered
/macron /degree /plusminus /twosuperior /threesuperior
/acute /mu /paragraph /middot /cedilla
/onesuperior /ordmasculine /guillemotright /onequarter /onehalf
/threequarters /questiondown /Agrave /Aacute /Acircumflex
/Atilde /Adieresis /Aring /AE /Ccedilla
/Egrave /Eacute /Ecircumflex /Edieresis /Igrave
/Iacute /Icircumflex /Idieresis /Eth /Ntilde
/Ograve /Oacute /Ocircumflex /Otilde /Odieresis
/multiply /Oslash /Ugrave /Uacute /Ucircumflex
/Udieresis /Yacute /Thorn /germandbls /agrave
/aacute /acircumflex /atilde /adieresis /aring
/ae /ccedilla /egrave /eacute /ecircumflex
/edieresis /igrave /iacute /icircumflex /idieresis
/eth /ntilde /ograve /oacute /ocircumflex
/otilde /odieresis /divide /oslash /ugrave
/uacute /ucircumflex /udieresis /yacute /thorn
/ydieresis
] def
%%EndResource
%FOPBeginFontReencode
/Courier-Bold findfont
dup length dict begin
  {1 index /FID ne {def} {pop pop} ifelse} forall
  /Encoding WinAnsiEncoding def
  currentdict
end
/Courier-Bold exch definefont pop
/Helvetica findfont
dup length dict begin
  {1 index /FID ne {def} {pop pop} ifelse} forall
  /Encoding WinAnsiEncoding def
  currentdict
end
/Helvetica exch definefont pop
/Courier-BoldOblique findfont
dup length dict begin
  {1 index /FID ne {def} {pop pop} ifelse} forall
  /Encoding WinAnsiEncoding def
  currentdict
end
/Courier-BoldOblique exch definefont pop
/Courier-Oblique findfont
dup length dict begin
  {1 index /FID ne {def} {pop pop} ifelse} forall
  /Encoding WinAnsiEncoding def
  currentdict
end
/Courier-Oblique exch definefont pop
/Times-Roman findfont
dup length dict begin
  {1 index /FID ne {def} {pop pop} ifelse} forall
  /Encoding WinAnsiEncoding def
  currentdict
end
/Times-Roman exch definefont pop
/Helvetica-BoldOblique findfont
dup length dict begin
  {1 index /FID ne {def} {pop pop} ifelse} forall
  /Encoding WinAnsiEncoding def
  currentdict
end
/Helvetica-BoldOblique exch definefont pop
/Helvetica-Bold findfont
dup length dict begin
  {1 index /FID ne {def} {pop pop} ifelse} forall
  /Encoding WinAnsiEncoding def
  currentdict
end
/Helvetica-Bold exch definefont pop
/Helvetica-Oblique findfont
dup length dict begin
  {1 index /FID ne {def} {pop pop} ifelse} forall
  /Encoding WinAnsiEncoding def
  currentdict
end
/Helvetica-Oblique exch definefont pop
/Times-BoldItalic findfont
dup length dict begin
  {1 index /FID ne {def} {pop pop} ifelse} forall
  /Encoding WinAnsiEncoding def
  currentdict
end
/Times-BoldItalic exch definefont pop
/Courier findfont
dup length dict begin
  {1 index /FID ne {def} {pop pop} ifelse} forall
  /Encoding WinAnsiEncoding def
  currentdict
end
/Courier exch definefont pop
/Times-Italic findfont
dup length dict begin
  {1 index /FID ne {def} {pop pop} ifelse} forall
  /Encoding WinAnsiEncoding def
  currentdict
end
/Times-Italic exch definefont pop
/Times-Bold findfont
dup length dict begin
  {1 index /FID ne {def} {pop pop} ifelse} forall
  /Encoding WinAnsiEncoding def
  currentdict
end
/Times-Bold exch definefont pop
%FOPEndFontReencode
%%EndProlog
%%Page: 1 1
%%PageBoundingBox: 0 0 1440 693
%%BeginPageSetup
[1 0 0 -1 0 693] CT
%%EndPageSetup
GS
[0.75 0 0 0.75 0 0] CT
1 GC
N
0 0 1920 924 re
f
GR
GS
[0.75 0 0 0.75 0 0] CT
1 GC
N
0 0 1920 924 re
f
GR
GS
[0.75 0 0 0.75 0 0] CT
1 GC
N
250 822 M
1738 822 L
1738 69 L
250 69 L
cp
f
GR
GS
[0.75 0 0 0.75 0 0] CT
0.873 GC
1 LJ
0.667 LW
N
250 822 M
250 69 L
S
GR
GS
[0.75 0 0 0.75 0 0] CT
0.873 GC
1 LJ
0.667 LW
N
385.273 822 M
385.273 69 L
S
GR
GS
[0.75 0 0 0.75 0 0] CT
0.873 GC
1 LJ
0.667 LW
N
520.545 822 M
520.545 69 L
S
GR
GS
[0.75 0 0 0.75 0 0] CT
0.873 GC
1 LJ
0.667 LW
N
655.818 822 M
655.818 69 L
S
GR
GS
[0.75 0 0 0.75 0 0] CT
0.873 GC
1 LJ
0.667 LW
N
791.091 822 M
791.091 69 L
S
GR
GS
[0.75 0 0 0.75 0 0] CT
0.873 GC
1 LJ
0.667 LW
N
926.364 822 M
926.364 69 L
S
GR
GS
[0.75 0 0 0.75 0 0] CT
0.873 GC
1 LJ
0.667 LW
N
1061.636 822 M
1061.636 69 L
S
GR
GS
[0.75 0 0 0.75 0 0] CT
0.873 GC
1 LJ
0.667 LW
N
1196.909 822 M
1196.909 69 L
S
GR
GS
[0.75 0 0 0.75 0 0] CT
0.873 GC
1 LJ
0.667 LW
N
1332.182 822 M
1332.182 69 L
S
GR
GS
[0.75 0 0 0.75 0 0] CT
0.873 GC
1 LJ
0.667 LW
N
1467.455 822 M
1467.455 69 L
S
GR
GS
[0.75 0 0 0.75 0 0] CT
0.873 GC
1 LJ
0.667 LW
N
1602.727 822 M
1602.727 69 L
S
GR
GS
[0.75 0 0 0.75 0 0] CT
0.873 GC
1 LJ
0.667 LW
N
1738 822 M
1738 69 L
S
GR
GS
[0.75 0 0 0.75 0 0] CT
0.873 GC
1 LJ
0.667 LW
N
1738 822 M
250 822 L
S
GR
GS
[0.75 0 0 0.75 0 0] CT
0.873 GC
1 LJ
0.667 LW
N
1738 727.875 M
250 727.875 L
S
GR
GS
[0.75 0 0 0.75 0 0] CT
0.873 GC
1 LJ
0.667 LW
N
1738 633.75 M
250 633.75 L
S
GR
GS
[0.75 0 0 0.75 0 0] CT
0.873 GC
1 LJ
0.667 LW
N
1738 539.625 M
250 539.625 L
S
GR
GS
[0.75 0 0 0.75 0 0] CT
0.873 GC
1 LJ
0.667 LW
N
1738 445.5 M
250 445.5 L
S
GR
GS
[0.75 0 0 0.75 0 0] CT
0.873 GC
1 LJ
0.667 LW
N
1738 351.375 M
250 351.375 L
S
GR
GS
[0.75 0 0 0.75 0 0] CT
0.873 GC
1 LJ
0.667 LW
N
1738 257.25 M
250 257.25 L
S
GR
GS
[0.75 0 0 0.75 0 0] CT
0.873 GC
1 LJ
0.667 LW
N
1738 163.125 M
250 163.125 L
S
GR
GS
[0.75 0 0 0.75 0 0] CT
0.873 GC
1 LJ
0.667 LW
N
1738 69 M
250 69 L
S
GR
GS
[0.75 0 0 0.75 0 0] CT
2 setlinecap
1 LJ
0.667 LW
N
250 822 M
1738 822 L
S
GR
GS
[0.75 0 0 0.75 0 0] CT
2 setlinecap
1 LJ
0.667 LW
N
250 69 M
1738 69 L
S
GR
GS
[0.75 0 0 0.75 0 0] CT
2 setlinecap
1 LJ
0.667 LW
N
250 822 M
250 807.12 L
S
GR
GS
[0.75 0 0 0.75 0 0] CT
2 setlinecap
1 LJ
0.667 LW
N
385.273 822 M
385.273 807.12 L
S
GR
GS
[0.75 0 0 0.75 0 0] CT
2 setlinecap
1 LJ
0.667 LW
N
520.545 822 M
520.545 807.12 L
S
GR
GS
[0.75 0 0 0.75 0 0] CT
2 setlinecap
1 LJ
0.667 LW
N
655.818 822 M
655.818 807.12 L
S
GR
GS
[0.75 0 0 0.75 0 0] CT
2 setlinecap
1 LJ
0.667 LW
N
791.091 822 M
791.091 807.12 L
S
GR
GS
[0.75 0 0 0.75 0 0] CT
2 setlinecap
1 LJ
0.667 LW
N
926.364 822 M
926.364 807.12 L
S
GR
GS
[0.75 0 0 0.75 0 0] CT
2 setlinecap
1 LJ
0.667 LW
N
1061.636 822 M
1061.636 807.12 L
S
GR
GS
[0.75 0 0 0.75 0 0] CT
2 setlinecap
1 LJ
0.667 LW
N
1196.909 822 M
1196.909 807.12 L
S
GR
GS
[0.75 0 0 0.75 0 0] CT
2 setlinecap
1 LJ
0.667 LW
N
1332.182 822 M
1332.182 807.12 L
S
GR
GS
[0.75 0 0 0.75 0 0] CT
2 setlinecap
1 LJ
0.667 LW
N
1467.455 822 M
1467.455 807.12 L
S
GR
GS
[0.75 0 0 0.75 0 0] CT
2 setlinecap
1 LJ
0.667 LW
N
1602.727 822 M
1602.727 807.12 L
S
GR
GS
[0.75 0 0 0.75 0 0] CT
2 setlinecap
1 LJ
0.667 LW
N
1738 822 M
1738 807.12 L
S
GR
GS
[0.75 0 0 0.75 0 0] CT
2 setlinecap
1 LJ
0.667 LW
N
250 69 M
250 83.88 L
S
GR
GS
[0.75 0 0 0.75 0 0] CT
2 setlinecap
1 LJ
0.667 LW
N
385.273 69 M
385.273 83.88 L
S
GR
GS
[0.75 0 0 0.75 0 0] CT
2 setlinecap
1 LJ
0.667 LW
N
520.545 69 M
520.545 83.88 L
S
GR
GS
[0.75 0 0 0.75 0 0] CT
2 setlinecap
1 LJ
0.667 LW
N
655.818 69 M
655.818 83.88 L
S
GR
GS
[0.75 0 0 0.75 0 0] CT
2 setlinecap
1 LJ
0.667 LW
N
791.091 69 M
791.091 83.88 L
S
GR
GS
[0.75 0 0 0.75 0 0] CT
2 setlinecap
1 LJ
0.667 LW
N
926.364 69 M
926.364 83.88 L
S
GR
GS
[0.75 0 0 0.75 0 0] CT
2 setlinecap
1 LJ
0.667 LW
N
1061.636 69 M
1061.636 83.88 L
S
GR
GS
[0.75 0 0 0.75 0 0] CT
2 setlinecap
1 LJ
0.667 LW
N
1196.909 69 M
1196.909 83.88 L
S
GR
GS
[0.75 0 0 0.75 0 0] CT
2 setlinecap
1 LJ
0.667 LW
N
1332.182 69 M
1332.182 83.88 L
S
GR
GS
[0.75 0 0 0.75 0 0] CT
2 setlinecap
1 LJ
0.667 LW
N
1467.455 69 M
1467.455 83.88 L
S
GR
GS
[0.75 0 0 0.75 0 0] CT
2 setlinecap
1 LJ
0.667 LW
N
1602.727 69 M
1602.727 83.88 L
S
GR
GS
[0.75 0 0 0.75 0 0] CT
2 setlinecap
1 LJ
0.667 LW
N
1738 69 M
1738 83.88 L
S
GR
GS
[0.75 0 0 0.75 187.5 620.09999] CT
/Helvetica 10.667 F
GS
[1 0 0 1 0 0] CT
-3.5 11 moveto 
1 -1 scale
(0) t 
GR
GR
GS
[0.75 0 0 0.75 288.95455 620.09999] CT
/Helvetica 10.667 F
GS
[1 0 0 1 0 0] CT
-3.5 11 moveto 
1 -1 scale
(1) t 
GR
GR
GS
[0.75 0 0 0.75 390.4091 620.09999] CT
/Helvetica 10.667 F
GS
[1 0 0 1 0 0] CT
-3.5 11 moveto 
1 -1 scale
(2) t 
GR
GR
GS
[0.75 0 0 0.75 491.86363 620.09999] CT
/Helvetica 10.667 F
GS
[1 0 0 1 0 0] CT
-3.5 11 moveto 
1 -1 scale
(3) t 
GR
GR
GS
[0.75 0 0 0.75 593.31816 620.09999] CT
/Helvetica 10.667 F
GS
[1 0 0 1 0 0] CT
-3.5 11 moveto 
1 -1 scale
(4) t 
GR
GR
GS
[0.75 0 0 0.75 694.77274 620.09999] CT
/Helvetica 10.667 F
GS
[1 0 0 1 0 0] CT
-3.5 11 moveto 
1 -1 scale
(5) t 
GR
GR
GS
[0.75 0 0 0.75 796.22726 620.09999] CT
/Helvetica 10.667 F
GS
[1 0 0 1 0 0] CT
-3.5 11 moveto 
1 -1 scale
(6) t 
GR
GR
GS
[0.75 0 0 0.75 897.68179 620.09999] CT
/Helvetica 10.667 F
GS
[1 0 0 1 0 0] CT
-3.5 11 moveto 
1 -1 scale
(7) t 
GR
GR
GS
[0.75 0 0 0.75 999.13632 620.09999] CT
/Helvetica 10.667 F
GS
[1 0 0 1 0 0] CT
-3.5 11 moveto 
1 -1 scale
(8) t 
GR
GR
GS
[0.75 0 0 0.75 1100.59094 620.09999] CT
/Helvetica 10.667 F
GS
[1 0 0 1 0 0] CT
-3.5 11 moveto 
1 -1 scale
(9) t 
GR
GR
GS
[0.75 0 0 0.75 1202.04547 620.09999] CT
/Helvetica 10.667 F
GS
[1 0 0 1 0 0] CT
-7 11 moveto 
1 -1 scale
(10) t 
GR
GR
GS
[0.75 0 0 0.75 1303.5 620.09999] CT
/Helvetica 10.667 F
GS
[1 0 0 1 0 0] CT
-7 11 moveto 
1 -1 scale
(11) t 
GR
GR
GS
[0.75 0 0 0.75 745.50055 631.60002] CT
/Helvetica 10.667 F
GS
[1 0 0 1 0 0] CT
-15 11 moveto 
1 -1 scale
(State) t 
GR
GR
GS
[0.75 0 0 0.75 0 0] CT
2 setlinecap
1 LJ
0.667 LW
N
250 822 M
250 69 L
S
GR
GS
[0.75 0 0 0.75 0 0] CT
2 setlinecap
1 LJ
0.667 LW
N
1738 822 M
1738 69 L
S
GR
GS
[0.75 0 0 0.75 0 0] CT
2 setlinecap
1 LJ
0.667 LW
N
250 822 M
264.88 822 L
S
GR
GS
[0.75 0 0 0.75 0 0] CT
2 setlinecap
1 LJ
0.667 LW
N
250 727.875 M
264.88 727.875 L
S
GR
GS
[0.75 0 0 0.75 0 0] CT
2 setlinecap
1 LJ
0.667 LW
N
250 633.75 M
264.88 633.75 L
S
GR
GS
[0.75 0 0 0.75 0 0] CT
2 setlinecap
1 LJ
0.667 LW
N
250 539.625 M
264.88 539.625 L
S
GR
GS
[0.75 0 0 0.75 0 0] CT
2 setlinecap
1 LJ
0.667 LW
N
250 445.5 M
264.88 445.5 L
S
GR
GS
[0.75 0 0 0.75 0 0] CT
2 setlinecap
1 LJ
0.667 LW
N
250 351.375 M
264.88 351.375 L
S
GR
GS
[0.75 0 0 0.75 0 0] CT
2 setlinecap
1 LJ
0.667 LW
N
250 257.25 M
264.88 257.25 L
S
GR
GS
[0.75 0 0 0.75 0 0] CT
2 setlinecap
1 LJ
0.667 LW
N
250 163.125 M
264.88 163.125 L
S
GR
GS
[0.75 0 0 0.75 0 0] CT
2 setlinecap
1 LJ
0.667 LW
N
250 69 M
264.88 69 L
S
GR
GS
[0.75 0 0 0.75 0 0] CT
2 setlinecap
1 LJ
0.667 LW
N
1738 822 M
1723.12 822 L
S
GR
GS
[0.75 0 0 0.75 0 0] CT
2 setlinecap
1 LJ
0.667 LW
N
1738 727.875 M
1723.12 727.875 L
S
GR
GS
[0.75 0 0 0.75 0 0] CT
2 setlinecap
1 LJ
0.667 LW
N
1738 633.75 M
1723.12 633.75 L
S
GR
GS
[0.75 0 0 0.75 0 0] CT
2 setlinecap
1 LJ
0.667 LW
N
1738 539.625 M
1723.12 539.625 L
S
GR
GS
[0.75 0 0 0.75 0 0] CT
2 setlinecap
1 LJ
0.667 LW
N
1738 445.5 M
1723.12 445.5 L
S
GR
GS
[0.75 0 0 0.75 0 0] CT
2 setlinecap
1 LJ
0.667 LW
N
1738 351.375 M
1723.12 351.375 L
S
GR
GS
[0.75 0 0 0.75 0 0] CT
2 setlinecap
1 LJ
0.667 LW
N
1738 257.25 M
1723.12 257.25 L
S
GR
GS
[0.75 0 0 0.75 0 0] CT
2 setlinecap
1 LJ
0.667 LW
N
1738 163.125 M
1723.12 163.125 L
S
GR
GS
[0.75 0 0 0.75 0 0] CT
2 setlinecap
1 LJ
0.667 LW
N
1738 69 M
1723.12 69 L
S
GR
GS
[0.75 0 0 0.75 183.9 616.5] CT
/Helvetica 10.667 F
GS
[1 0 0 1 0 0] CT
-7 4 moveto 
1 -1 scale
(0) t 
GR
GR
GS
[0.75 0 0 0.75 183.9 545.90625] CT
/Helvetica 10.667 F
GS
[1 0 0 1 0 0] CT
-18 4 moveto 
1 -1 scale
(0.2) t 
GR
GR
GS
[0.75 0 0 0.75 183.9 475.3125] CT
/Helvetica 10.667 F
GS
[1 0 0 1 0 0] CT
-18 4 moveto 
1 -1 scale
(0.4) t 
GR
GR
GS
[0.75 0 0 0.75 183.9 404.71875] CT
/Helvetica 10.667 F
GS
[1 0 0 1 0 0] CT
-18 4 moveto 
1 -1 scale
(0.6) t 
GR
GR
GS
[0.75 0 0 0.75 183.9 334.125] CT
/Helvetica 10.667 F
GS
[1 0 0 1 0 0] CT
-18 4 moveto 
1 -1 scale
(0.8) t 
GR
GR
GS
[0.75 0 0 0.75 183.9 263.53125] CT
/Helvetica 10.667 F
GS
[1 0 0 1 0 0] CT
-7 4 moveto 
1 -1 scale
(1) t 
GR
GR
GS
[0.75 0 0 0.75 183.9 192.93748] CT
/Helvetica 10.667 F
GS
[1 0 0 1 0 0] CT
-18 4 moveto 
1 -1 scale
(1.2) t 
GR
GR
GS
[0.75 0 0 0.75 183.9 122.34376] CT
/Helvetica 10.667 F
GS
[1 0 0 1 0 0] CT
-18 4 moveto 
1 -1 scale
(1.4) t 
GR
GR
GS
[0.75 0 0 0.75 183.9 51.74999] CT
/Helvetica 10.667 F
GS
[1 0 0 1 0 0] CT
-18 4 moveto 
1 -1 scale
(1.6) t 
GR
GR
GS
[0 -0.75 0.75 0 167.4 334.12473] CT
/Helvetica 10.667 F
GS
[1 0 0 1 0 0] CT
-36 -3 moveto 
1 -1 scale
(State Energy) t 
GR
GR
GS
[0.75 0 0 0.75 745.50073 50.24998] CT
/Helvetica 10.667 F
GS
[1 0 0 1 0 0] CT
-123 -3 moveto 
1 -1 scale
(Hankel Singular Values \(State Contributions\)) t 
GR
GR
GS
[0.75 0 0 0.75 0 0] CT
1 LJ
0.667 LW
N
250 822 M
1738 822 L
S
GR
GS
[0.75 0 0 0.75 0 0] CT
0 0 0.6 RC
N
331.164 822 M
439.382 822 L
439.382 99.328 L
331.164 99.328 L
cp
f
GR
GS
[0.75 0 0 0.75 0 0] CT
0 0 0.6 RC
N
466.436 822 M
574.655 822 L
574.655 185.066 L
466.436 185.066 L
cp
f
GR
GS
[0.75 0 0 0.75 0 0] CT
0 0 0.6 RC
N
601.709 822 M
709.927 822 L
709.927 432.078 L
601.709 432.078 L
cp
f
GR
GS
[0.75 0 0 0.75 0 0] CT
0 0 0.6 RC
N
736.982 822 M
845.2 822 L
845.2 487.251 L
736.982 487.251 L
cp
f
GR
GS
[0.75 0 0 0.75 0 0] CT
0 0 0.6 RC
N
872.255 822 M
980.473 822 L
980.473 708.266 L
872.255 708.266 L
cp
f
GR
GS
[0.75 0 0 0.75 0 0] CT
0 0 0.6 RC
N
1007.527 822 M
1115.745 822 L
1115.745 734.965 L
1007.527 734.965 L
cp
f
GR
GS
[0.75 0 0 0.75 0 0] CT
0 0 0.6 RC
N
1142.8 822 M
1251.018 822 L
1251.018 768.62 L
1142.8 768.62 L
cp
f
GR
GS
[0.75 0 0 0.75 0 0] CT
0 0 0.6 RC
N
1278.073 822 M
1386.291 822 L
1386.291 769.044 L
1278.073 769.044 L
cp
f
GR
GS
[0.75 0 0 0.75 0 0] CT
0 0 0.6 RC
N
1413.345 822 M
1521.564 822 L
1521.564 787.001 L
1413.345 787.001 L
cp
f
GR
GS
[0.75 0 0 0.75 0 0] CT
0 0 0.6 RC
N
1548.618 822 M
1656.836 822 L
1656.836 811.821 L
1548.618 811.821 L
cp
f
GR
GS
[0.75 0 0 0.75 0 0] CT
0 0 0.6 RC
10.0 ML
0.667 LW
N
331.164 822 M
331.164 99.328 L
439.382 99.328 L
439.382 822 L
cp
S
GR
GS
[0.75 0 0 0.75 0 0] CT
0 0 0.6 RC
10.0 ML
0.667 LW
N
466.436 822 M
466.436 185.066 L
574.655 185.066 L
574.655 822 L
cp
S
GR
GS
[0.75 0 0 0.75 0 0] CT
0 0 0.6 RC
10.0 ML
0.667 LW
N
601.709 822 M
601.709 432.078 L
709.927 432.078 L
709.927 822 L
cp
S
GR
GS
[0.75 0 0 0.75 0 0] CT
0 0 0.6 RC
10.0 ML
0.667 LW
N
736.982 822 M
736.982 487.251 L
845.2 487.251 L
845.2 822 L
cp
S
GR
GS
[0.75 0 0 0.75 0 0] CT
0 0 0.6 RC
10.0 ML
0.667 LW
N
872.255 822 M
872.255 708.266 L
980.473 708.266 L
980.473 822 L
cp
S
GR
GS
[0.75 0 0 0.75 0 0] CT
0 0 0.6 RC
10.0 ML
0.667 LW
N
1007.527 822 M
1007.527 734.965 L
1115.745 734.965 L
1115.745 822 L
cp
S
GR
GS
[0.75 0 0 0.75 0 0] CT
0 0 0.6 RC
10.0 ML
0.667 LW
N
1142.8 822 M
1142.8 768.62 L
1251.018 768.62 L
1251.018 822 L
cp
S
GR
GS
[0.75 0 0 0.75 0 0] CT
0 0 0.6 RC
10.0 ML
0.667 LW
N
1278.073 822 M
1278.073 769.044 L
1386.291 769.044 L
1386.291 822 L
cp
S
GR
GS
[0.75 0 0 0.75 0 0] CT
0 0 0.6 RC
10.0 ML
0.667 LW
N
1413.345 822 M
1413.345 787.001 L
1521.564 787.001 L
1521.564 822 L
cp
S
GR
GS
[0.75 0 0 0.75 0 0] CT
0 0 0.6 RC
10.0 ML
0.667 LW
N
1548.618 822 M
1548.618 811.821 L
1656.836 811.821 L
1656.836 822 L
cp
S
GR
GS
[0.75 0 0 0.75 0 0] CT
1 GC
N
1608 100 M
1608 82 L
1725 82 L
1725 100 L
cp
f
GR
GS
[0.75 0 0 0.75 1233.75 68.25] CT
/Helvetica 10.667 F
GS
[1 0 0 1 0 0] CT
0 4 moveto 
1 -1 scale
(Stable modes) t 
GR
GR
GS
[0.75 0 0 0.75 0 0] CT
0 0 0.6 RC
N
1612 96.35 M
1612 85.65 L
1642 85.65 L
1642 96.35 L
cp
f
GR
GS
[0.75 0 0 0.75 0 0] CT
0 0 0.6 RC
10.0 ML
0.667 LW
N
1612 96.35 M
1612 85.65 L
1642 85.65 L
1642 96.35 L
cp
S
GR
GS
[0.75 0 0 0.75 0 0] CT
0.149 GC
10.0 ML
0.667 LW
N
1608 100 M
1608 82 L
1725 82 L
1725 100 L
cp
S
GR
%%Trailer
%%Pages: 1
%%EOF
