%!PS-Adobe-3.0 EPSF-3.0
%%Creator: (MATLAB, The Mathworks, Inc. Version 9.1.0.441655 \(R2016b\). Operating System: Windows 8)
%%Title: C:/Users/simon/Documents/Unief/M1/System_Identification_and_Modeling/Oefenzittingen/Oefenzitting_1/git/Oefenzitting_3/plots/hankel_arx_9_16.eps
%%CreationDate: 2016-12-21T18:08:18
%%Pages: (atend)
%%BoundingBox: 0 0 1152 562
%%LanguageLevel: 3
%%EndComments
%%BeginProlog
%%BeginResource: procset (Apache XML Graphics Std ProcSet) 1.2 0
%%Version: 1.2 0
%%Copyright: (Copyright 2001-2003,2010 The Apache Software Foundation. License terms: http://www.apache.org/licenses/LICENSE-2.0)
/bd{bind def}bind def
/ld{load def}bd
/GR/grestore ld
/M/moveto ld
/LJ/setlinejoin ld
/C/curveto ld
/f/fill ld
/LW/setlinewidth ld
/GC/setgray ld
/t/show ld
/N/newpath ld
/CT/concat ld
/cp/closepath ld
/S/stroke ld
/L/lineto ld
/CC/setcmykcolor ld
/A/ashow ld
/GS/gsave ld
/RC/setrgbcolor ld
/RM/rmoveto ld
/ML/setmiterlimit ld
/re {4 2 roll M
1 index 0 rlineto
0 exch rlineto
neg 0 rlineto
cp } bd
/_ctm matrix def
/_tm matrix def
/BT { _ctm currentmatrix pop matrix _tm copy pop 0 0 moveto } bd
/ET { _ctm setmatrix } bd
/iTm { _ctm setmatrix _tm concat } bd
/Tm { _tm astore pop iTm 0 0 moveto } bd
/ux 0.0 def
/uy 0.0 def
/F {
  /Tp exch def
  /Tf exch def
  Tf findfont Tp scalefont setfont
  /cf Tf def  /cs Tp def
} bd
/ULS {currentpoint /uy exch def /ux exch def} bd
/ULE {
  /Tcx currentpoint pop def
  gsave
  newpath
  cf findfont cs scalefont dup
  /FontMatrix get 0 get /Ts exch def /FontInfo get dup
  /UnderlinePosition get Ts mul /To exch def
  /UnderlineThickness get Ts mul /Tt exch def
  ux uy To add moveto  Tcx uy To add lineto
  Tt setlinewidth stroke
  grestore
} bd
/OLE {
  /Tcx currentpoint pop def
  gsave
  newpath
  cf findfont cs scalefont dup
  /FontMatrix get 0 get /Ts exch def /FontInfo get dup
  /UnderlinePosition get Ts mul /To exch def
  /UnderlineThickness get Ts mul /Tt exch def
  ux uy To add cs add moveto Tcx uy To add cs add lineto
  Tt setlinewidth stroke
  grestore
} bd
/SOE {
  /Tcx currentpoint pop def
  gsave
  newpath
  cf findfont cs scalefont dup
  /FontMatrix get 0 get /Ts exch def /FontInfo get dup
  /UnderlinePosition get Ts mul /To exch def
  /UnderlineThickness get Ts mul /Tt exch def
  ux uy To add cs 10 mul 26 idiv add moveto Tcx uy To add cs 10 mul 26 idiv add lineto
  Tt setlinewidth stroke
  grestore
} bd
/QT {
/Y22 exch store
/X22 exch store
/Y21 exch store
/X21 exch store
currentpoint
/Y21 load 2 mul add 3 div exch
/X21 load 2 mul add 3 div exch
/X21 load 2 mul /X22 load add 3 div
/Y21 load 2 mul /Y22 load add 3 div
/X22 load /Y22 load curveto
} bd
/SSPD {
dup length /d exch dict def
{
/v exch def
/k exch def
currentpagedevice k known {
/cpdv currentpagedevice k get def
v cpdv ne {
/upd false def
/nullv v type /nulltype eq def
/nullcpdv cpdv type /nulltype eq def
nullv nullcpdv or
{
/upd true def
} {
/sametype v type cpdv type eq def
sametype {
v type /arraytype eq {
/vlen v length def
/cpdvlen cpdv length def
vlen cpdvlen eq {
0 1 vlen 1 sub {
/i exch def
/obj v i get def
/cpdobj cpdv i get def
obj cpdobj ne {
/upd true def
exit
} if
} for
} {
/upd true def
} ifelse
} {
v type /dicttype eq {
v {
/dv exch def
/dk exch def
/cpddv cpdv dk get def
dv cpddv ne {
/upd true def
exit
} if
} forall
} {
/upd true def
} ifelse
} ifelse
} if
} ifelse
upd true eq {
d k v put
} if
} if
} if
} forall
d length 0 gt {
d setpagedevice
} if
} bd
/RE { % /NewFontName [NewEncodingArray] /FontName RE -
  findfont dup length dict begin
  {
    1 index /FID ne
    {def} {pop pop} ifelse
  } forall
  /Encoding exch def
  /FontName 1 index def
  currentdict definefont pop
  end
} bind def
%%EndResource
%%BeginResource: procset (Apache XML Graphics EPS ProcSet) 1.0 0
%%Version: 1.0 0
%%Copyright: (Copyright 2002-2003 The Apache Software Foundation. License terms: http://www.apache.org/licenses/LICENSE-2.0)
/BeginEPSF { %def
/b4_Inc_state save def         % Save state for cleanup
/dict_count countdictstack def % Count objects on dict stack
/op_count count 1 sub def      % Count objects on operand stack
userdict begin                 % Push userdict on dict stack
/showpage { } def              % Redefine showpage, { } = null proc
0 setgray 0 setlinecap         % Prepare graphics state
1 setlinewidth 0 setlinejoin
10 setmiterlimit [ ] 0 setdash newpath
/languagelevel where           % If level not equal to 1 then
{pop languagelevel             % set strokeadjust and
1 ne                           % overprint to their defaults.
{false setstrokeadjust false setoverprint
} if
} if
} bd
/EndEPSF { %def
count op_count sub {pop} repeat            % Clean up stacks
countdictstack dict_count sub {end} repeat
b4_Inc_state restore
} bd
%%EndResource
%FOPBeginFontDict
%%IncludeResource: font Courier-Bold
%%IncludeResource: font Helvetica
%%IncludeResource: font Courier-BoldOblique
%%IncludeResource: font Courier-Oblique
%%IncludeResource: font Times-Roman
%%IncludeResource: font Helvetica-BoldOblique
%%IncludeResource: font Helvetica-Bold
%%IncludeResource: font Helvetica-Oblique
%%IncludeResource: font Times-BoldItalic
%%IncludeResource: font Courier
%%IncludeResource: font Times-Italic
%%IncludeResource: font Times-Bold
%%IncludeResource: font Symbol
%%IncludeResource: font ZapfDingbats
%FOPEndFontDict
%%BeginResource: encoding WinAnsiEncoding
/WinAnsiEncoding [
/.notdef /.notdef /.notdef /.notdef /.notdef
/.notdef /.notdef /.notdef /.notdef /.notdef
/.notdef /.notdef /.notdef /.notdef /.notdef
/.notdef /.notdef /.notdef /.notdef /.notdef
/.notdef /.notdef /.notdef /.notdef /.notdef
/.notdef /.notdef /.notdef /.notdef /.notdef
/.notdef /.notdef /space /exclam /quotedbl
/numbersign /dollar /percent /ampersand /quotesingle
/parenleft /parenright /asterisk /plus /comma
/hyphen /period /slash /zero /one
/two /three /four /five /six
/seven /eight /nine /colon /semicolon
/less /equal /greater /question /at
/A /B /C /D /E
/F /G /H /I /J
/K /L /M /N /O
/P /Q /R /S /T
/U /V /W /X /Y
/Z /bracketleft /backslash /bracketright /asciicircum
/underscore /quoteleft /a /b /c
/d /e /f /g /h
/i /j /k /l /m
/n /o /p /q /r
/s /t /u /v /w
/x /y /z /braceleft /bar
/braceright /asciitilde /bullet /Euro /bullet
/quotesinglbase /florin /quotedblbase /ellipsis /dagger
/daggerdbl /circumflex /perthousand /Scaron /guilsinglleft
/OE /bullet /Zcaron /bullet /bullet
/quoteleft /quoteright /quotedblleft /quotedblright /bullet
/endash /emdash /asciitilde /trademark /scaron
/guilsinglright /oe /bullet /zcaron /Ydieresis
/space /exclamdown /cent /sterling /currency
/yen /brokenbar /section /dieresis /copyright
/ordfeminine /guillemotleft /logicalnot /sfthyphen /registered
/macron /degree /plusminus /twosuperior /threesuperior
/acute /mu /paragraph /middot /cedilla
/onesuperior /ordmasculine /guillemotright /onequarter /onehalf
/threequarters /questiondown /Agrave /Aacute /Acircumflex
/Atilde /Adieresis /Aring /AE /Ccedilla
/Egrave /Eacute /Ecircumflex /Edieresis /Igrave
/Iacute /Icircumflex /Idieresis /Eth /Ntilde
/Ograve /Oacute /Ocircumflex /Otilde /Odieresis
/multiply /Oslash /Ugrave /Uacute /Ucircumflex
/Udieresis /Yacute /Thorn /germandbls /agrave
/aacute /acircumflex /atilde /adieresis /aring
/ae /ccedilla /egrave /eacute /ecircumflex
/edieresis /igrave /iacute /icircumflex /idieresis
/eth /ntilde /ograve /oacute /ocircumflex
/otilde /odieresis /divide /oslash /ugrave
/uacute /ucircumflex /udieresis /yacute /thorn
/ydieresis
] def
%%EndResource
%FOPBeginFontReencode
/Courier-Bold findfont
dup length dict begin
  {1 index /FID ne {def} {pop pop} ifelse} forall
  /Encoding WinAnsiEncoding def
  currentdict
end
/Courier-Bold exch definefont pop
/Helvetica findfont
dup length dict begin
  {1 index /FID ne {def} {pop pop} ifelse} forall
  /Encoding WinAnsiEncoding def
  currentdict
end
/Helvetica exch definefont pop
/Courier-BoldOblique findfont
dup length dict begin
  {1 index /FID ne {def} {pop pop} ifelse} forall
  /Encoding WinAnsiEncoding def
  currentdict
end
/Courier-BoldOblique exch definefont pop
/Courier-Oblique findfont
dup length dict begin
  {1 index /FID ne {def} {pop pop} ifelse} forall
  /Encoding WinAnsiEncoding def
  currentdict
end
/Courier-Oblique exch definefont pop
/Times-Roman findfont
dup length dict begin
  {1 index /FID ne {def} {pop pop} ifelse} forall
  /Encoding WinAnsiEncoding def
  currentdict
end
/Times-Roman exch definefont pop
/Helvetica-BoldOblique findfont
dup length dict begin
  {1 index /FID ne {def} {pop pop} ifelse} forall
  /Encoding WinAnsiEncoding def
  currentdict
end
/Helvetica-BoldOblique exch definefont pop
/Helvetica-Bold findfont
dup length dict begin
  {1 index /FID ne {def} {pop pop} ifelse} forall
  /Encoding WinAnsiEncoding def
  currentdict
end
/Helvetica-Bold exch definefont pop
/Helvetica-Oblique findfont
dup length dict begin
  {1 index /FID ne {def} {pop pop} ifelse} forall
  /Encoding WinAnsiEncoding def
  currentdict
end
/Helvetica-Oblique exch definefont pop
/Times-BoldItalic findfont
dup length dict begin
  {1 index /FID ne {def} {pop pop} ifelse} forall
  /Encoding WinAnsiEncoding def
  currentdict
end
/Times-BoldItalic exch definefont pop
/Courier findfont
dup length dict begin
  {1 index /FID ne {def} {pop pop} ifelse} forall
  /Encoding WinAnsiEncoding def
  currentdict
end
/Courier exch definefont pop
/Times-Italic findfont
dup length dict begin
  {1 index /FID ne {def} {pop pop} ifelse} forall
  /Encoding WinAnsiEncoding def
  currentdict
end
/Times-Italic exch definefont pop
/Times-Bold findfont
dup length dict begin
  {1 index /FID ne {def} {pop pop} ifelse} forall
  /Encoding WinAnsiEncoding def
  currentdict
end
/Times-Bold exch definefont pop
%FOPEndFontReencode
%%EndProlog
%%Page: 1 1
%%PageBoundingBox: 0 0 1152 562
%%BeginPageSetup
[1 0 0 -1 0 562] CT
%%EndPageSetup
GS
[0.6 0 0 0.6 0 0.39996] CT
1 GC
N
0 0 1920 936 re
f
GR
GS
[0.6 0 0 0.6 0 0.39996] CT
1 GC
N
0 0 1920 936 re
f
GR
GS
[0.6 0 0 0.6 0 0.39996] CT
1 GC
N
250 833 M
1738 833 L
1738 70 L
250 70 L
cp
f
GR
GS
[0.6 0 0 0.6 0 0.39996] CT
0.873 GC
1 LJ
0.833 LW
N
250 833 M
250 70 L
S
GR
GS
[0.6 0 0 0.6 0 0.39996] CT
0.873 GC
1 LJ
0.833 LW
N
425.059 833 M
425.059 70 L
S
GR
GS
[0.6 0 0 0.6 0 0.39996] CT
0.873 GC
1 LJ
0.833 LW
N
600.118 833 M
600.118 70 L
S
GR
GS
[0.6 0 0 0.6 0 0.39996] CT
0.873 GC
1 LJ
0.833 LW
N
775.176 833 M
775.176 70 L
S
GR
GS
[0.6 0 0 0.6 0 0.39996] CT
0.873 GC
1 LJ
0.833 LW
N
950.235 833 M
950.235 70 L
S
GR
GS
[0.6 0 0 0.6 0 0.39996] CT
0.873 GC
1 LJ
0.833 LW
N
1125.294 833 M
1125.294 70 L
S
GR
GS
[0.6 0 0 0.6 0 0.39996] CT
0.873 GC
1 LJ
0.833 LW
N
1300.353 833 M
1300.353 70 L
S
GR
GS
[0.6 0 0 0.6 0 0.39996] CT
0.873 GC
1 LJ
0.833 LW
N
1475.412 833 M
1475.412 70 L
S
GR
GS
[0.6 0 0 0.6 0 0.39996] CT
0.873 GC
1 LJ
0.833 LW
N
1650.471 833 M
1650.471 70 L
S
GR
GS
[0.6 0 0 0.6 0 0.39996] CT
0.873 GC
1 LJ
0.833 LW
N
1738 833 M
250 833 L
S
GR
GS
[0.6 0 0 0.6 0 0.39996] CT
0.873 GC
1 LJ
0.833 LW
N
1738 578.667 M
250 578.667 L
S
GR
GS
[0.6 0 0 0.6 0 0.39996] CT
0.873 GC
1 LJ
0.833 LW
N
1738 324.333 M
250 324.333 L
S
GR
GS
[0.6 0 0 0.6 0 0.39996] CT
0.873 GC
1 LJ
0.833 LW
N
1738 70 M
250 70 L
S
GR
GS
[0.6 0 0 0.6 0 0.39996] CT
2 setlinecap
1 LJ
0.833 LW
N
250 833 M
1738 833 L
S
GR
GS
[0.6 0 0 0.6 0 0.39996] CT
2 setlinecap
1 LJ
0.833 LW
N
250 70 M
1738 70 L
S
GR
GS
[0.6 0 0 0.6 0 0.39996] CT
2 setlinecap
1 LJ
0.833 LW
N
250 833 M
250 818.12 L
S
GR
GS
[0.6 0 0 0.6 0 0.39996] CT
2 setlinecap
1 LJ
0.833 LW
N
425.059 833 M
425.059 818.12 L
S
GR
GS
[0.6 0 0 0.6 0 0.39996] CT
2 setlinecap
1 LJ
0.833 LW
N
600.118 833 M
600.118 818.12 L
S
GR
GS
[0.6 0 0 0.6 0 0.39996] CT
2 setlinecap
1 LJ
0.833 LW
N
775.176 833 M
775.176 818.12 L
S
GR
GS
[0.6 0 0 0.6 0 0.39996] CT
2 setlinecap
1 LJ
0.833 LW
N
950.235 833 M
950.235 818.12 L
S
GR
GS
[0.6 0 0 0.6 0 0.39996] CT
2 setlinecap
1 LJ
0.833 LW
N
1125.294 833 M
1125.294 818.12 L
S
GR
GS
[0.6 0 0 0.6 0 0.39996] CT
2 setlinecap
1 LJ
0.833 LW
N
1300.353 833 M
1300.353 818.12 L
S
GR
GS
[0.6 0 0 0.6 0 0.39996] CT
2 setlinecap
1 LJ
0.833 LW
N
1475.412 833 M
1475.412 818.12 L
S
GR
GS
[0.6 0 0 0.6 0 0.39996] CT
2 setlinecap
1 LJ
0.833 LW
N
1650.471 833 M
1650.471 818.12 L
S
GR
GS
[0.6 0 0 0.6 0 0.39996] CT
2 setlinecap
1 LJ
0.833 LW
N
250 70 M
250 84.88 L
S
GR
GS
[0.6 0 0 0.6 0 0.39996] CT
2 setlinecap
1 LJ
0.833 LW
N
425.059 70 M
425.059 84.88 L
S
GR
GS
[0.6 0 0 0.6 0 0.39996] CT
2 setlinecap
1 LJ
0.833 LW
N
600.118 70 M
600.118 84.88 L
S
GR
GS
[0.6 0 0 0.6 0 0.39996] CT
2 setlinecap
1 LJ
0.833 LW
N
775.176 70 M
775.176 84.88 L
S
GR
GS
[0.6 0 0 0.6 0 0.39996] CT
2 setlinecap
1 LJ
0.833 LW
N
950.235 70 M
950.235 84.88 L
S
GR
GS
[0.6 0 0 0.6 0 0.39996] CT
2 setlinecap
1 LJ
0.833 LW
N
1125.294 70 M
1125.294 84.88 L
S
GR
GS
[0.6 0 0 0.6 0 0.39996] CT
2 setlinecap
1 LJ
0.833 LW
N
1300.353 70 M
1300.353 84.88 L
S
GR
GS
[0.6 0 0 0.6 0 0.39996] CT
2 setlinecap
1 LJ
0.833 LW
N
1475.412 70 M
1475.412 84.88 L
S
GR
GS
[0.6 0 0 0.6 0 0.39996] CT
2 setlinecap
1 LJ
0.833 LW
N
1650.471 70 M
1650.471 84.88 L
S
GR
GS
[0.6 0 0 0.6 150 503.8] CT
/Helvetica 13.333 F
GS
[1 0 0 1 0 0] CT
-4 14 moveto 
1 -1 scale
(0) t 
GR
GR
GS
[0.6 0 0 0.6 255.0353 503.8] CT
/Helvetica 13.333 F
GS
[1 0 0 1 0 0] CT
-4 14 moveto 
1 -1 scale
(2) t 
GR
GR
GS
[0.6 0 0 0.6 360.07061 503.8] CT
/Helvetica 13.333 F
GS
[1 0 0 1 0 0] CT
-4 14 moveto 
1 -1 scale
(4) t 
GR
GR
GS
[0.6 0 0 0.6 465.10587 503.8] CT
/Helvetica 13.333 F
GS
[1 0 0 1 0 0] CT
-4 14 moveto 
1 -1 scale
(6) t 
GR
GR
GS
[0.6 0 0 0.6 570.14117 503.8] CT
/Helvetica 13.333 F
GS
[1 0 0 1 0 0] CT
-4 14 moveto 
1 -1 scale
(8) t 
GR
GR
GS
[0.6 0 0 0.6 675.17644 503.8] CT
/Helvetica 13.333 F
GS
[1 0 0 1 0 0] CT
-7.5 14 moveto 
1 -1 scale
(10) t 
GR
GR
GS
[0.6 0 0 0.6 780.21174 503.8] CT
/Helvetica 13.333 F
GS
[1 0 0 1 0 0] CT
-7.5 14 moveto 
1 -1 scale
(12) t 
GR
GR
GS
[0.6 0 0 0.6 885.24705 503.8] CT
/Helvetica 13.333 F
GS
[1 0 0 1 0 0] CT
-7.5 14 moveto 
1 -1 scale
(14) t 
GR
GR
GS
[0.6 0 0 0.6 990.28235 503.8] CT
/Helvetica 13.333 F
GS
[1 0 0 1 0 0] CT
-7.5 14 moveto 
1 -1 scale
(16) t 
GR
GR
GS
[0.6 0 0 0.6 596.4004 515.00001] CT
/Helvetica 13.333 F
GS
[1 0 0 1 0 0] CT
-15.5 14 moveto 
1 -1 scale
(State) t 
GR
GR
GS
[0.6 0 0 0.6 0 0.39996] CT
2 setlinecap
1 LJ
0.833 LW
N
250 833 M
250 70 L
S
GR
GS
[0.6 0 0 0.6 0 0.39996] CT
2 setlinecap
1 LJ
0.833 LW
N
1738 833 M
1738 70 L
S
GR
GS
[0.6 0 0 0.6 0 0.39996] CT
2 setlinecap
1 LJ
0.833 LW
N
250 833 M
264.88 833 L
S
GR
GS
[0.6 0 0 0.6 0 0.39996] CT
2 setlinecap
1 LJ
0.833 LW
N
250 578.667 M
264.88 578.667 L
S
GR
GS
[0.6 0 0 0.6 0 0.39996] CT
2 setlinecap
1 LJ
0.833 LW
N
250 324.333 M
264.88 324.333 L
S
GR
GS
[0.6 0 0 0.6 0 0.39996] CT
2 setlinecap
1 LJ
0.833 LW
N
250 70 M
264.88 70 L
S
GR
GS
[0.6 0 0 0.6 0 0.39996] CT
2 setlinecap
1 LJ
0.833 LW
N
1738 833 M
1723.12 833 L
S
GR
GS
[0.6 0 0 0.6 0 0.39996] CT
2 setlinecap
1 LJ
0.833 LW
N
1738 578.667 M
1723.12 578.667 L
S
GR
GS
[0.6 0 0 0.6 0 0.39996] CT
2 setlinecap
1 LJ
0.833 LW
N
1738 324.333 M
1723.12 324.333 L
S
GR
GS
[0.6 0 0 0.6 0 0.39996] CT
2 setlinecap
1 LJ
0.833 LW
N
1738 70 M
1723.12 70 L
S
GR
GS
[0.6 0 0 0.6 146.4 500.2] CT
/Helvetica 13.333 F
GS
[1 0 0 1 0 0] CT
-8 5.5 moveto 
1 -1 scale
(0) t 
GR
GR
GS
[0.6 0 0 0.6 146.4 347.6] CT
/Helvetica 13.333 F
GS
[1 0 0 1 0 0] CT
-19 5.5 moveto 
1 -1 scale
(0.5) t 
GR
GR
GS
[0.6 0 0 0.6 146.4 194.99998] CT
/Helvetica 13.333 F
GS
[1 0 0 1 0 0] CT
-8 5.5 moveto 
1 -1 scale
(1) t 
GR
GR
GS
[0.6 0 0 0.6 146.4 42.39997] CT
/Helvetica 13.333 F
GS
[1 0 0 1 0 0] CT
-19 5.5 moveto 
1 -1 scale
(1.5) t 
GR
GR
GS
[0 -0.6 0.6 0 132 271.29976] CT
/Helvetica 13.333 F
GS
[1 0 0 1 0 0] CT
-38 -3 moveto 
1 -1 scale
(State Energy) t 
GR
GR
GS
[0.6 0 0 0.6 596.40055 41.19996] CT
/Helvetica 13.333 F
GS
[1 0 0 1 0 0] CT
-129 -3 moveto 
1 -1 scale
(Hankel Singular Values \(State Contributions\)) t 
GR
GR
GS
[0.6 0 0 0.6 0 0.39996] CT
1 LJ
0.833 LW
N
250 833 M
1738 833 L
S
GR
GS
[0.6 0 0 0.6 0 0.39996] CT
0 0 0.6 RC
N
302.518 833 M
372.541 833 L
372.541 73.165 L
302.518 73.165 L
cp
f
GR
GS
[0.6 0 0 0.6 0 0.39996] CT
0 0 0.6 RC
N
390.047 833 M
460.071 833 L
460.071 149.353 L
390.047 149.353 L
cp
f
GR
GS
[0.6 0 0 0.6 0 0.39996] CT
0 0 0.6 RC
N
477.576 833 M
547.6 833 L
547.6 449.371 L
477.576 449.371 L
cp
f
GR
GS
[0.6 0 0 0.6 0 0.39996] CT
0 0 0.6 RC
N
565.106 833 M
635.129 833 L
635.129 498.875 L
565.106 498.875 L
cp
f
GR
GS
[0.6 0 0 0.6 0 0.39996] CT
0 0 0.6 RC
N
652.635 833 M
722.659 833 L
722.659 747.044 L
652.635 747.044 L
cp
f
GR
GS
[0.6 0 0 0.6 0 0.39996] CT
0 0 0.6 RC
N
740.165 833 M
810.188 833 L
810.188 769.618 L
740.165 769.618 L
cp
f
GR
GS
[0.6 0 0 0.6 0 0.39996] CT
0 0 0.6 RC
N
827.694 833 M
897.718 833 L
897.718 802.492 L
827.694 802.492 L
cp
f
GR
GS
[0.6 0 0 0.6 0 0.39996] CT
0 0 0.6 RC
N
915.224 833 M
985.247 833 L
985.247 811.165 L
915.224 811.165 L
cp
f
GR
GS
[0.6 0 0 0.6 0 0.39996] CT
0 0 0.6 RC
N
1002.753 833 M
1072.776 833 L
1072.776 814.937 L
1002.753 814.937 L
cp
f
GR
GS
[0.6 0 0 0.6 0 0.39996] CT
0 0 0.6 RC
N
1090.282 833 M
1160.306 833 L
1160.306 819.712 L
1090.282 819.712 L
cp
f
GR
GS
[0.6 0 0 0.6 0 0.39996] CT
0 0 0.6 RC
N
1177.812 833 M
1247.835 833 L
1247.835 822.053 L
1177.812 822.053 L
cp
f
GR
GS
[0.6 0 0 0.6 0 0.39996] CT
0 0 0.6 RC
N
1265.341 833 M
1335.365 833 L
1335.365 826.723 L
1265.341 826.723 L
cp
f
GR
GS
[0.6 0 0 0.6 0 0.39996] CT
0 0 0.6 RC
N
1352.871 833 M
1422.894 833 L
1422.894 829.172 L
1352.871 829.172 L
cp
f
GR
GS
[0.6 0 0 0.6 0 0.39996] CT
0 0 0.6 RC
N
1440.4 833 M
1510.423 833 L
1510.423 829.62 L
1440.4 829.62 L
cp
f
GR
GS
[0.6 0 0 0.6 0 0.39996] CT
0 0 0.6 RC
N
1527.929 833 M
1597.953 833 L
1597.953 832.583 L
1527.929 832.583 L
cp
f
GR
GS
[0.6 0 0 0.6 0 0.39996] CT
0 0 0.6 RC
N
1615.459 833 M
1685.482 833 L
1685.482 832.837 L
1615.459 832.837 L
cp
f
GR
GS
[0.6 0 0 0.6 0 0.39996] CT
0 0 0.6 RC
10.0 ML
0.833 LW
N
302.518 833 M
302.518 73.165 L
372.541 73.165 L
372.541 833 L
cp
S
GR
GS
[0.6 0 0 0.6 0 0.39996] CT
0 0 0.6 RC
10.0 ML
0.833 LW
N
390.047 833 M
390.047 149.353 L
460.071 149.353 L
460.071 833 L
cp
S
GR
GS
[0.6 0 0 0.6 0 0.39996] CT
0 0 0.6 RC
10.0 ML
0.833 LW
N
477.576 833 M
477.576 449.371 L
547.6 449.371 L
547.6 833 L
cp
S
GR
GS
[0.6 0 0 0.6 0 0.39996] CT
0 0 0.6 RC
10.0 ML
0.833 LW
N
565.106 833 M
565.106 498.875 L
635.129 498.875 L
635.129 833 L
cp
S
GR
GS
[0.6 0 0 0.6 0 0.39996] CT
0 0 0.6 RC
10.0 ML
0.833 LW
N
652.635 833 M
652.635 747.044 L
722.659 747.044 L
722.659 833 L
cp
S
GR
GS
[0.6 0 0 0.6 0 0.39996] CT
0 0 0.6 RC
10.0 ML
0.833 LW
N
740.165 833 M
740.165 769.618 L
810.188 769.618 L
810.188 833 L
cp
S
GR
GS
[0.6 0 0 0.6 0 0.39996] CT
0 0 0.6 RC
10.0 ML
0.833 LW
N
827.694 833 M
827.694 802.492 L
897.718 802.492 L
897.718 833 L
cp
S
GR
GS
[0.6 0 0 0.6 0 0.39996] CT
0 0 0.6 RC
10.0 ML
0.833 LW
N
915.224 833 M
915.224 811.165 L
985.247 811.165 L
985.247 833 L
cp
S
GR
GS
[0.6 0 0 0.6 0 0.39996] CT
0 0 0.6 RC
10.0 ML
0.833 LW
N
1002.753 833 M
1002.753 814.937 L
1072.776 814.937 L
1072.776 833 L
cp
S
GR
GS
[0.6 0 0 0.6 0 0.39996] CT
0 0 0.6 RC
10.0 ML
0.833 LW
N
1090.282 833 M
1090.282 819.712 L
1160.306 819.712 L
1160.306 833 L
cp
S
GR
GS
[0.6 0 0 0.6 0 0.39996] CT
0 0 0.6 RC
10.0 ML
0.833 LW
N
1177.812 833 M
1177.812 822.053 L
1247.835 822.053 L
1247.835 833 L
cp
S
GR
GS
[0.6 0 0 0.6 0 0.39996] CT
0 0 0.6 RC
10.0 ML
0.833 LW
N
1265.341 833 M
1265.341 826.723 L
1335.365 826.723 L
1335.365 833 L
cp
S
GR
GS
[0.6 0 0 0.6 0 0.39996] CT
0 0 0.6 RC
10.0 ML
0.833 LW
N
1352.871 833 M
1352.871 829.172 L
1422.894 829.172 L
1422.894 833 L
cp
S
GR
GS
[0.6 0 0 0.6 0 0.39996] CT
0 0 0.6 RC
10.0 ML
0.833 LW
N
1440.4 833 M
1440.4 829.62 L
1510.423 829.62 L
1510.423 833 L
cp
S
GR
GS
[0.6 0 0 0.6 0 0.39996] CT
0 0 0.6 RC
10.0 ML
0.833 LW
N
1527.929 833 M
1527.929 832.583 L
1597.953 832.583 L
1597.953 833 L
cp
S
GR
GS
[0.6 0 0 0.6 0 0.39996] CT
0 0 0.6 RC
10.0 ML
0.833 LW
N
1615.459 833 M
1615.459 832.837 L
1685.482 832.837 L
1685.482 833 L
cp
S
GR
GS
[0.6 0 0 0.6 0 0.39996] CT
1 GC
N
1590 109 M
1590 87 L
1721 87 L
1721 109 L
cp
f
GR
GS
[0.6 0 0 0.6 981.69712 59.19997] CT
/Helvetica 13.333 F
GS
[1 0 0 1 0 0] CT
0 5.5 moveto 
1 -1 scale
(Stable modes) t 
GR
GR
GS
[0.6 0 0 0.6 0 0.39996] CT
0 0 0.6 RC
N
1594.99 104.488 M
1594.99 91.512 L
1632.419 91.512 L
1632.419 104.488 L
cp
f
GR
GS
[0.6 0 0 0.6 0 0.39996] CT
0 0 0.6 RC
10.0 ML
0.833 LW
N
1594.99 104.488 M
1594.99 91.512 L
1632.419 91.512 L
1632.419 104.488 L
cp
S
GR
GS
[0.6 0 0 0.6 0 0.39996] CT
0.149 GC
10.0 ML
0.833 LW
N
1590 109 M
1590 87 L
1721 87 L
1721 109 L
cp
S
GR
%%Trailer
%%Pages: 1
%%EOF
