%!PS-Adobe-3.0 EPSF-3.0
%%Creator: (MATLAB, The Mathworks, Inc. Version 9.1.0.441655 \(R2016b\). Operating System: Linux)
%%Title: /users/start2016/r0461511/Documents/system-identification/Oefenzitting_3/plots/pzmap_oe_10_10.eps
%%CreationDate: 2016-12-20T16:49:28
%%Pages: (atend)
%%BoundingBox: 0 0 1440 693
%%LanguageLevel: 3
%%EndComments
%%BeginProlog
%%BeginResource: procset (Apache XML Graphics Std ProcSet) 1.2 0
%%Version: 1.2 0
%%Copyright: (Copyright 2001-2003,2010 The Apache Software Foundation. License terms: http://www.apache.org/licenses/LICENSE-2.0)
/bd{bind def}bind def
/ld{load def}bd
/GR/grestore ld
/M/moveto ld
/LJ/setlinejoin ld
/C/curveto ld
/f/fill ld
/LW/setlinewidth ld
/GC/setgray ld
/t/show ld
/N/newpath ld
/CT/concat ld
/cp/closepath ld
/S/stroke ld
/L/lineto ld
/CC/setcmykcolor ld
/A/ashow ld
/GS/gsave ld
/RC/setrgbcolor ld
/RM/rmoveto ld
/ML/setmiterlimit ld
/re {4 2 roll M
1 index 0 rlineto
0 exch rlineto
neg 0 rlineto
cp } bd
/_ctm matrix def
/_tm matrix def
/BT { _ctm currentmatrix pop matrix _tm copy pop 0 0 moveto } bd
/ET { _ctm setmatrix } bd
/iTm { _ctm setmatrix _tm concat } bd
/Tm { _tm astore pop iTm 0 0 moveto } bd
/ux 0.0 def
/uy 0.0 def
/F {
  /Tp exch def
  /Tf exch def
  Tf findfont Tp scalefont setfont
  /cf Tf def  /cs Tp def
} bd
/ULS {currentpoint /uy exch def /ux exch def} bd
/ULE {
  /Tcx currentpoint pop def
  gsave
  newpath
  cf findfont cs scalefont dup
  /FontMatrix get 0 get /Ts exch def /FontInfo get dup
  /UnderlinePosition get Ts mul /To exch def
  /UnderlineThickness get Ts mul /Tt exch def
  ux uy To add moveto  Tcx uy To add lineto
  Tt setlinewidth stroke
  grestore
} bd
/OLE {
  /Tcx currentpoint pop def
  gsave
  newpath
  cf findfont cs scalefont dup
  /FontMatrix get 0 get /Ts exch def /FontInfo get dup
  /UnderlinePosition get Ts mul /To exch def
  /UnderlineThickness get Ts mul /Tt exch def
  ux uy To add cs add moveto Tcx uy To add cs add lineto
  Tt setlinewidth stroke
  grestore
} bd
/SOE {
  /Tcx currentpoint pop def
  gsave
  newpath
  cf findfont cs scalefont dup
  /FontMatrix get 0 get /Ts exch def /FontInfo get dup
  /UnderlinePosition get Ts mul /To exch def
  /UnderlineThickness get Ts mul /Tt exch def
  ux uy To add cs 10 mul 26 idiv add moveto Tcx uy To add cs 10 mul 26 idiv add lineto
  Tt setlinewidth stroke
  grestore
} bd
/QT {
/Y22 exch store
/X22 exch store
/Y21 exch store
/X21 exch store
currentpoint
/Y21 load 2 mul add 3 div exch
/X21 load 2 mul add 3 div exch
/X21 load 2 mul /X22 load add 3 div
/Y21 load 2 mul /Y22 load add 3 div
/X22 load /Y22 load curveto
} bd
/SSPD {
dup length /d exch dict def
{
/v exch def
/k exch def
currentpagedevice k known {
/cpdv currentpagedevice k get def
v cpdv ne {
/upd false def
/nullv v type /nulltype eq def
/nullcpdv cpdv type /nulltype eq def
nullv nullcpdv or
{
/upd true def
} {
/sametype v type cpdv type eq def
sametype {
v type /arraytype eq {
/vlen v length def
/cpdvlen cpdv length def
vlen cpdvlen eq {
0 1 vlen 1 sub {
/i exch def
/obj v i get def
/cpdobj cpdv i get def
obj cpdobj ne {
/upd true def
exit
} if
} for
} {
/upd true def
} ifelse
} {
v type /dicttype eq {
v {
/dv exch def
/dk exch def
/cpddv cpdv dk get def
dv cpddv ne {
/upd true def
exit
} if
} forall
} {
/upd true def
} ifelse
} ifelse
} if
} ifelse
upd true eq {
d k v put
} if
} if
} if
} forall
d length 0 gt {
d setpagedevice
} if
} bd
/RE { % /NewFontName [NewEncodingArray] /FontName RE -
  findfont dup length dict begin
  {
    1 index /FID ne
    {def} {pop pop} ifelse
  } forall
  /Encoding exch def
  /FontName 1 index def
  currentdict definefont pop
  end
} bind def
%%EndResource
%%BeginResource: procset (Apache XML Graphics EPS ProcSet) 1.0 0
%%Version: 1.0 0
%%Copyright: (Copyright 2002-2003 The Apache Software Foundation. License terms: http://www.apache.org/licenses/LICENSE-2.0)
/BeginEPSF { %def
/b4_Inc_state save def         % Save state for cleanup
/dict_count countdictstack def % Count objects on dict stack
/op_count count 1 sub def      % Count objects on operand stack
userdict begin                 % Push userdict on dict stack
/showpage { } def              % Redefine showpage, { } = null proc
0 setgray 0 setlinecap         % Prepare graphics state
1 setlinewidth 0 setlinejoin
10 setmiterlimit [ ] 0 setdash newpath
/languagelevel where           % If level not equal to 1 then
{pop languagelevel             % set strokeadjust and
1 ne                           % overprint to their defaults.
{false setstrokeadjust false setoverprint
} if
} if
} bd
/EndEPSF { %def
count op_count sub {pop} repeat            % Clean up stacks
countdictstack dict_count sub {end} repeat
b4_Inc_state restore
} bd
%%EndResource
%FOPBeginFontDict
%%IncludeResource: font Courier-Bold
%%IncludeResource: font Helvetica
%%IncludeResource: font Courier-BoldOblique
%%IncludeResource: font Courier-Oblique
%%IncludeResource: font Times-Roman
%%IncludeResource: font Helvetica-BoldOblique
%%IncludeResource: font Helvetica-Bold
%%IncludeResource: font Helvetica-Oblique
%%IncludeResource: font Times-BoldItalic
%%IncludeResource: font Courier
%%IncludeResource: font Times-Italic
%%IncludeResource: font Times-Bold
%%IncludeResource: font Symbol
%%IncludeResource: font ZapfDingbats
%FOPEndFontDict
%%BeginResource: encoding WinAnsiEncoding
/WinAnsiEncoding [
/.notdef /.notdef /.notdef /.notdef /.notdef
/.notdef /.notdef /.notdef /.notdef /.notdef
/.notdef /.notdef /.notdef /.notdef /.notdef
/.notdef /.notdef /.notdef /.notdef /.notdef
/.notdef /.notdef /.notdef /.notdef /.notdef
/.notdef /.notdef /.notdef /.notdef /.notdef
/.notdef /.notdef /space /exclam /quotedbl
/numbersign /dollar /percent /ampersand /quotesingle
/parenleft /parenright /asterisk /plus /comma
/hyphen /period /slash /zero /one
/two /three /four /five /six
/seven /eight /nine /colon /semicolon
/less /equal /greater /question /at
/A /B /C /D /E
/F /G /H /I /J
/K /L /M /N /O
/P /Q /R /S /T
/U /V /W /X /Y
/Z /bracketleft /backslash /bracketright /asciicircum
/underscore /quoteleft /a /b /c
/d /e /f /g /h
/i /j /k /l /m
/n /o /p /q /r
/s /t /u /v /w
/x /y /z /braceleft /bar
/braceright /asciitilde /bullet /Euro /bullet
/quotesinglbase /florin /quotedblbase /ellipsis /dagger
/daggerdbl /circumflex /perthousand /Scaron /guilsinglleft
/OE /bullet /Zcaron /bullet /bullet
/quoteleft /quoteright /quotedblleft /quotedblright /bullet
/endash /emdash /asciitilde /trademark /scaron
/guilsinglright /oe /bullet /zcaron /Ydieresis
/space /exclamdown /cent /sterling /currency
/yen /brokenbar /section /dieresis /copyright
/ordfeminine /guillemotleft /logicalnot /sfthyphen /registered
/macron /degree /plusminus /twosuperior /threesuperior
/acute /mu /paragraph /middot /cedilla
/onesuperior /ordmasculine /guillemotright /onequarter /onehalf
/threequarters /questiondown /Agrave /Aacute /Acircumflex
/Atilde /Adieresis /Aring /AE /Ccedilla
/Egrave /Eacute /Ecircumflex /Edieresis /Igrave
/Iacute /Icircumflex /Idieresis /Eth /Ntilde
/Ograve /Oacute /Ocircumflex /Otilde /Odieresis
/multiply /Oslash /Ugrave /Uacute /Ucircumflex
/Udieresis /Yacute /Thorn /germandbls /agrave
/aacute /acircumflex /atilde /adieresis /aring
/ae /ccedilla /egrave /eacute /ecircumflex
/edieresis /igrave /iacute /icircumflex /idieresis
/eth /ntilde /ograve /oacute /ocircumflex
/otilde /odieresis /divide /oslash /ugrave
/uacute /ucircumflex /udieresis /yacute /thorn
/ydieresis
] def
%%EndResource
%FOPBeginFontReencode
/Courier-Bold findfont
dup length dict begin
  {1 index /FID ne {def} {pop pop} ifelse} forall
  /Encoding WinAnsiEncoding def
  currentdict
end
/Courier-Bold exch definefont pop
/Helvetica findfont
dup length dict begin
  {1 index /FID ne {def} {pop pop} ifelse} forall
  /Encoding WinAnsiEncoding def
  currentdict
end
/Helvetica exch definefont pop
/Courier-BoldOblique findfont
dup length dict begin
  {1 index /FID ne {def} {pop pop} ifelse} forall
  /Encoding WinAnsiEncoding def
  currentdict
end
/Courier-BoldOblique exch definefont pop
/Courier-Oblique findfont
dup length dict begin
  {1 index /FID ne {def} {pop pop} ifelse} forall
  /Encoding WinAnsiEncoding def
  currentdict
end
/Courier-Oblique exch definefont pop
/Times-Roman findfont
dup length dict begin
  {1 index /FID ne {def} {pop pop} ifelse} forall
  /Encoding WinAnsiEncoding def
  currentdict
end
/Times-Roman exch definefont pop
/Helvetica-BoldOblique findfont
dup length dict begin
  {1 index /FID ne {def} {pop pop} ifelse} forall
  /Encoding WinAnsiEncoding def
  currentdict
end
/Helvetica-BoldOblique exch definefont pop
/Helvetica-Bold findfont
dup length dict begin
  {1 index /FID ne {def} {pop pop} ifelse} forall
  /Encoding WinAnsiEncoding def
  currentdict
end
/Helvetica-Bold exch definefont pop
/Helvetica-Oblique findfont
dup length dict begin
  {1 index /FID ne {def} {pop pop} ifelse} forall
  /Encoding WinAnsiEncoding def
  currentdict
end
/Helvetica-Oblique exch definefont pop
/Times-BoldItalic findfont
dup length dict begin
  {1 index /FID ne {def} {pop pop} ifelse} forall
  /Encoding WinAnsiEncoding def
  currentdict
end
/Times-BoldItalic exch definefont pop
/Courier findfont
dup length dict begin
  {1 index /FID ne {def} {pop pop} ifelse} forall
  /Encoding WinAnsiEncoding def
  currentdict
end
/Courier exch definefont pop
/Times-Italic findfont
dup length dict begin
  {1 index /FID ne {def} {pop pop} ifelse} forall
  /Encoding WinAnsiEncoding def
  currentdict
end
/Times-Italic exch definefont pop
/Times-Bold findfont
dup length dict begin
  {1 index /FID ne {def} {pop pop} ifelse} forall
  /Encoding WinAnsiEncoding def
  currentdict
end
/Times-Bold exch definefont pop
%FOPEndFontReencode
%%EndProlog
%%Page: 1 1
%%PageBoundingBox: 0 0 1440 693
%%BeginPageSetup
[1 0 0 -1 0 693] CT
%%EndPageSetup
GS
[0.75 0 0 0.75 0 0] CT
1 GC
N
0 0 1920 924 re
f
GR
GS
[0.75 0 0 0.75 0 0] CT
1 GC
N
0 0 1920 924 re
f
GR
GS
[0.75 0 0 0.75 0 0] CT
1 GC
N
262 822 M
1738 822 L
1738 89 L
262 89 L
cp
f
GR
GS
[0.75 0 0 0.75 0 0] CT
0.4 GC
2 setlinecap
1 LJ
0.667 LW
N
262 822 M
1738 822 L
S
GR
GS
[0.75 0 0 0.75 0 0] CT
0.4 GC
2 setlinecap
1 LJ
0.667 LW
N
262 89 M
1738 89 L
S
GR
GS
[0.75 0 0 0.75 0 0] CT
0.4 GC
2 setlinecap
1 LJ
0.667 LW
N
262 822 M
262 807.24 L
S
GR
GS
[0.75 0 0 0.75 0 0] CT
0.4 GC
2 setlinecap
1 LJ
0.667 LW
N
409.6 822 M
409.6 807.24 L
S
GR
GS
[0.75 0 0 0.75 0 0] CT
0.4 GC
2 setlinecap
1 LJ
0.667 LW
N
557.2 822 M
557.2 807.24 L
S
GR
GS
[0.75 0 0 0.75 0 0] CT
0.4 GC
2 setlinecap
1 LJ
0.667 LW
N
704.8 822 M
704.8 807.24 L
S
GR
GS
[0.75 0 0 0.75 0 0] CT
0.4 GC
2 setlinecap
1 LJ
0.667 LW
N
852.4 822 M
852.4 807.24 L
S
GR
GS
[0.75 0 0 0.75 0 0] CT
0.4 GC
2 setlinecap
1 LJ
0.667 LW
N
1000 822 M
1000 807.24 L
S
GR
GS
[0.75 0 0 0.75 0 0] CT
0.4 GC
2 setlinecap
1 LJ
0.667 LW
N
1147.6 822 M
1147.6 807.24 L
S
GR
GS
[0.75 0 0 0.75 0 0] CT
0.4 GC
2 setlinecap
1 LJ
0.667 LW
N
1295.2 822 M
1295.2 807.24 L
S
GR
GS
[0.75 0 0 0.75 0 0] CT
0.4 GC
2 setlinecap
1 LJ
0.667 LW
N
1442.8 822 M
1442.8 807.24 L
S
GR
GS
[0.75 0 0 0.75 0 0] CT
0.4 GC
2 setlinecap
1 LJ
0.667 LW
N
1590.4 822 M
1590.4 807.24 L
S
GR
GS
[0.75 0 0 0.75 0 0] CT
0.4 GC
2 setlinecap
1 LJ
0.667 LW
N
1738 822 M
1738 807.24 L
S
GR
GS
[0.75 0 0 0.75 0 0] CT
0.4 GC
2 setlinecap
1 LJ
0.667 LW
N
262 89 M
262 103.76 L
S
GR
GS
[0.75 0 0 0.75 0 0] CT
0.4 GC
2 setlinecap
1 LJ
0.667 LW
N
409.6 89 M
409.6 103.76 L
S
GR
GS
[0.75 0 0 0.75 0 0] CT
0.4 GC
2 setlinecap
1 LJ
0.667 LW
N
557.2 89 M
557.2 103.76 L
S
GR
GS
[0.75 0 0 0.75 0 0] CT
0.4 GC
2 setlinecap
1 LJ
0.667 LW
N
704.8 89 M
704.8 103.76 L
S
GR
GS
[0.75 0 0 0.75 0 0] CT
0.4 GC
2 setlinecap
1 LJ
0.667 LW
N
852.4 89 M
852.4 103.76 L
S
GR
GS
[0.75 0 0 0.75 0 0] CT
0.4 GC
2 setlinecap
1 LJ
0.667 LW
N
1000 89 M
1000 103.76 L
S
GR
GS
[0.75 0 0 0.75 0 0] CT
0.4 GC
2 setlinecap
1 LJ
0.667 LW
N
1147.6 89 M
1147.6 103.76 L
S
GR
GS
[0.75 0 0 0.75 0 0] CT
0.4 GC
2 setlinecap
1 LJ
0.667 LW
N
1295.2 89 M
1295.2 103.76 L
S
GR
GS
[0.75 0 0 0.75 0 0] CT
0.4 GC
2 setlinecap
1 LJ
0.667 LW
N
1442.8 89 M
1442.8 103.76 L
S
GR
GS
[0.75 0 0 0.75 0 0] CT
0.4 GC
2 setlinecap
1 LJ
0.667 LW
N
1590.4 89 M
1590.4 103.76 L
S
GR
GS
[0.75 0 0 0.75 0 0] CT
0.4 GC
2 setlinecap
1 LJ
0.667 LW
N
1738 89 M
1738 103.76 L
S
GR
GS
[0.75 0 0 0.75 196.5 620.50003] CT
0.4 GC
/Helvetica 13.333 F
GS
[1 0 0 1 0 0] CT
-6.5 13 moveto 
1 -1 scale
(-4) t 
GR
GR
GS
[0.75 0 0 0.75 307.2 620.50003] CT
0.4 GC
/Helvetica 13.333 F
GS
[1 0 0 1 0 0] CT
-13 13 moveto 
1 -1 scale
(-3.5) t 
GR
GR
GS
[0.75 0 0 0.75 417.90001 620.50003] CT
0.4 GC
/Helvetica 13.333 F
GS
[1 0 0 1 0 0] CT
-6.5 13 moveto 
1 -1 scale
(-3) t 
GR
GR
GS
[0.75 0 0 0.75 528.59999 620.50003] CT
0.4 GC
/Helvetica 13.333 F
GS
[1 0 0 1 0 0] CT
-13 13 moveto 
1 -1 scale
(-2.5) t 
GR
GR
GS
[0.75 0 0 0.75 639.30002 620.50003] CT
0.4 GC
/Helvetica 13.333 F
GS
[1 0 0 1 0 0] CT
-6.5 13 moveto 
1 -1 scale
(-2) t 
GR
GR
GS
[0.75 0 0 0.75 750 620.50003] CT
0.4 GC
/Helvetica 13.333 F
GS
[1 0 0 1 0 0] CT
-13 13 moveto 
1 -1 scale
(-1.5) t 
GR
GR
GS
[0.75 0 0 0.75 860.69998 620.50003] CT
0.4 GC
/Helvetica 13.333 F
GS
[1 0 0 1 0 0] CT
-6.5 13 moveto 
1 -1 scale
(-1) t 
GR
GR
GS
[0.75 0 0 0.75 971.39996 620.50003] CT
0.4 GC
/Helvetica 13.333 F
GS
[1 0 0 1 0 0] CT
-13 13 moveto 
1 -1 scale
(-0.5) t 
GR
GR
GS
[0.75 0 0 0.75 1082.10004 620.50003] CT
0.4 GC
/Helvetica 13.333 F
GS
[1 0 0 1 0 0] CT
-4.5 13 moveto 
1 -1 scale
(0) t 
GR
GR
GS
[0.75 0 0 0.75 1192.80002 620.50003] CT
0.4 GC
/Helvetica 13.333 F
GS
[1 0 0 1 0 0] CT
-10.5 13 moveto 
1 -1 scale
(0.5) t 
GR
GR
GS
[0.75 0 0 0.75 1303.5 620.50003] CT
0.4 GC
/Helvetica 13.333 F
GS
[1 0 0 1 0 0] CT
-4.5 13 moveto 
1 -1 scale
(1) t 
GR
GR
GS
[0.75 0 0 0.75 0 0] CT
0.4 GC
2 setlinecap
1 LJ
0.667 LW
N
262 822 M
262 89 L
S
GR
GS
[0.75 0 0 0.75 0 0] CT
0.4 GC
2 setlinecap
1 LJ
0.667 LW
N
1738 822 M
1738 89 L
S
GR
GS
[0.75 0 0 0.75 0 0] CT
0.4 GC
2 setlinecap
1 LJ
0.667 LW
N
262 822 M
276.76 822 L
S
GR
GS
[0.75 0 0 0.75 0 0] CT
0.4 GC
2 setlinecap
1 LJ
0.667 LW
N
262 748.7 M
276.76 748.7 L
S
GR
GS
[0.75 0 0 0.75 0 0] CT
0.4 GC
2 setlinecap
1 LJ
0.667 LW
N
262 675.4 M
276.76 675.4 L
S
GR
GS
[0.75 0 0 0.75 0 0] CT
0.4 GC
2 setlinecap
1 LJ
0.667 LW
N
262 602.1 M
276.76 602.1 L
S
GR
GS
[0.75 0 0 0.75 0 0] CT
0.4 GC
2 setlinecap
1 LJ
0.667 LW
N
262 528.8 M
276.76 528.8 L
S
GR
GS
[0.75 0 0 0.75 0 0] CT
0.4 GC
2 setlinecap
1 LJ
0.667 LW
N
262 455.5 M
276.76 455.5 L
S
GR
GS
[0.75 0 0 0.75 0 0] CT
0.4 GC
2 setlinecap
1 LJ
0.667 LW
N
262 382.2 M
276.76 382.2 L
S
GR
GS
[0.75 0 0 0.75 0 0] CT
0.4 GC
2 setlinecap
1 LJ
0.667 LW
N
262 308.9 M
276.76 308.9 L
S
GR
GS
[0.75 0 0 0.75 0 0] CT
0.4 GC
2 setlinecap
1 LJ
0.667 LW
N
262 235.6 M
276.76 235.6 L
S
GR
GS
[0.75 0 0 0.75 0 0] CT
0.4 GC
2 setlinecap
1 LJ
0.667 LW
N
262 162.3 M
276.76 162.3 L
S
GR
GS
[0.75 0 0 0.75 0 0] CT
0.4 GC
2 setlinecap
1 LJ
0.667 LW
N
262 89 M
276.76 89 L
S
GR
GS
[0.75 0 0 0.75 0 0] CT
0.4 GC
2 setlinecap
1 LJ
0.667 LW
N
1738 822 M
1723.24 822 L
S
GR
GS
[0.75 0 0 0.75 0 0] CT
0.4 GC
2 setlinecap
1 LJ
0.667 LW
N
1738 748.7 M
1723.24 748.7 L
S
GR
GS
[0.75 0 0 0.75 0 0] CT
0.4 GC
2 setlinecap
1 LJ
0.667 LW
N
1738 675.4 M
1723.24 675.4 L
S
GR
GS
[0.75 0 0 0.75 0 0] CT
0.4 GC
2 setlinecap
1 LJ
0.667 LW
N
1738 602.1 M
1723.24 602.1 L
S
GR
GS
[0.75 0 0 0.75 0 0] CT
0.4 GC
2 setlinecap
1 LJ
0.667 LW
N
1738 528.8 M
1723.24 528.8 L
S
GR
GS
[0.75 0 0 0.75 0 0] CT
0.4 GC
2 setlinecap
1 LJ
0.667 LW
N
1738 455.5 M
1723.24 455.5 L
S
GR
GS
[0.75 0 0 0.75 0 0] CT
0.4 GC
2 setlinecap
1 LJ
0.667 LW
N
1738 382.2 M
1723.24 382.2 L
S
GR
GS
[0.75 0 0 0.75 0 0] CT
0.4 GC
2 setlinecap
1 LJ
0.667 LW
N
1738 308.9 M
1723.24 308.9 L
S
GR
GS
[0.75 0 0 0.75 0 0] CT
0.4 GC
2 setlinecap
1 LJ
0.667 LW
N
1738 235.6 M
1723.24 235.6 L
S
GR
GS
[0.75 0 0 0.75 0 0] CT
0.4 GC
2 setlinecap
1 LJ
0.667 LW
N
1738 162.3 M
1723.24 162.3 L
S
GR
GS
[0.75 0 0 0.75 0 0] CT
0.4 GC
2 setlinecap
1 LJ
0.667 LW
N
1738 89 M
1723.24 89 L
S
GR
GS
[0.75 0 0 0.75 192.49999 616.5] CT
0.4 GC
/Helvetica 13.333 F
GS
[1 0 0 1 0 0] CT
-13 4.5 moveto 
1 -1 scale
(-1) t 
GR
GR
GS
[0.75 0 0 0.75 192.49999 561.52501] CT
0.4 GC
/Helvetica 13.333 F
GS
[1 0 0 1 0 0] CT
-26 4.5 moveto 
1 -1 scale
(-0.8) t 
GR
GR
GS
[0.75 0 0 0.75 192.49999 506.55002] CT
0.4 GC
/Helvetica 13.333 F
GS
[1 0 0 1 0 0] CT
-26 4.5 moveto 
1 -1 scale
(-0.6) t 
GR
GR
GS
[0.75 0 0 0.75 192.49999 451.57498] CT
0.4 GC
/Helvetica 13.333 F
GS
[1 0 0 1 0 0] CT
-26 4.5 moveto 
1 -1 scale
(-0.4) t 
GR
GR
GS
[0.75 0 0 0.75 192.49999 396.59999] CT
0.4 GC
/Helvetica 13.333 F
GS
[1 0 0 1 0 0] CT
-26 4.5 moveto 
1 -1 scale
(-0.2) t 
GR
GR
GS
[0.75 0 0 0.75 192.49999 341.625] CT
0.4 GC
/Helvetica 13.333 F
GS
[1 0 0 1 0 0] CT
-9 4.5 moveto 
1 -1 scale
(0) t 
GR
GR
GS
[0.75 0 0 0.75 192.49999 286.65001] CT
0.4 GC
/Helvetica 13.333 F
GS
[1 0 0 1 0 0] CT
-21 4.5 moveto 
1 -1 scale
(0.2) t 
GR
GR
GS
[0.75 0 0 0.75 192.49999 231.675] CT
0.4 GC
/Helvetica 13.333 F
GS
[1 0 0 1 0 0] CT
-21 4.5 moveto 
1 -1 scale
(0.4) t 
GR
GR
GS
[0.75 0 0 0.75 192.49999 176.69999] CT
0.4 GC
/Helvetica 13.333 F
GS
[1 0 0 1 0 0] CT
-21 4.5 moveto 
1 -1 scale
(0.6) t 
GR
GR
GS
[0.75 0 0 0.75 192.49999 121.725] CT
0.4 GC
/Helvetica 13.333 F
GS
[1 0 0 1 0 0] CT
-21 4.5 moveto 
1 -1 scale
(0.8) t 
GR
GR
GS
[0.75 0 0 0.75 192.49999 66.75] CT
0.4 GC
/Helvetica 13.333 F
GS
[1 0 0 1 0 0] CT
-9 4.5 moveto 
1 -1 scale
(1) t 
GR
GR
GS
[0.75 0 0 0.75 0 0] CT
0.4 GC
[1 3] 0 setdash
2 LJ
0.667 LW
N
1424.271 89.723 M
1405.808 91.889 L
S
GR
GS
[0.75 0 0 0.75 0 0] CT
0.4 GC
[1 3] 0 setdash
2 LJ
0.667 LW
N
1657.994 204.616 M
1644.881 188.336 L
S
GR
GS
[0.75 0 0 0.75 0 0] CT
0.4 GC
[1 3] 0 setdash
2 LJ
0.667 LW
N
1644.881 188.336 M
1630.97 173.11 L
S
GR
GS
[0.75 0 0 0.75 0 0] CT
0.4 GC
[1 3] 0 setdash
2 LJ
0.667 LW
N
1630.97 173.11 M
1616.317 158.998 L
S
GR
GS
[0.75 0 0 0.75 0 0] CT
0.4 GC
[1 3] 0 setdash
2 LJ
0.667 LW
N
1616.317 158.998 M
1600.979 146.057 L
S
GR
GS
[0.75 0 0 0.75 0 0] CT
0.4 GC
[1 3] 0 setdash
2 LJ
0.667 LW
N
1600.979 146.057 M
1585.017 134.336 L
S
GR
GS
[0.75 0 0 0.75 0 0] CT
0.4 GC
[1 3] 0 setdash
2 LJ
0.667 LW
N
1585.017 134.336 M
1568.494 123.883 L
S
GR
GS
[0.75 0 0 0.75 0 0] CT
0.4 GC
[1 3] 0 setdash
2 LJ
0.667 LW
N
1568.494 123.883 M
1551.475 114.739 L
S
GR
GS
[0.75 0 0 0.75 0 0] CT
0.4 GC
[1 3] 0 setdash
2 LJ
0.667 LW
N
1551.475 114.739 M
1534.027 106.94 L
S
GR
GS
[0.75 0 0 0.75 0 0] CT
0.4 GC
[1 3] 0 setdash
2 LJ
0.667 LW
N
1534.027 106.94 M
1516.218 100.516 L
S
GR
GS
[0.75 0 0 0.75 0 0] CT
0.4 GC
[1 3] 0 setdash
2 LJ
0.667 LW
N
1516.218 100.516 M
1498.12 95.493 L
S
GR
GS
[0.75 0 0 0.75 0 0] CT
0.4 GC
[1 3] 0 setdash
2 LJ
0.667 LW
N
1498.12 95.493 M
1479.804 91.891 L
S
GR
GS
[0.75 0 0 0.75 0 0] CT
0.4 GC
[1 3] 0 setdash
2 LJ
0.667 LW
N
1479.804 91.891 M
1461.342 89.724 L
S
GR
GS
[0.75 0 0 0.75 0 0] CT
0.4 GC
[1 3] 0 setdash
2 LJ
0.667 LW
N
1461.342 89.724 M
1442.806 89 L
S
GR
GS
[0.75 0 0 0.75 0 0] CT
0.4 GC
[1 3] 0 setdash
2 LJ
0.667 LW
N
1442.806 89 M
1424.271 89.723 L
S
GR
GS
[0.75 0 0 0.75 0 0] CT
0.4 GC
[1 3] 0 setdash
2 LJ
0.667 LW
N
1670.257 221.887 M
1657.994 204.616 L
S
GR
GS
[0.75 0 0 0.75 0 0] CT
0.4 GC
[1 3] 0 setdash
2 LJ
0.667 LW
N
1405.808 91.889 M
1387.492 95.49 L
S
GR
GS
[0.75 0 0 0.75 0 0] CT
0.4 GC
[1 3] 0 setdash
2 LJ
0.667 LW
N
1387.492 95.49 M
1369.394 100.512 L
S
GR
GS
[0.75 0 0 0.75 0 0] CT
0.4 GC
[1 3] 0 setdash
2 LJ
0.667 LW
N
1369.394 100.512 M
1351.585 106.935 L
S
GR
GS
[0.75 0 0 0.75 0 0] CT
0.4 GC
[1 3] 0 setdash
2 LJ
0.667 LW
N
1351.585 106.935 M
1334.137 114.733 L
S
GR
GS
[0.75 0 0 0.75 0 0] CT
0.4 GC
[1 3] 0 setdash
2 LJ
0.667 LW
N
1334.137 114.733 M
1317.117 123.877 L
S
GR
GS
[0.75 0 0 0.75 0 0] CT
0.4 GC
[1 3] 0 setdash
2 LJ
0.667 LW
N
1317.117 123.877 M
1300.594 134.329 L
S
GR
GS
[0.75 0 0 0.75 0 0] CT
0.4 GC
[1 3] 0 setdash
2 LJ
0.667 LW
N
1300.594 134.329 M
1284.631 146.048 L
S
GR
GS
[0.75 0 0 0.75 0 0] CT
0.4 GC
[1 3] 0 setdash
2 LJ
0.667 LW
N
1284.631 146.048 M
1269.293 158.989 L
S
GR
GS
[0.75 0 0 0.75 0 0] CT
0.4 GC
[1 3] 0 setdash
2 LJ
0.667 LW
N
1269.293 158.989 M
1254.639 173.1 L
S
GR
GS
[0.75 0 0 0.75 0 0] CT
0.4 GC
[1 3] 0 setdash
2 LJ
0.667 LW
N
1254.639 173.1 M
1240.729 188.325 L
S
GR
GS
[0.75 0 0 0.75 0 0] CT
0.4 GC
[1 3] 0 setdash
2 LJ
0.667 LW
N
1240.729 188.325 M
1227.615 204.605 L
S
GR
GS
[0.75 0 0 0.75 0 0] CT
0.4 GC
[1 3] 0 setdash
2 LJ
0.667 LW
N
1227.615 204.605 M
1215.351 221.875 L
S
GR
GS
[0.75 0 0 0.75 0 0] CT
0.4 GC
[1 3] 0 setdash
2 LJ
0.667 LW
N
1215.351 221.875 M
1203.984 240.067 L
S
GR
GS
[0.75 0 0 0.75 0 0] CT
0.4 GC
[1 3] 0 setdash
2 LJ
0.667 LW
N
1203.984 240.067 M
1193.56 259.109 L
S
GR
GS
[0.75 0 0 0.75 0 0] CT
0.4 GC
[1 3] 0 setdash
2 LJ
0.667 LW
N
1193.56 259.109 M
1184.119 278.926 L
S
GR
GS
[0.75 0 0 0.75 0 0] CT
0.4 GC
[1 3] 0 setdash
2 LJ
0.667 LW
N
1738 455.5 M
1737.417 432.488 L
S
GR
GS
[0.75 0 0 0.75 0 0] CT
0.4 GC
[1 3] 0 setdash
2 LJ
0.667 LW
N
1737.417 432.488 M
1735.672 409.566 L
S
GR
GS
[0.75 0 0 0.75 0 0] CT
0.4 GC
[1 3] 0 setdash
2 LJ
0.667 LW
N
1735.672 409.566 M
1732.771 386.826 L
S
GR
GS
[0.75 0 0 0.75 0 0] CT
0.4 GC
[1 3] 0 setdash
2 LJ
0.667 LW
N
1732.771 386.826 M
1728.726 364.356 L
S
GR
GS
[0.75 0 0 0.75 0 0] CT
0.4 GC
[1 3] 0 setdash
2 LJ
0.667 LW
N
1728.726 364.356 M
1723.552 342.247 L
S
GR
GS
[0.75 0 0 0.75 0 0] CT
0.4 GC
[1 3] 0 setdash
2 LJ
0.667 LW
N
1723.552 342.247 M
1717.271 320.584 L
S
GR
GS
[0.75 0 0 0.75 0 0] CT
0.4 GC
[1 3] 0 setdash
2 LJ
0.667 LW
N
1717.271 320.584 M
1709.906 299.454 L
S
GR
GS
[0.75 0 0 0.75 0 0] CT
0.4 GC
[1 3] 0 setdash
2 LJ
0.667 LW
N
1709.906 299.454 M
1701.487 278.939 L
S
GR
GS
[0.75 0 0 0.75 0 0] CT
0.4 GC
[1 3] 0 setdash
2 LJ
0.667 LW
N
1701.487 278.939 M
1692.047 259.122 L
S
GR
GS
[0.75 0 0 0.75 0 0] CT
0.4 GC
[1 3] 0 setdash
2 LJ
0.667 LW
N
1692.047 259.122 M
1681.623 240.079 L
S
GR
GS
[0.75 0 0 0.75 0 0] CT
0.4 GC
[1 3] 0 setdash
2 LJ
0.667 LW
N
1681.623 240.079 M
1670.257 221.887 L
S
GR
GS
[0.75 0 0 0.75 0 0] CT
0.4 GC
[1 3] 0 setdash
2 LJ
0.667 LW
N
1616.297 752.02 M
1630.951 737.91 L
S
GR
GS
[0.75 0 0 0.75 0 0] CT
0.4 GC
[1 3] 0 setdash
2 LJ
0.667 LW
N
1369.369 810.48 M
1387.467 815.504 L
S
GR
GS
[0.75 0 0 0.75 0 0] CT
0.4 GC
[1 3] 0 setdash
2 LJ
0.667 LW
N
1387.467 815.504 M
1405.783 819.107 L
S
GR
GS
[0.75 0 0 0.75 0 0] CT
0.4 GC
[1 3] 0 setdash
2 LJ
0.667 LW
N
1405.783 819.107 M
1424.246 821.275 L
S
GR
GS
[0.75 0 0 0.75 0 0] CT
0.4 GC
[1 3] 0 setdash
2 LJ
0.667 LW
N
1424.246 821.275 M
1442.781 822 L
S
GR
GS
[0.75 0 0 0.75 0 0] CT
0.4 GC
[1 3] 0 setdash
2 LJ
0.667 LW
N
1442.781 822 M
1461.317 821.278 L
S
GR
GS
[0.75 0 0 0.75 0 0] CT
0.4 GC
[1 3] 0 setdash
2 LJ
0.667 LW
N
1461.317 821.278 M
1479.779 819.113 L
S
GR
GS
[0.75 0 0 0.75 0 0] CT
0.4 GC
[1 3] 0 setdash
2 LJ
0.667 LW
N
1479.779 819.113 M
1498.096 815.513 L
S
GR
GS
[0.75 0 0 0.75 0 0] CT
0.4 GC
[1 3] 0 setdash
2 LJ
0.667 LW
N
1498.096 815.513 M
1516.194 810.492 L
S
GR
GS
[0.75 0 0 0.75 0 0] CT
0.4 GC
[1 3] 0 setdash
2 LJ
0.667 LW
N
1516.194 810.492 M
1534.003 804.07 L
S
GR
GS
[0.75 0 0 0.75 0 0] CT
0.4 GC
[1 3] 0 setdash
2 LJ
0.667 LW
N
1534.003 804.07 M
1551.451 796.272 L
S
GR
GS
[0.75 0 0 0.75 0 0] CT
0.4 GC
[1 3] 0 setdash
2 LJ
0.667 LW
N
1551.451 796.272 M
1568.471 787.13 L
S
GR
GS
[0.75 0 0 0.75 0 0] CT
0.4 GC
[1 3] 0 setdash
2 LJ
0.667 LW
N
1568.471 787.13 M
1584.995 776.679 L
S
GR
GS
[0.75 0 0 0.75 0 0] CT
0.4 GC
[1 3] 0 setdash
2 LJ
0.667 LW
N
1584.995 776.679 M
1600.958 764.96 L
S
GR
GS
[0.75 0 0 0.75 0 0] CT
0.4 GC
[1 3] 0 setdash
2 LJ
0.667 LW
N
1600.958 764.96 M
1616.297 752.02 L
S
GR
GS
[0.75 0 0 0.75 0 0] CT
0.4 GC
[1 3] 0 setdash
2 LJ
0.667 LW
N
1351.561 804.055 M
1369.369 810.48 L
S
GR
GS
[0.75 0 0 0.75 0 0] CT
0.4 GC
[1 3] 0 setdash
2 LJ
0.667 LW
N
1630.951 737.91 M
1644.862 722.686 L
S
GR
GS
[0.75 0 0 0.75 0 0] CT
0.4 GC
[1 3] 0 setdash
2 LJ
0.667 LW
N
1644.862 722.686 M
1657.976 706.407 L
S
GR
GS
[0.75 0 0 0.75 0 0] CT
0.4 GC
[1 3] 0 setdash
2 LJ
0.667 LW
N
1657.976 706.407 M
1670.241 689.137 L
S
GR
GS
[0.75 0 0 0.75 0 0] CT
0.4 GC
[1 3] 0 setdash
2 LJ
0.667 LW
N
1670.241 689.137 M
1681.609 670.946 L
S
GR
GS
[0.75 0 0 0.75 0 0] CT
0.4 GC
[1 3] 0 setdash
2 LJ
0.667 LW
N
1681.609 670.946 M
1692.033 651.905 L
S
GR
GS
[0.75 0 0 0.75 0 0] CT
0.4 GC
[1 3] 0 setdash
2 LJ
0.667 LW
N
1692.033 651.905 M
1701.475 632.088 L
S
GR
GS
[0.75 0 0 0.75 0 0] CT
0.4 GC
[1 3] 0 setdash
2 LJ
0.667 LW
N
1701.475 632.088 M
1709.895 611.574 L
S
GR
GS
[0.75 0 0 0.75 0 0] CT
0.4 GC
[1 3] 0 setdash
2 LJ
0.667 LW
N
1709.895 611.574 M
1717.261 590.445 L
S
GR
GS
[0.75 0 0 0.75 0 0] CT
0.4 GC
[1 3] 0 setdash
2 LJ
0.667 LW
N
1717.261 590.445 M
1723.544 568.783 L
S
GR
GS
[0.75 0 0 0.75 0 0] CT
0.4 GC
[1 3] 0 setdash
2 LJ
0.667 LW
N
1723.544 568.783 M
1728.72 546.674 L
S
GR
GS
[0.75 0 0 0.75 0 0] CT
0.4 GC
[1 3] 0 setdash
2 LJ
0.667 LW
N
1728.72 546.674 M
1732.767 524.205 L
S
GR
GS
[0.75 0 0 0.75 0 0] CT
0.4 GC
[1 3] 0 setdash
2 LJ
0.667 LW
N
1732.767 524.205 M
1735.669 501.465 L
S
GR
GS
[0.75 0 0 0.75 0 0] CT
0.4 GC
[1 3] 0 setdash
2 LJ
0.667 LW
N
1735.669 501.465 M
1737.416 478.544 L
S
GR
GS
[0.75 0 0 0.75 0 0] CT
0.4 GC
[1 3] 0 setdash
2 LJ
0.667 LW
N
1737.416 478.544 M
1738 455.531 L
S
GR
GS
[0.75 0 0 0.75 0 0] CT
0.4 GC
[1 3] 0 setdash
2 LJ
0.667 LW
N
1168.325 590.401 M
1175.689 611.532 L
S
GR
GS
[0.75 0 0 0.75 0 0] CT
0.4 GC
[1 3] 0 setdash
2 LJ
0.667 LW
N
1184.119 278.926 M
1175.7 299.44 L
S
GR
GS
[0.75 0 0 0.75 0 0] CT
0.4 GC
[1 3] 0 setdash
2 LJ
0.667 LW
N
1175.7 299.44 M
1168.334 320.57 L
S
GR
GS
[0.75 0 0 0.75 0 0] CT
0.4 GC
[1 3] 0 setdash
2 LJ
0.667 LW
N
1168.334 320.57 M
1162.052 342.232 L
S
GR
GS
[0.75 0 0 0.75 0 0] CT
0.4 GC
[1 3] 0 setdash
2 LJ
0.667 LW
N
1162.052 342.232 M
1156.877 364.341 L
S
GR
GS
[0.75 0 0 0.75 0 0] CT
0.4 GC
[1 3] 0 setdash
2 LJ
0.667 LW
N
1156.877 364.341 M
1152.831 386.81 L
S
GR
GS
[0.75 0 0 0.75 0 0] CT
0.4 GC
[1 3] 0 setdash
2 LJ
0.667 LW
N
1152.831 386.81 M
1149.929 409.55 L
S
GR
GS
[0.75 0 0 0.75 0 0] CT
0.4 GC
[1 3] 0 setdash
2 LJ
0.667 LW
N
1149.929 409.55 M
1148.183 432.472 L
S
GR
GS
[0.75 0 0 0.75 0 0] CT
0.4 GC
[1 3] 0 setdash
2 LJ
0.667 LW
N
1148.183 432.472 M
1147.6 455.484 L
S
GR
GS
[0.75 0 0 0.75 0 0] CT
0.4 GC
[1 3] 0 setdash
2 LJ
0.667 LW
N
1147.6 455.484 M
1148.182 478.497 L
S
GR
GS
[0.75 0 0 0.75 0 0] CT
0.4 GC
[1 3] 0 setdash
2 LJ
0.667 LW
N
1148.182 478.497 M
1149.926 501.418 L
S
GR
GS
[0.75 0 0 0.75 0 0] CT
0.4 GC
[1 3] 0 setdash
2 LJ
0.667 LW
N
1149.926 501.418 M
1152.826 524.159 L
S
GR
GS
[0.75 0 0 0.75 0 0] CT
0.4 GC
[1 3] 0 setdash
2 LJ
0.667 LW
N
1152.826 524.159 M
1156.871 546.628 L
S
GR
GS
[0.75 0 0 0.75 0 0] CT
0.4 GC
[1 3] 0 setdash
2 LJ
0.667 LW
N
1156.871 546.628 M
1162.044 568.738 L
S
GR
GS
[0.75 0 0 0.75 0 0] CT
0.4 GC
[1 3] 0 setdash
2 LJ
0.667 LW
N
1162.044 568.738 M
1168.325 590.401 L
S
GR
GS
[0.75 0 0 0.75 0 0] CT
0.4 GC
[1 3] 0 setdash
2 LJ
0.667 LW
N
1175.689 611.532 M
1184.107 632.047 L
S
GR
GS
[0.75 0 0 0.75 0 0] CT
0.4 GC
[1 3] 0 setdash
2 LJ
0.667 LW
N
1184.107 632.047 M
1193.546 651.865 L
S
GR
GS
[0.75 0 0 0.75 0 0] CT
0.4 GC
[1 3] 0 setdash
2 LJ
0.667 LW
N
1193.546 651.865 M
1203.969 670.908 L
S
GR
GS
[0.75 0 0 0.75 0 0] CT
0.4 GC
[1 3] 0 setdash
2 LJ
0.667 LW
N
1203.969 670.908 M
1215.335 689.101 L
S
GR
GS
[0.75 0 0 0.75 0 0] CT
0.4 GC
[1 3] 0 setdash
2 LJ
0.667 LW
N
1215.335 689.101 M
1227.598 706.372 L
S
GR
GS
[0.75 0 0 0.75 0 0] CT
0.4 GC
[1 3] 0 setdash
2 LJ
0.667 LW
N
1227.598 706.372 M
1240.71 722.654 L
S
GR
GS
[0.75 0 0 0.75 0 0] CT
0.4 GC
[1 3] 0 setdash
2 LJ
0.667 LW
N
1240.71 722.654 M
1254.62 737.88 L
S
GR
GS
[0.75 0 0 0.75 0 0] CT
0.4 GC
[1 3] 0 setdash
2 LJ
0.667 LW
N
1254.62 737.88 M
1269.273 751.993 L
S
GR
GS
[0.75 0 0 0.75 0 0] CT
0.4 GC
[1 3] 0 setdash
2 LJ
0.667 LW
N
1269.273 751.993 M
1284.61 764.935 L
S
GR
GS
[0.75 0 0 0.75 0 0] CT
0.4 GC
[1 3] 0 setdash
2 LJ
0.667 LW
N
1284.61 764.935 M
1300.572 776.656 L
S
GR
GS
[0.75 0 0 0.75 0 0] CT
0.4 GC
[1 3] 0 setdash
2 LJ
0.667 LW
N
1300.572 776.656 M
1317.094 787.11 L
S
GR
GS
[0.75 0 0 0.75 0 0] CT
0.4 GC
[1 3] 0 setdash
2 LJ
0.667 LW
N
1317.094 787.11 M
1334.114 796.255 L
S
GR
GS
[0.75 0 0 0.75 0 0] CT
0.4 GC
[1 3] 0 setdash
2 LJ
0.667 LW
N
1334.114 796.255 M
1351.561 804.055 L
S
GR
GS
[0.75 0 0 0.75 0 0] CT
0.4 GC
[1 3] 0 setdash
2 LJ
0.667 LW
N
261.824 455.5 M
1147.6 455.5 L
S
GR
GS
[0.75 0 0 0.75 0 0] CT
0.4 GC
[1 3] 0 setdash
2 LJ
0.667 LW
N
1147.6 455.5 M
1442.8 455.5 L
S
GR
GS
[0.75 0 0 0.75 0 0] CT
0.4 GC
[1 3] 0 setdash
2 LJ
0.667 LW
N
1442.8 455.5 M
1738 455.5 L
S
GR
GS
[0.75 0 0 0.75 0 0] CT
0.4 GC
[1 3] 0 setdash
2 LJ
0.667 LW
N
1738 455.5 M
1738.176 455.5 L
S
GR
GS
[0.75 0 0 0.75 0 0] CT
0.4 GC
[1 3] 0 setdash
2 LJ
0.667 LW
N
1442.8 89 M
1442.8 88.913 L
S
GR
GS
[0.75 0 0 0.75 0 0] CT
0.4 GC
[1 3] 0 setdash
2 LJ
0.667 LW
N
1442.8 822.087 M
1442.8 822 L
S
GR
GS
[0.75 0 0 0.75 0 0] CT
0.4 GC
[1 3] 0 setdash
2 LJ
0.667 LW
N
1442.8 822 M
1442.8 455.5 L
S
GR
GS
[0.75 0 0 0.75 0 0] CT
0.4 GC
[1 3] 0 setdash
2 LJ
0.667 LW
N
1442.8 455.5 M
1442.8 89 L
S
GR
GS
[0.75 0 0 0.75 976.23724 341.625] CT
0 0.447 0.741 RC
10.0 ML
0.667 LW
N
3.5 -0.5 M
3.5 -2.709 1.709 -4.5 -0.5 -4.5 C
-2.709 -4.5 -4.5 -2.709 -4.5 -0.5 C
-4.5 1.709 -2.709 3.5 -0.5 3.5 C
1.709 3.5 3.5 1.709 3.5 -0.5 C
S
GR
GS
[0.75 0 0 0.75 1120.62396 507.71745] CT
0 0.447 0.741 RC
10.0 ML
0.667 LW
N
3.5 -0.5 M
3.5 -2.709 1.709 -4.5 -0.5 -4.5 C
-2.709 -4.5 -4.5 -2.709 -4.5 -0.5 C
-4.5 1.709 -2.709 3.5 -0.5 3.5 C
1.709 3.5 3.5 1.709 3.5 -0.5 C
S
GR
GS
[0.75 0 0 0.75 1120.62396 175.53255] CT
0 0.447 0.741 RC
10.0 ML
0.667 LW
N
3.5 -0.5 M
3.5 -2.709 1.709 -4.5 -0.5 -4.5 C
-2.709 -4.5 -4.5 -2.709 -4.5 -0.5 C
-4.5 1.709 -2.709 3.5 -0.5 3.5 C
1.709 3.5 3.5 1.709 3.5 -0.5 C
S
GR
GS
[0.75 0 0 0.75 1036.32019 567.43153] CT
0 0.447 0.741 RC
10.0 ML
0.667 LW
N
3.5 -0.5 M
3.5 -2.709 1.709 -4.5 -0.5 -4.5 C
-2.709 -4.5 -4.5 -2.709 -4.5 -0.5 C
-4.5 1.709 -2.709 3.5 -0.5 3.5 C
1.709 3.5 3.5 1.709 3.5 -0.5 C
S
GR
GS
[0.75 0 0 0.75 1036.32019 115.81844] CT
0 0.447 0.741 RC
10.0 ML
0.667 LW
N
3.5 -0.5 M
3.5 -2.709 1.709 -4.5 -0.5 -4.5 C
-2.709 -4.5 -4.5 -2.709 -4.5 -0.5 C
-4.5 1.709 -2.709 3.5 -0.5 3.5 C
1.709 3.5 3.5 1.709 3.5 -0.5 C
S
GR
GS
[0.75 0 0 0.75 1254.52753 414.88321] CT
0 0.447 0.741 RC
10.0 ML
0.667 LW
N
3.5 -0.5 M
3.5 -2.709 1.709 -4.5 -0.5 -4.5 C
-2.709 -4.5 -4.5 -2.709 -4.5 -0.5 C
-4.5 1.709 -2.709 3.5 -0.5 3.5 C
1.709 3.5 3.5 1.709 3.5 -0.5 C
S
GR
GS
[0.75 0 0 0.75 1254.52753 268.36681] CT
0 0.447 0.741 RC
10.0 ML
0.667 LW
N
3.5 -0.5 M
3.5 -2.709 1.709 -4.5 -0.5 -4.5 C
-2.709 -4.5 -4.5 -2.709 -4.5 -0.5 C
-4.5 1.709 -2.709 3.5 -0.5 3.5 C
1.709 3.5 3.5 1.709 3.5 -0.5 C
S
GR
GS
[0.75 0 0 0.75 1289.02734 341.625] CT
0 0.447 0.741 RC
10.0 ML
0.667 LW
N
3.5 -0.5 M
3.5 -2.709 1.709 -4.5 -0.5 -4.5 C
-2.709 -4.5 -4.5 -2.709 -4.5 -0.5 C
-4.5 1.709 -2.709 3.5 -0.5 3.5 C
1.709 3.5 3.5 1.709 3.5 -0.5 C
S
GR
GS
[0.75 0 0 0.75 337.9143 341.625] CT
0 0.447 0.741 RC
10.0 ML
0.667 LW
N
3.5 -0.5 M
3.5 -2.709 1.709 -4.5 -0.5 -4.5 C
-2.709 -4.5 -4.5 -2.709 -4.5 -0.5 C
-4.5 1.709 -2.709 3.5 -0.5 3.5 C
1.709 3.5 3.5 1.709 3.5 -0.5 C
S
GR
GS
[0.75 0 0 0.75 1263.8215 391.56477] CT
0 0.447 0.741 RC
10.0 ML
0.667 LW
N
-3.3 -3.3 M
3.3 3.3 L
-3.3 3.3 M
3.3 -3.3 L
S
GR
GS
[0.75 0 0 0.75 1263.8215 291.6852] CT
0 0.447 0.741 RC
10.0 ML
0.667 LW
N
-3.3 -3.3 M
3.3 3.3 L
-3.3 3.3 M
3.3 -3.3 L
S
GR
GS
[0.75 0 0 0.75 1267.16647 455.60326] CT
0 0.447 0.741 RC
10.0 ML
0.667 LW
N
-3.3 -3.3 M
3.3 3.3 L
-3.3 3.3 M
3.3 -3.3 L
S
GR
GS
[0.75 0 0 0.75 1267.16647 227.64677] CT
0 0.447 0.741 RC
10.0 ML
0.667 LW
N
-3.3 -3.3 M
3.3 3.3 L
-3.3 3.3 M
3.3 -3.3 L
S
GR
GS
[0.75 0 0 0.75 1190.05179 543.55074] CT
0 0.447 0.741 RC
10.0 ML
0.667 LW
N
-3.3 -3.3 M
3.3 3.3 L
-3.3 3.3 M
3.3 -3.3 L
S
GR
GS
[0.75 0 0 0.75 1190.05179 139.69926] CT
0 0.447 0.741 RC
10.0 ML
0.667 LW
N
-3.3 -3.3 M
3.3 3.3 L
-3.3 3.3 M
3.3 -3.3 L
S
GR
GS
[0.75 0 0 0.75 1145.57318 575.40239] CT
0 0.447 0.741 RC
10.0 ML
0.667 LW
N
-3.3 -3.3 M
3.3 3.3 L
-3.3 3.3 M
3.3 -3.3 L
S
GR
GS
[0.75 0 0 0.75 1145.57318 107.84763] CT
0 0.447 0.741 RC
10.0 ML
0.667 LW
N
-3.3 -3.3 M
3.3 3.3 L
-3.3 3.3 M
3.3 -3.3 L
S
GR
GS
[0.75 0 0 0.75 1058.61356 602.81012] CT
0 0.447 0.741 RC
10.0 ML
0.667 LW
N
-3.3 -3.3 M
3.3 3.3 L
-3.3 3.3 M
3.3 -3.3 L
S
GR
GS
[0.75 0 0 0.75 1058.61356 80.4399] CT
0 0.447 0.741 RC
10.0 ML
0.667 LW
N
-3.3 -3.3 M
3.3 3.3 L
-3.3 3.3 M
3.3 -3.3 L
S
GR
GS
[0.75 0 0 0.75 749.25 61.455] CT
/Helvetica-Bold 14.667 F
GS
[1 0 0 1 0 0] CT
-61.5 -4 moveto 
1 -1 scale
(Pole-Zero Map) t 
GR
GR
GS
[0.75 0 0 0.75 749.25 632.75002] CT
/Helvetica 14.667 F
GS
[1 0 0 1 0 0] CT
-34.5 14 moveto 
1 -1 scale
(Real Axis) t 
GR
GR
GS
[0 -0.75 0.75 0 170 342.3525] CT
/Helvetica 14.667 F
GS
[1 0 0 1 0 0] CT
-56 -4 moveto 
1 -1 scale
(Imaginary Axis) t 
GR
GR
%%Trailer
%%Pages: 1
%%EOF
