%!PS-Adobe-3.0 EPSF-3.0
%%Creator: (MATLAB, The Mathworks, Inc. Version 9.1.0.441655 \(R2016b\). Operating System: Windows 8)
%%Title: C:/Users/simon/Documents/Unief/M1/System_Identification_and_Modeling/Oefenzittingen/Oefenzitting_1/git/Oefenzitting_3/plots/pzmap_ax_9_16.eps
%%CreationDate: 2016-12-21T18:07:09
%%Pages: (atend)
%%BoundingBox: 0 0 575 556
%%LanguageLevel: 3
%%EndComments
%%BeginProlog
%%BeginResource: procset (Apache XML Graphics Std ProcSet) 1.2 0
%%Version: 1.2 0
%%Copyright: (Copyright 2001-2003,2010 The Apache Software Foundation. License terms: http://www.apache.org/licenses/LICENSE-2.0)
/bd{bind def}bind def
/ld{load def}bd
/GR/grestore ld
/M/moveto ld
/LJ/setlinejoin ld
/C/curveto ld
/f/fill ld
/LW/setlinewidth ld
/GC/setgray ld
/t/show ld
/N/newpath ld
/CT/concat ld
/cp/closepath ld
/S/stroke ld
/L/lineto ld
/CC/setcmykcolor ld
/A/ashow ld
/GS/gsave ld
/RC/setrgbcolor ld
/RM/rmoveto ld
/ML/setmiterlimit ld
/re {4 2 roll M
1 index 0 rlineto
0 exch rlineto
neg 0 rlineto
cp } bd
/_ctm matrix def
/_tm matrix def
/BT { _ctm currentmatrix pop matrix _tm copy pop 0 0 moveto } bd
/ET { _ctm setmatrix } bd
/iTm { _ctm setmatrix _tm concat } bd
/Tm { _tm astore pop iTm 0 0 moveto } bd
/ux 0.0 def
/uy 0.0 def
/F {
  /Tp exch def
  /Tf exch def
  Tf findfont Tp scalefont setfont
  /cf Tf def  /cs Tp def
} bd
/ULS {currentpoint /uy exch def /ux exch def} bd
/ULE {
  /Tcx currentpoint pop def
  gsave
  newpath
  cf findfont cs scalefont dup
  /FontMatrix get 0 get /Ts exch def /FontInfo get dup
  /UnderlinePosition get Ts mul /To exch def
  /UnderlineThickness get Ts mul /Tt exch def
  ux uy To add moveto  Tcx uy To add lineto
  Tt setlinewidth stroke
  grestore
} bd
/OLE {
  /Tcx currentpoint pop def
  gsave
  newpath
  cf findfont cs scalefont dup
  /FontMatrix get 0 get /Ts exch def /FontInfo get dup
  /UnderlinePosition get Ts mul /To exch def
  /UnderlineThickness get Ts mul /Tt exch def
  ux uy To add cs add moveto Tcx uy To add cs add lineto
  Tt setlinewidth stroke
  grestore
} bd
/SOE {
  /Tcx currentpoint pop def
  gsave
  newpath
  cf findfont cs scalefont dup
  /FontMatrix get 0 get /Ts exch def /FontInfo get dup
  /UnderlinePosition get Ts mul /To exch def
  /UnderlineThickness get Ts mul /Tt exch def
  ux uy To add cs 10 mul 26 idiv add moveto Tcx uy To add cs 10 mul 26 idiv add lineto
  Tt setlinewidth stroke
  grestore
} bd
/QT {
/Y22 exch store
/X22 exch store
/Y21 exch store
/X21 exch store
currentpoint
/Y21 load 2 mul add 3 div exch
/X21 load 2 mul add 3 div exch
/X21 load 2 mul /X22 load add 3 div
/Y21 load 2 mul /Y22 load add 3 div
/X22 load /Y22 load curveto
} bd
/SSPD {
dup length /d exch dict def
{
/v exch def
/k exch def
currentpagedevice k known {
/cpdv currentpagedevice k get def
v cpdv ne {
/upd false def
/nullv v type /nulltype eq def
/nullcpdv cpdv type /nulltype eq def
nullv nullcpdv or
{
/upd true def
} {
/sametype v type cpdv type eq def
sametype {
v type /arraytype eq {
/vlen v length def
/cpdvlen cpdv length def
vlen cpdvlen eq {
0 1 vlen 1 sub {
/i exch def
/obj v i get def
/cpdobj cpdv i get def
obj cpdobj ne {
/upd true def
exit
} if
} for
} {
/upd true def
} ifelse
} {
v type /dicttype eq {
v {
/dv exch def
/dk exch def
/cpddv cpdv dk get def
dv cpddv ne {
/upd true def
exit
} if
} forall
} {
/upd true def
} ifelse
} ifelse
} if
} ifelse
upd true eq {
d k v put
} if
} if
} if
} forall
d length 0 gt {
d setpagedevice
} if
} bd
/RE { % /NewFontName [NewEncodingArray] /FontName RE -
  findfont dup length dict begin
  {
    1 index /FID ne
    {def} {pop pop} ifelse
  } forall
  /Encoding exch def
  /FontName 1 index def
  currentdict definefont pop
  end
} bind def
%%EndResource
%%BeginResource: procset (Apache XML Graphics EPS ProcSet) 1.0 0
%%Version: 1.0 0
%%Copyright: (Copyright 2002-2003 The Apache Software Foundation. License terms: http://www.apache.org/licenses/LICENSE-2.0)
/BeginEPSF { %def
/b4_Inc_state save def         % Save state for cleanup
/dict_count countdictstack def % Count objects on dict stack
/op_count count 1 sub def      % Count objects on operand stack
userdict begin                 % Push userdict on dict stack
/showpage { } def              % Redefine showpage, { } = null proc
0 setgray 0 setlinecap         % Prepare graphics state
1 setlinewidth 0 setlinejoin
10 setmiterlimit [ ] 0 setdash newpath
/languagelevel where           % If level not equal to 1 then
{pop languagelevel             % set strokeadjust and
1 ne                           % overprint to their defaults.
{false setstrokeadjust false setoverprint
} if
} if
} bd
/EndEPSF { %def
count op_count sub {pop} repeat            % Clean up stacks
countdictstack dict_count sub {end} repeat
b4_Inc_state restore
} bd
%%EndResource
%FOPBeginFontDict
%%IncludeResource: font Courier-Bold
%%IncludeResource: font Helvetica
%%IncludeResource: font Courier-BoldOblique
%%IncludeResource: font Courier-Oblique
%%IncludeResource: font Times-Roman
%%IncludeResource: font Helvetica-BoldOblique
%%IncludeResource: font Helvetica-Bold
%%IncludeResource: font Helvetica-Oblique
%%IncludeResource: font Times-BoldItalic
%%IncludeResource: font Courier
%%IncludeResource: font Times-Italic
%%IncludeResource: font Times-Bold
%%IncludeResource: font Symbol
%%IncludeResource: font ZapfDingbats
%FOPEndFontDict
%%BeginResource: encoding WinAnsiEncoding
/WinAnsiEncoding [
/.notdef /.notdef /.notdef /.notdef /.notdef
/.notdef /.notdef /.notdef /.notdef /.notdef
/.notdef /.notdef /.notdef /.notdef /.notdef
/.notdef /.notdef /.notdef /.notdef /.notdef
/.notdef /.notdef /.notdef /.notdef /.notdef
/.notdef /.notdef /.notdef /.notdef /.notdef
/.notdef /.notdef /space /exclam /quotedbl
/numbersign /dollar /percent /ampersand /quotesingle
/parenleft /parenright /asterisk /plus /comma
/hyphen /period /slash /zero /one
/two /three /four /five /six
/seven /eight /nine /colon /semicolon
/less /equal /greater /question /at
/A /B /C /D /E
/F /G /H /I /J
/K /L /M /N /O
/P /Q /R /S /T
/U /V /W /X /Y
/Z /bracketleft /backslash /bracketright /asciicircum
/underscore /quoteleft /a /b /c
/d /e /f /g /h
/i /j /k /l /m
/n /o /p /q /r
/s /t /u /v /w
/x /y /z /braceleft /bar
/braceright /asciitilde /bullet /Euro /bullet
/quotesinglbase /florin /quotedblbase /ellipsis /dagger
/daggerdbl /circumflex /perthousand /Scaron /guilsinglleft
/OE /bullet /Zcaron /bullet /bullet
/quoteleft /quoteright /quotedblleft /quotedblright /bullet
/endash /emdash /asciitilde /trademark /scaron
/guilsinglright /oe /bullet /zcaron /Ydieresis
/space /exclamdown /cent /sterling /currency
/yen /brokenbar /section /dieresis /copyright
/ordfeminine /guillemotleft /logicalnot /sfthyphen /registered
/macron /degree /plusminus /twosuperior /threesuperior
/acute /mu /paragraph /middot /cedilla
/onesuperior /ordmasculine /guillemotright /onequarter /onehalf
/threequarters /questiondown /Agrave /Aacute /Acircumflex
/Atilde /Adieresis /Aring /AE /Ccedilla
/Egrave /Eacute /Ecircumflex /Edieresis /Igrave
/Iacute /Icircumflex /Idieresis /Eth /Ntilde
/Ograve /Oacute /Ocircumflex /Otilde /Odieresis
/multiply /Oslash /Ugrave /Uacute /Ucircumflex
/Udieresis /Yacute /Thorn /germandbls /agrave
/aacute /acircumflex /atilde /adieresis /aring
/ae /ccedilla /egrave /eacute /ecircumflex
/edieresis /igrave /iacute /icircumflex /idieresis
/eth /ntilde /ograve /oacute /ocircumflex
/otilde /odieresis /divide /oslash /ugrave
/uacute /ucircumflex /udieresis /yacute /thorn
/ydieresis
] def
%%EndResource
%FOPBeginFontReencode
/Courier-Bold findfont
dup length dict begin
  {1 index /FID ne {def} {pop pop} ifelse} forall
  /Encoding WinAnsiEncoding def
  currentdict
end
/Courier-Bold exch definefont pop
/Helvetica findfont
dup length dict begin
  {1 index /FID ne {def} {pop pop} ifelse} forall
  /Encoding WinAnsiEncoding def
  currentdict
end
/Helvetica exch definefont pop
/Courier-BoldOblique findfont
dup length dict begin
  {1 index /FID ne {def} {pop pop} ifelse} forall
  /Encoding WinAnsiEncoding def
  currentdict
end
/Courier-BoldOblique exch definefont pop
/Courier-Oblique findfont
dup length dict begin
  {1 index /FID ne {def} {pop pop} ifelse} forall
  /Encoding WinAnsiEncoding def
  currentdict
end
/Courier-Oblique exch definefont pop
/Times-Roman findfont
dup length dict begin
  {1 index /FID ne {def} {pop pop} ifelse} forall
  /Encoding WinAnsiEncoding def
  currentdict
end
/Times-Roman exch definefont pop
/Helvetica-BoldOblique findfont
dup length dict begin
  {1 index /FID ne {def} {pop pop} ifelse} forall
  /Encoding WinAnsiEncoding def
  currentdict
end
/Helvetica-BoldOblique exch definefont pop
/Helvetica-Bold findfont
dup length dict begin
  {1 index /FID ne {def} {pop pop} ifelse} forall
  /Encoding WinAnsiEncoding def
  currentdict
end
/Helvetica-Bold exch definefont pop
/Helvetica-Oblique findfont
dup length dict begin
  {1 index /FID ne {def} {pop pop} ifelse} forall
  /Encoding WinAnsiEncoding def
  currentdict
end
/Helvetica-Oblique exch definefont pop
/Times-BoldItalic findfont
dup length dict begin
  {1 index /FID ne {def} {pop pop} ifelse} forall
  /Encoding WinAnsiEncoding def
  currentdict
end
/Times-BoldItalic exch definefont pop
/Courier findfont
dup length dict begin
  {1 index /FID ne {def} {pop pop} ifelse} forall
  /Encoding WinAnsiEncoding def
  currentdict
end
/Courier exch definefont pop
/Times-Italic findfont
dup length dict begin
  {1 index /FID ne {def} {pop pop} ifelse} forall
  /Encoding WinAnsiEncoding def
  currentdict
end
/Times-Italic exch definefont pop
/Times-Bold findfont
dup length dict begin
  {1 index /FID ne {def} {pop pop} ifelse} forall
  /Encoding WinAnsiEncoding def
  currentdict
end
/Times-Bold exch definefont pop
%FOPEndFontReencode
%%EndProlog
%%Page: 1 1
%%PageBoundingBox: 0 0 575 556
%%BeginPageSetup
[1 0 0 -1 0 556] CT
%%EndPageSetup
GS
[0.60063 0 0 0.6 0 0.40002] CT
N
0 0 M
957 0 L
957 926 L
0 926 L
0 0 L
cp
clip
1 GC
N
0 0 957 926 re
f
GR
GS
[0.60063 0 0 0.6 0 0.40002] CT
1 GC
N
0 0 957 926 re
f
GR
GS
[0.60063 0 0 0.6 0 0.40002] CT
1 GC
N
140 824 M
867 824 L
867 94 L
140 94 L
cp
f
GR
GS
[0.60063 0 0 0.6 0 0.40002] CT
0.4 GC
2 setlinecap
1 LJ
0.833 LW
N
140 824 M
867 824 L
S
GR
GS
[0.60063 0 0 0.6 0 0.40002] CT
0.4 GC
2 setlinecap
1 LJ
0.833 LW
N
140 94 M
867 94 L
S
GR
GS
[0.60063 0 0 0.6 0 0.40002] CT
0.4 GC
2 setlinecap
1 LJ
0.833 LW
N
140 824 M
140 816.7 L
S
GR
GS
[0.60063 0 0 0.6 0 0.40002] CT
0.4 GC
2 setlinecap
1 LJ
0.833 LW
N
261.167 824 M
261.167 816.7 L
S
GR
GS
[0.60063 0 0 0.6 0 0.40002] CT
0.4 GC
2 setlinecap
1 LJ
0.833 LW
N
382.333 824 M
382.333 816.7 L
S
GR
GS
[0.60063 0 0 0.6 0 0.40002] CT
0.4 GC
2 setlinecap
1 LJ
0.833 LW
N
503.5 824 M
503.5 816.7 L
S
GR
GS
[0.60063 0 0 0.6 0 0.40002] CT
0.4 GC
2 setlinecap
1 LJ
0.833 LW
N
624.667 824 M
624.667 816.7 L
S
GR
GS
[0.60063 0 0 0.6 0 0.40002] CT
0.4 GC
2 setlinecap
1 LJ
0.833 LW
N
745.833 824 M
745.833 816.7 L
S
GR
GS
[0.60063 0 0 0.6 0 0.40002] CT
0.4 GC
2 setlinecap
1 LJ
0.833 LW
N
867 824 M
867 816.7 L
S
GR
GS
[0.60063 0 0 0.6 0 0.40002] CT
0.4 GC
2 setlinecap
1 LJ
0.833 LW
N
140 94 M
140 101.3 L
S
GR
GS
[0.60063 0 0 0.6 0 0.40002] CT
0.4 GC
2 setlinecap
1 LJ
0.833 LW
N
261.167 94 M
261.167 101.3 L
S
GR
GS
[0.60063 0 0 0.6 0 0.40002] CT
0.4 GC
2 setlinecap
1 LJ
0.833 LW
N
382.333 94 M
382.333 101.3 L
S
GR
GS
[0.60063 0 0 0.6 0 0.40002] CT
0.4 GC
2 setlinecap
1 LJ
0.833 LW
N
503.5 94 M
503.5 101.3 L
S
GR
GS
[0.60063 0 0 0.6 0 0.40002] CT
0.4 GC
2 setlinecap
1 LJ
0.833 LW
N
624.667 94 M
624.667 101.3 L
S
GR
GS
[0.60063 0 0 0.6 0 0.40002] CT
0.4 GC
2 setlinecap
1 LJ
0.833 LW
N
745.833 94 M
745.833 101.3 L
S
GR
GS
[0.60063 0 0 0.6 0 0.40002] CT
0.4 GC
2 setlinecap
1 LJ
0.833 LW
N
867 94 M
867 101.3 L
S
GR
GS
[0.60063 0 0 0.6 84.08777 498.80001] CT
0.4 GC
/Helvetica 16.667 F
GS
[1 0 0 1 0 0] CT
-8 18 moveto 
1 -1 scale
(-5) t 
GR
GR
GS
[0.60063 0 0 0.6 156.86373 498.80001] CT
0.4 GC
/Helvetica 16.667 F
GS
[1 0 0 1 0 0] CT
-8 18 moveto 
1 -1 scale
(-4) t 
GR
GR
GS
[0.60063 0 0 0.6 229.63971 498.80001] CT
0.4 GC
/Helvetica 16.667 F
GS
[1 0 0 1 0 0] CT
-8 18 moveto 
1 -1 scale
(-3) t 
GR
GR
GS
[0.60063 0 0 0.6 302.41567 498.80001] CT
0.4 GC
/Helvetica 16.667 F
GS
[1 0 0 1 0 0] CT
-8 18 moveto 
1 -1 scale
(-2) t 
GR
GR
GS
[0.60063 0 0 0.6 375.19164 498.80001] CT
0.4 GC
/Helvetica 16.667 F
GS
[1 0 0 1 0 0] CT
-8 18 moveto 
1 -1 scale
(-1) t 
GR
GR
GS
[0.60063 0 0 0.6 447.96759 498.80001] CT
0.4 GC
/Helvetica 16.667 F
GS
[1 0 0 1 0 0] CT
-5 18 moveto 
1 -1 scale
(0) t 
GR
GR
GS
[0.60063 0 0 0.6 520.74356 498.80001] CT
0.4 GC
/Helvetica 16.667 F
GS
[1 0 0 1 0 0] CT
-5 18 moveto 
1 -1 scale
(1) t 
GR
GR
GS
[0.60063 0 0 0.6 0 0.40002] CT
0.4 GC
2 setlinecap
1 LJ
0.833 LW
N
140 824 M
140 94 L
S
GR
GS
[0.60063 0 0 0.6 0 0.40002] CT
0.4 GC
2 setlinecap
1 LJ
0.833 LW
N
867 824 M
867 94 L
S
GR
GS
[0.60063 0 0 0.6 0 0.40002] CT
0.4 GC
2 setlinecap
1 LJ
0.833 LW
N
140 824 M
147.3 824 L
S
GR
GS
[0.60063 0 0 0.6 0 0.40002] CT
0.4 GC
2 setlinecap
1 LJ
0.833 LW
N
140 751 M
147.3 751 L
S
GR
GS
[0.60063 0 0 0.6 0 0.40002] CT
0.4 GC
2 setlinecap
1 LJ
0.833 LW
N
140 678 M
147.3 678 L
S
GR
GS
[0.60063 0 0 0.6 0 0.40002] CT
0.4 GC
2 setlinecap
1 LJ
0.833 LW
N
140 605 M
147.3 605 L
S
GR
GS
[0.60063 0 0 0.6 0 0.40002] CT
0.4 GC
2 setlinecap
1 LJ
0.833 LW
N
140 532 M
147.3 532 L
S
GR
GS
[0.60063 0 0 0.6 0 0.40002] CT
0.4 GC
2 setlinecap
1 LJ
0.833 LW
N
140 459 M
147.3 459 L
S
GR
GS
[0.60063 0 0 0.6 0 0.40002] CT
0.4 GC
2 setlinecap
1 LJ
0.833 LW
N
140 386 M
147.3 386 L
S
GR
GS
[0.60063 0 0 0.6 0 0.40002] CT
0.4 GC
2 setlinecap
1 LJ
0.833 LW
N
140 313 M
147.3 313 L
S
GR
GS
[0.60063 0 0 0.6 0 0.40002] CT
0.4 GC
2 setlinecap
1 LJ
0.833 LW
N
140 240 M
147.3 240 L
S
GR
GS
[0.60063 0 0 0.6 0 0.40002] CT
0.4 GC
2 setlinecap
1 LJ
0.833 LW
N
140 167 M
147.3 167 L
S
GR
GS
[0.60063 0 0 0.6 0 0.40002] CT
0.4 GC
2 setlinecap
1 LJ
0.833 LW
N
140 94 M
147.3 94 L
S
GR
GS
[0.60063 0 0 0.6 0 0.40002] CT
0.4 GC
2 setlinecap
1 LJ
0.833 LW
N
867 824 M
859.7 824 L
S
GR
GS
[0.60063 0 0 0.6 0 0.40002] CT
0.4 GC
2 setlinecap
1 LJ
0.833 LW
N
867 751 M
859.7 751 L
S
GR
GS
[0.60063 0 0 0.6 0 0.40002] CT
0.4 GC
2 setlinecap
1 LJ
0.833 LW
N
867 678 M
859.7 678 L
S
GR
GS
[0.60063 0 0 0.6 0 0.40002] CT
0.4 GC
2 setlinecap
1 LJ
0.833 LW
N
867 605 M
859.7 605 L
S
GR
GS
[0.60063 0 0 0.6 0 0.40002] CT
0.4 GC
2 setlinecap
1 LJ
0.833 LW
N
867 532 M
859.7 532 L
S
GR
GS
[0.60063 0 0 0.6 0 0.40002] CT
0.4 GC
2 setlinecap
1 LJ
0.833 LW
N
867 459 M
859.7 459 L
S
GR
GS
[0.60063 0 0 0.6 0 0.40002] CT
0.4 GC
2 setlinecap
1 LJ
0.833 LW
N
867 386 M
859.7 386 L
S
GR
GS
[0.60063 0 0 0.6 0 0.40002] CT
0.4 GC
2 setlinecap
1 LJ
0.833 LW
N
867 313 M
859.7 313 L
S
GR
GS
[0.60063 0 0 0.6 0 0.40002] CT
0.4 GC
2 setlinecap
1 LJ
0.833 LW
N
867 240 M
859.7 240 L
S
GR
GS
[0.60063 0 0 0.6 0 0.40002] CT
0.4 GC
2 setlinecap
1 LJ
0.833 LW
N
867 167 M
859.7 167 L
S
GR
GS
[0.60063 0 0 0.6 0 0.40002] CT
0.4 GC
2 setlinecap
1 LJ
0.833 LW
N
867 94 M
859.7 94 L
S
GR
GS
[0.60063 0 0 0.6 80.08358 494.8] CT
0.4 GC
/Helvetica 16.667 F
GS
[1 0 0 1 0 0] CT
-16 7 moveto 
1 -1 scale
(-1) t 
GR
GR
GS
[0.60063 0 0 0.6 80.08358 451] CT
0.4 GC
/Helvetica 16.667 F
GS
[1 0 0 1 0 0] CT
-30 7 moveto 
1 -1 scale
(-0.8) t 
GR
GR
GS
[0.60063 0 0 0.6 80.08358 407.20001] CT
0.4 GC
/Helvetica 16.667 F
GS
[1 0 0 1 0 0] CT
-30 7 moveto 
1 -1 scale
(-0.6) t 
GR
GR
GS
[0.60063 0 0 0.6 80.08358 363.40001] CT
0.4 GC
/Helvetica 16.667 F
GS
[1 0 0 1 0 0] CT
-30 7 moveto 
1 -1 scale
(-0.4) t 
GR
GR
GS
[0.60063 0 0 0.6 80.08358 319.60001] CT
0.4 GC
/Helvetica 16.667 F
GS
[1 0 0 1 0 0] CT
-30 7 moveto 
1 -1 scale
(-0.2) t 
GR
GR
GS
[0.60063 0 0 0.6 80.08358 275.80001] CT
0.4 GC
/Helvetica 16.667 F
GS
[1 0 0 1 0 0] CT
-10 7 moveto 
1 -1 scale
(0) t 
GR
GR
GS
[0.60063 0 0 0.6 80.08358 232.00001] CT
0.4 GC
/Helvetica 16.667 F
GS
[1 0 0 1 0 0] CT
-24 7 moveto 
1 -1 scale
(0.2) t 
GR
GR
GS
[0.60063 0 0 0.6 80.08358 188.20002] CT
0.4 GC
/Helvetica 16.667 F
GS
[1 0 0 1 0 0] CT
-24 7 moveto 
1 -1 scale
(0.4) t 
GR
GR
GS
[0.60063 0 0 0.6 80.08358 144.40001] CT
0.4 GC
/Helvetica 16.667 F
GS
[1 0 0 1 0 0] CT
-24 7 moveto 
1 -1 scale
(0.6) t 
GR
GR
GS
[0.60063 0 0 0.6 80.08358 100.60002] CT
0.4 GC
/Helvetica 16.667 F
GS
[1 0 0 1 0 0] CT
-24 7 moveto 
1 -1 scale
(0.8) t 
GR
GR
GS
[0.60063 0 0 0.6 80.08358 56.80002] CT
0.4 GC
/Helvetica 16.667 F
GS
[1 0 0 1 0 0] CT
-10 7 moveto 
1 -1 scale
(1) t 
GR
GR
GS
[0.60063 0 0 0.6 0 0.40002] CT
0.4 GC
[1 3] 0 setdash
2 LJ
0.833 LW
N
139.913 459 M
624.667 459 L
S
GR
GS
[0.60063 0 0 0.6 0 0.40002] CT
0.4 GC
[1 3] 0 setdash
2 LJ
0.833 LW
N
624.667 459 M
745.833 459 L
S
GR
GS
[0.60063 0 0 0.6 0 0.40002] CT
0.4 GC
[1 3] 0 setdash
2 LJ
0.833 LW
N
745.833 459 M
867 459 L
S
GR
GS
[0.60063 0 0 0.6 0 0.40002] CT
0.4 GC
[1 3] 0 setdash
2 LJ
0.833 LW
N
867 459 M
867.087 459 L
S
GR
GS
[0.60063 0 0 0.6 0 0.40002] CT
0.4 GC
[1 3] 0 setdash
2 LJ
0.833 LW
N
745.833 824.087 M
745.833 824 L
S
GR
GS
[0.60063 0 0 0.6 0 0.40002] CT
0.4 GC
[1 3] 0 setdash
2 LJ
0.833 LW
N
745.833 824 M
745.833 459 L
S
GR
GS
[0.60063 0 0 0.6 0 0.40002] CT
0.4 GC
[1 3] 0 setdash
2 LJ
0.833 LW
N
745.833 459 M
745.833 94 L
S
GR
GS
[0.60063 0 0 0.6 0 0.40002] CT
0.4 GC
[1 3] 0 setdash
2 LJ
0.833 LW
N
745.833 94 M
745.833 93.913 L
S
GR
GS
[0.60063 0 0 0.6 0 0.40002] CT
0.4 GC
[1 3] 0 setdash
2 LJ
0.833 LW
N
867 459 M
866.761 436.082 L
S
GR
GS
[0.60063 0 0 0.6 0 0.40002] CT
0.4 GC
[1 3] 0 setdash
2 LJ
0.833 LW
N
866.761 436.082 M
866.045 413.254 L
S
GR
GS
[0.60063 0 0 0.6 0 0.40002] CT
0.4 GC
[1 3] 0 setdash
2 LJ
0.833 LW
N
866.045 413.254 M
864.854 390.607 L
S
GR
GS
[0.60063 0 0 0.6 0 0.40002] CT
0.4 GC
[1 3] 0 setdash
2 LJ
0.833 LW
N
864.854 390.607 M
863.193 368.229 L
S
GR
GS
[0.60063 0 0 0.6 0 0.40002] CT
0.4 GC
[1 3] 0 setdash
2 LJ
0.833 LW
N
863.193 368.229 M
861.07 346.21 L
S
GR
GS
[0.60063 0 0 0.6 0 0.40002] CT
0.4 GC
[1 3] 0 setdash
2 LJ
0.833 LW
N
861.07 346.21 M
858.491 324.636 L
S
GR
GS
[0.60063 0 0 0.6 0 0.40002] CT
0.4 GC
[1 3] 0 setdash
2 LJ
0.833 LW
N
858.491 324.636 M
855.469 303.593 L
S
GR
GS
[0.60063 0 0 0.6 0 0.40002] CT
0.4 GC
[1 3] 0 setdash
2 LJ
0.833 LW
N
855.469 303.593 M
852.013 283.162 L
S
GR
GS
[0.60063 0 0 0.6 0 0.40002] CT
0.4 GC
[1 3] 0 setdash
2 LJ
0.833 LW
N
852.013 283.162 M
848.138 263.426 L
S
GR
GS
[0.60063 0 0 0.6 0 0.40002] CT
0.4 GC
[1 3] 0 setdash
2 LJ
0.833 LW
N
848.138 263.426 M
843.86 244.461 L
S
GR
GS
[0.60063 0 0 0.6 0 0.40002] CT
0.4 GC
[1 3] 0 setdash
2 LJ
0.833 LW
N
843.86 244.461 M
839.195 226.343 L
S
GR
GS
[0.60063 0 0 0.6 0 0.40002] CT
0.4 GC
[1 3] 0 setdash
2 LJ
0.833 LW
N
839.195 226.343 M
834.161 209.143 L
S
GR
GS
[0.60063 0 0 0.6 0 0.40002] CT
0.4 GC
[1 3] 0 setdash
2 LJ
0.833 LW
N
834.161 209.143 M
828.779 192.929 L
S
GR
GS
[0.60063 0 0 0.6 0 0.40002] CT
0.4 GC
[1 3] 0 setdash
2 LJ
0.833 LW
N
828.779 192.929 M
823.069 177.765 L
S
GR
GS
[0.60063 0 0 0.6 0 0.40002] CT
0.4 GC
[1 3] 0 setdash
2 LJ
0.833 LW
N
823.069 177.765 M
817.055 163.712 L
S
GR
GS
[0.60063 0 0 0.6 0 0.40002] CT
0.4 GC
[1 3] 0 setdash
2 LJ
0.833 LW
N
817.055 163.712 M
810.759 150.823 L
S
GR
GS
[0.60063 0 0 0.6 0 0.40002] CT
0.4 GC
[1 3] 0 setdash
2 LJ
0.833 LW
N
810.759 150.823 M
804.207 139.151 L
S
GR
GS
[0.60063 0 0 0.6 0 0.40002] CT
0.4 GC
[1 3] 0 setdash
2 LJ
0.833 LW
N
804.207 139.151 M
797.425 128.741 L
S
GR
GS
[0.60063 0 0 0.6 0 0.40002] CT
0.4 GC
[1 3] 0 setdash
2 LJ
0.833 LW
N
797.425 128.741 M
790.44 119.634 L
S
GR
GS
[0.60063 0 0 0.6 0 0.40002] CT
0.4 GC
[1 3] 0 setdash
2 LJ
0.833 LW
N
790.44 119.634 M
783.278 111.866 L
S
GR
GS
[0.60063 0 0 0.6 0 0.40002] CT
0.4 GC
[1 3] 0 setdash
2 LJ
0.833 LW
N
783.278 111.866 M
775.968 105.469 L
S
GR
GS
[0.60063 0 0 0.6 0 0.40002] CT
0.4 GC
[1 3] 0 setdash
2 LJ
0.833 LW
N
775.968 105.469 M
768.54 100.466 L
S
GR
GS
[0.60063 0 0 0.6 0 0.40002] CT
0.4 GC
[1 3] 0 setdash
2 LJ
0.833 LW
N
768.54 100.466 M
761.022 96.879 L
S
GR
GS
[0.60063 0 0 0.6 0 0.40002] CT
0.4 GC
[1 3] 0 setdash
2 LJ
0.833 LW
N
761.022 96.879 M
753.444 94.721 L
S
GR
GS
[0.60063 0 0 0.6 0 0.40002] CT
0.4 GC
[1 3] 0 setdash
2 LJ
0.833 LW
N
753.444 94.721 M
745.836 94 L
S
GR
GS
[0.60063 0 0 0.6 0 0.40002] CT
0.4 GC
[1 3] 0 setdash
2 LJ
0.833 LW
N
745.836 94 M
738.228 94.72 L
S
GR
GS
[0.60063 0 0 0.6 0 0.40002] CT
0.4 GC
[1 3] 0 setdash
2 LJ
0.833 LW
N
738.228 94.72 M
730.65 96.877 L
S
GR
GS
[0.60063 0 0 0.6 0 0.40002] CT
0.4 GC
[1 3] 0 setdash
2 LJ
0.833 LW
N
730.65 96.877 M
723.132 100.464 L
S
GR
GS
[0.60063 0 0 0.6 0 0.40002] CT
0.4 GC
[1 3] 0 setdash
2 LJ
0.833 LW
N
723.132 100.464 M
715.703 105.465 L
S
GR
GS
[0.60063 0 0 0.6 0 0.40002] CT
0.4 GC
[1 3] 0 setdash
2 LJ
0.833 LW
N
715.703 105.465 M
708.394 111.861 L
S
GR
GS
[0.60063 0 0 0.6 0 0.40002] CT
0.4 GC
[1 3] 0 setdash
2 LJ
0.833 LW
N
708.394 111.861 M
701.232 119.628 L
S
GR
GS
[0.60063 0 0 0.6 0 0.40002] CT
0.4 GC
[1 3] 0 setdash
2 LJ
0.833 LW
N
701.232 119.628 M
694.246 128.734 L
S
GR
GS
[0.60063 0 0 0.6 0 0.40002] CT
0.4 GC
[1 3] 0 setdash
2 LJ
0.833 LW
N
694.246 128.734 M
687.464 139.143 L
S
GR
GS
[0.60063 0 0 0.6 0 0.40002] CT
0.4 GC
[1 3] 0 setdash
2 LJ
0.833 LW
N
687.464 139.143 M
680.912 150.815 L
S
GR
GS
[0.60063 0 0 0.6 0 0.40002] CT
0.4 GC
[1 3] 0 setdash
2 LJ
0.833 LW
N
680.912 150.815 M
674.616 163.702 L
S
GR
GS
[0.60063 0 0 0.6 0 0.40002] CT
0.4 GC
[1 3] 0 setdash
2 LJ
0.833 LW
N
674.616 163.702 M
668.602 177.756 L
S
GR
GS
[0.60063 0 0 0.6 0 0.40002] CT
0.4 GC
[1 3] 0 setdash
2 LJ
0.833 LW
N
668.602 177.756 M
662.892 192.919 L
S
GR
GS
[0.60063 0 0 0.6 0 0.40002] CT
0.4 GC
[1 3] 0 setdash
2 LJ
0.833 LW
N
662.892 192.919 M
657.509 209.132 L
S
GR
GS
[0.60063 0 0 0.6 0 0.40002] CT
0.4 GC
[1 3] 0 setdash
2 LJ
0.833 LW
N
657.509 209.132 M
652.475 226.331 L
S
GR
GS
[0.60063 0 0 0.6 0 0.40002] CT
0.4 GC
[1 3] 0 setdash
2 LJ
0.833 LW
N
652.475 226.331 M
647.81 244.448 L
S
GR
GS
[0.60063 0 0 0.6 0 0.40002] CT
0.4 GC
[1 3] 0 setdash
2 LJ
0.833 LW
N
647.81 244.448 M
643.531 263.412 L
S
GR
GS
[0.60063 0 0 0.6 0 0.40002] CT
0.4 GC
[1 3] 0 setdash
2 LJ
0.833 LW
N
643.531 263.412 M
639.656 283.148 L
S
GR
GS
[0.60063 0 0 0.6 0 0.40002] CT
0.4 GC
[1 3] 0 setdash
2 LJ
0.833 LW
N
639.656 283.148 M
636.2 303.578 L
S
GR
GS
[0.60063 0 0 0.6 0 0.40002] CT
0.4 GC
[1 3] 0 setdash
2 LJ
0.833 LW
N
636.2 303.578 M
633.177 324.622 L
S
GR
GS
[0.60063 0 0 0.6 0 0.40002] CT
0.4 GC
[1 3] 0 setdash
2 LJ
0.833 LW
N
633.177 324.622 M
630.598 346.195 L
S
GR
GS
[0.60063 0 0 0.6 0 0.40002] CT
0.4 GC
[1 3] 0 setdash
2 LJ
0.833 LW
N
630.598 346.195 M
628.475 368.214 L
S
GR
GS
[0.60063 0 0 0.6 0 0.40002] CT
0.4 GC
[1 3] 0 setdash
2 LJ
0.833 LW
N
628.475 368.214 M
626.814 390.591 L
S
GR
GS
[0.60063 0 0 0.6 0 0.40002] CT
0.4 GC
[1 3] 0 setdash
2 LJ
0.833 LW
N
626.814 390.591 M
625.623 413.239 L
S
GR
GS
[0.60063 0 0 0.6 0 0.40002] CT
0.4 GC
[1 3] 0 setdash
2 LJ
0.833 LW
N
625.623 413.239 M
624.906 436.066 L
S
GR
GS
[0.60063 0 0 0.6 0 0.40002] CT
0.4 GC
[1 3] 0 setdash
2 LJ
0.833 LW
N
624.906 436.066 M
624.667 458.984 L
S
GR
GS
[0.60063 0 0 0.6 0 0.40002] CT
0.4 GC
[1 3] 0 setdash
2 LJ
0.833 LW
N
624.667 458.984 M
624.905 481.903 L
S
GR
GS
[0.60063 0 0 0.6 0 0.40002] CT
0.4 GC
[1 3] 0 setdash
2 LJ
0.833 LW
N
624.905 481.903 M
625.621 504.731 L
S
GR
GS
[0.60063 0 0 0.6 0 0.40002] CT
0.4 GC
[1 3] 0 setdash
2 LJ
0.833 LW
N
625.621 504.731 M
626.812 527.378 L
S
GR
GS
[0.60063 0 0 0.6 0 0.40002] CT
0.4 GC
[1 3] 0 setdash
2 LJ
0.833 LW
N
626.812 527.378 M
628.472 549.755 L
S
GR
GS
[0.60063 0 0 0.6 0 0.40002] CT
0.4 GC
[1 3] 0 setdash
2 LJ
0.833 LW
N
628.472 549.755 M
630.595 571.775 L
S
GR
GS
[0.60063 0 0 0.6 0 0.40002] CT
0.4 GC
[1 3] 0 setdash
2 LJ
0.833 LW
N
630.595 571.775 M
633.173 593.349 L
S
GR
GS
[0.60063 0 0 0.6 0 0.40002] CT
0.4 GC
[1 3] 0 setdash
2 LJ
0.833 LW
N
633.173 593.349 M
636.196 614.393 L
S
GR
GS
[0.60063 0 0 0.6 0 0.40002] CT
0.4 GC
[1 3] 0 setdash
2 LJ
0.833 LW
N
636.196 614.393 M
639.651 634.824 L
S
GR
GS
[0.60063 0 0 0.6 0 0.40002] CT
0.4 GC
[1 3] 0 setdash
2 LJ
0.833 LW
N
639.651 634.824 M
643.526 654.561 L
S
GR
GS
[0.60063 0 0 0.6 0 0.40002] CT
0.4 GC
[1 3] 0 setdash
2 LJ
0.833 LW
N
643.526 654.561 M
647.804 673.526 L
S
GR
GS
[0.60063 0 0 0.6 0 0.40002] CT
0.4 GC
[1 3] 0 setdash
2 LJ
0.833 LW
N
647.804 673.526 M
652.469 691.645 L
S
GR
GS
[0.60063 0 0 0.6 0 0.40002] CT
0.4 GC
[1 3] 0 setdash
2 LJ
0.833 LW
N
652.469 691.645 M
657.502 708.846 L
S
GR
GS
[0.60063 0 0 0.6 0 0.40002] CT
0.4 GC
[1 3] 0 setdash
2 LJ
0.833 LW
N
657.502 708.846 M
662.884 725.06 L
S
GR
GS
[0.60063 0 0 0.6 0 0.40002] CT
0.4 GC
[1 3] 0 setdash
2 LJ
0.833 LW
N
662.884 725.06 M
668.594 740.225 L
S
GR
GS
[0.60063 0 0 0.6 0 0.40002] CT
0.4 GC
[1 3] 0 setdash
2 LJ
0.833 LW
N
668.594 740.225 M
674.608 754.279 L
S
GR
GS
[0.60063 0 0 0.6 0 0.40002] CT
0.4 GC
[1 3] 0 setdash
2 LJ
0.833 LW
N
674.608 754.279 M
680.903 767.169 L
S
GR
GS
[0.60063 0 0 0.6 0 0.40002] CT
0.4 GC
[1 3] 0 setdash
2 LJ
0.833 LW
N
680.903 767.169 M
687.455 778.842 L
S
GR
GS
[0.60063 0 0 0.6 0 0.40002] CT
0.4 GC
[1 3] 0 setdash
2 LJ
0.833 LW
N
687.455 778.842 M
694.237 789.253 L
S
GR
GS
[0.60063 0 0 0.6 0 0.40002] CT
0.4 GC
[1 3] 0 setdash
2 LJ
0.833 LW
N
694.237 789.253 M
701.222 798.36 L
S
GR
GS
[0.60063 0 0 0.6 0 0.40002] CT
0.4 GC
[1 3] 0 setdash
2 LJ
0.833 LW
N
701.222 798.36 M
708.384 806.129 L
S
GR
GS
[0.60063 0 0 0.6 0 0.40002] CT
0.4 GC
[1 3] 0 setdash
2 LJ
0.833 LW
N
708.384 806.129 M
715.693 812.527 L
S
GR
GS
[0.60063 0 0 0.6 0 0.40002] CT
0.4 GC
[1 3] 0 setdash
2 LJ
0.833 LW
N
715.693 812.527 M
723.122 817.531 L
S
GR
GS
[0.60063 0 0 0.6 0 0.40002] CT
0.4 GC
[1 3] 0 setdash
2 LJ
0.833 LW
N
723.122 817.531 M
730.64 821.119 L
S
GR
GS
[0.60063 0 0 0.6 0 0.40002] CT
0.4 GC
[1 3] 0 setdash
2 LJ
0.833 LW
N
730.64 821.119 M
738.218 823.278 L
S
GR
GS
[0.60063 0 0 0.6 0 0.40002] CT
0.4 GC
[1 3] 0 setdash
2 LJ
0.833 LW
N
738.218 823.278 M
745.826 824 L
S
GR
GS
[0.60063 0 0 0.6 0 0.40002] CT
0.4 GC
[1 3] 0 setdash
2 LJ
0.833 LW
N
745.826 824 M
753.434 823.281 L
S
GR
GS
[0.60063 0 0 0.6 0 0.40002] CT
0.4 GC
[1 3] 0 setdash
2 LJ
0.833 LW
N
753.434 823.281 M
761.012 821.125 L
S
GR
GS
[0.60063 0 0 0.6 0 0.40002] CT
0.4 GC
[1 3] 0 setdash
2 LJ
0.833 LW
N
761.012 821.125 M
768.53 817.539 L
S
GR
GS
[0.60063 0 0 0.6 0 0.40002] CT
0.4 GC
[1 3] 0 setdash
2 LJ
0.833 LW
N
768.53 817.539 M
775.958 812.539 L
S
GR
GS
[0.60063 0 0 0.6 0 0.40002] CT
0.4 GC
[1 3] 0 setdash
2 LJ
0.833 LW
N
775.958 812.539 M
783.268 806.143 L
S
GR
GS
[0.60063 0 0 0.6 0 0.40002] CT
0.4 GC
[1 3] 0 setdash
2 LJ
0.833 LW
N
783.268 806.143 M
790.43 798.378 L
S
GR
GS
[0.60063 0 0 0.6 0 0.40002] CT
0.4 GC
[1 3] 0 setdash
2 LJ
0.833 LW
N
790.43 798.378 M
797.416 789.273 L
S
GR
GS
[0.60063 0 0 0.6 0 0.40002] CT
0.4 GC
[1 3] 0 setdash
2 LJ
0.833 LW
N
797.416 789.273 M
804.198 778.864 L
S
GR
GS
[0.60063 0 0 0.6 0 0.40002] CT
0.4 GC
[1 3] 0 setdash
2 LJ
0.833 LW
N
804.198 778.864 M
810.75 767.194 L
S
GR
GS
[0.60063 0 0 0.6 0 0.40002] CT
0.4 GC
[1 3] 0 setdash
2 LJ
0.833 LW
N
810.75 767.194 M
817.046 754.307 L
S
GR
GS
[0.60063 0 0 0.6 0 0.40002] CT
0.4 GC
[1 3] 0 setdash
2 LJ
0.833 LW
N
817.046 754.307 M
823.061 740.254 L
S
GR
GS
[0.60063 0 0 0.6 0 0.40002] CT
0.4 GC
[1 3] 0 setdash
2 LJ
0.833 LW
N
823.061 740.254 M
828.771 725.092 L
S
GR
GS
[0.60063 0 0 0.6 0 0.40002] CT
0.4 GC
[1 3] 0 setdash
2 LJ
0.833 LW
N
828.771 725.092 M
834.154 708.88 L
S
GR
GS
[0.60063 0 0 0.6 0 0.40002] CT
0.4 GC
[1 3] 0 setdash
2 LJ
0.833 LW
N
834.154 708.88 M
839.188 691.681 L
S
GR
GS
[0.60063 0 0 0.6 0 0.40002] CT
0.4 GC
[1 3] 0 setdash
2 LJ
0.833 LW
N
839.188 691.681 M
843.854 673.564 L
S
GR
GS
[0.60063 0 0 0.6 0 0.40002] CT
0.4 GC
[1 3] 0 setdash
2 LJ
0.833 LW
N
843.854 673.564 M
848.133 654.601 L
S
GR
GS
[0.60063 0 0 0.6 0 0.40002] CT
0.4 GC
[1 3] 0 setdash
2 LJ
0.833 LW
N
848.133 654.601 M
852.008 634.865 L
S
GR
GS
[0.60063 0 0 0.6 0 0.40002] CT
0.4 GC
[1 3] 0 setdash
2 LJ
0.833 LW
N
852.008 634.865 M
855.464 614.436 L
S
GR
GS
[0.60063 0 0 0.6 0 0.40002] CT
0.4 GC
[1 3] 0 setdash
2 LJ
0.833 LW
N
855.464 614.436 M
858.488 593.393 L
S
GR
GS
[0.60063 0 0 0.6 0 0.40002] CT
0.4 GC
[1 3] 0 setdash
2 LJ
0.833 LW
N
858.488 593.393 M
861.067 571.819 L
S
GR
GS
[0.60063 0 0 0.6 0 0.40002] CT
0.4 GC
[1 3] 0 setdash
2 LJ
0.833 LW
N
861.067 571.819 M
863.191 549.801 L
S
GR
GS
[0.60063 0 0 0.6 0 0.40002] CT
0.4 GC
[1 3] 0 setdash
2 LJ
0.833 LW
N
863.191 549.801 M
864.852 527.424 L
S
GR
GS
[0.60063 0 0 0.6 0 0.40002] CT
0.4 GC
[1 3] 0 setdash
2 LJ
0.833 LW
N
864.852 527.424 M
866.043 504.777 L
S
GR
GS
[0.60063 0 0 0.6 0 0.40002] CT
0.4 GC
[1 3] 0 setdash
2 LJ
0.833 LW
N
866.043 504.777 M
866.76 481.949 L
S
GR
GS
[0.60063 0 0 0.6 0 0.40002] CT
0.4 GC
[1 3] 0 setdash
2 LJ
0.833 LW
N
866.76 481.949 M
867 459.031 L
S
GR
GS
[0.60063 0 0 0.6 447.96759 275.80001] CT
0 0.447 0.741 RC
10.0 ML
0.833 LW
N
-4.125 -4.125 M
4.125 4.125 L
-4.125 4.125 M
4.125 -4.125 L
S
GR
GS
[0.60063 0 0 0.6 447.96759 275.80001] CT
0 0.447 0.741 RC
10.0 ML
0.833 LW
N
-4.125 -4.125 M
4.125 4.125 L
-4.125 4.125 M
4.125 -4.125 L
S
GR
GS
[0.60063 0 0 0.6 447.96759 275.80001] CT
0 0.447 0.741 RC
10.0 ML
0.833 LW
N
-4.125 -4.125 M
4.125 4.125 L
-4.125 4.125 M
4.125 -4.125 L
S
GR
GS
[0.60063 0 0 0.6 447.96759 275.80001] CT
0 0.447 0.741 RC
10.0 ML
0.833 LW
N
-4.125 -4.125 M
4.125 4.125 L
-4.125 4.125 M
4.125 -4.125 L
S
GR
GS
[0.60063 0 0 0.6 447.96759 275.80001] CT
0 0.447 0.741 RC
10.0 ML
0.833 LW
N
-4.125 -4.125 M
4.125 4.125 L
-4.125 4.125 M
4.125 -4.125 L
S
GR
GS
[0.60063 0 0 0.6 447.96759 275.80001] CT
0 0.447 0.741 RC
10.0 ML
0.833 LW
N
-4.125 -4.125 M
4.125 4.125 L
-4.125 4.125 M
4.125 -4.125 L
S
GR
GS
[0.60063 0 0 0.6 447.96759 275.80001] CT
0 0.447 0.741 RC
10.0 ML
0.833 LW
N
-4.125 -4.125 M
4.125 4.125 L
-4.125 4.125 M
4.125 -4.125 L
S
GR
GS
[0.60063 0 0 0.6 504.57224 187.98935] CT
0 0.447 0.741 RC
10.0 ML
0.833 LW
N
-4.125 -4.125 M
4.125 4.125 L
-4.125 4.125 M
4.125 -4.125 L
S
GR
GS
[0.60063 0 0 0.6 504.57224 363.61069] CT
0 0.447 0.741 RC
10.0 ML
0.833 LW
N
-4.125 -4.125 M
4.125 4.125 L
-4.125 4.125 M
4.125 -4.125 L
S
GR
GS
[0.60063 0 0 0.6 474.01996 124.08439] CT
0 0.447 0.741 RC
10.0 ML
0.833 LW
N
-4.125 -4.125 M
4.125 4.125 L
-4.125 4.125 M
4.125 -4.125 L
S
GR
GS
[0.60063 0 0 0.6 474.01996 427.51563] CT
0 0.447 0.741 RC
10.0 ML
0.833 LW
N
-4.125 -4.125 M
4.125 4.125 L
-4.125 4.125 M
4.125 -4.125 L
S
GR
GS
[0.60063 0 0 0.6 441.14938 120.15803] CT
0 0.447 0.741 RC
10.0 ML
0.833 LW
N
-4.125 -4.125 M
4.125 4.125 L
-4.125 4.125 M
4.125 -4.125 L
S
GR
GS
[0.60063 0 0 0.6 441.14938 431.442] CT
0 0.447 0.741 RC
10.0 ML
0.833 LW
N
-4.125 -4.125 M
4.125 4.125 L
-4.125 4.125 M
4.125 -4.125 L
S
GR
GS
[0.60063 0 0 0.6 397.69818 275.80001] CT
0 0.447 0.741 RC
10.0 ML
0.833 LW
N
-4.125 -4.125 M
4.125 4.125 L
-4.125 4.125 M
4.125 -4.125 L
S
GR
GS
[0.60063 0 0 0.6 410.28587 170.88683] CT
0 0.447 0.741 RC
10.0 ML
0.833 LW
N
-4.125 -4.125 M
4.125 4.125 L
-4.125 4.125 M
4.125 -4.125 L
S
GR
GS
[0.60063 0 0 0.6 410.28587 380.71322] CT
0 0.447 0.741 RC
10.0 ML
0.833 LW
N
-4.125 -4.125 M
4.125 4.125 L
-4.125 4.125 M
4.125 -4.125 L
S
GR
GS
[0.60063 0 0 0.6 132.87595 275.80001] CT
0 0.447 0.741 RC
10.0 ML
0.833 LW
N
4.5 -0.5 M
4.5 -3.261 2.261 -5.5 -0.5 -5.5 C
-3.261 -5.5 -5.5 -3.261 -5.5 -0.5 C
-5.5 2.261 -3.261 4.5 -0.5 4.5 C
2.261 4.5 4.5 2.261 4.5 -0.5 C
S
GR
GS
[0.60063 0 0 0.6 510.71866 266.29109] CT
0 0.447 0.741 RC
10.0 ML
0.833 LW
N
4.5 -0.5 M
4.5 -3.261 2.261 -5.5 -0.5 -5.5 C
-3.261 -5.5 -5.5 -3.261 -5.5 -0.5 C
-5.5 2.261 -3.261 4.5 -0.5 4.5 C
2.261 4.5 4.5 2.261 4.5 -0.5 C
S
GR
GS
[0.60063 0 0 0.6 510.71866 285.30894] CT
0 0.447 0.741 RC
10.0 ML
0.833 LW
N
4.5 -0.5 M
4.5 -3.261 2.261 -5.5 -0.5 -5.5 C
-3.261 -5.5 -5.5 -3.261 -5.5 -0.5 C
-5.5 2.261 -3.261 4.5 -0.5 4.5 C
2.261 4.5 4.5 2.261 4.5 -0.5 C
S
GR
GS
[0.60063 0 0 0.6 496.3329 159.3969] CT
0 0.447 0.741 RC
10.0 ML
0.833 LW
N
4.5 -0.5 M
4.5 -3.261 2.261 -5.5 -0.5 -5.5 C
-3.261 -5.5 -5.5 -3.261 -5.5 -0.5 C
-5.5 2.261 -3.261 4.5 -0.5 4.5 C
2.261 4.5 4.5 2.261 4.5 -0.5 C
S
GR
GS
[0.60063 0 0 0.6 496.3329 392.20312] CT
0 0.447 0.741 RC
10.0 ML
0.833 LW
N
4.5 -0.5 M
4.5 -3.261 2.261 -5.5 -0.5 -5.5 C
-3.261 -5.5 -5.5 -3.261 -5.5 -0.5 C
-5.5 2.261 -3.261 4.5 -0.5 4.5 C
2.261 4.5 4.5 2.261 4.5 -0.5 C
S
GR
GS
[0.60063 0 0 0.6 452.2406 88.43265] CT
0 0.447 0.741 RC
10.0 ML
0.833 LW
N
4.5 -0.5 M
4.5 -3.261 2.261 -5.5 -0.5 -5.5 C
-3.261 -5.5 -5.5 -3.261 -5.5 -0.5 C
-5.5 2.261 -3.261 4.5 -0.5 4.5 C
2.261 4.5 4.5 2.261 4.5 -0.5 C
S
GR
GS
[0.60063 0 0 0.6 452.2406 463.16736] CT
0 0.447 0.741 RC
10.0 ML
0.833 LW
N
4.5 -0.5 M
4.5 -3.261 2.261 -5.5 -0.5 -5.5 C
-3.261 -5.5 -5.5 -3.261 -5.5 -0.5 C
-5.5 2.261 -3.261 4.5 -0.5 4.5 C
2.261 4.5 4.5 2.261 4.5 -0.5 C
S
GR
GS
[0.60063 0 0 0.6 369.46835 251.88131] CT
0 0.447 0.741 RC
10.0 ML
0.833 LW
N
4.5 -0.5 M
4.5 -3.261 2.261 -5.5 -0.5 -5.5 C
-3.261 -5.5 -5.5 -3.261 -5.5 -0.5 C
-5.5 2.261 -3.261 4.5 -0.5 4.5 C
2.261 4.5 4.5 2.261 4.5 -0.5 C
S
GR
GS
[0.60063 0 0 0.6 369.46835 299.71871] CT
0 0.447 0.741 RC
10.0 ML
0.833 LW
N
4.5 -0.5 M
4.5 -3.261 2.261 -5.5 -0.5 -5.5 C
-3.261 -5.5 -5.5 -3.261 -5.5 -0.5 C
-5.5 2.261 -3.261 4.5 -0.5 4.5 C
2.261 4.5 4.5 2.261 4.5 -0.5 C
S
GR
GS
[0.60063 0 0 0.6 410.25687 83.90416] CT
0 0.447 0.741 RC
10.0 ML
0.833 LW
N
4.5 -0.5 M
4.5 -3.261 2.261 -5.5 -0.5 -5.5 C
-3.261 -5.5 -5.5 -3.261 -5.5 -0.5 C
-5.5 2.261 -3.261 4.5 -0.5 4.5 C
2.261 4.5 4.5 2.261 4.5 -0.5 C
S
GR
GS
[0.60063 0 0 0.6 410.25687 467.69585] CT
0 0.447 0.741 RC
10.0 ML
0.833 LW
N
4.5 -0.5 M
4.5 -3.261 2.261 -5.5 -0.5 -5.5 C
-3.261 -5.5 -5.5 -3.261 -5.5 -0.5 C
-5.5 2.261 -3.261 4.5 -0.5 4.5 C
2.261 4.5 4.5 2.261 4.5 -0.5 C
S
GR
GS
[0.60063 0 0 0.6 415.21065 94.59899] CT
0 0.447 0.741 RC
10.0 ML
0.833 LW
N
4.5 -0.5 M
4.5 -3.261 2.261 -5.5 -0.5 -5.5 C
-3.261 -5.5 -5.5 -3.261 -5.5 -0.5 C
-5.5 2.261 -3.261 4.5 -0.5 4.5 C
2.261 4.5 4.5 2.261 4.5 -0.5 C
S
GR
GS
[0.60063 0 0 0.6 415.21065 457.00103] CT
0 0.447 0.741 RC
10.0 ML
0.833 LW
N
4.5 -0.5 M
4.5 -3.261 2.261 -5.5 -0.5 -5.5 C
-3.261 -5.5 -5.5 -3.261 -5.5 -0.5 C
-5.5 2.261 -3.261 4.5 -0.5 4.5 C
2.261 4.5 4.5 2.261 4.5 -0.5 C
S
GR
GS
[0.60063 0 0 0.6 400.34022 188.32044] CT
0 0.447 0.741 RC
10.0 ML
0.833 LW
N
4.5 -0.5 M
4.5 -3.261 2.261 -5.5 -0.5 -5.5 C
-3.261 -5.5 -5.5 -3.261 -5.5 -0.5 C
-5.5 2.261 -3.261 4.5 -0.5 4.5 C
2.261 4.5 4.5 2.261 4.5 -0.5 C
S
GR
GS
[0.60063 0 0 0.6 400.34022 363.27956] CT
0 0.447 0.741 RC
10.0 ML
0.833 LW
N
4.5 -0.5 M
4.5 -3.261 2.261 -5.5 -0.5 -5.5 C
-3.261 -5.5 -5.5 -3.261 -5.5 -0.5 C
-5.5 2.261 -3.261 4.5 -0.5 4.5 C
2.261 4.5 4.5 2.261 4.5 -0.5 C
S
GR
GS
[0.60063 0 0 0.6 301.80003 51.73602] CT
/Helvetica-Bold 18.333 F
GS
[1 0 0 1 0 0] CT
-62.5 -4 moveto 
1 -1 scale
(Pole-Zero Map) t 
GR
GR
GS
[0.60063 0 0 0.6 301.80003 511.49999] CT
/Helvetica 18.333 F
GS
[1 0 0 1 0 0] CT
-38.5 19 moveto 
1 -1 scale
(Real Axis) t 
GR
GR
GS
[0 -0.6 0.60063 0 59.06165 276.64301] CT
/Helvetica 18.333 F
GS
[1 0 0 1 0 0] CT
-59.5 -4 moveto 
1 -1 scale
(Imaginary Axis) t 
GR
GR
%%Trailer
%%Pages: 1
%%EOF
