%!PS-Adobe-3.0 EPSF-3.0
%%Creator: (MATLAB, The Mathworks, Inc. Version 9.1.0.441655 \(R2016b\). Operating System: Windows 8)
%%Title: C:/Users/simon/Documents/Unief/M1/System_Identification_and_Modeling/Oefenzittingen/Oefenzitting_1/git/Oefenzitting_3/plots/pzmap_armax_9_16_13.eps
%%CreationDate: 2016-12-21T18:16:29
%%Pages: (atend)
%%BoundingBox: 0 0 575 556
%%LanguageLevel: 3
%%EndComments
%%BeginProlog
%%BeginResource: procset (Apache XML Graphics Std ProcSet) 1.2 0
%%Version: 1.2 0
%%Copyright: (Copyright 2001-2003,2010 The Apache Software Foundation. License terms: http://www.apache.org/licenses/LICENSE-2.0)
/bd{bind def}bind def
/ld{load def}bd
/GR/grestore ld
/M/moveto ld
/LJ/setlinejoin ld
/C/curveto ld
/f/fill ld
/LW/setlinewidth ld
/GC/setgray ld
/t/show ld
/N/newpath ld
/CT/concat ld
/cp/closepath ld
/S/stroke ld
/L/lineto ld
/CC/setcmykcolor ld
/A/ashow ld
/GS/gsave ld
/RC/setrgbcolor ld
/RM/rmoveto ld
/ML/setmiterlimit ld
/re {4 2 roll M
1 index 0 rlineto
0 exch rlineto
neg 0 rlineto
cp } bd
/_ctm matrix def
/_tm matrix def
/BT { _ctm currentmatrix pop matrix _tm copy pop 0 0 moveto } bd
/ET { _ctm setmatrix } bd
/iTm { _ctm setmatrix _tm concat } bd
/Tm { _tm astore pop iTm 0 0 moveto } bd
/ux 0.0 def
/uy 0.0 def
/F {
  /Tp exch def
  /Tf exch def
  Tf findfont Tp scalefont setfont
  /cf Tf def  /cs Tp def
} bd
/ULS {currentpoint /uy exch def /ux exch def} bd
/ULE {
  /Tcx currentpoint pop def
  gsave
  newpath
  cf findfont cs scalefont dup
  /FontMatrix get 0 get /Ts exch def /FontInfo get dup
  /UnderlinePosition get Ts mul /To exch def
  /UnderlineThickness get Ts mul /Tt exch def
  ux uy To add moveto  Tcx uy To add lineto
  Tt setlinewidth stroke
  grestore
} bd
/OLE {
  /Tcx currentpoint pop def
  gsave
  newpath
  cf findfont cs scalefont dup
  /FontMatrix get 0 get /Ts exch def /FontInfo get dup
  /UnderlinePosition get Ts mul /To exch def
  /UnderlineThickness get Ts mul /Tt exch def
  ux uy To add cs add moveto Tcx uy To add cs add lineto
  Tt setlinewidth stroke
  grestore
} bd
/SOE {
  /Tcx currentpoint pop def
  gsave
  newpath
  cf findfont cs scalefont dup
  /FontMatrix get 0 get /Ts exch def /FontInfo get dup
  /UnderlinePosition get Ts mul /To exch def
  /UnderlineThickness get Ts mul /Tt exch def
  ux uy To add cs 10 mul 26 idiv add moveto Tcx uy To add cs 10 mul 26 idiv add lineto
  Tt setlinewidth stroke
  grestore
} bd
/QT {
/Y22 exch store
/X22 exch store
/Y21 exch store
/X21 exch store
currentpoint
/Y21 load 2 mul add 3 div exch
/X21 load 2 mul add 3 div exch
/X21 load 2 mul /X22 load add 3 div
/Y21 load 2 mul /Y22 load add 3 div
/X22 load /Y22 load curveto
} bd
/SSPD {
dup length /d exch dict def
{
/v exch def
/k exch def
currentpagedevice k known {
/cpdv currentpagedevice k get def
v cpdv ne {
/upd false def
/nullv v type /nulltype eq def
/nullcpdv cpdv type /nulltype eq def
nullv nullcpdv or
{
/upd true def
} {
/sametype v type cpdv type eq def
sametype {
v type /arraytype eq {
/vlen v length def
/cpdvlen cpdv length def
vlen cpdvlen eq {
0 1 vlen 1 sub {
/i exch def
/obj v i get def
/cpdobj cpdv i get def
obj cpdobj ne {
/upd true def
exit
} if
} for
} {
/upd true def
} ifelse
} {
v type /dicttype eq {
v {
/dv exch def
/dk exch def
/cpddv cpdv dk get def
dv cpddv ne {
/upd true def
exit
} if
} forall
} {
/upd true def
} ifelse
} ifelse
} if
} ifelse
upd true eq {
d k v put
} if
} if
} if
} forall
d length 0 gt {
d setpagedevice
} if
} bd
/RE { % /NewFontName [NewEncodingArray] /FontName RE -
  findfont dup length dict begin
  {
    1 index /FID ne
    {def} {pop pop} ifelse
  } forall
  /Encoding exch def
  /FontName 1 index def
  currentdict definefont pop
  end
} bind def
%%EndResource
%%BeginResource: procset (Apache XML Graphics EPS ProcSet) 1.0 0
%%Version: 1.0 0
%%Copyright: (Copyright 2002-2003 The Apache Software Foundation. License terms: http://www.apache.org/licenses/LICENSE-2.0)
/BeginEPSF { %def
/b4_Inc_state save def         % Save state for cleanup
/dict_count countdictstack def % Count objects on dict stack
/op_count count 1 sub def      % Count objects on operand stack
userdict begin                 % Push userdict on dict stack
/showpage { } def              % Redefine showpage, { } = null proc
0 setgray 0 setlinecap         % Prepare graphics state
1 setlinewidth 0 setlinejoin
10 setmiterlimit [ ] 0 setdash newpath
/languagelevel where           % If level not equal to 1 then
{pop languagelevel             % set strokeadjust and
1 ne                           % overprint to their defaults.
{false setstrokeadjust false setoverprint
} if
} if
} bd
/EndEPSF { %def
count op_count sub {pop} repeat            % Clean up stacks
countdictstack dict_count sub {end} repeat
b4_Inc_state restore
} bd
%%EndResource
%FOPBeginFontDict
%%IncludeResource: font Courier-Bold
%%IncludeResource: font Helvetica
%%IncludeResource: font Courier-BoldOblique
%%IncludeResource: font Courier-Oblique
%%IncludeResource: font Times-Roman
%%IncludeResource: font Helvetica-BoldOblique
%%IncludeResource: font Helvetica-Bold
%%IncludeResource: font Helvetica-Oblique
%%IncludeResource: font Times-BoldItalic
%%IncludeResource: font Courier
%%IncludeResource: font Times-Italic
%%IncludeResource: font Times-Bold
%%IncludeResource: font Symbol
%%IncludeResource: font ZapfDingbats
%FOPEndFontDict
%%BeginResource: encoding WinAnsiEncoding
/WinAnsiEncoding [
/.notdef /.notdef /.notdef /.notdef /.notdef
/.notdef /.notdef /.notdef /.notdef /.notdef
/.notdef /.notdef /.notdef /.notdef /.notdef
/.notdef /.notdef /.notdef /.notdef /.notdef
/.notdef /.notdef /.notdef /.notdef /.notdef
/.notdef /.notdef /.notdef /.notdef /.notdef
/.notdef /.notdef /space /exclam /quotedbl
/numbersign /dollar /percent /ampersand /quotesingle
/parenleft /parenright /asterisk /plus /comma
/hyphen /period /slash /zero /one
/two /three /four /five /six
/seven /eight /nine /colon /semicolon
/less /equal /greater /question /at
/A /B /C /D /E
/F /G /H /I /J
/K /L /M /N /O
/P /Q /R /S /T
/U /V /W /X /Y
/Z /bracketleft /backslash /bracketright /asciicircum
/underscore /quoteleft /a /b /c
/d /e /f /g /h
/i /j /k /l /m
/n /o /p /q /r
/s /t /u /v /w
/x /y /z /braceleft /bar
/braceright /asciitilde /bullet /Euro /bullet
/quotesinglbase /florin /quotedblbase /ellipsis /dagger
/daggerdbl /circumflex /perthousand /Scaron /guilsinglleft
/OE /bullet /Zcaron /bullet /bullet
/quoteleft /quoteright /quotedblleft /quotedblright /bullet
/endash /emdash /asciitilde /trademark /scaron
/guilsinglright /oe /bullet /zcaron /Ydieresis
/space /exclamdown /cent /sterling /currency
/yen /brokenbar /section /dieresis /copyright
/ordfeminine /guillemotleft /logicalnot /sfthyphen /registered
/macron /degree /plusminus /twosuperior /threesuperior
/acute /mu /paragraph /middot /cedilla
/onesuperior /ordmasculine /guillemotright /onequarter /onehalf
/threequarters /questiondown /Agrave /Aacute /Acircumflex
/Atilde /Adieresis /Aring /AE /Ccedilla
/Egrave /Eacute /Ecircumflex /Edieresis /Igrave
/Iacute /Icircumflex /Idieresis /Eth /Ntilde
/Ograve /Oacute /Ocircumflex /Otilde /Odieresis
/multiply /Oslash /Ugrave /Uacute /Ucircumflex
/Udieresis /Yacute /Thorn /germandbls /agrave
/aacute /acircumflex /atilde /adieresis /aring
/ae /ccedilla /egrave /eacute /ecircumflex
/edieresis /igrave /iacute /icircumflex /idieresis
/eth /ntilde /ograve /oacute /ocircumflex
/otilde /odieresis /divide /oslash /ugrave
/uacute /ucircumflex /udieresis /yacute /thorn
/ydieresis
] def
%%EndResource
%FOPBeginFontReencode
/Courier-Bold findfont
dup length dict begin
  {1 index /FID ne {def} {pop pop} ifelse} forall
  /Encoding WinAnsiEncoding def
  currentdict
end
/Courier-Bold exch definefont pop
/Helvetica findfont
dup length dict begin
  {1 index /FID ne {def} {pop pop} ifelse} forall
  /Encoding WinAnsiEncoding def
  currentdict
end
/Helvetica exch definefont pop
/Courier-BoldOblique findfont
dup length dict begin
  {1 index /FID ne {def} {pop pop} ifelse} forall
  /Encoding WinAnsiEncoding def
  currentdict
end
/Courier-BoldOblique exch definefont pop
/Courier-Oblique findfont
dup length dict begin
  {1 index /FID ne {def} {pop pop} ifelse} forall
  /Encoding WinAnsiEncoding def
  currentdict
end
/Courier-Oblique exch definefont pop
/Times-Roman findfont
dup length dict begin
  {1 index /FID ne {def} {pop pop} ifelse} forall
  /Encoding WinAnsiEncoding def
  currentdict
end
/Times-Roman exch definefont pop
/Helvetica-BoldOblique findfont
dup length dict begin
  {1 index /FID ne {def} {pop pop} ifelse} forall
  /Encoding WinAnsiEncoding def
  currentdict
end
/Helvetica-BoldOblique exch definefont pop
/Helvetica-Bold findfont
dup length dict begin
  {1 index /FID ne {def} {pop pop} ifelse} forall
  /Encoding WinAnsiEncoding def
  currentdict
end
/Helvetica-Bold exch definefont pop
/Helvetica-Oblique findfont
dup length dict begin
  {1 index /FID ne {def} {pop pop} ifelse} forall
  /Encoding WinAnsiEncoding def
  currentdict
end
/Helvetica-Oblique exch definefont pop
/Times-BoldItalic findfont
dup length dict begin
  {1 index /FID ne {def} {pop pop} ifelse} forall
  /Encoding WinAnsiEncoding def
  currentdict
end
/Times-BoldItalic exch definefont pop
/Courier findfont
dup length dict begin
  {1 index /FID ne {def} {pop pop} ifelse} forall
  /Encoding WinAnsiEncoding def
  currentdict
end
/Courier exch definefont pop
/Times-Italic findfont
dup length dict begin
  {1 index /FID ne {def} {pop pop} ifelse} forall
  /Encoding WinAnsiEncoding def
  currentdict
end
/Times-Italic exch definefont pop
/Times-Bold findfont
dup length dict begin
  {1 index /FID ne {def} {pop pop} ifelse} forall
  /Encoding WinAnsiEncoding def
  currentdict
end
/Times-Bold exch definefont pop
%FOPEndFontReencode
%%EndProlog
%%Page: 1 1
%%PageBoundingBox: 0 0 575 556
%%BeginPageSetup
[1 0 0 -1 0 556] CT
%%EndPageSetup
GS
[0.60063 0 0 0.6 0 0.40002] CT
N
0 0 M
957 0 L
957 926 L
0 926 L
0 0 L
cp
clip
1 GC
N
0 0 957 926 re
f
GR
GS
[0.60063 0 0 0.6 0 0.40002] CT
1 GC
N
0 0 957 926 re
f
GR
GS
[0.60063 0 0 0.6 0 0.40002] CT
1 GC
N
140 824 M
867 824 L
867 94 L
140 94 L
cp
f
GR
GS
[0.60063 0 0 0.6 0 0.40002] CT
0.4 GC
2 setlinecap
1 LJ
0.833 LW
N
140 824 M
867 824 L
S
GR
GS
[0.60063 0 0 0.6 0 0.40002] CT
0.4 GC
2 setlinecap
1 LJ
0.833 LW
N
140 94 M
867 94 L
S
GR
GS
[0.60063 0 0 0.6 0 0.40002] CT
0.4 GC
2 setlinecap
1 LJ
0.833 LW
N
140 824 M
140 816.7 L
S
GR
GS
[0.60063 0 0 0.6 0 0.40002] CT
0.4 GC
2 setlinecap
1 LJ
0.833 LW
N
212.7 824 M
212.7 816.7 L
S
GR
GS
[0.60063 0 0 0.6 0 0.40002] CT
0.4 GC
2 setlinecap
1 LJ
0.833 LW
N
285.4 824 M
285.4 816.7 L
S
GR
GS
[0.60063 0 0 0.6 0 0.40002] CT
0.4 GC
2 setlinecap
1 LJ
0.833 LW
N
358.1 824 M
358.1 816.7 L
S
GR
GS
[0.60063 0 0 0.6 0 0.40002] CT
0.4 GC
2 setlinecap
1 LJ
0.833 LW
N
430.8 824 M
430.8 816.7 L
S
GR
GS
[0.60063 0 0 0.6 0 0.40002] CT
0.4 GC
2 setlinecap
1 LJ
0.833 LW
N
503.5 824 M
503.5 816.7 L
S
GR
GS
[0.60063 0 0 0.6 0 0.40002] CT
0.4 GC
2 setlinecap
1 LJ
0.833 LW
N
576.2 824 M
576.2 816.7 L
S
GR
GS
[0.60063 0 0 0.6 0 0.40002] CT
0.4 GC
2 setlinecap
1 LJ
0.833 LW
N
648.9 824 M
648.9 816.7 L
S
GR
GS
[0.60063 0 0 0.6 0 0.40002] CT
0.4 GC
2 setlinecap
1 LJ
0.833 LW
N
721.6 824 M
721.6 816.7 L
S
GR
GS
[0.60063 0 0 0.6 0 0.40002] CT
0.4 GC
2 setlinecap
1 LJ
0.833 LW
N
794.3 824 M
794.3 816.7 L
S
GR
GS
[0.60063 0 0 0.6 0 0.40002] CT
0.4 GC
2 setlinecap
1 LJ
0.833 LW
N
867 824 M
867 816.7 L
S
GR
GS
[0.60063 0 0 0.6 0 0.40002] CT
0.4 GC
2 setlinecap
1 LJ
0.833 LW
N
140 94 M
140 101.3 L
S
GR
GS
[0.60063 0 0 0.6 0 0.40002] CT
0.4 GC
2 setlinecap
1 LJ
0.833 LW
N
212.7 94 M
212.7 101.3 L
S
GR
GS
[0.60063 0 0 0.6 0 0.40002] CT
0.4 GC
2 setlinecap
1 LJ
0.833 LW
N
285.4 94 M
285.4 101.3 L
S
GR
GS
[0.60063 0 0 0.6 0 0.40002] CT
0.4 GC
2 setlinecap
1 LJ
0.833 LW
N
358.1 94 M
358.1 101.3 L
S
GR
GS
[0.60063 0 0 0.6 0 0.40002] CT
0.4 GC
2 setlinecap
1 LJ
0.833 LW
N
430.8 94 M
430.8 101.3 L
S
GR
GS
[0.60063 0 0 0.6 0 0.40002] CT
0.4 GC
2 setlinecap
1 LJ
0.833 LW
N
503.5 94 M
503.5 101.3 L
S
GR
GS
[0.60063 0 0 0.6 0 0.40002] CT
0.4 GC
2 setlinecap
1 LJ
0.833 LW
N
576.2 94 M
576.2 101.3 L
S
GR
GS
[0.60063 0 0 0.6 0 0.40002] CT
0.4 GC
2 setlinecap
1 LJ
0.833 LW
N
648.9 94 M
648.9 101.3 L
S
GR
GS
[0.60063 0 0 0.6 0 0.40002] CT
0.4 GC
2 setlinecap
1 LJ
0.833 LW
N
721.6 94 M
721.6 101.3 L
S
GR
GS
[0.60063 0 0 0.6 0 0.40002] CT
0.4 GC
2 setlinecap
1 LJ
0.833 LW
N
794.3 94 M
794.3 101.3 L
S
GR
GS
[0.60063 0 0 0.6 0 0.40002] CT
0.4 GC
2 setlinecap
1 LJ
0.833 LW
N
867 94 M
867 101.3 L
S
GR
GS
[0.60063 0 0 0.6 84.08777 498.80001] CT
0.4 GC
/Helvetica 16.667 F
GS
[1 0 0 1 0 0] CT
-8 18 moveto 
1 -1 scale
(-4) t 
GR
GR
GS
[0.60063 0 0 0.6 127.75335 498.80001] CT
0.4 GC
/Helvetica 16.667 F
GS
[1 0 0 1 0 0] CT
-15 18 moveto 
1 -1 scale
(-3.5) t 
GR
GR
GS
[0.60063 0 0 0.6 171.41893 498.80001] CT
0.4 GC
/Helvetica 16.667 F
GS
[1 0 0 1 0 0] CT
-8 18 moveto 
1 -1 scale
(-3) t 
GR
GR
GS
[0.60063 0 0 0.6 215.08451 498.80001] CT
0.4 GC
/Helvetica 16.667 F
GS
[1 0 0 1 0 0] CT
-15 18 moveto 
1 -1 scale
(-2.5) t 
GR
GR
GS
[0.60063 0 0 0.6 258.75008 498.80001] CT
0.4 GC
/Helvetica 16.667 F
GS
[1 0 0 1 0 0] CT
-8 18 moveto 
1 -1 scale
(-2) t 
GR
GR
GS
[0.60063 0 0 0.6 302.41567 498.80001] CT
0.4 GC
/Helvetica 16.667 F
GS
[1 0 0 1 0 0] CT
-15 18 moveto 
1 -1 scale
(-1.5) t 
GR
GR
GS
[0.60063 0 0 0.6 346.08125 498.80001] CT
0.4 GC
/Helvetica 16.667 F
GS
[1 0 0 1 0 0] CT
-8 18 moveto 
1 -1 scale
(-1) t 
GR
GR
GS
[0.60063 0 0 0.6 389.74684 498.80001] CT
0.4 GC
/Helvetica 16.667 F
GS
[1 0 0 1 0 0] CT
-15 18 moveto 
1 -1 scale
(-0.5) t 
GR
GR
GS
[0.60063 0 0 0.6 433.41239 498.80001] CT
0.4 GC
/Helvetica 16.667 F
GS
[1 0 0 1 0 0] CT
-5 18 moveto 
1 -1 scale
(0) t 
GR
GR
GS
[0.60063 0 0 0.6 477.07798 498.80001] CT
0.4 GC
/Helvetica 16.667 F
GS
[1 0 0 1 0 0] CT
-12 18 moveto 
1 -1 scale
(0.5) t 
GR
GR
GS
[0.60063 0 0 0.6 520.74356 498.80001] CT
0.4 GC
/Helvetica 16.667 F
GS
[1 0 0 1 0 0] CT
-5 18 moveto 
1 -1 scale
(1) t 
GR
GR
GS
[0.60063 0 0 0.6 0 0.40002] CT
0.4 GC
2 setlinecap
1 LJ
0.833 LW
N
140 824 M
140 94 L
S
GR
GS
[0.60063 0 0 0.6 0 0.40002] CT
0.4 GC
2 setlinecap
1 LJ
0.833 LW
N
867 824 M
867 94 L
S
GR
GS
[0.60063 0 0 0.6 0 0.40002] CT
0.4 GC
2 setlinecap
1 LJ
0.833 LW
N
140 824 M
147.3 824 L
S
GR
GS
[0.60063 0 0 0.6 0 0.40002] CT
0.4 GC
2 setlinecap
1 LJ
0.833 LW
N
140 751 M
147.3 751 L
S
GR
GS
[0.60063 0 0 0.6 0 0.40002] CT
0.4 GC
2 setlinecap
1 LJ
0.833 LW
N
140 678 M
147.3 678 L
S
GR
GS
[0.60063 0 0 0.6 0 0.40002] CT
0.4 GC
2 setlinecap
1 LJ
0.833 LW
N
140 605 M
147.3 605 L
S
GR
GS
[0.60063 0 0 0.6 0 0.40002] CT
0.4 GC
2 setlinecap
1 LJ
0.833 LW
N
140 532 M
147.3 532 L
S
GR
GS
[0.60063 0 0 0.6 0 0.40002] CT
0.4 GC
2 setlinecap
1 LJ
0.833 LW
N
140 459 M
147.3 459 L
S
GR
GS
[0.60063 0 0 0.6 0 0.40002] CT
0.4 GC
2 setlinecap
1 LJ
0.833 LW
N
140 386 M
147.3 386 L
S
GR
GS
[0.60063 0 0 0.6 0 0.40002] CT
0.4 GC
2 setlinecap
1 LJ
0.833 LW
N
140 313 M
147.3 313 L
S
GR
GS
[0.60063 0 0 0.6 0 0.40002] CT
0.4 GC
2 setlinecap
1 LJ
0.833 LW
N
140 240 M
147.3 240 L
S
GR
GS
[0.60063 0 0 0.6 0 0.40002] CT
0.4 GC
2 setlinecap
1 LJ
0.833 LW
N
140 167 M
147.3 167 L
S
GR
GS
[0.60063 0 0 0.6 0 0.40002] CT
0.4 GC
2 setlinecap
1 LJ
0.833 LW
N
140 94 M
147.3 94 L
S
GR
GS
[0.60063 0 0 0.6 0 0.40002] CT
0.4 GC
2 setlinecap
1 LJ
0.833 LW
N
867 824 M
859.7 824 L
S
GR
GS
[0.60063 0 0 0.6 0 0.40002] CT
0.4 GC
2 setlinecap
1 LJ
0.833 LW
N
867 751 M
859.7 751 L
S
GR
GS
[0.60063 0 0 0.6 0 0.40002] CT
0.4 GC
2 setlinecap
1 LJ
0.833 LW
N
867 678 M
859.7 678 L
S
GR
GS
[0.60063 0 0 0.6 0 0.40002] CT
0.4 GC
2 setlinecap
1 LJ
0.833 LW
N
867 605 M
859.7 605 L
S
GR
GS
[0.60063 0 0 0.6 0 0.40002] CT
0.4 GC
2 setlinecap
1 LJ
0.833 LW
N
867 532 M
859.7 532 L
S
GR
GS
[0.60063 0 0 0.6 0 0.40002] CT
0.4 GC
2 setlinecap
1 LJ
0.833 LW
N
867 459 M
859.7 459 L
S
GR
GS
[0.60063 0 0 0.6 0 0.40002] CT
0.4 GC
2 setlinecap
1 LJ
0.833 LW
N
867 386 M
859.7 386 L
S
GR
GS
[0.60063 0 0 0.6 0 0.40002] CT
0.4 GC
2 setlinecap
1 LJ
0.833 LW
N
867 313 M
859.7 313 L
S
GR
GS
[0.60063 0 0 0.6 0 0.40002] CT
0.4 GC
2 setlinecap
1 LJ
0.833 LW
N
867 240 M
859.7 240 L
S
GR
GS
[0.60063 0 0 0.6 0 0.40002] CT
0.4 GC
2 setlinecap
1 LJ
0.833 LW
N
867 167 M
859.7 167 L
S
GR
GS
[0.60063 0 0 0.6 0 0.40002] CT
0.4 GC
2 setlinecap
1 LJ
0.833 LW
N
867 94 M
859.7 94 L
S
GR
GS
[0.60063 0 0 0.6 80.08357 494.8] CT
0.4 GC
/Helvetica 16.667 F
GS
[1 0 0 1 0 0] CT
-16 7 moveto 
1 -1 scale
(-1) t 
GR
GR
GS
[0.60063 0 0 0.6 80.08357 451] CT
0.4 GC
/Helvetica 16.667 F
GS
[1 0 0 1 0 0] CT
-30 7 moveto 
1 -1 scale
(-0.8) t 
GR
GR
GS
[0.60063 0 0 0.6 80.08357 407.20001] CT
0.4 GC
/Helvetica 16.667 F
GS
[1 0 0 1 0 0] CT
-30 7 moveto 
1 -1 scale
(-0.6) t 
GR
GR
GS
[0.60063 0 0 0.6 80.08357 363.40001] CT
0.4 GC
/Helvetica 16.667 F
GS
[1 0 0 1 0 0] CT
-30 7 moveto 
1 -1 scale
(-0.4) t 
GR
GR
GS
[0.60063 0 0 0.6 80.08357 319.60001] CT
0.4 GC
/Helvetica 16.667 F
GS
[1 0 0 1 0 0] CT
-30 7 moveto 
1 -1 scale
(-0.2) t 
GR
GR
GS
[0.60063 0 0 0.6 80.08357 275.80001] CT
0.4 GC
/Helvetica 16.667 F
GS
[1 0 0 1 0 0] CT
-10 7 moveto 
1 -1 scale
(0) t 
GR
GR
GS
[0.60063 0 0 0.6 80.08357 232.00001] CT
0.4 GC
/Helvetica 16.667 F
GS
[1 0 0 1 0 0] CT
-24 7 moveto 
1 -1 scale
(0.2) t 
GR
GR
GS
[0.60063 0 0 0.6 80.08357 188.20002] CT
0.4 GC
/Helvetica 16.667 F
GS
[1 0 0 1 0 0] CT
-24 7 moveto 
1 -1 scale
(0.4) t 
GR
GR
GS
[0.60063 0 0 0.6 80.08357 144.40001] CT
0.4 GC
/Helvetica 16.667 F
GS
[1 0 0 1 0 0] CT
-24 7 moveto 
1 -1 scale
(0.6) t 
GR
GR
GS
[0.60063 0 0 0.6 80.08357 100.60002] CT
0.4 GC
/Helvetica 16.667 F
GS
[1 0 0 1 0 0] CT
-24 7 moveto 
1 -1 scale
(0.8) t 
GR
GR
GS
[0.60063 0 0 0.6 80.08357 56.80002] CT
0.4 GC
/Helvetica 16.667 F
GS
[1 0 0 1 0 0] CT
-10 7 moveto 
1 -1 scale
(1) t 
GR
GR
GS
[0.60063 0 0 0.6 0 0.40002] CT
0.4 GC
[1 3] 0 setdash
2 LJ
0.833 LW
N
139.913 459 M
576.2 459 L
S
GR
GS
[0.60063 0 0 0.6 0 0.40002] CT
0.4 GC
[1 3] 0 setdash
2 LJ
0.833 LW
N
576.2 459 M
721.6 459 L
S
GR
GS
[0.60063 0 0 0.6 0 0.40002] CT
0.4 GC
[1 3] 0 setdash
2 LJ
0.833 LW
N
721.6 459 M
867 459 L
S
GR
GS
[0.60063 0 0 0.6 0 0.40002] CT
0.4 GC
[1 3] 0 setdash
2 LJ
0.833 LW
N
867 459 M
867.087 459 L
S
GR
GS
[0.60063 0 0 0.6 0 0.40002] CT
0.4 GC
[1 3] 0 setdash
2 LJ
0.833 LW
N
721.6 824.087 M
721.6 824 L
S
GR
GS
[0.60063 0 0 0.6 0 0.40002] CT
0.4 GC
[1 3] 0 setdash
2 LJ
0.833 LW
N
721.6 824 M
721.6 459 L
S
GR
GS
[0.60063 0 0 0.6 0 0.40002] CT
0.4 GC
[1 3] 0 setdash
2 LJ
0.833 LW
N
721.6 459 M
721.6 94 L
S
GR
GS
[0.60063 0 0 0.6 0 0.40002] CT
0.4 GC
[1 3] 0 setdash
2 LJ
0.833 LW
N
721.6 94 M
721.6 93.913 L
S
GR
GS
[0.60063 0 0 0.6 0 0.40002] CT
0.4 GC
[1 3] 0 setdash
2 LJ
0.833 LW
N
867 459 M
866.713 436.082 L
S
GR
GS
[0.60063 0 0 0.6 0 0.40002] CT
0.4 GC
[1 3] 0 setdash
2 LJ
0.833 LW
N
866.713 436.082 M
865.854 413.254 L
S
GR
GS
[0.60063 0 0 0.6 0 0.40002] CT
0.4 GC
[1 3] 0 setdash
2 LJ
0.833 LW
N
865.854 413.254 M
864.425 390.607 L
S
GR
GS
[0.60063 0 0 0.6 0 0.40002] CT
0.4 GC
[1 3] 0 setdash
2 LJ
0.833 LW
N
864.425 390.607 M
862.432 368.229 L
S
GR
GS
[0.60063 0 0 0.6 0 0.40002] CT
0.4 GC
[1 3] 0 setdash
2 LJ
0.833 LW
N
862.432 368.229 M
859.884 346.21 L
S
GR
GS
[0.60063 0 0 0.6 0 0.40002] CT
0.4 GC
[1 3] 0 setdash
2 LJ
0.833 LW
N
859.884 346.21 M
856.79 324.636 L
S
GR
GS
[0.60063 0 0 0.6 0 0.40002] CT
0.4 GC
[1 3] 0 setdash
2 LJ
0.833 LW
N
856.79 324.636 M
853.162 303.593 L
S
GR
GS
[0.60063 0 0 0.6 0 0.40002] CT
0.4 GC
[1 3] 0 setdash
2 LJ
0.833 LW
N
853.162 303.593 M
849.016 283.162 L
S
GR
GS
[0.60063 0 0 0.6 0 0.40002] CT
0.4 GC
[1 3] 0 setdash
2 LJ
0.833 LW
N
849.016 283.162 M
844.366 263.426 L
S
GR
GS
[0.60063 0 0 0.6 0 0.40002] CT
0.4 GC
[1 3] 0 setdash
2 LJ
0.833 LW
N
844.366 263.426 M
839.232 244.461 L
S
GR
GS
[0.60063 0 0 0.6 0 0.40002] CT
0.4 GC
[1 3] 0 setdash
2 LJ
0.833 LW
N
839.232 244.461 M
833.633 226.343 L
S
GR
GS
[0.60063 0 0 0.6 0 0.40002] CT
0.4 GC
[1 3] 0 setdash
2 LJ
0.833 LW
N
833.633 226.343 M
827.593 209.143 L
S
GR
GS
[0.60063 0 0 0.6 0 0.40002] CT
0.4 GC
[1 3] 0 setdash
2 LJ
0.833 LW
N
827.593 209.143 M
821.134 192.929 L
S
GR
GS
[0.60063 0 0 0.6 0 0.40002] CT
0.4 GC
[1 3] 0 setdash
2 LJ
0.833 LW
N
821.134 192.929 M
814.283 177.765 L
S
GR
GS
[0.60063 0 0 0.6 0 0.40002] CT
0.4 GC
[1 3] 0 setdash
2 LJ
0.833 LW
N
814.283 177.765 M
807.065 163.712 L
S
GR
GS
[0.60063 0 0 0.6 0 0.40002] CT
0.4 GC
[1 3] 0 setdash
2 LJ
0.833 LW
N
807.065 163.712 M
799.511 150.823 L
S
GR
GS
[0.60063 0 0 0.6 0 0.40002] CT
0.4 GC
[1 3] 0 setdash
2 LJ
0.833 LW
N
799.511 150.823 M
791.649 139.151 L
S
GR
GS
[0.60063 0 0 0.6 0 0.40002] CT
0.4 GC
[1 3] 0 setdash
2 LJ
0.833 LW
N
791.649 139.151 M
783.51 128.741 L
S
GR
GS
[0.60063 0 0 0.6 0 0.40002] CT
0.4 GC
[1 3] 0 setdash
2 LJ
0.833 LW
N
783.51 128.741 M
775.128 119.634 L
S
GR
GS
[0.60063 0 0 0.6 0 0.40002] CT
0.4 GC
[1 3] 0 setdash
2 LJ
0.833 LW
N
775.128 119.634 M
766.533 111.866 L
S
GR
GS
[0.60063 0 0 0.6 0 0.40002] CT
0.4 GC
[1 3] 0 setdash
2 LJ
0.833 LW
N
766.533 111.866 M
757.762 105.469 L
S
GR
GS
[0.60063 0 0 0.6 0 0.40002] CT
0.4 GC
[1 3] 0 setdash
2 LJ
0.833 LW
N
757.762 105.469 M
748.848 100.466 L
S
GR
GS
[0.60063 0 0 0.6 0 0.40002] CT
0.4 GC
[1 3] 0 setdash
2 LJ
0.833 LW
N
748.848 100.466 M
739.826 96.879 L
S
GR
GS
[0.60063 0 0 0.6 0 0.40002] CT
0.4 GC
[1 3] 0 setdash
2 LJ
0.833 LW
N
739.826 96.879 M
730.733 94.721 L
S
GR
GS
[0.60063 0 0 0.6 0 0.40002] CT
0.4 GC
[1 3] 0 setdash
2 LJ
0.833 LW
N
730.733 94.721 M
721.603 94 L
S
GR
GS
[0.60063 0 0 0.6 0 0.40002] CT
0.4 GC
[1 3] 0 setdash
2 LJ
0.833 LW
N
721.603 94 M
712.473 94.72 L
S
GR
GS
[0.60063 0 0 0.6 0 0.40002] CT
0.4 GC
[1 3] 0 setdash
2 LJ
0.833 LW
N
712.473 94.72 M
703.38 96.877 L
S
GR
GS
[0.60063 0 0 0.6 0 0.40002] CT
0.4 GC
[1 3] 0 setdash
2 LJ
0.833 LW
N
703.38 96.877 M
694.358 100.464 L
S
GR
GS
[0.60063 0 0 0.6 0 0.40002] CT
0.4 GC
[1 3] 0 setdash
2 LJ
0.833 LW
N
694.358 100.464 M
685.444 105.465 L
S
GR
GS
[0.60063 0 0 0.6 0 0.40002] CT
0.4 GC
[1 3] 0 setdash
2 LJ
0.833 LW
N
685.444 105.465 M
676.672 111.861 L
S
GR
GS
[0.60063 0 0 0.6 0 0.40002] CT
0.4 GC
[1 3] 0 setdash
2 LJ
0.833 LW
N
676.672 111.861 M
668.078 119.628 L
S
GR
GS
[0.60063 0 0 0.6 0 0.40002] CT
0.4 GC
[1 3] 0 setdash
2 LJ
0.833 LW
N
668.078 119.628 M
659.695 128.734 L
S
GR
GS
[0.60063 0 0 0.6 0 0.40002] CT
0.4 GC
[1 3] 0 setdash
2 LJ
0.833 LW
N
659.695 128.734 M
651.557 139.143 L
S
GR
GS
[0.60063 0 0 0.6 0 0.40002] CT
0.4 GC
[1 3] 0 setdash
2 LJ
0.833 LW
N
651.557 139.143 M
643.694 150.815 L
S
GR
GS
[0.60063 0 0 0.6 0 0.40002] CT
0.4 GC
[1 3] 0 setdash
2 LJ
0.833 LW
N
643.694 150.815 M
636.14 163.702 L
S
GR
GS
[0.60063 0 0 0.6 0 0.40002] CT
0.4 GC
[1 3] 0 setdash
2 LJ
0.833 LW
N
636.14 163.702 M
628.922 177.756 L
S
GR
GS
[0.60063 0 0 0.6 0 0.40002] CT
0.4 GC
[1 3] 0 setdash
2 LJ
0.833 LW
N
628.922 177.756 M
622.07 192.919 L
S
GR
GS
[0.60063 0 0 0.6 0 0.40002] CT
0.4 GC
[1 3] 0 setdash
2 LJ
0.833 LW
N
622.07 192.919 M
615.611 209.132 L
S
GR
GS
[0.60063 0 0 0.6 0 0.40002] CT
0.4 GC
[1 3] 0 setdash
2 LJ
0.833 LW
N
615.611 209.132 M
609.57 226.331 L
S
GR
GS
[0.60063 0 0 0.6 0 0.40002] CT
0.4 GC
[1 3] 0 setdash
2 LJ
0.833 LW
N
609.57 226.331 M
603.972 244.448 L
S
GR
GS
[0.60063 0 0 0.6 0 0.40002] CT
0.4 GC
[1 3] 0 setdash
2 LJ
0.833 LW
N
603.972 244.448 M
598.837 263.412 L
S
GR
GS
[0.60063 0 0 0.6 0 0.40002] CT
0.4 GC
[1 3] 0 setdash
2 LJ
0.833 LW
N
598.837 263.412 M
594.188 283.148 L
S
GR
GS
[0.60063 0 0 0.6 0 0.40002] CT
0.4 GC
[1 3] 0 setdash
2 LJ
0.833 LW
N
594.188 283.148 M
590.04 303.578 L
S
GR
GS
[0.60063 0 0 0.6 0 0.40002] CT
0.4 GC
[1 3] 0 setdash
2 LJ
0.833 LW
N
590.04 303.578 M
586.413 324.622 L
S
GR
GS
[0.60063 0 0 0.6 0 0.40002] CT
0.4 GC
[1 3] 0 setdash
2 LJ
0.833 LW
N
586.413 324.622 M
583.318 346.195 L
S
GR
GS
[0.60063 0 0 0.6 0 0.40002] CT
0.4 GC
[1 3] 0 setdash
2 LJ
0.833 LW
N
583.318 346.195 M
580.769 368.214 L
S
GR
GS
[0.60063 0 0 0.6 0 0.40002] CT
0.4 GC
[1 3] 0 setdash
2 LJ
0.833 LW
N
580.769 368.214 M
578.777 390.591 L
S
GR
GS
[0.60063 0 0 0.6 0 0.40002] CT
0.4 GC
[1 3] 0 setdash
2 LJ
0.833 LW
N
578.777 390.591 M
577.347 413.239 L
S
GR
GS
[0.60063 0 0 0.6 0 0.40002] CT
0.4 GC
[1 3] 0 setdash
2 LJ
0.833 LW
N
577.347 413.239 M
576.487 436.066 L
S
GR
GS
[0.60063 0 0 0.6 0 0.40002] CT
0.4 GC
[1 3] 0 setdash
2 LJ
0.833 LW
N
576.487 436.066 M
576.2 458.984 L
S
GR
GS
[0.60063 0 0 0.6 0 0.40002] CT
0.4 GC
[1 3] 0 setdash
2 LJ
0.833 LW
N
576.2 458.984 M
576.487 481.903 L
S
GR
GS
[0.60063 0 0 0.6 0 0.40002] CT
0.4 GC
[1 3] 0 setdash
2 LJ
0.833 LW
N
576.487 481.903 M
577.346 504.731 L
S
GR
GS
[0.60063 0 0 0.6 0 0.40002] CT
0.4 GC
[1 3] 0 setdash
2 LJ
0.833 LW
N
577.346 504.731 M
578.774 527.378 L
S
GR
GS
[0.60063 0 0 0.6 0 0.40002] CT
0.4 GC
[1 3] 0 setdash
2 LJ
0.833 LW
N
578.774 527.378 M
580.766 549.755 L
S
GR
GS
[0.60063 0 0 0.6 0 0.40002] CT
0.4 GC
[1 3] 0 setdash
2 LJ
0.833 LW
N
580.766 549.755 M
583.314 571.775 L
S
GR
GS
[0.60063 0 0 0.6 0 0.40002] CT
0.4 GC
[1 3] 0 setdash
2 LJ
0.833 LW
N
583.314 571.775 M
586.408 593.349 L
S
GR
GS
[0.60063 0 0 0.6 0 0.40002] CT
0.4 GC
[1 3] 0 setdash
2 LJ
0.833 LW
N
586.408 593.349 M
590.035 614.393 L
S
GR
GS
[0.60063 0 0 0.6 0 0.40002] CT
0.4 GC
[1 3] 0 setdash
2 LJ
0.833 LW
N
590.035 614.393 M
594.182 634.824 L
S
GR
GS
[0.60063 0 0 0.6 0 0.40002] CT
0.4 GC
[1 3] 0 setdash
2 LJ
0.833 LW
N
594.182 634.824 M
598.831 654.561 L
S
GR
GS
[0.60063 0 0 0.6 0 0.40002] CT
0.4 GC
[1 3] 0 setdash
2 LJ
0.833 LW
N
598.831 654.561 M
603.965 673.526 L
S
GR
GS
[0.60063 0 0 0.6 0 0.40002] CT
0.4 GC
[1 3] 0 setdash
2 LJ
0.833 LW
N
603.965 673.526 M
609.563 691.645 L
S
GR
GS
[0.60063 0 0 0.6 0 0.40002] CT
0.4 GC
[1 3] 0 setdash
2 LJ
0.833 LW
N
609.563 691.645 M
615.603 708.846 L
S
GR
GS
[0.60063 0 0 0.6 0 0.40002] CT
0.4 GC
[1 3] 0 setdash
2 LJ
0.833 LW
N
615.603 708.846 M
622.061 725.06 L
S
GR
GS
[0.60063 0 0 0.6 0 0.40002] CT
0.4 GC
[1 3] 0 setdash
2 LJ
0.833 LW
N
622.061 725.06 M
628.912 740.225 L
S
GR
GS
[0.60063 0 0 0.6 0 0.40002] CT
0.4 GC
[1 3] 0 setdash
2 LJ
0.833 LW
N
628.912 740.225 M
636.13 754.279 L
S
GR
GS
[0.60063 0 0 0.6 0 0.40002] CT
0.4 GC
[1 3] 0 setdash
2 LJ
0.833 LW
N
636.13 754.279 M
643.684 767.169 L
S
GR
GS
[0.60063 0 0 0.6 0 0.40002] CT
0.4 GC
[1 3] 0 setdash
2 LJ
0.833 LW
N
643.684 767.169 M
651.546 778.842 L
S
GR
GS
[0.60063 0 0 0.6 0 0.40002] CT
0.4 GC
[1 3] 0 setdash
2 LJ
0.833 LW
N
651.546 778.842 M
659.684 789.253 L
S
GR
GS
[0.60063 0 0 0.6 0 0.40002] CT
0.4 GC
[1 3] 0 setdash
2 LJ
0.833 LW
N
659.684 789.253 M
668.067 798.36 L
S
GR
GS
[0.60063 0 0 0.6 0 0.40002] CT
0.4 GC
[1 3] 0 setdash
2 LJ
0.833 LW
N
668.067 798.36 M
676.661 806.129 L
S
GR
GS
[0.60063 0 0 0.6 0 0.40002] CT
0.4 GC
[1 3] 0 setdash
2 LJ
0.833 LW
N
676.661 806.129 M
685.432 812.527 L
S
GR
GS
[0.60063 0 0 0.6 0 0.40002] CT
0.4 GC
[1 3] 0 setdash
2 LJ
0.833 LW
N
685.432 812.527 M
694.346 817.531 L
S
GR
GS
[0.60063 0 0 0.6 0 0.40002] CT
0.4 GC
[1 3] 0 setdash
2 LJ
0.833 LW
N
694.346 817.531 M
703.368 821.119 L
S
GR
GS
[0.60063 0 0 0.6 0 0.40002] CT
0.4 GC
[1 3] 0 setdash
2 LJ
0.833 LW
N
703.368 821.119 M
712.461 823.278 L
S
GR
GS
[0.60063 0 0 0.6 0 0.40002] CT
0.4 GC
[1 3] 0 setdash
2 LJ
0.833 LW
N
712.461 823.278 M
721.591 824 L
S
GR
GS
[0.60063 0 0 0.6 0 0.40002] CT
0.4 GC
[1 3] 0 setdash
2 LJ
0.833 LW
N
721.591 824 M
730.72 823.281 L
S
GR
GS
[0.60063 0 0 0.6 0 0.40002] CT
0.4 GC
[1 3] 0 setdash
2 LJ
0.833 LW
N
730.72 823.281 M
739.814 821.125 L
S
GR
GS
[0.60063 0 0 0.6 0 0.40002] CT
0.4 GC
[1 3] 0 setdash
2 LJ
0.833 LW
N
739.814 821.125 M
748.836 817.539 L
S
GR
GS
[0.60063 0 0 0.6 0 0.40002] CT
0.4 GC
[1 3] 0 setdash
2 LJ
0.833 LW
N
748.836 817.539 M
757.75 812.539 L
S
GR
GS
[0.60063 0 0 0.6 0 0.40002] CT
0.4 GC
[1 3] 0 setdash
2 LJ
0.833 LW
N
757.75 812.539 M
766.522 806.143 L
S
GR
GS
[0.60063 0 0 0.6 0 0.40002] CT
0.4 GC
[1 3] 0 setdash
2 LJ
0.833 LW
N
766.522 806.143 M
775.116 798.378 L
S
GR
GS
[0.60063 0 0 0.6 0 0.40002] CT
0.4 GC
[1 3] 0 setdash
2 LJ
0.833 LW
N
775.116 798.378 M
783.499 789.273 L
S
GR
GS
[0.60063 0 0 0.6 0 0.40002] CT
0.4 GC
[1 3] 0 setdash
2 LJ
0.833 LW
N
783.499 789.273 M
791.638 778.864 L
S
GR
GS
[0.60063 0 0 0.6 0 0.40002] CT
0.4 GC
[1 3] 0 setdash
2 LJ
0.833 LW
N
791.638 778.864 M
799.5 767.194 L
S
GR
GS
[0.60063 0 0 0.6 0 0.40002] CT
0.4 GC
[1 3] 0 setdash
2 LJ
0.833 LW
N
799.5 767.194 M
807.055 754.307 L
S
GR
GS
[0.60063 0 0 0.6 0 0.40002] CT
0.4 GC
[1 3] 0 setdash
2 LJ
0.833 LW
N
807.055 754.307 M
814.273 740.254 L
S
GR
GS
[0.60063 0 0 0.6 0 0.40002] CT
0.4 GC
[1 3] 0 setdash
2 LJ
0.833 LW
N
814.273 740.254 M
821.125 725.092 L
S
GR
GS
[0.60063 0 0 0.6 0 0.40002] CT
0.4 GC
[1 3] 0 setdash
2 LJ
0.833 LW
N
821.125 725.092 M
827.585 708.88 L
S
GR
GS
[0.60063 0 0 0.6 0 0.40002] CT
0.4 GC
[1 3] 0 setdash
2 LJ
0.833 LW
N
827.585 708.88 M
833.626 691.681 L
S
GR
GS
[0.60063 0 0 0.6 0 0.40002] CT
0.4 GC
[1 3] 0 setdash
2 LJ
0.833 LW
N
833.626 691.681 M
839.224 673.564 L
S
GR
GS
[0.60063 0 0 0.6 0 0.40002] CT
0.4 GC
[1 3] 0 setdash
2 LJ
0.833 LW
N
839.224 673.564 M
844.359 654.601 L
S
GR
GS
[0.60063 0 0 0.6 0 0.40002] CT
0.4 GC
[1 3] 0 setdash
2 LJ
0.833 LW
N
844.359 654.601 M
849.01 634.865 L
S
GR
GS
[0.60063 0 0 0.6 0 0.40002] CT
0.4 GC
[1 3] 0 setdash
2 LJ
0.833 LW
N
849.01 634.865 M
853.157 614.436 L
S
GR
GS
[0.60063 0 0 0.6 0 0.40002] CT
0.4 GC
[1 3] 0 setdash
2 LJ
0.833 LW
N
853.157 614.436 M
856.785 593.393 L
S
GR
GS
[0.60063 0 0 0.6 0 0.40002] CT
0.4 GC
[1 3] 0 setdash
2 LJ
0.833 LW
N
856.785 593.393 M
859.88 571.819 L
S
GR
GS
[0.60063 0 0 0.6 0 0.40002] CT
0.4 GC
[1 3] 0 setdash
2 LJ
0.833 LW
N
859.88 571.819 M
862.429 549.801 L
S
GR
GS
[0.60063 0 0 0.6 0 0.40002] CT
0.4 GC
[1 3] 0 setdash
2 LJ
0.833 LW
N
862.429 549.801 M
864.422 527.424 L
S
GR
GS
[0.60063 0 0 0.6 0 0.40002] CT
0.4 GC
[1 3] 0 setdash
2 LJ
0.833 LW
N
864.422 527.424 M
865.852 504.777 L
S
GR
GS
[0.60063 0 0 0.6 0 0.40002] CT
0.4 GC
[1 3] 0 setdash
2 LJ
0.833 LW
N
865.852 504.777 M
866.712 481.949 L
S
GR
GS
[0.60063 0 0 0.6 0 0.40002] CT
0.4 GC
[1 3] 0 setdash
2 LJ
0.833 LW
N
866.712 481.949 M
867 459.031 L
S
GR
GS
[0.60063 0 0 0.6 433.41239 275.80001] CT
0 0.447 0.741 RC
10.0 ML
0.833 LW
N
-4.125 -4.125 M
4.125 4.125 L
-4.125 4.125 M
4.125 -4.125 L
S
GR
GS
[0.60063 0 0 0.6 433.41239 275.80001] CT
0 0.447 0.741 RC
10.0 ML
0.833 LW
N
-4.125 -4.125 M
4.125 4.125 L
-4.125 4.125 M
4.125 -4.125 L
S
GR
GS
[0.60063 0 0 0.6 433.41239 275.80001] CT
0 0.447 0.741 RC
10.0 ML
0.833 LW
N
-4.125 -4.125 M
4.125 4.125 L
-4.125 4.125 M
4.125 -4.125 L
S
GR
GS
[0.60063 0 0 0.6 433.41239 275.80001] CT
0 0.447 0.741 RC
10.0 ML
0.833 LW
N
-4.125 -4.125 M
4.125 4.125 L
-4.125 4.125 M
4.125 -4.125 L
S
GR
GS
[0.60063 0 0 0.6 433.41239 275.80001] CT
0 0.447 0.741 RC
10.0 ML
0.833 LW
N
-4.125 -4.125 M
4.125 4.125 L
-4.125 4.125 M
4.125 -4.125 L
S
GR
GS
[0.60063 0 0 0.6 433.41239 275.80001] CT
0 0.447 0.741 RC
10.0 ML
0.833 LW
N
-4.125 -4.125 M
4.125 4.125 L
-4.125 4.125 M
4.125 -4.125 L
S
GR
GS
[0.60063 0 0 0.6 433.41239 275.80001] CT
0 0.447 0.741 RC
10.0 ML
0.833 LW
N
-4.125 -4.125 M
4.125 4.125 L
-4.125 4.125 M
4.125 -4.125 L
S
GR
GS
[0.60063 0 0 0.6 349.87946 275.80001] CT
0 0.447 0.741 RC
10.0 ML
0.833 LW
N
-4.125 -4.125 M
4.125 4.125 L
-4.125 4.125 M
4.125 -4.125 L
S
GR
GS
[0.60063 0 0 0.6 371.19295 275.80001] CT
0 0.447 0.741 RC
10.0 ML
0.833 LW
N
-4.125 -4.125 M
4.125 4.125 L
-4.125 4.125 M
4.125 -4.125 L
S
GR
GS
[0.60063 0 0 0.6 458.10533 81.36482] CT
0 0.447 0.741 RC
10.0 ML
0.833 LW
N
-4.125 -4.125 M
4.125 4.125 L
-4.125 4.125 M
4.125 -4.125 L
S
GR
GS
[0.60063 0 0 0.6 458.10533 470.2352] CT
0 0.447 0.741 RC
10.0 ML
0.833 LW
N
-4.125 -4.125 M
4.125 4.125 L
-4.125 4.125 M
4.125 -4.125 L
S
GR
GS
[0.60063 0 0 0.6 475.63176 112.93056] CT
0 0.447 0.741 RC
10.0 ML
0.833 LW
N
-4.125 -4.125 M
4.125 4.125 L
-4.125 4.125 M
4.125 -4.125 L
S
GR
GS
[0.60063 0 0 0.6 475.63176 438.66946] CT
0 0.447 0.741 RC
10.0 ML
0.833 LW
N
-4.125 -4.125 M
4.125 4.125 L
-4.125 4.125 M
4.125 -4.125 L
S
GR
GS
[0.60063 0 0 0.6 506.04873 182.72709] CT
0 0.447 0.741 RC
10.0 ML
0.833 LW
N
-4.125 -4.125 M
4.125 4.125 L
-4.125 4.125 M
4.125 -4.125 L
S
GR
GS
[0.60063 0 0 0.6 506.04873 368.87296] CT
0 0.447 0.741 RC
10.0 ML
0.833 LW
N
-4.125 -4.125 M
4.125 4.125 L
-4.125 4.125 M
4.125 -4.125 L
S
GR
GS
[0.60063 0 0 0.6 500.60841 275.80001] CT
0 0.447 0.741 RC
10.0 ML
0.833 LW
N
-4.125 -4.125 M
4.125 4.125 L
-4.125 4.125 M
4.125 -4.125 L
S
GR
GS
[0.60063 0 0 0.6 126.33446 275.80001] CT
0 0.447 0.741 RC
10.0 ML
0.833 LW
N
4.5 -0.5 M
4.5 -3.261 2.261 -5.5 -0.5 -5.5 C
-3.261 -5.5 -5.5 -3.261 -5.5 -0.5 C
-5.5 2.261 -3.261 4.5 -0.5 4.5 C
2.261 4.5 4.5 2.261 4.5 -0.5 C
S
GR
GS
[0.60063 0 0 0.6 344.84525 149.46969] CT
0 0.447 0.741 RC
10.0 ML
0.833 LW
N
4.5 -0.5 M
4.5 -3.261 2.261 -5.5 -0.5 -5.5 C
-3.261 -5.5 -5.5 -3.261 -5.5 -0.5 C
-5.5 2.261 -3.261 4.5 -0.5 4.5 C
2.261 4.5 4.5 2.261 4.5 -0.5 C
S
GR
GS
[0.60063 0 0 0.6 344.84525 402.13033] CT
0 0.447 0.741 RC
10.0 ML
0.833 LW
N
4.5 -0.5 M
4.5 -3.261 2.261 -5.5 -0.5 -5.5 C
-3.261 -5.5 -5.5 -3.261 -5.5 -0.5 C
-5.5 2.261 -3.261 4.5 -0.5 4.5 C
2.261 4.5 4.5 2.261 4.5 -0.5 C
S
GR
GS
[0.60063 0 0 0.6 340.52538 275.80001] CT
0 0.447 0.741 RC
10.0 ML
0.833 LW
N
4.5 -0.5 M
4.5 -3.261 2.261 -5.5 -0.5 -5.5 C
-3.261 -5.5 -5.5 -3.261 -5.5 -0.5 C
-5.5 2.261 -3.261 4.5 -0.5 4.5 C
2.261 4.5 4.5 2.261 4.5 -0.5 C
S
GR
GS
[0.60063 0 0 0.6 372.40531 275.80001] CT
0 0.447 0.741 RC
10.0 ML
0.833 LW
N
4.5 -0.5 M
4.5 -3.261 2.261 -5.5 -0.5 -5.5 C
-3.261 -5.5 -5.5 -3.261 -5.5 -0.5 C
-5.5 2.261 -3.261 4.5 -0.5 4.5 C
2.261 4.5 4.5 2.261 4.5 -0.5 C
S
GR
GS
[0.60063 0 0 0.6 384.54312 77.63193] CT
0 0.447 0.741 RC
10.0 ML
0.833 LW
N
4.5 -0.5 M
4.5 -3.261 2.261 -5.5 -0.5 -5.5 C
-3.261 -5.5 -5.5 -3.261 -5.5 -0.5 C
-5.5 2.261 -3.261 4.5 -0.5 4.5 C
2.261 4.5 4.5 2.261 4.5 -0.5 C
S
GR
GS
[0.60063 0 0 0.6 384.54312 473.96809] CT
0 0.447 0.741 RC
10.0 ML
0.833 LW
N
4.5 -0.5 M
4.5 -3.261 2.261 -5.5 -0.5 -5.5 C
-3.261 -5.5 -5.5 -3.261 -5.5 -0.5 C
-5.5 2.261 -3.261 4.5 -0.5 4.5 C
2.261 4.5 4.5 2.261 4.5 -0.5 C
S
GR
GS
[0.60063 0 0 0.6 520.64183 275.80001] CT
0 0.447 0.741 RC
10.0 ML
0.833 LW
N
4.5 -0.5 M
4.5 -3.261 2.261 -5.5 -0.5 -5.5 C
-3.261 -5.5 -5.5 -3.261 -5.5 -0.5 C
-5.5 2.261 -3.261 4.5 -0.5 4.5 C
2.261 4.5 4.5 2.261 4.5 -0.5 C
S
GR
GS
[0.60063 0 0 0.6 454.22952 85.03374] CT
0 0.447 0.741 RC
10.0 ML
0.833 LW
N
4.5 -0.5 M
4.5 -3.261 2.261 -5.5 -0.5 -5.5 C
-3.261 -5.5 -5.5 -3.261 -5.5 -0.5 C
-5.5 2.261 -3.261 4.5 -0.5 4.5 C
2.261 4.5 4.5 2.261 4.5 -0.5 C
S
GR
GS
[0.60063 0 0 0.6 454.22952 466.56628] CT
0 0.447 0.741 RC
10.0 ML
0.833 LW
N
4.5 -0.5 M
4.5 -3.261 2.261 -5.5 -0.5 -5.5 C
-3.261 -5.5 -5.5 -3.261 -5.5 -0.5 C
-5.5 2.261 -3.261 4.5 -0.5 4.5 C
2.261 4.5 4.5 2.261 4.5 -0.5 C
S
GR
GS
[0.60063 0 0 0.6 473.48206 145.70861] CT
0 0.447 0.741 RC
10.0 ML
0.833 LW
N
4.5 -0.5 M
4.5 -3.261 2.261 -5.5 -0.5 -5.5 C
-3.261 -5.5 -5.5 -3.261 -5.5 -0.5 C
-5.5 2.261 -3.261 4.5 -0.5 4.5 C
2.261 4.5 4.5 2.261 4.5 -0.5 C
S
GR
GS
[0.60063 0 0 0.6 473.48206 405.89143] CT
0 0.447 0.741 RC
10.0 ML
0.833 LW
N
4.5 -0.5 M
4.5 -3.261 2.261 -5.5 -0.5 -5.5 C
-3.261 -5.5 -5.5 -3.261 -5.5 -0.5 C
-5.5 2.261 -3.261 4.5 -0.5 4.5 C
2.261 4.5 4.5 2.261 4.5 -0.5 C
S
GR
GS
[0.60063 0 0 0.6 493.8607 190.07419] CT
0 0.447 0.741 RC
10.0 ML
0.833 LW
N
4.5 -0.5 M
4.5 -3.261 2.261 -5.5 -0.5 -5.5 C
-3.261 -5.5 -5.5 -3.261 -5.5 -0.5 C
-5.5 2.261 -3.261 4.5 -0.5 4.5 C
2.261 4.5 4.5 2.261 4.5 -0.5 C
S
GR
GS
[0.60063 0 0 0.6 493.8607 361.52581] CT
0 0.447 0.741 RC
10.0 ML
0.833 LW
N
4.5 -0.5 M
4.5 -3.261 2.261 -5.5 -0.5 -5.5 C
-3.261 -5.5 -5.5 -3.261 -5.5 -0.5 C
-5.5 2.261 -3.261 4.5 -0.5 4.5 C
2.261 4.5 4.5 2.261 4.5 -0.5 C
S
GR
GS
[0.60063 0 0 0.6 496.05136 275.80001] CT
0 0.447 0.741 RC
10.0 ML
0.833 LW
N
4.5 -0.5 M
4.5 -3.261 2.261 -5.5 -0.5 -5.5 C
-3.261 -5.5 -5.5 -3.261 -5.5 -0.5 C
-5.5 2.261 -3.261 4.5 -0.5 4.5 C
2.261 4.5 4.5 2.261 4.5 -0.5 C
S
GR
GS
[0.60063 0 0 0.6 301.80003 51.73602] CT
/Helvetica-Bold 18.333 F
GS
[1 0 0 1 0 0] CT
-62.5 -4 moveto 
1 -1 scale
(Pole-Zero Map) t 
GR
GR
GS
[0.60063 0 0 0.6 301.80003 511.49999] CT
/Helvetica 18.333 F
GS
[1 0 0 1 0 0] CT
-38.5 19 moveto 
1 -1 scale
(Real Axis) t 
GR
GR
GS
[0 -0.6 0.60063 0 59.06165 276.64301] CT
/Helvetica 18.333 F
GS
[1 0 0 1 0 0] CT
-59.5 -4 moveto 
1 -1 scale
(Imaginary Axis) t 
GR
GR
%%Trailer
%%Pages: 1
%%EOF
