%!PS-Adobe-3.0 EPSF-3.0
%%Creator: (MATLAB, The Mathworks, Inc. Version 9.1.0.441655 \(R2016b\). Operating System: Linux)
%%Title: /users/start2016/r0461511/Documents/system-identification/Oefenzitting_3/plots/pzmap_arx_red_9_16.eps
%%CreationDate: 2016-12-20T14:30:06
%%Pages: (atend)
%%BoundingBox: 0 0 1440 693
%%LanguageLevel: 3
%%EndComments
%%BeginProlog
%%BeginResource: procset (Apache XML Graphics Std ProcSet) 1.2 0
%%Version: 1.2 0
%%Copyright: (Copyright 2001-2003,2010 The Apache Software Foundation. License terms: http://www.apache.org/licenses/LICENSE-2.0)
/bd{bind def}bind def
/ld{load def}bd
/GR/grestore ld
/M/moveto ld
/LJ/setlinejoin ld
/C/curveto ld
/f/fill ld
/LW/setlinewidth ld
/GC/setgray ld
/t/show ld
/N/newpath ld
/CT/concat ld
/cp/closepath ld
/S/stroke ld
/L/lineto ld
/CC/setcmykcolor ld
/A/ashow ld
/GS/gsave ld
/RC/setrgbcolor ld
/RM/rmoveto ld
/ML/setmiterlimit ld
/re {4 2 roll M
1 index 0 rlineto
0 exch rlineto
neg 0 rlineto
cp } bd
/_ctm matrix def
/_tm matrix def
/BT { _ctm currentmatrix pop matrix _tm copy pop 0 0 moveto } bd
/ET { _ctm setmatrix } bd
/iTm { _ctm setmatrix _tm concat } bd
/Tm { _tm astore pop iTm 0 0 moveto } bd
/ux 0.0 def
/uy 0.0 def
/F {
  /Tp exch def
  /Tf exch def
  Tf findfont Tp scalefont setfont
  /cf Tf def  /cs Tp def
} bd
/ULS {currentpoint /uy exch def /ux exch def} bd
/ULE {
  /Tcx currentpoint pop def
  gsave
  newpath
  cf findfont cs scalefont dup
  /FontMatrix get 0 get /Ts exch def /FontInfo get dup
  /UnderlinePosition get Ts mul /To exch def
  /UnderlineThickness get Ts mul /Tt exch def
  ux uy To add moveto  Tcx uy To add lineto
  Tt setlinewidth stroke
  grestore
} bd
/OLE {
  /Tcx currentpoint pop def
  gsave
  newpath
  cf findfont cs scalefont dup
  /FontMatrix get 0 get /Ts exch def /FontInfo get dup
  /UnderlinePosition get Ts mul /To exch def
  /UnderlineThickness get Ts mul /Tt exch def
  ux uy To add cs add moveto Tcx uy To add cs add lineto
  Tt setlinewidth stroke
  grestore
} bd
/SOE {
  /Tcx currentpoint pop def
  gsave
  newpath
  cf findfont cs scalefont dup
  /FontMatrix get 0 get /Ts exch def /FontInfo get dup
  /UnderlinePosition get Ts mul /To exch def
  /UnderlineThickness get Ts mul /Tt exch def
  ux uy To add cs 10 mul 26 idiv add moveto Tcx uy To add cs 10 mul 26 idiv add lineto
  Tt setlinewidth stroke
  grestore
} bd
/QT {
/Y22 exch store
/X22 exch store
/Y21 exch store
/X21 exch store
currentpoint
/Y21 load 2 mul add 3 div exch
/X21 load 2 mul add 3 div exch
/X21 load 2 mul /X22 load add 3 div
/Y21 load 2 mul /Y22 load add 3 div
/X22 load /Y22 load curveto
} bd
/SSPD {
dup length /d exch dict def
{
/v exch def
/k exch def
currentpagedevice k known {
/cpdv currentpagedevice k get def
v cpdv ne {
/upd false def
/nullv v type /nulltype eq def
/nullcpdv cpdv type /nulltype eq def
nullv nullcpdv or
{
/upd true def
} {
/sametype v type cpdv type eq def
sametype {
v type /arraytype eq {
/vlen v length def
/cpdvlen cpdv length def
vlen cpdvlen eq {
0 1 vlen 1 sub {
/i exch def
/obj v i get def
/cpdobj cpdv i get def
obj cpdobj ne {
/upd true def
exit
} if
} for
} {
/upd true def
} ifelse
} {
v type /dicttype eq {
v {
/dv exch def
/dk exch def
/cpddv cpdv dk get def
dv cpddv ne {
/upd true def
exit
} if
} forall
} {
/upd true def
} ifelse
} ifelse
} if
} ifelse
upd true eq {
d k v put
} if
} if
} if
} forall
d length 0 gt {
d setpagedevice
} if
} bd
/RE { % /NewFontName [NewEncodingArray] /FontName RE -
  findfont dup length dict begin
  {
    1 index /FID ne
    {def} {pop pop} ifelse
  } forall
  /Encoding exch def
  /FontName 1 index def
  currentdict definefont pop
  end
} bind def
%%EndResource
%%BeginResource: procset (Apache XML Graphics EPS ProcSet) 1.0 0
%%Version: 1.0 0
%%Copyright: (Copyright 2002-2003 The Apache Software Foundation. License terms: http://www.apache.org/licenses/LICENSE-2.0)
/BeginEPSF { %def
/b4_Inc_state save def         % Save state for cleanup
/dict_count countdictstack def % Count objects on dict stack
/op_count count 1 sub def      % Count objects on operand stack
userdict begin                 % Push userdict on dict stack
/showpage { } def              % Redefine showpage, { } = null proc
0 setgray 0 setlinecap         % Prepare graphics state
1 setlinewidth 0 setlinejoin
10 setmiterlimit [ ] 0 setdash newpath
/languagelevel where           % If level not equal to 1 then
{pop languagelevel             % set strokeadjust and
1 ne                           % overprint to their defaults.
{false setstrokeadjust false setoverprint
} if
} if
} bd
/EndEPSF { %def
count op_count sub {pop} repeat            % Clean up stacks
countdictstack dict_count sub {end} repeat
b4_Inc_state restore
} bd
%%EndResource
%FOPBeginFontDict
%%IncludeResource: font Courier-Bold
%%IncludeResource: font Helvetica
%%IncludeResource: font Courier-BoldOblique
%%IncludeResource: font Courier-Oblique
%%IncludeResource: font Times-Roman
%%IncludeResource: font Helvetica-BoldOblique
%%IncludeResource: font Helvetica-Bold
%%IncludeResource: font Helvetica-Oblique
%%IncludeResource: font Times-BoldItalic
%%IncludeResource: font Courier
%%IncludeResource: font Times-Italic
%%IncludeResource: font Times-Bold
%%IncludeResource: font Symbol
%%IncludeResource: font ZapfDingbats
%FOPEndFontDict
%%BeginResource: encoding WinAnsiEncoding
/WinAnsiEncoding [
/.notdef /.notdef /.notdef /.notdef /.notdef
/.notdef /.notdef /.notdef /.notdef /.notdef
/.notdef /.notdef /.notdef /.notdef /.notdef
/.notdef /.notdef /.notdef /.notdef /.notdef
/.notdef /.notdef /.notdef /.notdef /.notdef
/.notdef /.notdef /.notdef /.notdef /.notdef
/.notdef /.notdef /space /exclam /quotedbl
/numbersign /dollar /percent /ampersand /quotesingle
/parenleft /parenright /asterisk /plus /comma
/hyphen /period /slash /zero /one
/two /three /four /five /six
/seven /eight /nine /colon /semicolon
/less /equal /greater /question /at
/A /B /C /D /E
/F /G /H /I /J
/K /L /M /N /O
/P /Q /R /S /T
/U /V /W /X /Y
/Z /bracketleft /backslash /bracketright /asciicircum
/underscore /quoteleft /a /b /c
/d /e /f /g /h
/i /j /k /l /m
/n /o /p /q /r
/s /t /u /v /w
/x /y /z /braceleft /bar
/braceright /asciitilde /bullet /Euro /bullet
/quotesinglbase /florin /quotedblbase /ellipsis /dagger
/daggerdbl /circumflex /perthousand /Scaron /guilsinglleft
/OE /bullet /Zcaron /bullet /bullet
/quoteleft /quoteright /quotedblleft /quotedblright /bullet
/endash /emdash /asciitilde /trademark /scaron
/guilsinglright /oe /bullet /zcaron /Ydieresis
/space /exclamdown /cent /sterling /currency
/yen /brokenbar /section /dieresis /copyright
/ordfeminine /guillemotleft /logicalnot /sfthyphen /registered
/macron /degree /plusminus /twosuperior /threesuperior
/acute /mu /paragraph /middot /cedilla
/onesuperior /ordmasculine /guillemotright /onequarter /onehalf
/threequarters /questiondown /Agrave /Aacute /Acircumflex
/Atilde /Adieresis /Aring /AE /Ccedilla
/Egrave /Eacute /Ecircumflex /Edieresis /Igrave
/Iacute /Icircumflex /Idieresis /Eth /Ntilde
/Ograve /Oacute /Ocircumflex /Otilde /Odieresis
/multiply /Oslash /Ugrave /Uacute /Ucircumflex
/Udieresis /Yacute /Thorn /germandbls /agrave
/aacute /acircumflex /atilde /adieresis /aring
/ae /ccedilla /egrave /eacute /ecircumflex
/edieresis /igrave /iacute /icircumflex /idieresis
/eth /ntilde /ograve /oacute /ocircumflex
/otilde /odieresis /divide /oslash /ugrave
/uacute /ucircumflex /udieresis /yacute /thorn
/ydieresis
] def
%%EndResource
%FOPBeginFontReencode
/Courier-Bold findfont
dup length dict begin
  {1 index /FID ne {def} {pop pop} ifelse} forall
  /Encoding WinAnsiEncoding def
  currentdict
end
/Courier-Bold exch definefont pop
/Helvetica findfont
dup length dict begin
  {1 index /FID ne {def} {pop pop} ifelse} forall
  /Encoding WinAnsiEncoding def
  currentdict
end
/Helvetica exch definefont pop
/Courier-BoldOblique findfont
dup length dict begin
  {1 index /FID ne {def} {pop pop} ifelse} forall
  /Encoding WinAnsiEncoding def
  currentdict
end
/Courier-BoldOblique exch definefont pop
/Courier-Oblique findfont
dup length dict begin
  {1 index /FID ne {def} {pop pop} ifelse} forall
  /Encoding WinAnsiEncoding def
  currentdict
end
/Courier-Oblique exch definefont pop
/Times-Roman findfont
dup length dict begin
  {1 index /FID ne {def} {pop pop} ifelse} forall
  /Encoding WinAnsiEncoding def
  currentdict
end
/Times-Roman exch definefont pop
/Helvetica-BoldOblique findfont
dup length dict begin
  {1 index /FID ne {def} {pop pop} ifelse} forall
  /Encoding WinAnsiEncoding def
  currentdict
end
/Helvetica-BoldOblique exch definefont pop
/Helvetica-Bold findfont
dup length dict begin
  {1 index /FID ne {def} {pop pop} ifelse} forall
  /Encoding WinAnsiEncoding def
  currentdict
end
/Helvetica-Bold exch definefont pop
/Helvetica-Oblique findfont
dup length dict begin
  {1 index /FID ne {def} {pop pop} ifelse} forall
  /Encoding WinAnsiEncoding def
  currentdict
end
/Helvetica-Oblique exch definefont pop
/Times-BoldItalic findfont
dup length dict begin
  {1 index /FID ne {def} {pop pop} ifelse} forall
  /Encoding WinAnsiEncoding def
  currentdict
end
/Times-BoldItalic exch definefont pop
/Courier findfont
dup length dict begin
  {1 index /FID ne {def} {pop pop} ifelse} forall
  /Encoding WinAnsiEncoding def
  currentdict
end
/Courier exch definefont pop
/Times-Italic findfont
dup length dict begin
  {1 index /FID ne {def} {pop pop} ifelse} forall
  /Encoding WinAnsiEncoding def
  currentdict
end
/Times-Italic exch definefont pop
/Times-Bold findfont
dup length dict begin
  {1 index /FID ne {def} {pop pop} ifelse} forall
  /Encoding WinAnsiEncoding def
  currentdict
end
/Times-Bold exch definefont pop
%FOPEndFontReencode
%%EndProlog
%%Page: 1 1
%%PageBoundingBox: 0 0 1440 693
%%BeginPageSetup
[1 0 0 -1 0 693] CT
%%EndPageSetup
GS
[0.75 0 0 0.75 0 0] CT
1 GC
N
0 0 1920 924 re
f
GR
GS
[0.75 0 0 0.75 0 0] CT
1 GC
N
0 0 1920 924 re
f
GR
GS
[0.75 0 0 0.75 0 0] CT
1 GC
N
262 822 M
1738 822 L
1738 89 L
262 89 L
cp
f
GR
GS
[0.75 0 0 0.75 0 0] CT
0.4 GC
2 setlinecap
1 LJ
0.667 LW
N
262 822 M
1738 822 L
S
GR
GS
[0.75 0 0 0.75 0 0] CT
0.4 GC
2 setlinecap
1 LJ
0.667 LW
N
262 89 M
1738 89 L
S
GR
GS
[0.75 0 0 0.75 0 0] CT
0.4 GC
2 setlinecap
1 LJ
0.667 LW
N
262 822 M
262 807.24 L
S
GR
GS
[0.75 0 0 0.75 0 0] CT
0.4 GC
2 setlinecap
1 LJ
0.667 LW
N
508 822 M
508 807.24 L
S
GR
GS
[0.75 0 0 0.75 0 0] CT
0.4 GC
2 setlinecap
1 LJ
0.667 LW
N
754 822 M
754 807.24 L
S
GR
GS
[0.75 0 0 0.75 0 0] CT
0.4 GC
2 setlinecap
1 LJ
0.667 LW
N
1000 822 M
1000 807.24 L
S
GR
GS
[0.75 0 0 0.75 0 0] CT
0.4 GC
2 setlinecap
1 LJ
0.667 LW
N
1246 822 M
1246 807.24 L
S
GR
GS
[0.75 0 0 0.75 0 0] CT
0.4 GC
2 setlinecap
1 LJ
0.667 LW
N
1492 822 M
1492 807.24 L
S
GR
GS
[0.75 0 0 0.75 0 0] CT
0.4 GC
2 setlinecap
1 LJ
0.667 LW
N
1738 822 M
1738 807.24 L
S
GR
GS
[0.75 0 0 0.75 0 0] CT
0.4 GC
2 setlinecap
1 LJ
0.667 LW
N
262 89 M
262 103.76 L
S
GR
GS
[0.75 0 0 0.75 0 0] CT
0.4 GC
2 setlinecap
1 LJ
0.667 LW
N
508 89 M
508 103.76 L
S
GR
GS
[0.75 0 0 0.75 0 0] CT
0.4 GC
2 setlinecap
1 LJ
0.667 LW
N
754 89 M
754 103.76 L
S
GR
GS
[0.75 0 0 0.75 0 0] CT
0.4 GC
2 setlinecap
1 LJ
0.667 LW
N
1000 89 M
1000 103.76 L
S
GR
GS
[0.75 0 0 0.75 0 0] CT
0.4 GC
2 setlinecap
1 LJ
0.667 LW
N
1246 89 M
1246 103.76 L
S
GR
GS
[0.75 0 0 0.75 0 0] CT
0.4 GC
2 setlinecap
1 LJ
0.667 LW
N
1492 89 M
1492 103.76 L
S
GR
GS
[0.75 0 0 0.75 0 0] CT
0.4 GC
2 setlinecap
1 LJ
0.667 LW
N
1738 89 M
1738 103.76 L
S
GR
GS
[0.75 0 0 0.75 196.5 620.49998] CT
0.4 GC
/Helvetica 13.333 F
GS
[1 0 0 1 0 0] CT
-6.5 13 moveto 
1 -1 scale
(-1) t 
GR
GR
GS
[0.75 0 0 0.75 381 620.49998] CT
0.4 GC
/Helvetica 13.333 F
GS
[1 0 0 1 0 0] CT
-4.5 13 moveto 
1 -1 scale
(0) t 
GR
GR
GS
[0.75 0 0 0.75 565.5 620.49998] CT
0.4 GC
/Helvetica 13.333 F
GS
[1 0 0 1 0 0] CT
-4.5 13 moveto 
1 -1 scale
(1) t 
GR
GR
GS
[0.75 0 0 0.75 750 620.49998] CT
0.4 GC
/Helvetica 13.333 F
GS
[1 0 0 1 0 0] CT
-4.5 13 moveto 
1 -1 scale
(2) t 
GR
GR
GS
[0.75 0 0 0.75 934.5 620.49998] CT
0.4 GC
/Helvetica 13.333 F
GS
[1 0 0 1 0 0] CT
-4.5 13 moveto 
1 -1 scale
(3) t 
GR
GR
GS
[0.75 0 0 0.75 1119 620.49998] CT
0.4 GC
/Helvetica 13.333 F
GS
[1 0 0 1 0 0] CT
-4.5 13 moveto 
1 -1 scale
(4) t 
GR
GR
GS
[0.75 0 0 0.75 1303.5 620.49998] CT
0.4 GC
/Helvetica 13.333 F
GS
[1 0 0 1 0 0] CT
-4.5 13 moveto 
1 -1 scale
(5) t 
GR
GR
GS
[0.75 0 0 0.75 0 0] CT
0.4 GC
2 setlinecap
1 LJ
0.667 LW
N
262 822 M
262 89 L
S
GR
GS
[0.75 0 0 0.75 0 0] CT
0.4 GC
2 setlinecap
1 LJ
0.667 LW
N
1738 822 M
1738 89 L
S
GR
GS
[0.75 0 0 0.75 0 0] CT
0.4 GC
2 setlinecap
1 LJ
0.667 LW
N
262 822 M
276.76 822 L
S
GR
GS
[0.75 0 0 0.75 0 0] CT
0.4 GC
2 setlinecap
1 LJ
0.667 LW
N
262 699.833 M
276.76 699.833 L
S
GR
GS
[0.75 0 0 0.75 0 0] CT
0.4 GC
2 setlinecap
1 LJ
0.667 LW
N
262 577.667 M
276.76 577.667 L
S
GR
GS
[0.75 0 0 0.75 0 0] CT
0.4 GC
2 setlinecap
1 LJ
0.667 LW
N
262 455.5 M
276.76 455.5 L
S
GR
GS
[0.75 0 0 0.75 0 0] CT
0.4 GC
2 setlinecap
1 LJ
0.667 LW
N
262 333.333 M
276.76 333.333 L
S
GR
GS
[0.75 0 0 0.75 0 0] CT
0.4 GC
2 setlinecap
1 LJ
0.667 LW
N
262 211.167 M
276.76 211.167 L
S
GR
GS
[0.75 0 0 0.75 0 0] CT
0.4 GC
2 setlinecap
1 LJ
0.667 LW
N
262 89 M
276.76 89 L
S
GR
GS
[0.75 0 0 0.75 0 0] CT
0.4 GC
2 setlinecap
1 LJ
0.667 LW
N
1738 822 M
1723.24 822 L
S
GR
GS
[0.75 0 0 0.75 0 0] CT
0.4 GC
2 setlinecap
1 LJ
0.667 LW
N
1738 699.833 M
1723.24 699.833 L
S
GR
GS
[0.75 0 0 0.75 0 0] CT
0.4 GC
2 setlinecap
1 LJ
0.667 LW
N
1738 577.667 M
1723.24 577.667 L
S
GR
GS
[0.75 0 0 0.75 0 0] CT
0.4 GC
2 setlinecap
1 LJ
0.667 LW
N
1738 455.5 M
1723.24 455.5 L
S
GR
GS
[0.75 0 0 0.75 0 0] CT
0.4 GC
2 setlinecap
1 LJ
0.667 LW
N
1738 333.333 M
1723.24 333.333 L
S
GR
GS
[0.75 0 0 0.75 0 0] CT
0.4 GC
2 setlinecap
1 LJ
0.667 LW
N
1738 211.167 M
1723.24 211.167 L
S
GR
GS
[0.75 0 0 0.75 0 0] CT
0.4 GC
2 setlinecap
1 LJ
0.667 LW
N
1738 89 M
1723.24 89 L
S
GR
GS
[0.75 0 0 0.75 192.49999 616.5] CT
0.4 GC
/Helvetica 13.333 F
GS
[1 0 0 1 0 0] CT
-26 4.5 moveto 
1 -1 scale
(-1.5) t 
GR
GR
GS
[0.75 0 0 0.75 192.49999 524.87498] CT
0.4 GC
/Helvetica 13.333 F
GS
[1 0 0 1 0 0] CT
-13 4.5 moveto 
1 -1 scale
(-1) t 
GR
GR
GS
[0.75 0 0 0.75 192.49999 433.25002] CT
0.4 GC
/Helvetica 13.333 F
GS
[1 0 0 1 0 0] CT
-26 4.5 moveto 
1 -1 scale
(-0.5) t 
GR
GR
GS
[0.75 0 0 0.75 192.49999 341.625] CT
0.4 GC
/Helvetica 13.333 F
GS
[1 0 0 1 0 0] CT
-9 4.5 moveto 
1 -1 scale
(0) t 
GR
GR
GS
[0.75 0 0 0.75 192.49999 250.00001] CT
0.4 GC
/Helvetica 13.333 F
GS
[1 0 0 1 0 0] CT
-21 4.5 moveto 
1 -1 scale
(0.5) t 
GR
GR
GS
[0.75 0 0 0.75 192.49999 158.375] CT
0.4 GC
/Helvetica 13.333 F
GS
[1 0 0 1 0 0] CT
-9 4.5 moveto 
1 -1 scale
(1) t 
GR
GR
GS
[0.75 0 0 0.75 192.49999 66.75] CT
0.4 GC
/Helvetica 13.333 F
GS
[1 0 0 1 0 0] CT
-21 4.5 moveto 
1 -1 scale
(1.5) t 
GR
GR
GS
[0.75 0 0 0.75 0 0] CT
0.4 GC
[1 3] 0 setdash
2 LJ
0.667 LW
N
492.559 211.648 M
477.174 213.093 L
S
GR
GS
[0.75 0 0 0.75 0 0] CT
0.4 GC
[1 3] 0 setdash
2 LJ
0.667 LW
N
687.328 288.244 M
676.401 277.391 L
S
GR
GS
[0.75 0 0 0.75 0 0] CT
0.4 GC
[1 3] 0 setdash
2 LJ
0.667 LW
N
676.401 277.391 M
664.809 267.24 L
S
GR
GS
[0.75 0 0 0.75 0 0] CT
0.4 GC
[1 3] 0 setdash
2 LJ
0.667 LW
N
664.809 267.24 M
652.598 257.832 L
S
GR
GS
[0.75 0 0 0.75 0 0] CT
0.4 GC
[1 3] 0 setdash
2 LJ
0.667 LW
N
652.598 257.832 M
639.816 249.204 L
S
GR
GS
[0.75 0 0 0.75 0 0] CT
0.4 GC
[1 3] 0 setdash
2 LJ
0.667 LW
N
639.816 249.204 M
626.515 241.391 L
S
GR
GS
[0.75 0 0 0.75 0 0] CT
0.4 GC
[1 3] 0 setdash
2 LJ
0.667 LW
N
626.515 241.391 M
612.745 234.422 L
S
GR
GS
[0.75 0 0 0.75 0 0] CT
0.4 GC
[1 3] 0 setdash
2 LJ
0.667 LW
N
612.745 234.422 M
598.562 228.326 L
S
GR
GS
[0.75 0 0 0.75 0 0] CT
0.4 GC
[1 3] 0 setdash
2 LJ
0.667 LW
N
598.562 228.326 M
584.022 223.126 L
S
GR
GS
[0.75 0 0 0.75 0 0] CT
0.4 GC
[1 3] 0 setdash
2 LJ
0.667 LW
N
584.022 223.126 M
569.182 218.844 L
S
GR
GS
[0.75 0 0 0.75 0 0] CT
0.4 GC
[1 3] 0 setdash
2 LJ
0.667 LW
N
569.182 218.844 M
554.1 215.495 L
S
GR
GS
[0.75 0 0 0.75 0 0] CT
0.4 GC
[1 3] 0 setdash
2 LJ
0.667 LW
N
554.1 215.495 M
538.837 213.094 L
S
GR
GS
[0.75 0 0 0.75 0 0] CT
0.4 GC
[1 3] 0 setdash
2 LJ
0.667 LW
N
538.837 213.094 M
523.451 211.649 L
S
GR
GS
[0.75 0 0 0.75 0 0] CT
0.4 GC
[1 3] 0 setdash
2 LJ
0.667 LW
N
523.451 211.649 M
508.005 211.167 L
S
GR
GS
[0.75 0 0 0.75 0 0] CT
0.4 GC
[1 3] 0 setdash
2 LJ
0.667 LW
N
508.005 211.167 M
492.559 211.648 L
S
GR
GS
[0.75 0 0 0.75 0 0] CT
0.4 GC
[1 3] 0 setdash
2 LJ
0.667 LW
N
697.548 299.758 M
687.328 288.244 L
S
GR
GS
[0.75 0 0 0.75 0 0] CT
0.4 GC
[1 3] 0 setdash
2 LJ
0.667 LW
N
477.174 213.093 M
461.91 215.493 L
S
GR
GS
[0.75 0 0 0.75 0 0] CT
0.4 GC
[1 3] 0 setdash
2 LJ
0.667 LW
N
461.91 215.493 M
446.828 218.841 L
S
GR
GS
[0.75 0 0 0.75 0 0] CT
0.4 GC
[1 3] 0 setdash
2 LJ
0.667 LW
N
446.828 218.841 M
431.988 223.123 L
S
GR
GS
[0.75 0 0 0.75 0 0] CT
0.4 GC
[1 3] 0 setdash
2 LJ
0.667 LW
N
431.988 223.123 M
417.447 228.322 L
S
GR
GS
[0.75 0 0 0.75 0 0] CT
0.4 GC
[1 3] 0 setdash
2 LJ
0.667 LW
N
417.447 228.322 M
403.264 234.418 L
S
GR
GS
[0.75 0 0 0.75 0 0] CT
0.4 GC
[1 3] 0 setdash
2 LJ
0.667 LW
N
403.264 234.418 M
389.495 241.386 L
S
GR
GS
[0.75 0 0 0.75 0 0] CT
0.4 GC
[1 3] 0 setdash
2 LJ
0.667 LW
N
389.495 241.386 M
376.193 249.199 L
S
GR
GS
[0.75 0 0 0.75 0 0] CT
0.4 GC
[1 3] 0 setdash
2 LJ
0.667 LW
N
376.193 249.199 M
363.411 257.826 L
S
GR
GS
[0.75 0 0 0.75 0 0] CT
0.4 GC
[1 3] 0 setdash
2 LJ
0.667 LW
N
363.411 257.826 M
351.2 267.233 L
S
GR
GS
[0.75 0 0 0.75 0 0] CT
0.4 GC
[1 3] 0 setdash
2 LJ
0.667 LW
N
351.2 267.233 M
339.607 277.383 L
S
GR
GS
[0.75 0 0 0.75 0 0] CT
0.4 GC
[1 3] 0 setdash
2 LJ
0.667 LW
N
339.607 277.383 M
328.679 288.237 L
S
GR
GS
[0.75 0 0 0.75 0 0] CT
0.4 GC
[1 3] 0 setdash
2 LJ
0.667 LW
N
328.679 288.237 M
318.459 299.75 L
S
GR
GS
[0.75 0 0 0.75 0 0] CT
0.4 GC
[1 3] 0 setdash
2 LJ
0.667 LW
N
318.459 299.75 M
308.987 311.878 L
S
GR
GS
[0.75 0 0 0.75 0 0] CT
0.4 GC
[1 3] 0 setdash
2 LJ
0.667 LW
N
308.987 311.878 M
300.3 324.572 L
S
GR
GS
[0.75 0 0 0.75 0 0] CT
0.4 GC
[1 3] 0 setdash
2 LJ
0.667 LW
N
300.3 324.572 M
292.433 337.784 L
S
GR
GS
[0.75 0 0 0.75 0 0] CT
0.4 GC
[1 3] 0 setdash
2 LJ
0.667 LW
N
754 455.5 M
753.515 440.158 L
S
GR
GS
[0.75 0 0 0.75 0 0] CT
0.4 GC
[1 3] 0 setdash
2 LJ
0.667 LW
N
753.515 440.158 M
752.06 424.877 L
S
GR
GS
[0.75 0 0 0.75 0 0] CT
0.4 GC
[1 3] 0 setdash
2 LJ
0.667 LW
N
752.06 424.877 M
749.643 409.717 L
S
GR
GS
[0.75 0 0 0.75 0 0] CT
0.4 GC
[1 3] 0 setdash
2 LJ
0.667 LW
N
749.643 409.717 M
746.272 394.738 L
S
GR
GS
[0.75 0 0 0.75 0 0] CT
0.4 GC
[1 3] 0 setdash
2 LJ
0.667 LW
N
746.272 394.738 M
741.96 379.998 L
S
GR
GS
[0.75 0 0 0.75 0 0] CT
0.4 GC
[1 3] 0 setdash
2 LJ
0.667 LW
N
741.96 379.998 M
736.725 365.556 L
S
GR
GS
[0.75 0 0 0.75 0 0] CT
0.4 GC
[1 3] 0 setdash
2 LJ
0.667 LW
N
736.725 365.556 M
730.588 351.469 L
S
GR
GS
[0.75 0 0 0.75 0 0] CT
0.4 GC
[1 3] 0 setdash
2 LJ
0.667 LW
N
730.588 351.469 M
723.572 337.793 L
S
GR
GS
[0.75 0 0 0.75 0 0] CT
0.4 GC
[1 3] 0 setdash
2 LJ
0.667 LW
N
723.572 337.793 M
715.706 324.581 L
S
GR
GS
[0.75 0 0 0.75 0 0] CT
0.4 GC
[1 3] 0 setdash
2 LJ
0.667 LW
N
715.706 324.581 M
707.019 311.886 L
S
GR
GS
[0.75 0 0 0.75 0 0] CT
0.4 GC
[1 3] 0 setdash
2 LJ
0.667 LW
N
707.019 311.886 M
697.548 299.758 L
S
GR
GS
[0.75 0 0 0.75 0 0] CT
0.4 GC
[1 3] 0 setdash
2 LJ
0.667 LW
N
652.581 653.18 M
664.792 643.773 L
S
GR
GS
[0.75 0 0 0.75 0 0] CT
0.4 GC
[1 3] 0 setdash
2 LJ
0.667 LW
N
446.808 692.153 M
461.889 695.503 L
S
GR
GS
[0.75 0 0 0.75 0 0] CT
0.4 GC
[1 3] 0 setdash
2 LJ
0.667 LW
N
461.889 695.503 M
477.153 697.905 L
S
GR
GS
[0.75 0 0 0.75 0 0] CT
0.4 GC
[1 3] 0 setdash
2 LJ
0.667 LW
N
477.153 697.905 M
492.538 699.35 L
S
GR
GS
[0.75 0 0 0.75 0 0] CT
0.4 GC
[1 3] 0 setdash
2 LJ
0.667 LW
N
492.538 699.35 M
507.984 699.833 L
S
GR
GS
[0.75 0 0 0.75 0 0] CT
0.4 GC
[1 3] 0 setdash
2 LJ
0.667 LW
N
507.984 699.833 M
523.431 699.352 L
S
GR
GS
[0.75 0 0 0.75 0 0] CT
0.4 GC
[1 3] 0 setdash
2 LJ
0.667 LW
N
523.431 699.352 M
538.816 697.909 L
S
GR
GS
[0.75 0 0 0.75 0 0] CT
0.4 GC
[1 3] 0 setdash
2 LJ
0.667 LW
N
538.816 697.909 M
554.08 695.509 L
S
GR
GS
[0.75 0 0 0.75 0 0] CT
0.4 GC
[1 3] 0 setdash
2 LJ
0.667 LW
N
554.08 695.509 M
569.162 692.161 L
S
GR
GS
[0.75 0 0 0.75 0 0] CT
0.4 GC
[1 3] 0 setdash
2 LJ
0.667 LW
N
569.162 692.161 M
584.002 687.88 L
S
GR
GS
[0.75 0 0 0.75 0 0] CT
0.4 GC
[1 3] 0 setdash
2 LJ
0.667 LW
N
584.002 687.88 M
598.543 682.682 L
S
GR
GS
[0.75 0 0 0.75 0 0] CT
0.4 GC
[1 3] 0 setdash
2 LJ
0.667 LW
N
598.543 682.682 M
612.726 676.587 L
S
GR
GS
[0.75 0 0 0.75 0 0] CT
0.4 GC
[1 3] 0 setdash
2 LJ
0.667 LW
N
612.726 676.587 M
626.496 669.619 L
S
GR
GS
[0.75 0 0 0.75 0 0] CT
0.4 GC
[1 3] 0 setdash
2 LJ
0.667 LW
N
626.496 669.619 M
639.799 661.807 L
S
GR
GS
[0.75 0 0 0.75 0 0] CT
0.4 GC
[1 3] 0 setdash
2 LJ
0.667 LW
N
639.799 661.807 M
652.581 653.18 L
S
GR
GS
[0.75 0 0 0.75 0 0] CT
0.4 GC
[1 3] 0 setdash
2 LJ
0.667 LW
N
431.968 687.87 M
446.808 692.153 L
S
GR
GS
[0.75 0 0 0.75 0 0] CT
0.4 GC
[1 3] 0 setdash
2 LJ
0.667 LW
N
664.792 643.773 M
676.385 633.624 L
S
GR
GS
[0.75 0 0 0.75 0 0] CT
0.4 GC
[1 3] 0 setdash
2 LJ
0.667 LW
N
676.385 633.624 M
687.314 622.771 L
S
GR
GS
[0.75 0 0 0.75 0 0] CT
0.4 GC
[1 3] 0 setdash
2 LJ
0.667 LW
N
687.314 622.771 M
697.534 611.258 L
S
GR
GS
[0.75 0 0 0.75 0 0] CT
0.4 GC
[1 3] 0 setdash
2 LJ
0.667 LW
N
697.534 611.258 M
707.007 599.131 L
S
GR
GS
[0.75 0 0 0.75 0 0] CT
0.4 GC
[1 3] 0 setdash
2 LJ
0.667 LW
N
707.007 599.131 M
715.694 586.436 L
S
GR
GS
[0.75 0 0 0.75 0 0] CT
0.4 GC
[1 3] 0 setdash
2 LJ
0.667 LW
N
715.694 586.436 M
723.562 573.225 L
S
GR
GS
[0.75 0 0 0.75 0 0] CT
0.4 GC
[1 3] 0 setdash
2 LJ
0.667 LW
N
723.562 573.225 M
730.579 559.55 L
S
GR
GS
[0.75 0 0 0.75 0 0] CT
0.4 GC
[1 3] 0 setdash
2 LJ
0.667 LW
N
730.579 559.55 M
736.718 545.463 L
S
GR
GS
[0.75 0 0 0.75 0 0] CT
0.4 GC
[1 3] 0 setdash
2 LJ
0.667 LW
N
736.718 545.463 M
741.954 531.022 L
S
GR
GS
[0.75 0 0 0.75 0 0] CT
0.4 GC
[1 3] 0 setdash
2 LJ
0.667 LW
N
741.954 531.022 M
746.266 516.283 L
S
GR
GS
[0.75 0 0 0.75 0 0] CT
0.4 GC
[1 3] 0 setdash
2 LJ
0.667 LW
N
746.266 516.283 M
749.639 501.303 L
S
GR
GS
[0.75 0 0 0.75 0 0] CT
0.4 GC
[1 3] 0 setdash
2 LJ
0.667 LW
N
749.639 501.303 M
752.058 486.143 L
S
GR
GS
[0.75 0 0 0.75 0 0] CT
0.4 GC
[1 3] 0 setdash
2 LJ
0.667 LW
N
752.058 486.143 M
753.513 470.862 L
S
GR
GS
[0.75 0 0 0.75 0 0] CT
0.4 GC
[1 3] 0 setdash
2 LJ
0.667 LW
N
753.513 470.862 M
754 455.521 L
S
GR
GS
[0.75 0 0 0.75 0 0] CT
0.4 GC
[1 3] 0 setdash
2 LJ
0.667 LW
N
279.271 545.434 M
285.407 559.521 L
S
GR
GS
[0.75 0 0 0.75 0 0] CT
0.4 GC
[1 3] 0 setdash
2 LJ
0.667 LW
N
292.433 337.784 M
285.416 351.46 L
S
GR
GS
[0.75 0 0 0.75 0 0] CT
0.4 GC
[1 3] 0 setdash
2 LJ
0.667 LW
N
285.416 351.46 M
279.278 365.546 L
S
GR
GS
[0.75 0 0 0.75 0 0] CT
0.4 GC
[1 3] 0 setdash
2 LJ
0.667 LW
N
279.278 365.546 M
274.043 379.988 L
S
GR
GS
[0.75 0 0 0.75 0 0] CT
0.4 GC
[1 3] 0 setdash
2 LJ
0.667 LW
N
274.043 379.988 M
269.731 394.727 L
S
GR
GS
[0.75 0 0 0.75 0 0] CT
0.4 GC
[1 3] 0 setdash
2 LJ
0.667 LW
N
269.731 394.727 M
266.359 409.707 L
S
GR
GS
[0.75 0 0 0.75 0 0] CT
0.4 GC
[1 3] 0 setdash
2 LJ
0.667 LW
N
266.359 409.707 M
263.941 424.867 L
S
GR
GS
[0.75 0 0 0.75 0 0] CT
0.4 GC
[1 3] 0 setdash
2 LJ
0.667 LW
N
263.941 424.867 M
262.486 440.148 L
S
GR
GS
[0.75 0 0 0.75 0 0] CT
0.4 GC
[1 3] 0 setdash
2 LJ
0.667 LW
N
262.486 440.148 M
262 455.49 L
S
GR
GS
[0.75 0 0 0.75 0 0] CT
0.4 GC
[1 3] 0 setdash
2 LJ
0.667 LW
N
262 455.49 M
262.485 470.831 L
S
GR
GS
[0.75 0 0 0.75 0 0] CT
0.4 GC
[1 3] 0 setdash
2 LJ
0.667 LW
N
262.485 470.831 M
263.938 486.112 L
S
GR
GS
[0.75 0 0 0.75 0 0] CT
0.4 GC
[1 3] 0 setdash
2 LJ
0.667 LW
N
263.938 486.112 M
266.355 501.273 L
S
GR
GS
[0.75 0 0 0.75 0 0] CT
0.4 GC
[1 3] 0 setdash
2 LJ
0.667 LW
N
266.355 501.273 M
269.726 516.252 L
S
GR
GS
[0.75 0 0 0.75 0 0] CT
0.4 GC
[1 3] 0 setdash
2 LJ
0.667 LW
N
269.726 516.252 M
274.037 530.992 L
S
GR
GS
[0.75 0 0 0.75 0 0] CT
0.4 GC
[1 3] 0 setdash
2 LJ
0.667 LW
N
274.037 530.992 M
279.271 545.434 L
S
GR
GS
[0.75 0 0 0.75 0 0] CT
0.4 GC
[1 3] 0 setdash
2 LJ
0.667 LW
N
285.407 559.521 M
292.423 573.198 L
S
GR
GS
[0.75 0 0 0.75 0 0] CT
0.4 GC
[1 3] 0 setdash
2 LJ
0.667 LW
N
292.423 573.198 M
300.289 586.41 L
S
GR
GS
[0.75 0 0 0.75 0 0] CT
0.4 GC
[1 3] 0 setdash
2 LJ
0.667 LW
N
300.289 586.41 M
308.974 599.105 L
S
GR
GS
[0.75 0 0 0.75 0 0] CT
0.4 GC
[1 3] 0 setdash
2 LJ
0.667 LW
N
308.974 599.105 M
318.446 611.234 L
S
GR
GS
[0.75 0 0 0.75 0 0] CT
0.4 GC
[1 3] 0 setdash
2 LJ
0.667 LW
N
318.446 611.234 M
328.665 622.748 L
S
GR
GS
[0.75 0 0 0.75 0 0] CT
0.4 GC
[1 3] 0 setdash
2 LJ
0.667 LW
N
328.665 622.748 M
339.592 633.602 L
S
GR
GS
[0.75 0 0 0.75 0 0] CT
0.4 GC
[1 3] 0 setdash
2 LJ
0.667 LW
N
339.592 633.602 M
351.183 643.754 L
S
GR
GS
[0.75 0 0 0.75 0 0] CT
0.4 GC
[1 3] 0 setdash
2 LJ
0.667 LW
N
351.183 643.754 M
363.394 653.162 L
S
GR
GS
[0.75 0 0 0.75 0 0] CT
0.4 GC
[1 3] 0 setdash
2 LJ
0.667 LW
N
363.394 653.162 M
376.175 661.79 L
S
GR
GS
[0.75 0 0 0.75 0 0] CT
0.4 GC
[1 3] 0 setdash
2 LJ
0.667 LW
N
376.175 661.79 M
389.476 669.604 L
S
GR
GS
[0.75 0 0 0.75 0 0] CT
0.4 GC
[1 3] 0 setdash
2 LJ
0.667 LW
N
389.476 669.604 M
403.245 676.573 L
S
GR
GS
[0.75 0 0 0.75 0 0] CT
0.4 GC
[1 3] 0 setdash
2 LJ
0.667 LW
N
403.245 676.573 M
417.428 682.67 L
S
GR
GS
[0.75 0 0 0.75 0 0] CT
0.4 GC
[1 3] 0 setdash
2 LJ
0.667 LW
N
417.428 682.67 M
431.968 687.87 L
S
GR
GS
[0.75 0 0 0.75 0 0] CT
0.4 GC
[1 3] 0 setdash
2 LJ
0.667 LW
N
261.824 455.5 M
262 455.5 L
S
GR
GS
[0.75 0 0 0.75 0 0] CT
0.4 GC
[1 3] 0 setdash
2 LJ
0.667 LW
N
262 455.5 M
508 455.5 L
S
GR
GS
[0.75 0 0 0.75 0 0] CT
0.4 GC
[1 3] 0 setdash
2 LJ
0.667 LW
N
508 455.5 M
754 455.5 L
S
GR
GS
[0.75 0 0 0.75 0 0] CT
0.4 GC
[1 3] 0 setdash
2 LJ
0.667 LW
N
754 455.5 M
1738.176 455.5 L
S
GR
GS
[0.75 0 0 0.75 0 0] CT
0.4 GC
[1 3] 0 setdash
2 LJ
0.667 LW
N
508 211.167 M
508 88.913 L
S
GR
GS
[0.75 0 0 0.75 0 0] CT
0.4 GC
[1 3] 0 setdash
2 LJ
0.667 LW
N
508 822.087 M
508 699.833 L
S
GR
GS
[0.75 0 0 0.75 0 0] CT
0.4 GC
[1 3] 0 setdash
2 LJ
0.667 LW
N
508 699.833 M
508 455.5 L
S
GR
GS
[0.75 0 0 0.75 0 0] CT
0.4 GC
[1 3] 0 setdash
2 LJ
0.667 LW
N
508 455.5 M
508 211.167 L
S
GR
GS
[0.75 0 0 0.75 495.43195 453.88527] CT
0 0.447 0.741 RC
10.0 ML
0.667 LW
N
3.5 -0.5 M
3.5 -2.709 1.709 -4.5 -0.5 -4.5 C
-2.709 -4.5 -4.5 -2.709 -4.5 -0.5 C
-4.5 1.709 -2.709 3.5 -0.5 3.5 C
1.709 3.5 3.5 1.709 3.5 -0.5 C
S
GR
GS
[0.75 0 0 0.75 495.43195 229.36475] CT
0 0.447 0.741 RC
10.0 ML
0.667 LW
N
3.5 -0.5 M
3.5 -2.709 1.709 -4.5 -0.5 -4.5 C
-2.709 -4.5 -4.5 -2.709 -4.5 -0.5 C
-4.5 1.709 -2.709 3.5 -0.5 3.5 C
1.709 3.5 3.5 1.709 3.5 -0.5 C
S
GR
GS
[0.75 0 0 0.75 551.10828 341.625] CT
0 0.447 0.741 RC
10.0 ML
0.667 LW
N
3.5 -0.5 M
3.5 -2.709 1.709 -4.5 -0.5 -4.5 C
-2.709 -4.5 -4.5 -2.709 -4.5 -0.5 C
-4.5 1.709 -2.709 3.5 -0.5 3.5 C
1.709 3.5 3.5 1.709 3.5 -0.5 C
S
GR
GS
[0.75 0 0 0.75 394.46535 499.90901] CT
0 0.447 0.741 RC
10.0 ML
0.667 LW
N
3.5 -0.5 M
3.5 -2.709 1.709 -4.5 -0.5 -4.5 C
-2.709 -4.5 -4.5 -2.709 -4.5 -0.5 C
-4.5 1.709 -2.709 3.5 -0.5 3.5 C
1.709 3.5 3.5 1.709 3.5 -0.5 C
S
GR
GS
[0.75 0 0 0.75 394.46535 183.34099] CT
0 0.447 0.741 RC
10.0 ML
0.667 LW
N
3.5 -0.5 M
3.5 -2.709 1.709 -4.5 -0.5 -4.5 C
-2.709 -4.5 -4.5 -2.709 -4.5 -0.5 C
-4.5 1.709 -2.709 3.5 -0.5 3.5 C
1.709 3.5 3.5 1.709 3.5 -0.5 C
S
GR
GS
[0.75 0 0 0.75 308.3803 552.07942] CT
0 0.447 0.741 RC
10.0 ML
0.667 LW
N
3.5 -0.5 M
3.5 -2.709 1.709 -4.5 -0.5 -4.5 C
-2.709 -4.5 -4.5 -2.709 -4.5 -0.5 C
-4.5 1.709 -2.709 3.5 -0.5 3.5 C
1.709 3.5 3.5 1.709 3.5 -0.5 C
S
GR
GS
[0.75 0 0 0.75 308.3803 131.17059] CT
0 0.447 0.741 RC
10.0 ML
0.667 LW
N
3.5 -0.5 M
3.5 -2.709 1.709 -4.5 -0.5 -4.5 C
-2.709 -4.5 -4.5 -2.709 -4.5 -0.5 C
-4.5 1.709 -2.709 3.5 -0.5 3.5 C
1.709 3.5 3.5 1.709 3.5 -0.5 C
S
GR
GS
[0.75 0 0 0.75 243.39512 341.625] CT
0 0.447 0.741 RC
10.0 ML
0.667 LW
N
3.5 -0.5 M
3.5 -2.709 1.709 -4.5 -0.5 -4.5 C
-2.709 -4.5 -4.5 -2.709 -4.5 -0.5 C
-4.5 1.709 -2.709 3.5 -0.5 3.5 C
1.709 3.5 3.5 1.709 3.5 -0.5 C
S
GR
GS
[0.75 0 0 0.75 1129.87344 341.625] CT
0 0.447 0.741 RC
10.0 ML
0.667 LW
N
3.5 -0.5 M
3.5 -2.709 1.709 -4.5 -0.5 -4.5 C
-2.709 -4.5 -4.5 -2.709 -4.5 -0.5 C
-4.5 1.709 -2.709 3.5 -0.5 3.5 C
1.709 3.5 3.5 1.709 3.5 -0.5 C
S
GR
GS
[0.75 0 0 0.75 480.65973 453.78127] CT
0 0.447 0.741 RC
10.0 ML
0.667 LW
N
-3.3 -3.3 M
3.3 3.3 L
-3.3 3.3 M
3.3 -3.3 L
S
GR
GS
[0.75 0 0 0.75 480.65973 229.46871] CT
0 0.447 0.741 RC
10.0 ML
0.667 LW
N
-3.3 -3.3 M
3.3 3.3 L
-3.3 3.3 M
3.3 -3.3 L
S
GR
GS
[0.75 0 0 0.75 457.41884 468.5322] CT
0 0.447 0.741 RC
10.0 ML
0.667 LW
N
-3.3 -3.3 M
3.3 3.3 L
-3.3 3.3 M
3.3 -3.3 L
S
GR
GS
[0.75 0 0 0.75 457.41884 214.71778] CT
0 0.447 0.741 RC
10.0 ML
0.667 LW
N
-3.3 -3.3 M
3.3 3.3 L
-3.3 3.3 M
3.3 -3.3 L
S
GR
GS
[0.75 0 0 0.75 528.20865 414.01675] CT
0 0.447 0.741 RC
10.0 ML
0.667 LW
N
-3.3 -3.3 M
3.3 3.3 L
-3.3 3.3 M
3.3 -3.3 L
S
GR
GS
[0.75 0 0 0.75 528.20865 269.23327] CT
0 0.447 0.741 RC
10.0 ML
0.667 LW
N
-3.3 -3.3 M
3.3 3.3 L
-3.3 3.3 M
3.3 -3.3 L
S
GR
GS
[0.75 0 0 0.75 421.91432 485.93834] CT
0 0.447 0.741 RC
10.0 ML
0.667 LW
N
-3.3 -3.3 M
3.3 3.3 L
-3.3 3.3 M
3.3 -3.3 L
S
GR
GS
[0.75 0 0 0.75 421.91432 197.31166] CT
0 0.447 0.741 RC
10.0 ML
0.667 LW
N
-3.3 -3.3 M
3.3 3.3 L
-3.3 3.3 M
3.3 -3.3 L
S
GR
GS
[0.75 0 0 0.75 364.37933 507.0937] CT
0 0.447 0.741 RC
10.0 ML
0.667 LW
N
-3.3 -3.3 M
3.3 3.3 L
-3.3 3.3 M
3.3 -3.3 L
S
GR
GS
[0.75 0 0 0.75 364.37933 176.15631] CT
0 0.447 0.741 RC
10.0 ML
0.667 LW
N
-3.3 -3.3 M
3.3 3.3 L
-3.3 3.3 M
3.3 -3.3 L
S
GR
GS
[0.75 0 0 0.75 749.25 61.455] CT
/Helvetica-Bold 14.667 F
GS
[1 0 0 1 0 0] CT
-61.5 -4 moveto 
1 -1 scale
(Pole-Zero Map) t 
GR
GR
GS
[0.75 0 0 0.75 749.25 632.75002] CT
/Helvetica 14.667 F
GS
[1 0 0 1 0 0] CT
-34.5 14 moveto 
1 -1 scale
(Real Axis) t 
GR
GR
GS
[0 -0.75 0.75 0 170 342.3525] CT
/Helvetica 14.667 F
GS
[1 0 0 1 0 0] CT
-56 -4 moveto 
1 -1 scale
(Imaginary Axis) t 
GR
GR
%%Trailer
%%Pages: 1
%%EOF
