%!PS-Adobe-3.0 EPSF-3.0
%%Creator: (MATLAB, The Mathworks, Inc. Version 9.1.0.441655 \(R2016b\). Operating System: Linux)
%%Title: /users/start2016/r0461511/Documents/system-identification/Oefenzitting_3/plots/pzmap_sub.eps
%%CreationDate: 2016-12-20T18:04:39
%%Pages: (atend)
%%BoundingBox: 0 0 426 308
%%LanguageLevel: 3
%%EndComments
%%BeginProlog
%%BeginResource: procset (Apache XML Graphics Std ProcSet) 1.2 0
%%Version: 1.2 0
%%Copyright: (Copyright 2001-2003,2010 The Apache Software Foundation. License terms: http://www.apache.org/licenses/LICENSE-2.0)
/bd{bind def}bind def
/ld{load def}bd
/GR/grestore ld
/M/moveto ld
/LJ/setlinejoin ld
/C/curveto ld
/f/fill ld
/LW/setlinewidth ld
/GC/setgray ld
/t/show ld
/N/newpath ld
/CT/concat ld
/cp/closepath ld
/S/stroke ld
/L/lineto ld
/CC/setcmykcolor ld
/A/ashow ld
/GS/gsave ld
/RC/setrgbcolor ld
/RM/rmoveto ld
/ML/setmiterlimit ld
/re {4 2 roll M
1 index 0 rlineto
0 exch rlineto
neg 0 rlineto
cp } bd
/_ctm matrix def
/_tm matrix def
/BT { _ctm currentmatrix pop matrix _tm copy pop 0 0 moveto } bd
/ET { _ctm setmatrix } bd
/iTm { _ctm setmatrix _tm concat } bd
/Tm { _tm astore pop iTm 0 0 moveto } bd
/ux 0.0 def
/uy 0.0 def
/F {
  /Tp exch def
  /Tf exch def
  Tf findfont Tp scalefont setfont
  /cf Tf def  /cs Tp def
} bd
/ULS {currentpoint /uy exch def /ux exch def} bd
/ULE {
  /Tcx currentpoint pop def
  gsave
  newpath
  cf findfont cs scalefont dup
  /FontMatrix get 0 get /Ts exch def /FontInfo get dup
  /UnderlinePosition get Ts mul /To exch def
  /UnderlineThickness get Ts mul /Tt exch def
  ux uy To add moveto  Tcx uy To add lineto
  Tt setlinewidth stroke
  grestore
} bd
/OLE {
  /Tcx currentpoint pop def
  gsave
  newpath
  cf findfont cs scalefont dup
  /FontMatrix get 0 get /Ts exch def /FontInfo get dup
  /UnderlinePosition get Ts mul /To exch def
  /UnderlineThickness get Ts mul /Tt exch def
  ux uy To add cs add moveto Tcx uy To add cs add lineto
  Tt setlinewidth stroke
  grestore
} bd
/SOE {
  /Tcx currentpoint pop def
  gsave
  newpath
  cf findfont cs scalefont dup
  /FontMatrix get 0 get /Ts exch def /FontInfo get dup
  /UnderlinePosition get Ts mul /To exch def
  /UnderlineThickness get Ts mul /Tt exch def
  ux uy To add cs 10 mul 26 idiv add moveto Tcx uy To add cs 10 mul 26 idiv add lineto
  Tt setlinewidth stroke
  grestore
} bd
/QT {
/Y22 exch store
/X22 exch store
/Y21 exch store
/X21 exch store
currentpoint
/Y21 load 2 mul add 3 div exch
/X21 load 2 mul add 3 div exch
/X21 load 2 mul /X22 load add 3 div
/Y21 load 2 mul /Y22 load add 3 div
/X22 load /Y22 load curveto
} bd
/SSPD {
dup length /d exch dict def
{
/v exch def
/k exch def
currentpagedevice k known {
/cpdv currentpagedevice k get def
v cpdv ne {
/upd false def
/nullv v type /nulltype eq def
/nullcpdv cpdv type /nulltype eq def
nullv nullcpdv or
{
/upd true def
} {
/sametype v type cpdv type eq def
sametype {
v type /arraytype eq {
/vlen v length def
/cpdvlen cpdv length def
vlen cpdvlen eq {
0 1 vlen 1 sub {
/i exch def
/obj v i get def
/cpdobj cpdv i get def
obj cpdobj ne {
/upd true def
exit
} if
} for
} {
/upd true def
} ifelse
} {
v type /dicttype eq {
v {
/dv exch def
/dk exch def
/cpddv cpdv dk get def
dv cpddv ne {
/upd true def
exit
} if
} forall
} {
/upd true def
} ifelse
} ifelse
} if
} ifelse
upd true eq {
d k v put
} if
} if
} if
} forall
d length 0 gt {
d setpagedevice
} if
} bd
/RE { % /NewFontName [NewEncodingArray] /FontName RE -
  findfont dup length dict begin
  {
    1 index /FID ne
    {def} {pop pop} ifelse
  } forall
  /Encoding exch def
  /FontName 1 index def
  currentdict definefont pop
  end
} bind def
%%EndResource
%%BeginResource: procset (Apache XML Graphics EPS ProcSet) 1.0 0
%%Version: 1.0 0
%%Copyright: (Copyright 2002-2003 The Apache Software Foundation. License terms: http://www.apache.org/licenses/LICENSE-2.0)
/BeginEPSF { %def
/b4_Inc_state save def         % Save state for cleanup
/dict_count countdictstack def % Count objects on dict stack
/op_count count 1 sub def      % Count objects on operand stack
userdict begin                 % Push userdict on dict stack
/showpage { } def              % Redefine showpage, { } = null proc
0 setgray 0 setlinecap         % Prepare graphics state
1 setlinewidth 0 setlinejoin
10 setmiterlimit [ ] 0 setdash newpath
/languagelevel where           % If level not equal to 1 then
{pop languagelevel             % set strokeadjust and
1 ne                           % overprint to their defaults.
{false setstrokeadjust false setoverprint
} if
} if
} bd
/EndEPSF { %def
count op_count sub {pop} repeat            % Clean up stacks
countdictstack dict_count sub {end} repeat
b4_Inc_state restore
} bd
%%EndResource
%FOPBeginFontDict
%%IncludeResource: font Courier-Bold
%%IncludeResource: font Helvetica
%%IncludeResource: font Courier-BoldOblique
%%IncludeResource: font Courier-Oblique
%%IncludeResource: font Times-Roman
%%IncludeResource: font Helvetica-BoldOblique
%%IncludeResource: font Helvetica-Bold
%%IncludeResource: font Helvetica-Oblique
%%IncludeResource: font Times-BoldItalic
%%IncludeResource: font Courier
%%IncludeResource: font Times-Italic
%%IncludeResource: font Times-Bold
%%IncludeResource: font Symbol
%%IncludeResource: font ZapfDingbats
%FOPEndFontDict
%%BeginResource: encoding WinAnsiEncoding
/WinAnsiEncoding [
/.notdef /.notdef /.notdef /.notdef /.notdef
/.notdef /.notdef /.notdef /.notdef /.notdef
/.notdef /.notdef /.notdef /.notdef /.notdef
/.notdef /.notdef /.notdef /.notdef /.notdef
/.notdef /.notdef /.notdef /.notdef /.notdef
/.notdef /.notdef /.notdef /.notdef /.notdef
/.notdef /.notdef /space /exclam /quotedbl
/numbersign /dollar /percent /ampersand /quotesingle
/parenleft /parenright /asterisk /plus /comma
/hyphen /period /slash /zero /one
/two /three /four /five /six
/seven /eight /nine /colon /semicolon
/less /equal /greater /question /at
/A /B /C /D /E
/F /G /H /I /J
/K /L /M /N /O
/P /Q /R /S /T
/U /V /W /X /Y
/Z /bracketleft /backslash /bracketright /asciicircum
/underscore /quoteleft /a /b /c
/d /e /f /g /h
/i /j /k /l /m
/n /o /p /q /r
/s /t /u /v /w
/x /y /z /braceleft /bar
/braceright /asciitilde /bullet /Euro /bullet
/quotesinglbase /florin /quotedblbase /ellipsis /dagger
/daggerdbl /circumflex /perthousand /Scaron /guilsinglleft
/OE /bullet /Zcaron /bullet /bullet
/quoteleft /quoteright /quotedblleft /quotedblright /bullet
/endash /emdash /asciitilde /trademark /scaron
/guilsinglright /oe /bullet /zcaron /Ydieresis
/space /exclamdown /cent /sterling /currency
/yen /brokenbar /section /dieresis /copyright
/ordfeminine /guillemotleft /logicalnot /sfthyphen /registered
/macron /degree /plusminus /twosuperior /threesuperior
/acute /mu /paragraph /middot /cedilla
/onesuperior /ordmasculine /guillemotright /onequarter /onehalf
/threequarters /questiondown /Agrave /Aacute /Acircumflex
/Atilde /Adieresis /Aring /AE /Ccedilla
/Egrave /Eacute /Ecircumflex /Edieresis /Igrave
/Iacute /Icircumflex /Idieresis /Eth /Ntilde
/Ograve /Oacute /Ocircumflex /Otilde /Odieresis
/multiply /Oslash /Ugrave /Uacute /Ucircumflex
/Udieresis /Yacute /Thorn /germandbls /agrave
/aacute /acircumflex /atilde /adieresis /aring
/ae /ccedilla /egrave /eacute /ecircumflex
/edieresis /igrave /iacute /icircumflex /idieresis
/eth /ntilde /ograve /oacute /ocircumflex
/otilde /odieresis /divide /oslash /ugrave
/uacute /ucircumflex /udieresis /yacute /thorn
/ydieresis
] def
%%EndResource
%FOPBeginFontReencode
/Courier-Bold findfont
dup length dict begin
  {1 index /FID ne {def} {pop pop} ifelse} forall
  /Encoding WinAnsiEncoding def
  currentdict
end
/Courier-Bold exch definefont pop
/Helvetica findfont
dup length dict begin
  {1 index /FID ne {def} {pop pop} ifelse} forall
  /Encoding WinAnsiEncoding def
  currentdict
end
/Helvetica exch definefont pop
/Courier-BoldOblique findfont
dup length dict begin
  {1 index /FID ne {def} {pop pop} ifelse} forall
  /Encoding WinAnsiEncoding def
  currentdict
end
/Courier-BoldOblique exch definefont pop
/Courier-Oblique findfont
dup length dict begin
  {1 index /FID ne {def} {pop pop} ifelse} forall
  /Encoding WinAnsiEncoding def
  currentdict
end
/Courier-Oblique exch definefont pop
/Times-Roman findfont
dup length dict begin
  {1 index /FID ne {def} {pop pop} ifelse} forall
  /Encoding WinAnsiEncoding def
  currentdict
end
/Times-Roman exch definefont pop
/Helvetica-BoldOblique findfont
dup length dict begin
  {1 index /FID ne {def} {pop pop} ifelse} forall
  /Encoding WinAnsiEncoding def
  currentdict
end
/Helvetica-BoldOblique exch definefont pop
/Helvetica-Bold findfont
dup length dict begin
  {1 index /FID ne {def} {pop pop} ifelse} forall
  /Encoding WinAnsiEncoding def
  currentdict
end
/Helvetica-Bold exch definefont pop
/Helvetica-Oblique findfont
dup length dict begin
  {1 index /FID ne {def} {pop pop} ifelse} forall
  /Encoding WinAnsiEncoding def
  currentdict
end
/Helvetica-Oblique exch definefont pop
/Times-BoldItalic findfont
dup length dict begin
  {1 index /FID ne {def} {pop pop} ifelse} forall
  /Encoding WinAnsiEncoding def
  currentdict
end
/Times-BoldItalic exch definefont pop
/Courier findfont
dup length dict begin
  {1 index /FID ne {def} {pop pop} ifelse} forall
  /Encoding WinAnsiEncoding def
  currentdict
end
/Courier exch definefont pop
/Times-Italic findfont
dup length dict begin
  {1 index /FID ne {def} {pop pop} ifelse} forall
  /Encoding WinAnsiEncoding def
  currentdict
end
/Times-Italic exch definefont pop
/Times-Bold findfont
dup length dict begin
  {1 index /FID ne {def} {pop pop} ifelse} forall
  /Encoding WinAnsiEncoding def
  currentdict
end
/Times-Bold exch definefont pop
%FOPEndFontReencode
%%EndProlog
%%Page: 1 1
%%PageBoundingBox: 0 0 426 308
%%BeginPageSetup
[1 0 0 -1 0 308] CT
%%EndPageSetup
GS
[0.75 0 0 0.75 0 0.5] CT
N
0 0 M
568 0 L
568 410 L
0 410 L
0 0 L
cp
clip
1 GC
N
0 0 568 410 re
f
GR
GS
[0.75 0 0 0.75 0 0.5] CT
1 GC
N
0 0 568 410 re
f
GR
GS
[0.75 0 0 0.75 0 0.5] CT
1 GC
N
86 365 M
514 365 L
514 51 L
86 51 L
cp
f
GR
GS
[0.75 0 0 0.75 0 0.5] CT
0.4 GC
2 setlinecap
1 LJ
0.667 LW
N
86 365 M
514 365 L
S
GR
GS
[0.75 0 0 0.75 0 0.5] CT
0.4 GC
2 setlinecap
1 LJ
0.667 LW
N
86 51 M
514 51 L
S
GR
GS
[0.75 0 0 0.75 0 0.5] CT
0.4 GC
2 setlinecap
1 LJ
0.667 LW
N
86 365 M
86 360.72 L
S
GR
GS
[0.75 0 0 0.75 0 0.5] CT
0.4 GC
2 setlinecap
1 LJ
0.667 LW
N
147.143 365 M
147.143 360.72 L
S
GR
GS
[0.75 0 0 0.75 0 0.5] CT
0.4 GC
2 setlinecap
1 LJ
0.667 LW
N
208.286 365 M
208.286 360.72 L
S
GR
GS
[0.75 0 0 0.75 0 0.5] CT
0.4 GC
2 setlinecap
1 LJ
0.667 LW
N
269.429 365 M
269.429 360.72 L
S
GR
GS
[0.75 0 0 0.75 0 0.5] CT
0.4 GC
2 setlinecap
1 LJ
0.667 LW
N
330.571 365 M
330.571 360.72 L
S
GR
GS
[0.75 0 0 0.75 0 0.5] CT
0.4 GC
2 setlinecap
1 LJ
0.667 LW
N
391.714 365 M
391.714 360.72 L
S
GR
GS
[0.75 0 0 0.75 0 0.5] CT
0.4 GC
2 setlinecap
1 LJ
0.667 LW
N
452.857 365 M
452.857 360.72 L
S
GR
GS
[0.75 0 0 0.75 0 0.5] CT
0.4 GC
2 setlinecap
1 LJ
0.667 LW
N
514 365 M
514 360.72 L
S
GR
GS
[0.75 0 0 0.75 0 0.5] CT
0.4 GC
2 setlinecap
1 LJ
0.667 LW
N
86 51 M
86 55.28 L
S
GR
GS
[0.75 0 0 0.75 0 0.5] CT
0.4 GC
2 setlinecap
1 LJ
0.667 LW
N
147.143 51 M
147.143 55.28 L
S
GR
GS
[0.75 0 0 0.75 0 0.5] CT
0.4 GC
2 setlinecap
1 LJ
0.667 LW
N
208.286 51 M
208.286 55.28 L
S
GR
GS
[0.75 0 0 0.75 0 0.5] CT
0.4 GC
2 setlinecap
1 LJ
0.667 LW
N
269.429 51 M
269.429 55.28 L
S
GR
GS
[0.75 0 0 0.75 0 0.5] CT
0.4 GC
2 setlinecap
1 LJ
0.667 LW
N
330.571 51 M
330.571 55.28 L
S
GR
GS
[0.75 0 0 0.75 0 0.5] CT
0.4 GC
2 setlinecap
1 LJ
0.667 LW
N
391.714 51 M
391.714 55.28 L
S
GR
GS
[0.75 0 0 0.75 0 0.5] CT
0.4 GC
2 setlinecap
1 LJ
0.667 LW
N
452.857 51 M
452.857 55.28 L
S
GR
GS
[0.75 0 0 0.75 0 0.5] CT
0.4 GC
2 setlinecap
1 LJ
0.667 LW
N
514 51 M
514 55.28 L
S
GR
GS
[0.75 0 0 0.75 64.5 278.25001] CT
0.4 GC
/Helvetica 13.333 F
GS
[1 0 0 1 0 0] CT
-6.5 13 moveto 
1 -1 scale
(-2) t 
GR
GR
GS
[0.75 0 0 0.75 110.35714 278.25001] CT
0.4 GC
/Helvetica 13.333 F
GS
[1 0 0 1 0 0] CT
-13 13 moveto 
1 -1 scale
(-1.5) t 
GR
GR
GS
[0.75 0 0 0.75 156.21429 278.25001] CT
0.4 GC
/Helvetica 13.333 F
GS
[1 0 0 1 0 0] CT
-6.5 13 moveto 
1 -1 scale
(-1) t 
GR
GR
GS
[0.75 0 0 0.75 202.07142 278.25001] CT
0.4 GC
/Helvetica 13.333 F
GS
[1 0 0 1 0 0] CT
-13 13 moveto 
1 -1 scale
(-0.5) t 
GR
GR
GS
[0.75 0 0 0.75 247.92858 278.25001] CT
0.4 GC
/Helvetica 13.333 F
GS
[1 0 0 1 0 0] CT
-4.5 13 moveto 
1 -1 scale
(0) t 
GR
GR
GS
[0.75 0 0 0.75 293.78572 278.25001] CT
0.4 GC
/Helvetica 13.333 F
GS
[1 0 0 1 0 0] CT
-10.5 13 moveto 
1 -1 scale
(0.5) t 
GR
GR
GS
[0.75 0 0 0.75 339.64286 278.25001] CT
0.4 GC
/Helvetica 13.333 F
GS
[1 0 0 1 0 0] CT
-4.5 13 moveto 
1 -1 scale
(1) t 
GR
GR
GS
[0.75 0 0 0.75 385.5 278.25001] CT
0.4 GC
/Helvetica 13.333 F
GS
[1 0 0 1 0 0] CT
-10.5 13 moveto 
1 -1 scale
(1.5) t 
GR
GR
GS
[0.75 0 0 0.75 0 0.5] CT
0.4 GC
2 setlinecap
1 LJ
0.667 LW
N
86 365 M
86 51 L
S
GR
GS
[0.75 0 0 0.75 0 0.5] CT
0.4 GC
2 setlinecap
1 LJ
0.667 LW
N
514 365 M
514 51 L
S
GR
GS
[0.75 0 0 0.75 0 0.5] CT
0.4 GC
2 setlinecap
1 LJ
0.667 LW
N
86 365 M
90.28 365 L
S
GR
GS
[0.75 0 0 0.75 0 0.5] CT
0.4 GC
2 setlinecap
1 LJ
0.667 LW
N
86 312.667 M
90.28 312.667 L
S
GR
GS
[0.75 0 0 0.75 0 0.5] CT
0.4 GC
2 setlinecap
1 LJ
0.667 LW
N
86 260.333 M
90.28 260.333 L
S
GR
GS
[0.75 0 0 0.75 0 0.5] CT
0.4 GC
2 setlinecap
1 LJ
0.667 LW
N
86 208 M
90.28 208 L
S
GR
GS
[0.75 0 0 0.75 0 0.5] CT
0.4 GC
2 setlinecap
1 LJ
0.667 LW
N
86 155.667 M
90.28 155.667 L
S
GR
GS
[0.75 0 0 0.75 0 0.5] CT
0.4 GC
2 setlinecap
1 LJ
0.667 LW
N
86 103.333 M
90.28 103.333 L
S
GR
GS
[0.75 0 0 0.75 0 0.5] CT
0.4 GC
2 setlinecap
1 LJ
0.667 LW
N
86 51 M
90.28 51 L
S
GR
GS
[0.75 0 0 0.75 0 0.5] CT
0.4 GC
2 setlinecap
1 LJ
0.667 LW
N
514 365 M
509.72 365 L
S
GR
GS
[0.75 0 0 0.75 0 0.5] CT
0.4 GC
2 setlinecap
1 LJ
0.667 LW
N
514 312.667 M
509.72 312.667 L
S
GR
GS
[0.75 0 0 0.75 0 0.5] CT
0.4 GC
2 setlinecap
1 LJ
0.667 LW
N
514 260.333 M
509.72 260.333 L
S
GR
GS
[0.75 0 0 0.75 0 0.5] CT
0.4 GC
2 setlinecap
1 LJ
0.667 LW
N
514 208 M
509.72 208 L
S
GR
GS
[0.75 0 0 0.75 0 0.5] CT
0.4 GC
2 setlinecap
1 LJ
0.667 LW
N
514 155.667 M
509.72 155.667 L
S
GR
GS
[0.75 0 0 0.75 0 0.5] CT
0.4 GC
2 setlinecap
1 LJ
0.667 LW
N
514 103.333 M
509.72 103.333 L
S
GR
GS
[0.75 0 0 0.75 0 0.5] CT
0.4 GC
2 setlinecap
1 LJ
0.667 LW
N
514 51 M
509.72 51 L
S
GR
GS
[0.75 0 0 0.75 60.5 274.25] CT
0.4 GC
/Helvetica 13.333 F
GS
[1 0 0 1 0 0] CT
-26 4.5 moveto 
1 -1 scale
(-1.5) t 
GR
GR
GS
[0.75 0 0 0.75 60.5 234.99999] CT
0.4 GC
/Helvetica 13.333 F
GS
[1 0 0 1 0 0] CT
-13 4.5 moveto 
1 -1 scale
(-1) t 
GR
GR
GS
[0.75 0 0 0.75 60.5 195.75001] CT
0.4 GC
/Helvetica 13.333 F
GS
[1 0 0 1 0 0] CT
-26 4.5 moveto 
1 -1 scale
(-0.5) t 
GR
GR
GS
[0.75 0 0 0.75 60.5 156.5] CT
0.4 GC
/Helvetica 13.333 F
GS
[1 0 0 1 0 0] CT
-9 4.5 moveto 
1 -1 scale
(0) t 
GR
GR
GS
[0.75 0 0 0.75 60.5 117.25] CT
0.4 GC
/Helvetica 13.333 F
GS
[1 0 0 1 0 0] CT
-21 4.5 moveto 
1 -1 scale
(0.5) t 
GR
GR
GS
[0.75 0 0 0.75 60.5 78] CT
0.4 GC
/Helvetica 13.333 F
GS
[1 0 0 1 0 0] CT
-9 4.5 moveto 
1 -1 scale
(1) t 
GR
GR
GS
[0.75 0 0 0.75 60.5 38.75] CT
0.4 GC
/Helvetica 13.333 F
GS
[1 0 0 1 0 0] CT
-21 4.5 moveto 
1 -1 scale
(1.5) t 
GR
GR
GS
[0.75 0 0 0.75 0 0.5] CT
0.4 GC
[1 3] 0 setdash
2 LJ
0.667 LW
N
322.896 103.54 M
315.248 104.158 L
S
GR
GS
[0.75 0 0 0.75 0 0.5] CT
0.4 GC
[1 3] 0 setdash
2 LJ
0.667 LW
N
419.715 136.352 M
414.283 131.702 L
S
GR
GS
[0.75 0 0 0.75 0 0.5] CT
0.4 GC
[1 3] 0 setdash
2 LJ
0.667 LW
N
414.283 131.702 M
408.52 127.354 L
S
GR
GS
[0.75 0 0 0.75 0 0.5] CT
0.4 GC
[1 3] 0 setdash
2 LJ
0.667 LW
N
408.52 127.354 M
402.45 123.324 L
S
GR
GS
[0.75 0 0 0.75 0 0.5] CT
0.4 GC
[1 3] 0 setdash
2 LJ
0.667 LW
N
402.45 123.324 M
396.097 119.628 L
S
GR
GS
[0.75 0 0 0.75 0 0.5] CT
0.4 GC
[1 3] 0 setdash
2 LJ
0.667 LW
N
396.097 119.628 M
389.485 116.281 L
S
GR
GS
[0.75 0 0 0.75 0 0.5] CT
0.4 GC
[1 3] 0 setdash
2 LJ
0.667 LW
N
389.485 116.281 M
382.64 113.295 L
S
GR
GS
[0.75 0 0 0.75 0 0.5] CT
0.4 GC
[1 3] 0 setdash
2 LJ
0.667 LW
N
382.64 113.295 M
375.59 110.684 L
S
GR
GS
[0.75 0 0 0.75 0 0.5] CT
0.4 GC
[1 3] 0 setdash
2 LJ
0.667 LW
N
375.59 110.684 M
368.362 108.457 L
S
GR
GS
[0.75 0 0 0.75 0 0.5] CT
0.4 GC
[1 3] 0 setdash
2 LJ
0.667 LW
N
368.362 108.457 M
360.985 106.622 L
S
GR
GS
[0.75 0 0 0.75 0 0.5] CT
0.4 GC
[1 3] 0 setdash
2 LJ
0.667 LW
N
360.985 106.622 M
353.488 105.188 L
S
GR
GS
[0.75 0 0 0.75 0 0.5] CT
0.4 GC
[1 3] 0 setdash
2 LJ
0.667 LW
N
353.488 105.188 M
345.9 104.159 L
S
GR
GS
[0.75 0 0 0.75 0 0.5] CT
0.4 GC
[1 3] 0 setdash
2 LJ
0.667 LW
N
345.9 104.159 M
338.252 103.54 L
S
GR
GS
[0.75 0 0 0.75 0 0.5] CT
0.4 GC
[1 3] 0 setdash
2 LJ
0.667 LW
N
338.252 103.54 M
330.574 103.333 L
S
GR
GS
[0.75 0 0 0.75 0 0.5] CT
0.4 GC
[1 3] 0 setdash
2 LJ
0.667 LW
N
330.574 103.333 M
322.896 103.54 L
S
GR
GS
[0.75 0 0 0.75 0 0.5] CT
0.4 GC
[1 3] 0 setdash
2 LJ
0.667 LW
N
424.795 141.284 M
419.715 136.352 L
S
GR
GS
[0.75 0 0 0.75 0 0.5] CT
0.4 GC
[1 3] 0 setdash
2 LJ
0.667 LW
N
315.248 104.158 M
307.66 105.187 L
S
GR
GS
[0.75 0 0 0.75 0 0.5] CT
0.4 GC
[1 3] 0 setdash
2 LJ
0.667 LW
N
307.66 105.187 M
300.163 106.621 L
S
GR
GS
[0.75 0 0 0.75 0 0.5] CT
0.4 GC
[1 3] 0 setdash
2 LJ
0.667 LW
N
300.163 106.621 M
292.786 108.455 L
S
GR
GS
[0.75 0 0 0.75 0 0.5] CT
0.4 GC
[1 3] 0 setdash
2 LJ
0.667 LW
N
292.786 108.455 M
285.558 110.682 L
S
GR
GS
[0.75 0 0 0.75 0 0.5] CT
0.4 GC
[1 3] 0 setdash
2 LJ
0.667 LW
N
285.558 110.682 M
278.508 113.294 L
S
GR
GS
[0.75 0 0 0.75 0 0.5] CT
0.4 GC
[1 3] 0 setdash
2 LJ
0.667 LW
N
278.508 113.294 M
271.663 116.278 L
S
GR
GS
[0.75 0 0 0.75 0 0.5] CT
0.4 GC
[1 3] 0 setdash
2 LJ
0.667 LW
N
271.663 116.278 M
265.05 119.625 L
S
GR
GS
[0.75 0 0 0.75 0 0.5] CT
0.4 GC
[1 3] 0 setdash
2 LJ
0.667 LW
N
265.05 119.625 M
258.697 123.321 L
S
GR
GS
[0.75 0 0 0.75 0 0.5] CT
0.4 GC
[1 3] 0 setdash
2 LJ
0.667 LW
N
258.697 123.321 M
252.626 127.351 L
S
GR
GS
[0.75 0 0 0.75 0 0.5] CT
0.4 GC
[1 3] 0 setdash
2 LJ
0.667 LW
N
252.626 127.351 M
246.864 131.699 L
S
GR
GS
[0.75 0 0 0.75 0 0.5] CT
0.4 GC
[1 3] 0 setdash
2 LJ
0.667 LW
N
246.864 131.699 M
241.432 136.348 L
S
GR
GS
[0.75 0 0 0.75 0 0.5] CT
0.4 GC
[1 3] 0 setdash
2 LJ
0.667 LW
N
241.432 136.348 M
236.351 141.28 L
S
GR
GS
[0.75 0 0 0.75 0 0.5] CT
0.4 GC
[1 3] 0 setdash
2 LJ
0.667 LW
N
236.351 141.28 M
231.643 146.476 L
S
GR
GS
[0.75 0 0 0.75 0 0.5] CT
0.4 GC
[1 3] 0 setdash
2 LJ
0.667 LW
N
231.643 146.476 M
227.324 151.914 L
S
GR
GS
[0.75 0 0 0.75 0 0.5] CT
0.4 GC
[1 3] 0 setdash
2 LJ
0.667 LW
N
227.324 151.914 M
223.414 157.573 L
S
GR
GS
[0.75 0 0 0.75 0 0.5] CT
0.4 GC
[1 3] 0 setdash
2 LJ
0.667 LW
N
452.857 208 M
452.616 201.428 L
S
GR
GS
[0.75 0 0 0.75 0 0.5] CT
0.4 GC
[1 3] 0 setdash
2 LJ
0.667 LW
N
452.616 201.428 M
451.893 194.882 L
S
GR
GS
[0.75 0 0 0.75 0 0.5] CT
0.4 GC
[1 3] 0 setdash
2 LJ
0.667 LW
N
451.893 194.882 M
450.691 188.388 L
S
GR
GS
[0.75 0 0 0.75 0 0.5] CT
0.4 GC
[1 3] 0 setdash
2 LJ
0.667 LW
N
450.691 188.388 M
449.015 181.971 L
S
GR
GS
[0.75 0 0 0.75 0 0.5] CT
0.4 GC
[1 3] 0 setdash
2 LJ
0.667 LW
N
449.015 181.971 M
446.872 175.657 L
S
GR
GS
[0.75 0 0 0.75 0 0.5] CT
0.4 GC
[1 3] 0 setdash
2 LJ
0.667 LW
N
446.872 175.657 M
444.27 169.47 L
S
GR
GS
[0.75 0 0 0.75 0 0.5] CT
0.4 GC
[1 3] 0 setdash
2 LJ
0.667 LW
N
444.27 169.47 M
441.219 163.436 L
S
GR
GS
[0.75 0 0 0.75 0 0.5] CT
0.4 GC
[1 3] 0 setdash
2 LJ
0.667 LW
N
441.219 163.436 M
437.732 157.577 L
S
GR
GS
[0.75 0 0 0.75 0 0.5] CT
0.4 GC
[1 3] 0 setdash
2 LJ
0.667 LW
N
437.732 157.577 M
433.821 151.917 L
S
GR
GS
[0.75 0 0 0.75 0 0.5] CT
0.4 GC
[1 3] 0 setdash
2 LJ
0.667 LW
N
433.821 151.917 M
429.503 146.479 L
S
GR
GS
[0.75 0 0 0.75 0 0.5] CT
0.4 GC
[1 3] 0 setdash
2 LJ
0.667 LW
N
429.503 146.479 M
424.795 141.284 L
S
GR
GS
[0.75 0 0 0.75 0 0.5] CT
0.4 GC
[1 3] 0 setdash
2 LJ
0.667 LW
N
402.442 292.682 M
408.512 288.652 L
S
GR
GS
[0.75 0 0 0.75 0 0.5] CT
0.4 GC
[1 3] 0 setdash
2 LJ
0.667 LW
N
300.153 309.377 M
307.65 310.812 L
S
GR
GS
[0.75 0 0 0.75 0 0.5] CT
0.4 GC
[1 3] 0 setdash
2 LJ
0.667 LW
N
307.65 310.812 M
315.237 311.841 L
S
GR
GS
[0.75 0 0 0.75 0 0.5] CT
0.4 GC
[1 3] 0 setdash
2 LJ
0.667 LW
N
315.237 311.841 M
322.885 312.46 L
S
GR
GS
[0.75 0 0 0.75 0 0.5] CT
0.4 GC
[1 3] 0 setdash
2 LJ
0.667 LW
N
322.885 312.46 M
330.564 312.667 L
S
GR
GS
[0.75 0 0 0.75 0 0.5] CT
0.4 GC
[1 3] 0 setdash
2 LJ
0.667 LW
N
330.564 312.667 M
338.242 312.461 L
S
GR
GS
[0.75 0 0 0.75 0 0.5] CT
0.4 GC
[1 3] 0 setdash
2 LJ
0.667 LW
N
338.242 312.461 M
345.89 311.842 L
S
GR
GS
[0.75 0 0 0.75 0 0.5] CT
0.4 GC
[1 3] 0 setdash
2 LJ
0.667 LW
N
345.89 311.842 M
353.478 310.814 L
S
GR
GS
[0.75 0 0 0.75 0 0.5] CT
0.4 GC
[1 3] 0 setdash
2 LJ
0.667 LW
N
353.478 310.814 M
360.975 309.38 L
S
GR
GS
[0.75 0 0 0.75 0 0.5] CT
0.4 GC
[1 3] 0 setdash
2 LJ
0.667 LW
N
360.975 309.38 M
368.352 307.546 L
S
GR
GS
[0.75 0 0 0.75 0 0.5] CT
0.4 GC
[1 3] 0 setdash
2 LJ
0.667 LW
N
368.352 307.546 M
375.58 305.319 L
S
GR
GS
[0.75 0 0 0.75 0 0.5] CT
0.4 GC
[1 3] 0 setdash
2 LJ
0.667 LW
N
375.58 305.319 M
382.63 302.708 L
S
GR
GS
[0.75 0 0 0.75 0 0.5] CT
0.4 GC
[1 3] 0 setdash
2 LJ
0.667 LW
N
382.63 302.708 M
389.475 299.724 L
S
GR
GS
[0.75 0 0 0.75 0 0.5] CT
0.4 GC
[1 3] 0 setdash
2 LJ
0.667 LW
N
389.475 299.724 M
396.088 296.377 L
S
GR
GS
[0.75 0 0 0.75 0 0.5] CT
0.4 GC
[1 3] 0 setdash
2 LJ
0.667 LW
N
396.088 296.377 M
402.442 292.682 L
S
GR
GS
[0.75 0 0 0.75 0 0.5] CT
0.4 GC
[1 3] 0 setdash
2 LJ
0.667 LW
N
292.776 307.542 M
300.153 309.377 L
S
GR
GS
[0.75 0 0 0.75 0 0.5] CT
0.4 GC
[1 3] 0 setdash
2 LJ
0.667 LW
N
408.512 288.652 M
414.275 284.304 L
S
GR
GS
[0.75 0 0 0.75 0 0.5] CT
0.4 GC
[1 3] 0 setdash
2 LJ
0.667 LW
N
414.275 284.304 M
419.708 279.655 L
S
GR
GS
[0.75 0 0 0.75 0 0.5] CT
0.4 GC
[1 3] 0 setdash
2 LJ
0.667 LW
N
419.708 279.655 M
424.788 274.723 L
S
GR
GS
[0.75 0 0 0.75 0 0.5] CT
0.4 GC
[1 3] 0 setdash
2 LJ
0.667 LW
N
424.788 274.723 M
429.497 269.528 L
S
GR
GS
[0.75 0 0 0.75 0 0.5] CT
0.4 GC
[1 3] 0 setdash
2 LJ
0.667 LW
N
429.497 269.528 M
433.816 264.09 L
S
GR
GS
[0.75 0 0 0.75 0 0.5] CT
0.4 GC
[1 3] 0 setdash
2 LJ
0.667 LW
N
433.816 264.09 M
437.727 258.431 L
S
GR
GS
[0.75 0 0 0.75 0 0.5] CT
0.4 GC
[1 3] 0 setdash
2 LJ
0.667 LW
N
437.727 258.431 M
441.215 252.572 L
S
GR
GS
[0.75 0 0 0.75 0 0.5] CT
0.4 GC
[1 3] 0 setdash
2 LJ
0.667 LW
N
441.215 252.572 M
444.266 246.538 L
S
GR
GS
[0.75 0 0 0.75 0 0.5] CT
0.4 GC
[1 3] 0 setdash
2 LJ
0.667 LW
N
444.266 246.538 M
446.869 240.352 L
S
GR
GS
[0.75 0 0 0.75 0 0.5] CT
0.4 GC
[1 3] 0 setdash
2 LJ
0.667 LW
N
446.869 240.352 M
449.013 234.038 L
S
GR
GS
[0.75 0 0 0.75 0 0.5] CT
0.4 GC
[1 3] 0 setdash
2 LJ
0.667 LW
N
449.013 234.038 M
450.689 227.621 L
S
GR
GS
[0.75 0 0 0.75 0 0.5] CT
0.4 GC
[1 3] 0 setdash
2 LJ
0.667 LW
N
450.689 227.621 M
451.892 221.127 L
S
GR
GS
[0.75 0 0 0.75 0 0.5] CT
0.4 GC
[1 3] 0 setdash
2 LJ
0.667 LW
N
451.892 221.127 M
452.615 214.581 L
S
GR
GS
[0.75 0 0 0.75 0 0.5] CT
0.4 GC
[1 3] 0 setdash
2 LJ
0.667 LW
N
452.615 214.581 M
452.857 208.009 L
S
GR
GS
[0.75 0 0 0.75 0 0.5] CT
0.4 GC
[1 3] 0 setdash
2 LJ
0.667 LW
N
216.871 246.526 M
219.921 252.56 L
S
GR
GS
[0.75 0 0 0.75 0 0.5] CT
0.4 GC
[1 3] 0 setdash
2 LJ
0.667 LW
N
223.414 157.573 M
219.926 163.432 L
S
GR
GS
[0.75 0 0 0.75 0 0.5] CT
0.4 GC
[1 3] 0 setdash
2 LJ
0.667 LW
N
219.926 163.432 M
216.875 169.466 L
S
GR
GS
[0.75 0 0 0.75 0 0.5] CT
0.4 GC
[1 3] 0 setdash
2 LJ
0.667 LW
N
216.875 169.466 M
214.272 175.652 L
S
GR
GS
[0.75 0 0 0.75 0 0.5] CT
0.4 GC
[1 3] 0 setdash
2 LJ
0.667 LW
N
214.272 175.652 M
212.129 181.966 L
S
GR
GS
[0.75 0 0 0.75 0 0.5] CT
0.4 GC
[1 3] 0 setdash
2 LJ
0.667 LW
N
212.129 181.966 M
210.453 188.383 L
S
GR
GS
[0.75 0 0 0.75 0 0.5] CT
0.4 GC
[1 3] 0 setdash
2 LJ
0.667 LW
N
210.453 188.383 M
209.251 194.878 L
S
GR
GS
[0.75 0 0 0.75 0 0.5] CT
0.4 GC
[1 3] 0 setdash
2 LJ
0.667 LW
N
209.251 194.878 M
208.527 201.424 L
S
GR
GS
[0.75 0 0 0.75 0 0.5] CT
0.4 GC
[1 3] 0 setdash
2 LJ
0.667 LW
N
208.527 201.424 M
208.286 207.996 L
S
GR
GS
[0.75 0 0 0.75 0 0.5] CT
0.4 GC
[1 3] 0 setdash
2 LJ
0.667 LW
N
208.286 207.996 M
208.527 214.568 L
S
GR
GS
[0.75 0 0 0.75 0 0.5] CT
0.4 GC
[1 3] 0 setdash
2 LJ
0.667 LW
N
208.527 214.568 M
209.249 221.114 L
S
GR
GS
[0.75 0 0 0.75 0 0.5] CT
0.4 GC
[1 3] 0 setdash
2 LJ
0.667 LW
N
209.249 221.114 M
210.451 227.608 L
S
GR
GS
[0.75 0 0 0.75 0 0.5] CT
0.4 GC
[1 3] 0 setdash
2 LJ
0.667 LW
N
210.451 227.608 M
212.126 234.025 L
S
GR
GS
[0.75 0 0 0.75 0 0.5] CT
0.4 GC
[1 3] 0 setdash
2 LJ
0.667 LW
N
212.126 234.025 M
214.269 240.339 L
S
GR
GS
[0.75 0 0 0.75 0 0.5] CT
0.4 GC
[1 3] 0 setdash
2 LJ
0.667 LW
N
214.269 240.339 M
216.871 246.526 L
S
GR
GS
[0.75 0 0 0.75 0 0.5] CT
0.4 GC
[1 3] 0 setdash
2 LJ
0.667 LW
N
219.921 252.56 M
223.409 258.419 L
S
GR
GS
[0.75 0 0 0.75 0 0.5] CT
0.4 GC
[1 3] 0 setdash
2 LJ
0.667 LW
N
223.409 258.419 M
227.319 264.079 L
S
GR
GS
[0.75 0 0 0.75 0 0.5] CT
0.4 GC
[1 3] 0 setdash
2 LJ
0.667 LW
N
227.319 264.079 M
231.637 269.517 L
S
GR
GS
[0.75 0 0 0.75 0 0.5] CT
0.4 GC
[1 3] 0 setdash
2 LJ
0.667 LW
N
231.637 269.517 M
236.345 274.713 L
S
GR
GS
[0.75 0 0 0.75 0 0.5] CT
0.4 GC
[1 3] 0 setdash
2 LJ
0.667 LW
N
236.345 274.713 M
241.425 279.645 L
S
GR
GS
[0.75 0 0 0.75 0 0.5] CT
0.4 GC
[1 3] 0 setdash
2 LJ
0.667 LW
N
241.425 279.645 M
246.856 284.295 L
S
GR
GS
[0.75 0 0 0.75 0 0.5] CT
0.4 GC
[1 3] 0 setdash
2 LJ
0.667 LW
N
246.856 284.295 M
252.618 288.643 L
S
GR
GS
[0.75 0 0 0.75 0 0.5] CT
0.4 GC
[1 3] 0 setdash
2 LJ
0.667 LW
N
252.618 288.643 M
258.688 292.674 L
S
GR
GS
[0.75 0 0 0.75 0 0.5] CT
0.4 GC
[1 3] 0 setdash
2 LJ
0.667 LW
N
258.688 292.674 M
265.042 296.37 L
S
GR
GS
[0.75 0 0 0.75 0 0.5] CT
0.4 GC
[1 3] 0 setdash
2 LJ
0.667 LW
N
265.042 296.37 M
271.654 299.717 L
S
GR
GS
[0.75 0 0 0.75 0 0.5] CT
0.4 GC
[1 3] 0 setdash
2 LJ
0.667 LW
N
271.654 299.717 M
278.498 302.703 L
S
GR
GS
[0.75 0 0 0.75 0 0.5] CT
0.4 GC
[1 3] 0 setdash
2 LJ
0.667 LW
N
278.498 302.703 M
285.548 305.314 L
S
GR
GS
[0.75 0 0 0.75 0 0.5] CT
0.4 GC
[1 3] 0 setdash
2 LJ
0.667 LW
N
285.548 305.314 M
292.776 307.542 L
S
GR
GS
[0.75 0 0 0.75 0 0.5] CT
0.4 GC
[1 3] 0 setdash
2 LJ
0.667 LW
N
85.949 208 M
208.286 208 L
S
GR
GS
[0.75 0 0 0.75 0 0.5] CT
0.4 GC
[1 3] 0 setdash
2 LJ
0.667 LW
N
208.286 208 M
330.571 208 L
S
GR
GS
[0.75 0 0 0.75 0 0.5] CT
0.4 GC
[1 3] 0 setdash
2 LJ
0.667 LW
N
330.571 208 M
452.857 208 L
S
GR
GS
[0.75 0 0 0.75 0 0.5] CT
0.4 GC
[1 3] 0 setdash
2 LJ
0.667 LW
N
452.857 208 M
514.051 208 L
S
GR
GS
[0.75 0 0 0.75 0 0.5] CT
0.4 GC
[1 3] 0 setdash
2 LJ
0.667 LW
N
330.571 103.333 M
330.571 50.963 L
S
GR
GS
[0.75 0 0 0.75 0 0.5] CT
0.4 GC
[1 3] 0 setdash
2 LJ
0.667 LW
N
330.571 365.037 M
330.571 312.667 L
S
GR
GS
[0.75 0 0 0.75 0 0.5] CT
0.4 GC
[1 3] 0 setdash
2 LJ
0.667 LW
N
330.571 312.667 M
330.571 208 L
S
GR
GS
[0.75 0 0 0.75 0 0.5] CT
0.4 GC
[1 3] 0 setdash
2 LJ
0.667 LW
N
330.571 208 M
330.571 103.333 L
S
GR
GS
[0.75 0 0 0.75 90.5991 117.97897] CT
0 0.447 0.741 RC
10.0 ML
0.667 LW
N
3.5 -0.5 M
3.5 -2.709 1.709 -4.5 -0.5 -4.5 C
-2.709 -4.5 -4.5 -2.709 -4.5 -0.5 C
-4.5 1.709 -2.709 3.5 -0.5 3.5 C
1.709 3.5 3.5 1.709 3.5 -0.5 C
S
GR
GS
[0.75 0 0 0.75 90.5991 195.02104] CT
0 0.447 0.741 RC
10.0 ML
0.667 LW
N
3.5 -0.5 M
3.5 -2.709 1.709 -4.5 -0.5 -4.5 C
-2.709 -4.5 -4.5 -2.709 -4.5 -0.5 C
-4.5 1.709 -2.709 3.5 -0.5 3.5 C
1.709 3.5 3.5 1.709 3.5 -0.5 C
S
GR
GS
[0.75 0 0 0.75 153.07808 151.45446] CT
0 0.447 0.741 RC
10.0 ML
0.667 LW
N
3.5 -0.5 M
3.5 -2.709 1.709 -4.5 -0.5 -4.5 C
-2.709 -4.5 -4.5 -2.709 -4.5 -0.5 C
-4.5 1.709 -2.709 3.5 -0.5 3.5 C
1.709 3.5 3.5 1.709 3.5 -0.5 C
S
GR
GS
[0.75 0 0 0.75 153.07808 161.54554] CT
0 0.447 0.741 RC
10.0 ML
0.667 LW
N
3.5 -0.5 M
3.5 -2.709 1.709 -4.5 -0.5 -4.5 C
-2.709 -4.5 -4.5 -2.709 -4.5 -0.5 C
-4.5 1.709 -2.709 3.5 -0.5 3.5 C
1.709 3.5 3.5 1.709 3.5 -0.5 C
S
GR
GS
[0.75 0 0 0.75 225.4454 43.37051] CT
0 0.447 0.741 RC
10.0 ML
0.667 LW
N
3.5 -0.5 M
3.5 -2.709 1.709 -4.5 -0.5 -4.5 C
-2.709 -4.5 -4.5 -2.709 -4.5 -0.5 C
-4.5 1.709 -2.709 3.5 -0.5 3.5 C
1.709 3.5 3.5 1.709 3.5 -0.5 C
S
GR
GS
[0.75 0 0 0.75 225.4454 269.62949] CT
0 0.447 0.741 RC
10.0 ML
0.667 LW
N
3.5 -0.5 M
3.5 -2.709 1.709 -4.5 -0.5 -4.5 C
-2.709 -4.5 -4.5 -2.709 -4.5 -0.5 C
-4.5 1.709 -2.709 3.5 -0.5 3.5 C
1.709 3.5 3.5 1.709 3.5 -0.5 C
S
GR
GS
[0.75 0 0 0.75 265.02255 51.11164] CT
0 0.447 0.741 RC
10.0 ML
0.667 LW
N
3.5 -0.5 M
3.5 -2.709 1.709 -4.5 -0.5 -4.5 C
-2.709 -4.5 -4.5 -2.709 -4.5 -0.5 C
-4.5 1.709 -2.709 3.5 -0.5 3.5 C
1.709 3.5 3.5 1.709 3.5 -0.5 C
S
GR
GS
[0.75 0 0 0.75 265.02255 261.88834] CT
0 0.447 0.741 RC
10.0 ML
0.667 LW
N
3.5 -0.5 M
3.5 -2.709 1.709 -4.5 -0.5 -4.5 C
-2.709 -4.5 -4.5 -2.709 -4.5 -0.5 C
-4.5 1.709 -2.709 3.5 -0.5 3.5 C
1.709 3.5 3.5 1.709 3.5 -0.5 C
S
GR
GS
[0.75 0 0 0.75 291.67841 54.7846] CT
0 0.447 0.741 RC
10.0 ML
0.667 LW
N
3.5 -0.5 M
3.5 -2.709 1.709 -4.5 -0.5 -4.5 C
-2.709 -4.5 -4.5 -2.709 -4.5 -0.5 C
-4.5 1.709 -2.709 3.5 -0.5 3.5 C
1.709 3.5 3.5 1.709 3.5 -0.5 C
S
GR
GS
[0.75 0 0 0.75 291.67841 258.21539] CT
0 0.447 0.741 RC
10.0 ML
0.667 LW
N
3.5 -0.5 M
3.5 -2.709 1.709 -4.5 -0.5 -4.5 C
-2.709 -4.5 -4.5 -2.709 -4.5 -0.5 C
-4.5 1.709 -2.709 3.5 -0.5 3.5 C
1.709 3.5 3.5 1.709 3.5 -0.5 C
S
GR
GS
[0.75 0 0 0.75 326.86876 81.07202] CT
0 0.447 0.741 RC
10.0 ML
0.667 LW
N
3.5 -0.5 M
3.5 -2.709 1.709 -4.5 -0.5 -4.5 C
-2.709 -4.5 -4.5 -2.709 -4.5 -0.5 C
-4.5 1.709 -2.709 3.5 -0.5 3.5 C
1.709 3.5 3.5 1.709 3.5 -0.5 C
S
GR
GS
[0.75 0 0 0.75 326.86876 231.92799] CT
0 0.447 0.741 RC
10.0 ML
0.667 LW
N
3.5 -0.5 M
3.5 -2.709 1.709 -4.5 -0.5 -4.5 C
-2.709 -4.5 -4.5 -2.709 -4.5 -0.5 C
-4.5 1.709 -2.709 3.5 -0.5 3.5 C
1.709 3.5 3.5 1.709 3.5 -0.5 C
S
GR
GS
[0.75 0 0 0.75 347.03288 113.22651] CT
0 0.447 0.741 RC
10.0 ML
0.667 LW
N
3.5 -0.5 M
3.5 -2.709 1.709 -4.5 -0.5 -4.5 C
-2.709 -4.5 -4.5 -2.709 -4.5 -0.5 C
-4.5 1.709 -2.709 3.5 -0.5 3.5 C
1.709 3.5 3.5 1.709 3.5 -0.5 C
S
GR
GS
[0.75 0 0 0.75 347.03288 199.77348] CT
0 0.447 0.741 RC
10.0 ML
0.667 LW
N
3.5 -0.5 M
3.5 -2.709 1.709 -4.5 -0.5 -4.5 C
-2.709 -4.5 -4.5 -2.709 -4.5 -0.5 C
-4.5 1.709 -2.709 3.5 -0.5 3.5 C
1.709 3.5 3.5 1.709 3.5 -0.5 C
S
GR
GS
[0.75 0 0 0.75 341.43585 153.54198] CT
0 0.447 0.741 RC
10.0 ML
0.667 LW
N
3.5 -0.5 M
3.5 -2.709 1.709 -4.5 -0.5 -4.5 C
-2.709 -4.5 -4.5 -2.709 -4.5 -0.5 C
-4.5 1.709 -2.709 3.5 -0.5 3.5 C
1.709 3.5 3.5 1.709 3.5 -0.5 C
S
GR
GS
[0.75 0 0 0.75 341.43585 159.45802] CT
0 0.447 0.741 RC
10.0 ML
0.667 LW
N
3.5 -0.5 M
3.5 -2.709 1.709 -4.5 -0.5 -4.5 C
-2.709 -4.5 -4.5 -2.709 -4.5 -0.5 C
-4.5 1.709 -2.709 3.5 -0.5 3.5 C
1.709 3.5 3.5 1.709 3.5 -0.5 C
S
GR
GS
[0.75 0 0 0.75 326.09461 161.81081] CT
0 0.447 0.741 RC
10.0 ML
0.667 LW
N
-3.3 -3.3 M
3.3 3.3 L
-3.3 3.3 M
3.3 -3.3 L
S
GR
GS
[0.75 0 0 0.75 157.06217 147.25483] CT
0 0.447 0.741 RC
10.0 ML
0.667 LW
N
-3.3 -3.3 M
3.3 3.3 L
-3.3 3.3 M
3.3 -3.3 L
S
GR
GS
[0.75 0 0 0.75 157.06217 165.74517] CT
0 0.447 0.741 RC
10.0 ML
0.667 LW
N
-3.3 -3.3 M
3.3 3.3 L
-3.3 3.3 M
3.3 -3.3 L
S
GR
GS
[0.75 0 0 0.75 183.38917 156.5] CT
0 0.447 0.741 RC
10.0 ML
0.667 LW
N
-3.3 -3.3 M
3.3 3.3 L
-3.3 3.3 M
3.3 -3.3 L
S
GR
GS
[0.75 0 0 0.75 242.47396 83.81559] CT
0 0.447 0.741 RC
10.0 ML
0.667 LW
N
-3.3 -3.3 M
3.3 3.3 L
-3.3 3.3 M
3.3 -3.3 L
S
GR
GS
[0.75 0 0 0.75 242.47396 229.18443] CT
0 0.447 0.741 RC
10.0 ML
0.667 LW
N
-3.3 -3.3 M
3.3 3.3 L
-3.3 3.3 M
3.3 -3.3 L
S
GR
GS
[0.75 0 0 0.75 272.61594 88.22264] CT
0 0.447 0.741 RC
10.0 ML
0.667 LW
N
-3.3 -3.3 M
3.3 3.3 L
-3.3 3.3 M
3.3 -3.3 L
S
GR
GS
[0.75 0 0 0.75 272.61594 224.77735] CT
0 0.447 0.741 RC
10.0 ML
0.667 LW
N
-3.3 -3.3 M
3.3 3.3 L
-3.3 3.3 M
3.3 -3.3 L
S
GR
GS
[0.75 0 0 0.75 326.09461 151.18919] CT
0 0.447 0.741 RC
10.0 ML
0.667 LW
N
-3.3 -3.3 M
3.3 3.3 L
-3.3 3.3 M
3.3 -3.3 L
S
GR
GS
[0.75 0 0 0.75 295.43511 211.42196] CT
0 0.447 0.741 RC
10.0 ML
0.667 LW
N
-3.3 -3.3 M
3.3 3.3 L
-3.3 3.3 M
3.3 -3.3 L
S
GR
GS
[0.75 0 0 0.75 324.06219 123.87423] CT
0 0.447 0.741 RC
10.0 ML
0.667 LW
N
-3.3 -3.3 M
3.3 3.3 L
-3.3 3.3 M
3.3 -3.3 L
S
GR
GS
[0.75 0 0 0.75 324.06219 189.12577] CT
0 0.447 0.741 RC
10.0 ML
0.667 LW
N
-3.3 -3.3 M
3.3 3.3 L
-3.3 3.3 M
3.3 -3.3 L
S
GR
GS
[0.75 0 0 0.75 305.87428 124.49366] CT
0 0.447 0.741 RC
10.0 ML
0.667 LW
N
-3.3 -3.3 M
3.3 3.3 L
-3.3 3.3 M
3.3 -3.3 L
S
GR
GS
[0.75 0 0 0.75 305.87428 188.50634] CT
0 0.447 0.741 RC
10.0 ML
0.667 LW
N
-3.3 -3.3 M
3.3 3.3 L
-3.3 3.3 M
3.3 -3.3 L
S
GR
GS
[0.75 0 0 0.75 284.95866 97.21389] CT
0 0.447 0.741 RC
10.0 ML
0.667 LW
N
-3.3 -3.3 M
3.3 3.3 L
-3.3 3.3 M
3.3 -3.3 L
S
GR
GS
[0.75 0 0 0.75 284.95866 215.78609] CT
0 0.447 0.741 RC
10.0 ML
0.667 LW
N
-3.3 -3.3 M
3.3 3.3 L
-3.3 3.3 M
3.3 -3.3 L
S
GR
GS
[0.75 0 0 0.75 295.43511 101.57805] CT
0 0.447 0.741 RC
10.0 ML
0.667 LW
N
-3.3 -3.3 M
3.3 3.3 L
-3.3 3.3 M
3.3 -3.3 L
S
GR
GS
[0.75 0 0 0.75 224.325 33.3875] CT
/Helvetica-Bold 14.667 F
GS
[1 0 0 1 0 0] CT
-61.5 -4 moveto 
1 -1 scale
(Pole-Zero Map) t 
GR
GR
GS
[0.75 0 0 0.75 224.325 290.49999] CT
/Helvetica 14.667 F
GS
[1 0 0 1 0 0] CT
-34.5 14 moveto 
1 -1 scale
(Real Axis) t 
GR
GR
GS
[0 -0.75 0.75 0 38 157.19375] CT
/Helvetica 14.667 F
GS
[1 0 0 1 0 0] CT
-56 -4 moveto 
1 -1 scale
(Imaginary Axis) t 
GR
GR
%%Trailer
%%Pages: 1
%%EOF
