%!PS-Adobe-3.0 EPSF-3.0
%%Creator: (MATLAB, The Mathworks, Inc. Version 9.1.0.441655 \(R2016b\). Operating System: Linux)
%%Title: /users/start2016/r0461511/Documents/system-identification/Oefenzitting_3/plots/pzmap_bj_16_13_9_9.eps
%%CreationDate: 2016-12-20T17:41:15
%%Pages: (atend)
%%BoundingBox: 0 0 1440 693
%%LanguageLevel: 3
%%EndComments
%%BeginProlog
%%BeginResource: procset (Apache XML Graphics Std ProcSet) 1.2 0
%%Version: 1.2 0
%%Copyright: (Copyright 2001-2003,2010 The Apache Software Foundation. License terms: http://www.apache.org/licenses/LICENSE-2.0)
/bd{bind def}bind def
/ld{load def}bd
/GR/grestore ld
/M/moveto ld
/LJ/setlinejoin ld
/C/curveto ld
/f/fill ld
/LW/setlinewidth ld
/GC/setgray ld
/t/show ld
/N/newpath ld
/CT/concat ld
/cp/closepath ld
/S/stroke ld
/L/lineto ld
/CC/setcmykcolor ld
/A/ashow ld
/GS/gsave ld
/RC/setrgbcolor ld
/RM/rmoveto ld
/ML/setmiterlimit ld
/re {4 2 roll M
1 index 0 rlineto
0 exch rlineto
neg 0 rlineto
cp } bd
/_ctm matrix def
/_tm matrix def
/BT { _ctm currentmatrix pop matrix _tm copy pop 0 0 moveto } bd
/ET { _ctm setmatrix } bd
/iTm { _ctm setmatrix _tm concat } bd
/Tm { _tm astore pop iTm 0 0 moveto } bd
/ux 0.0 def
/uy 0.0 def
/F {
  /Tp exch def
  /Tf exch def
  Tf findfont Tp scalefont setfont
  /cf Tf def  /cs Tp def
} bd
/ULS {currentpoint /uy exch def /ux exch def} bd
/ULE {
  /Tcx currentpoint pop def
  gsave
  newpath
  cf findfont cs scalefont dup
  /FontMatrix get 0 get /Ts exch def /FontInfo get dup
  /UnderlinePosition get Ts mul /To exch def
  /UnderlineThickness get Ts mul /Tt exch def
  ux uy To add moveto  Tcx uy To add lineto
  Tt setlinewidth stroke
  grestore
} bd
/OLE {
  /Tcx currentpoint pop def
  gsave
  newpath
  cf findfont cs scalefont dup
  /FontMatrix get 0 get /Ts exch def /FontInfo get dup
  /UnderlinePosition get Ts mul /To exch def
  /UnderlineThickness get Ts mul /Tt exch def
  ux uy To add cs add moveto Tcx uy To add cs add lineto
  Tt setlinewidth stroke
  grestore
} bd
/SOE {
  /Tcx currentpoint pop def
  gsave
  newpath
  cf findfont cs scalefont dup
  /FontMatrix get 0 get /Ts exch def /FontInfo get dup
  /UnderlinePosition get Ts mul /To exch def
  /UnderlineThickness get Ts mul /Tt exch def
  ux uy To add cs 10 mul 26 idiv add moveto Tcx uy To add cs 10 mul 26 idiv add lineto
  Tt setlinewidth stroke
  grestore
} bd
/QT {
/Y22 exch store
/X22 exch store
/Y21 exch store
/X21 exch store
currentpoint
/Y21 load 2 mul add 3 div exch
/X21 load 2 mul add 3 div exch
/X21 load 2 mul /X22 load add 3 div
/Y21 load 2 mul /Y22 load add 3 div
/X22 load /Y22 load curveto
} bd
/SSPD {
dup length /d exch dict def
{
/v exch def
/k exch def
currentpagedevice k known {
/cpdv currentpagedevice k get def
v cpdv ne {
/upd false def
/nullv v type /nulltype eq def
/nullcpdv cpdv type /nulltype eq def
nullv nullcpdv or
{
/upd true def
} {
/sametype v type cpdv type eq def
sametype {
v type /arraytype eq {
/vlen v length def
/cpdvlen cpdv length def
vlen cpdvlen eq {
0 1 vlen 1 sub {
/i exch def
/obj v i get def
/cpdobj cpdv i get def
obj cpdobj ne {
/upd true def
exit
} if
} for
} {
/upd true def
} ifelse
} {
v type /dicttype eq {
v {
/dv exch def
/dk exch def
/cpddv cpdv dk get def
dv cpddv ne {
/upd true def
exit
} if
} forall
} {
/upd true def
} ifelse
} ifelse
} if
} ifelse
upd true eq {
d k v put
} if
} if
} if
} forall
d length 0 gt {
d setpagedevice
} if
} bd
/RE { % /NewFontName [NewEncodingArray] /FontName RE -
  findfont dup length dict begin
  {
    1 index /FID ne
    {def} {pop pop} ifelse
  } forall
  /Encoding exch def
  /FontName 1 index def
  currentdict definefont pop
  end
} bind def
%%EndResource
%%BeginResource: procset (Apache XML Graphics EPS ProcSet) 1.0 0
%%Version: 1.0 0
%%Copyright: (Copyright 2002-2003 The Apache Software Foundation. License terms: http://www.apache.org/licenses/LICENSE-2.0)
/BeginEPSF { %def
/b4_Inc_state save def         % Save state for cleanup
/dict_count countdictstack def % Count objects on dict stack
/op_count count 1 sub def      % Count objects on operand stack
userdict begin                 % Push userdict on dict stack
/showpage { } def              % Redefine showpage, { } = null proc
0 setgray 0 setlinecap         % Prepare graphics state
1 setlinewidth 0 setlinejoin
10 setmiterlimit [ ] 0 setdash newpath
/languagelevel where           % If level not equal to 1 then
{pop languagelevel             % set strokeadjust and
1 ne                           % overprint to their defaults.
{false setstrokeadjust false setoverprint
} if
} if
} bd
/EndEPSF { %def
count op_count sub {pop} repeat            % Clean up stacks
countdictstack dict_count sub {end} repeat
b4_Inc_state restore
} bd
%%EndResource
%FOPBeginFontDict
%%IncludeResource: font Courier-Bold
%%IncludeResource: font Helvetica
%%IncludeResource: font Courier-BoldOblique
%%IncludeResource: font Courier-Oblique
%%IncludeResource: font Times-Roman
%%IncludeResource: font Helvetica-BoldOblique
%%IncludeResource: font Helvetica-Bold
%%IncludeResource: font Helvetica-Oblique
%%IncludeResource: font Times-BoldItalic
%%IncludeResource: font Courier
%%IncludeResource: font Times-Italic
%%IncludeResource: font Times-Bold
%%IncludeResource: font Symbol
%%IncludeResource: font ZapfDingbats
%FOPEndFontDict
%%BeginResource: encoding WinAnsiEncoding
/WinAnsiEncoding [
/.notdef /.notdef /.notdef /.notdef /.notdef
/.notdef /.notdef /.notdef /.notdef /.notdef
/.notdef /.notdef /.notdef /.notdef /.notdef
/.notdef /.notdef /.notdef /.notdef /.notdef
/.notdef /.notdef /.notdef /.notdef /.notdef
/.notdef /.notdef /.notdef /.notdef /.notdef
/.notdef /.notdef /space /exclam /quotedbl
/numbersign /dollar /percent /ampersand /quotesingle
/parenleft /parenright /asterisk /plus /comma
/hyphen /period /slash /zero /one
/two /three /four /five /six
/seven /eight /nine /colon /semicolon
/less /equal /greater /question /at
/A /B /C /D /E
/F /G /H /I /J
/K /L /M /N /O
/P /Q /R /S /T
/U /V /W /X /Y
/Z /bracketleft /backslash /bracketright /asciicircum
/underscore /quoteleft /a /b /c
/d /e /f /g /h
/i /j /k /l /m
/n /o /p /q /r
/s /t /u /v /w
/x /y /z /braceleft /bar
/braceright /asciitilde /bullet /Euro /bullet
/quotesinglbase /florin /quotedblbase /ellipsis /dagger
/daggerdbl /circumflex /perthousand /Scaron /guilsinglleft
/OE /bullet /Zcaron /bullet /bullet
/quoteleft /quoteright /quotedblleft /quotedblright /bullet
/endash /emdash /asciitilde /trademark /scaron
/guilsinglright /oe /bullet /zcaron /Ydieresis
/space /exclamdown /cent /sterling /currency
/yen /brokenbar /section /dieresis /copyright
/ordfeminine /guillemotleft /logicalnot /sfthyphen /registered
/macron /degree /plusminus /twosuperior /threesuperior
/acute /mu /paragraph /middot /cedilla
/onesuperior /ordmasculine /guillemotright /onequarter /onehalf
/threequarters /questiondown /Agrave /Aacute /Acircumflex
/Atilde /Adieresis /Aring /AE /Ccedilla
/Egrave /Eacute /Ecircumflex /Edieresis /Igrave
/Iacute /Icircumflex /Idieresis /Eth /Ntilde
/Ograve /Oacute /Ocircumflex /Otilde /Odieresis
/multiply /Oslash /Ugrave /Uacute /Ucircumflex
/Udieresis /Yacute /Thorn /germandbls /agrave
/aacute /acircumflex /atilde /adieresis /aring
/ae /ccedilla /egrave /eacute /ecircumflex
/edieresis /igrave /iacute /icircumflex /idieresis
/eth /ntilde /ograve /oacute /ocircumflex
/otilde /odieresis /divide /oslash /ugrave
/uacute /ucircumflex /udieresis /yacute /thorn
/ydieresis
] def
%%EndResource
%FOPBeginFontReencode
/Courier-Bold findfont
dup length dict begin
  {1 index /FID ne {def} {pop pop} ifelse} forall
  /Encoding WinAnsiEncoding def
  currentdict
end
/Courier-Bold exch definefont pop
/Helvetica findfont
dup length dict begin
  {1 index /FID ne {def} {pop pop} ifelse} forall
  /Encoding WinAnsiEncoding def
  currentdict
end
/Helvetica exch definefont pop
/Courier-BoldOblique findfont
dup length dict begin
  {1 index /FID ne {def} {pop pop} ifelse} forall
  /Encoding WinAnsiEncoding def
  currentdict
end
/Courier-BoldOblique exch definefont pop
/Courier-Oblique findfont
dup length dict begin
  {1 index /FID ne {def} {pop pop} ifelse} forall
  /Encoding WinAnsiEncoding def
  currentdict
end
/Courier-Oblique exch definefont pop
/Times-Roman findfont
dup length dict begin
  {1 index /FID ne {def} {pop pop} ifelse} forall
  /Encoding WinAnsiEncoding def
  currentdict
end
/Times-Roman exch definefont pop
/Helvetica-BoldOblique findfont
dup length dict begin
  {1 index /FID ne {def} {pop pop} ifelse} forall
  /Encoding WinAnsiEncoding def
  currentdict
end
/Helvetica-BoldOblique exch definefont pop
/Helvetica-Bold findfont
dup length dict begin
  {1 index /FID ne {def} {pop pop} ifelse} forall
  /Encoding WinAnsiEncoding def
  currentdict
end
/Helvetica-Bold exch definefont pop
/Helvetica-Oblique findfont
dup length dict begin
  {1 index /FID ne {def} {pop pop} ifelse} forall
  /Encoding WinAnsiEncoding def
  currentdict
end
/Helvetica-Oblique exch definefont pop
/Times-BoldItalic findfont
dup length dict begin
  {1 index /FID ne {def} {pop pop} ifelse} forall
  /Encoding WinAnsiEncoding def
  currentdict
end
/Times-BoldItalic exch definefont pop
/Courier findfont
dup length dict begin
  {1 index /FID ne {def} {pop pop} ifelse} forall
  /Encoding WinAnsiEncoding def
  currentdict
end
/Courier exch definefont pop
/Times-Italic findfont
dup length dict begin
  {1 index /FID ne {def} {pop pop} ifelse} forall
  /Encoding WinAnsiEncoding def
  currentdict
end
/Times-Italic exch definefont pop
/Times-Bold findfont
dup length dict begin
  {1 index /FID ne {def} {pop pop} ifelse} forall
  /Encoding WinAnsiEncoding def
  currentdict
end
/Times-Bold exch definefont pop
%FOPEndFontReencode
%%EndProlog
%%Page: 1 1
%%PageBoundingBox: 0 0 1440 693
%%BeginPageSetup
[1 0 0 -1 0 693] CT
%%EndPageSetup
GS
[0.75 0 0 0.75 0 0] CT
1 GC
N
0 0 1920 924 re
f
GR
GS
[0.75 0 0 0.75 0 0] CT
1 GC
N
0 0 1920 924 re
f
GR
GS
[0.75 0 0 0.75 0 0] CT
1 GC
N
262 822 M
1738 822 L
1738 89 L
262 89 L
cp
f
GR
GS
[0.75 0 0 0.75 0 0] CT
0.4 GC
2 setlinecap
1 LJ
0.667 LW
N
262 822 M
1738 822 L
S
GR
GS
[0.75 0 0 0.75 0 0] CT
0.4 GC
2 setlinecap
1 LJ
0.667 LW
N
262 89 M
1738 89 L
S
GR
GS
[0.75 0 0 0.75 0 0] CT
0.4 GC
2 setlinecap
1 LJ
0.667 LW
N
262 822 M
262 807.24 L
S
GR
GS
[0.75 0 0 0.75 0 0] CT
0.4 GC
2 setlinecap
1 LJ
0.667 LW
N
472.857 822 M
472.857 807.24 L
S
GR
GS
[0.75 0 0 0.75 0 0] CT
0.4 GC
2 setlinecap
1 LJ
0.667 LW
N
683.714 822 M
683.714 807.24 L
S
GR
GS
[0.75 0 0 0.75 0 0] CT
0.4 GC
2 setlinecap
1 LJ
0.667 LW
N
894.571 822 M
894.571 807.24 L
S
GR
GS
[0.75 0 0 0.75 0 0] CT
0.4 GC
2 setlinecap
1 LJ
0.667 LW
N
1105.429 822 M
1105.429 807.24 L
S
GR
GS
[0.75 0 0 0.75 0 0] CT
0.4 GC
2 setlinecap
1 LJ
0.667 LW
N
1316.286 822 M
1316.286 807.24 L
S
GR
GS
[0.75 0 0 0.75 0 0] CT
0.4 GC
2 setlinecap
1 LJ
0.667 LW
N
1527.143 822 M
1527.143 807.24 L
S
GR
GS
[0.75 0 0 0.75 0 0] CT
0.4 GC
2 setlinecap
1 LJ
0.667 LW
N
1738 822 M
1738 807.24 L
S
GR
GS
[0.75 0 0 0.75 0 0] CT
0.4 GC
2 setlinecap
1 LJ
0.667 LW
N
262 89 M
262 103.76 L
S
GR
GS
[0.75 0 0 0.75 0 0] CT
0.4 GC
2 setlinecap
1 LJ
0.667 LW
N
472.857 89 M
472.857 103.76 L
S
GR
GS
[0.75 0 0 0.75 0 0] CT
0.4 GC
2 setlinecap
1 LJ
0.667 LW
N
683.714 89 M
683.714 103.76 L
S
GR
GS
[0.75 0 0 0.75 0 0] CT
0.4 GC
2 setlinecap
1 LJ
0.667 LW
N
894.571 89 M
894.571 103.76 L
S
GR
GS
[0.75 0 0 0.75 0 0] CT
0.4 GC
2 setlinecap
1 LJ
0.667 LW
N
1105.429 89 M
1105.429 103.76 L
S
GR
GS
[0.75 0 0 0.75 0 0] CT
0.4 GC
2 setlinecap
1 LJ
0.667 LW
N
1316.286 89 M
1316.286 103.76 L
S
GR
GS
[0.75 0 0 0.75 0 0] CT
0.4 GC
2 setlinecap
1 LJ
0.667 LW
N
1527.143 89 M
1527.143 103.76 L
S
GR
GS
[0.75 0 0 0.75 0 0] CT
0.4 GC
2 setlinecap
1 LJ
0.667 LW
N
1738 89 M
1738 103.76 L
S
GR
GS
[0.75 0 0 0.75 196.5 620.50003] CT
0.4 GC
/Helvetica 13.333 F
GS
[1 0 0 1 0 0] CT
-11 13 moveto 
1 -1 scale
(-12) t 
GR
GR
GS
[0.75 0 0 0.75 354.64286 620.50003] CT
0.4 GC
/Helvetica 13.333 F
GS
[1 0 0 1 0 0] CT
-11 13 moveto 
1 -1 scale
(-10) t 
GR
GR
GS
[0.75 0 0 0.75 512.78572 620.50003] CT
0.4 GC
/Helvetica 13.333 F
GS
[1 0 0 1 0 0] CT
-6.5 13 moveto 
1 -1 scale
(-8) t 
GR
GR
GS
[0.75 0 0 0.75 670.92856 620.50003] CT
0.4 GC
/Helvetica 13.333 F
GS
[1 0 0 1 0 0] CT
-6.5 13 moveto 
1 -1 scale
(-6) t 
GR
GR
GS
[0.75 0 0 0.75 829.07144 620.50003] CT
0.4 GC
/Helvetica 13.333 F
GS
[1 0 0 1 0 0] CT
-6.5 13 moveto 
1 -1 scale
(-4) t 
GR
GR
GS
[0.75 0 0 0.75 987.21432 620.50003] CT
0.4 GC
/Helvetica 13.333 F
GS
[1 0 0 1 0 0] CT
-6.5 13 moveto 
1 -1 scale
(-2) t 
GR
GR
GS
[0.75 0 0 0.75 1145.35712 620.50003] CT
0.4 GC
/Helvetica 13.333 F
GS
[1 0 0 1 0 0] CT
-4.5 13 moveto 
1 -1 scale
(0) t 
GR
GR
GS
[0.75 0 0 0.75 1303.5 620.50003] CT
0.4 GC
/Helvetica 13.333 F
GS
[1 0 0 1 0 0] CT
-4.5 13 moveto 
1 -1 scale
(2) t 
GR
GR
GS
[0.75 0 0 0.75 0 0] CT
0.4 GC
2 setlinecap
1 LJ
0.667 LW
N
262 822 M
262 89 L
S
GR
GS
[0.75 0 0 0.75 0 0] CT
0.4 GC
2 setlinecap
1 LJ
0.667 LW
N
1738 822 M
1738 89 L
S
GR
GS
[0.75 0 0 0.75 0 0] CT
0.4 GC
2 setlinecap
1 LJ
0.667 LW
N
262 822 M
276.76 822 L
S
GR
GS
[0.75 0 0 0.75 0 0] CT
0.4 GC
2 setlinecap
1 LJ
0.667 LW
N
262 748.7 M
276.76 748.7 L
S
GR
GS
[0.75 0 0 0.75 0 0] CT
0.4 GC
2 setlinecap
1 LJ
0.667 LW
N
262 675.4 M
276.76 675.4 L
S
GR
GS
[0.75 0 0 0.75 0 0] CT
0.4 GC
2 setlinecap
1 LJ
0.667 LW
N
262 602.1 M
276.76 602.1 L
S
GR
GS
[0.75 0 0 0.75 0 0] CT
0.4 GC
2 setlinecap
1 LJ
0.667 LW
N
262 528.8 M
276.76 528.8 L
S
GR
GS
[0.75 0 0 0.75 0 0] CT
0.4 GC
2 setlinecap
1 LJ
0.667 LW
N
262 455.5 M
276.76 455.5 L
S
GR
GS
[0.75 0 0 0.75 0 0] CT
0.4 GC
2 setlinecap
1 LJ
0.667 LW
N
262 382.2 M
276.76 382.2 L
S
GR
GS
[0.75 0 0 0.75 0 0] CT
0.4 GC
2 setlinecap
1 LJ
0.667 LW
N
262 308.9 M
276.76 308.9 L
S
GR
GS
[0.75 0 0 0.75 0 0] CT
0.4 GC
2 setlinecap
1 LJ
0.667 LW
N
262 235.6 M
276.76 235.6 L
S
GR
GS
[0.75 0 0 0.75 0 0] CT
0.4 GC
2 setlinecap
1 LJ
0.667 LW
N
262 162.3 M
276.76 162.3 L
S
GR
GS
[0.75 0 0 0.75 0 0] CT
0.4 GC
2 setlinecap
1 LJ
0.667 LW
N
262 89 M
276.76 89 L
S
GR
GS
[0.75 0 0 0.75 0 0] CT
0.4 GC
2 setlinecap
1 LJ
0.667 LW
N
1738 822 M
1723.24 822 L
S
GR
GS
[0.75 0 0 0.75 0 0] CT
0.4 GC
2 setlinecap
1 LJ
0.667 LW
N
1738 748.7 M
1723.24 748.7 L
S
GR
GS
[0.75 0 0 0.75 0 0] CT
0.4 GC
2 setlinecap
1 LJ
0.667 LW
N
1738 675.4 M
1723.24 675.4 L
S
GR
GS
[0.75 0 0 0.75 0 0] CT
0.4 GC
2 setlinecap
1 LJ
0.667 LW
N
1738 602.1 M
1723.24 602.1 L
S
GR
GS
[0.75 0 0 0.75 0 0] CT
0.4 GC
2 setlinecap
1 LJ
0.667 LW
N
1738 528.8 M
1723.24 528.8 L
S
GR
GS
[0.75 0 0 0.75 0 0] CT
0.4 GC
2 setlinecap
1 LJ
0.667 LW
N
1738 455.5 M
1723.24 455.5 L
S
GR
GS
[0.75 0 0 0.75 0 0] CT
0.4 GC
2 setlinecap
1 LJ
0.667 LW
N
1738 382.2 M
1723.24 382.2 L
S
GR
GS
[0.75 0 0 0.75 0 0] CT
0.4 GC
2 setlinecap
1 LJ
0.667 LW
N
1738 308.9 M
1723.24 308.9 L
S
GR
GS
[0.75 0 0 0.75 0 0] CT
0.4 GC
2 setlinecap
1 LJ
0.667 LW
N
1738 235.6 M
1723.24 235.6 L
S
GR
GS
[0.75 0 0 0.75 0 0] CT
0.4 GC
2 setlinecap
1 LJ
0.667 LW
N
1738 162.3 M
1723.24 162.3 L
S
GR
GS
[0.75 0 0 0.75 0 0] CT
0.4 GC
2 setlinecap
1 LJ
0.667 LW
N
1738 89 M
1723.24 89 L
S
GR
GS
[0.75 0 0 0.75 192.50004 616.5] CT
0.4 GC
/Helvetica 13.333 F
GS
[1 0 0 1 0 0] CT
-13 4.5 moveto 
1 -1 scale
(-1) t 
GR
GR
GS
[0.75 0 0 0.75 192.50004 561.52501] CT
0.4 GC
/Helvetica 13.333 F
GS
[1 0 0 1 0 0] CT
-26 4.5 moveto 
1 -1 scale
(-0.8) t 
GR
GR
GS
[0.75 0 0 0.75 192.50004 506.55002] CT
0.4 GC
/Helvetica 13.333 F
GS
[1 0 0 1 0 0] CT
-26 4.5 moveto 
1 -1 scale
(-0.6) t 
GR
GR
GS
[0.75 0 0 0.75 192.50004 451.57498] CT
0.4 GC
/Helvetica 13.333 F
GS
[1 0 0 1 0 0] CT
-26 4.5 moveto 
1 -1 scale
(-0.4) t 
GR
GR
GS
[0.75 0 0 0.75 192.50004 396.59999] CT
0.4 GC
/Helvetica 13.333 F
GS
[1 0 0 1 0 0] CT
-26 4.5 moveto 
1 -1 scale
(-0.2) t 
GR
GR
GS
[0.75 0 0 0.75 192.50004 341.625] CT
0.4 GC
/Helvetica 13.333 F
GS
[1 0 0 1 0 0] CT
-9 4.5 moveto 
1 -1 scale
(0) t 
GR
GR
GS
[0.75 0 0 0.75 192.50004 286.65001] CT
0.4 GC
/Helvetica 13.333 F
GS
[1 0 0 1 0 0] CT
-21 4.5 moveto 
1 -1 scale
(0.2) t 
GR
GR
GS
[0.75 0 0 0.75 192.50004 231.675] CT
0.4 GC
/Helvetica 13.333 F
GS
[1 0 0 1 0 0] CT
-21 4.5 moveto 
1 -1 scale
(0.4) t 
GR
GR
GS
[0.75 0 0 0.75 192.50004 176.69999] CT
0.4 GC
/Helvetica 13.333 F
GS
[1 0 0 1 0 0] CT
-21 4.5 moveto 
1 -1 scale
(0.6) t 
GR
GR
GS
[0.75 0 0 0.75 192.50004 121.725] CT
0.4 GC
/Helvetica 13.333 F
GS
[1 0 0 1 0 0] CT
-21 4.5 moveto 
1 -1 scale
(0.8) t 
GR
GR
GS
[0.75 0 0 0.75 192.50004 66.75] CT
0.4 GC
/Helvetica 13.333 F
GS
[1 0 0 1 0 0] CT
-9 4.5 moveto 
1 -1 scale
(1) t 
GR
GR
GS
[0.75 0 0 0.75 0 0] CT
0.4 GC
[1 3] 0 setdash
2 LJ
0.667 LW
N
1520.525 89.723 M
1513.932 91.889 L
S
GR
GS
[0.75 0 0 0.75 0 0] CT
0.4 GC
[1 3] 0 setdash
2 LJ
0.667 LW
N
1603.998 204.616 M
1599.315 188.336 L
S
GR
GS
[0.75 0 0 0.75 0 0] CT
0.4 GC
[1 3] 0 setdash
2 LJ
0.667 LW
N
1599.315 188.336 M
1594.347 173.11 L
S
GR
GS
[0.75 0 0 0.75 0 0] CT
0.4 GC
[1 3] 0 setdash
2 LJ
0.667 LW
N
1594.347 173.11 M
1589.113 158.998 L
S
GR
GS
[0.75 0 0 0.75 0 0] CT
0.4 GC
[1 3] 0 setdash
2 LJ
0.667 LW
N
1589.113 158.998 M
1583.635 146.057 L
S
GR
GS
[0.75 0 0 0.75 0 0] CT
0.4 GC
[1 3] 0 setdash
2 LJ
0.667 LW
N
1583.635 146.057 M
1577.935 134.336 L
S
GR
GS
[0.75 0 0 0.75 0 0] CT
0.4 GC
[1 3] 0 setdash
2 LJ
0.667 LW
N
1577.935 134.336 M
1572.034 123.883 L
S
GR
GS
[0.75 0 0 0.75 0 0] CT
0.4 GC
[1 3] 0 setdash
2 LJ
0.667 LW
N
1572.034 123.883 M
1565.955 114.739 L
S
GR
GS
[0.75 0 0 0.75 0 0] CT
0.4 GC
[1 3] 0 setdash
2 LJ
0.667 LW
N
1565.955 114.739 M
1559.724 106.94 L
S
GR
GS
[0.75 0 0 0.75 0 0] CT
0.4 GC
[1 3] 0 setdash
2 LJ
0.667 LW
N
1559.724 106.94 M
1553.364 100.516 L
S
GR
GS
[0.75 0 0 0.75 0 0] CT
0.4 GC
[1 3] 0 setdash
2 LJ
0.667 LW
N
1553.364 100.516 M
1546.9 95.493 L
S
GR
GS
[0.75 0 0 0.75 0 0] CT
0.4 GC
[1 3] 0 setdash
2 LJ
0.667 LW
N
1546.9 95.493 M
1540.359 91.891 L
S
GR
GS
[0.75 0 0 0.75 0 0] CT
0.4 GC
[1 3] 0 setdash
2 LJ
0.667 LW
N
1540.359 91.891 M
1533.765 89.724 L
S
GR
GS
[0.75 0 0 0.75 0 0] CT
0.4 GC
[1 3] 0 setdash
2 LJ
0.667 LW
N
1533.765 89.724 M
1527.145 89 L
S
GR
GS
[0.75 0 0 0.75 0 0] CT
0.4 GC
[1 3] 0 setdash
2 LJ
0.667 LW
N
1527.145 89 M
1520.525 89.723 L
S
GR
GS
[0.75 0 0 0.75 0 0] CT
0.4 GC
[1 3] 0 setdash
2 LJ
0.667 LW
N
1608.378 221.887 M
1603.998 204.616 L
S
GR
GS
[0.75 0 0 0.75 0 0] CT
0.4 GC
[1 3] 0 setdash
2 LJ
0.667 LW
N
1513.932 91.889 M
1507.39 95.49 L
S
GR
GS
[0.75 0 0 0.75 0 0] CT
0.4 GC
[1 3] 0 setdash
2 LJ
0.667 LW
N
1507.39 95.49 M
1500.926 100.512 L
S
GR
GS
[0.75 0 0 0.75 0 0] CT
0.4 GC
[1 3] 0 setdash
2 LJ
0.667 LW
N
1500.926 100.512 M
1494.566 106.935 L
S
GR
GS
[0.75 0 0 0.75 0 0] CT
0.4 GC
[1 3] 0 setdash
2 LJ
0.667 LW
N
1494.566 106.935 M
1488.335 114.733 L
S
GR
GS
[0.75 0 0 0.75 0 0] CT
0.4 GC
[1 3] 0 setdash
2 LJ
0.667 LW
N
1488.335 114.733 M
1482.256 123.877 L
S
GR
GS
[0.75 0 0 0.75 0 0] CT
0.4 GC
[1 3] 0 setdash
2 LJ
0.667 LW
N
1482.256 123.877 M
1476.355 134.329 L
S
GR
GS
[0.75 0 0 0.75 0 0] CT
0.4 GC
[1 3] 0 setdash
2 LJ
0.667 LW
N
1476.355 134.329 M
1470.654 146.048 L
S
GR
GS
[0.75 0 0 0.75 0 0] CT
0.4 GC
[1 3] 0 setdash
2 LJ
0.667 LW
N
1470.654 146.048 M
1465.176 158.989 L
S
GR
GS
[0.75 0 0 0.75 0 0] CT
0.4 GC
[1 3] 0 setdash
2 LJ
0.667 LW
N
1465.176 158.989 M
1459.943 173.1 L
S
GR
GS
[0.75 0 0 0.75 0 0] CT
0.4 GC
[1 3] 0 setdash
2 LJ
0.667 LW
N
1459.943 173.1 M
1454.974 188.325 L
S
GR
GS
[0.75 0 0 0.75 0 0] CT
0.4 GC
[1 3] 0 setdash
2 LJ
0.667 LW
N
1454.974 188.325 M
1450.291 204.605 L
S
GR
GS
[0.75 0 0 0.75 0 0] CT
0.4 GC
[1 3] 0 setdash
2 LJ
0.667 LW
N
1450.291 204.605 M
1445.911 221.875 L
S
GR
GS
[0.75 0 0 0.75 0 0] CT
0.4 GC
[1 3] 0 setdash
2 LJ
0.667 LW
N
1445.911 221.875 M
1441.851 240.067 L
S
GR
GS
[0.75 0 0 0.75 0 0] CT
0.4 GC
[1 3] 0 setdash
2 LJ
0.667 LW
N
1441.851 240.067 M
1438.129 259.109 L
S
GR
GS
[0.75 0 0 0.75 0 0] CT
0.4 GC
[1 3] 0 setdash
2 LJ
0.667 LW
N
1438.129 259.109 M
1434.757 278.926 L
S
GR
GS
[0.75 0 0 0.75 0 0] CT
0.4 GC
[1 3] 0 setdash
2 LJ
0.667 LW
N
1632.571 455.5 M
1632.363 432.488 L
S
GR
GS
[0.75 0 0 0.75 0 0] CT
0.4 GC
[1 3] 0 setdash
2 LJ
0.667 LW
N
1632.363 432.488 M
1631.74 409.566 L
S
GR
GS
[0.75 0 0 0.75 0 0] CT
0.4 GC
[1 3] 0 setdash
2 LJ
0.667 LW
N
1631.74 409.566 M
1630.704 386.826 L
S
GR
GS
[0.75 0 0 0.75 0 0] CT
0.4 GC
[1 3] 0 setdash
2 LJ
0.667 LW
N
1630.704 386.826 M
1629.259 364.356 L
S
GR
GS
[0.75 0 0 0.75 0 0] CT
0.4 GC
[1 3] 0 setdash
2 LJ
0.667 LW
N
1629.259 364.356 M
1627.411 342.247 L
S
GR
GS
[0.75 0 0 0.75 0 0] CT
0.4 GC
[1 3] 0 setdash
2 LJ
0.667 LW
N
1627.411 342.247 M
1625.168 320.584 L
S
GR
GS
[0.75 0 0 0.75 0 0] CT
0.4 GC
[1 3] 0 setdash
2 LJ
0.667 LW
N
1625.168 320.584 M
1622.538 299.454 L
S
GR
GS
[0.75 0 0 0.75 0 0] CT
0.4 GC
[1 3] 0 setdash
2 LJ
0.667 LW
N
1622.538 299.454 M
1619.531 278.939 L
S
GR
GS
[0.75 0 0 0.75 0 0] CT
0.4 GC
[1 3] 0 setdash
2 LJ
0.667 LW
N
1619.531 278.939 M
1616.16 259.122 L
S
GR
GS
[0.75 0 0 0.75 0 0] CT
0.4 GC
[1 3] 0 setdash
2 LJ
0.667 LW
N
1616.16 259.122 M
1612.437 240.079 L
S
GR
GS
[0.75 0 0 0.75 0 0] CT
0.4 GC
[1 3] 0 setdash
2 LJ
0.667 LW
N
1612.437 240.079 M
1608.378 221.887 L
S
GR
GS
[0.75 0 0 0.75 0 0] CT
0.4 GC
[1 3] 0 setdash
2 LJ
0.667 LW
N
1589.106 752.02 M
1594.34 737.91 L
S
GR
GS
[0.75 0 0 0.75 0 0] CT
0.4 GC
[1 3] 0 setdash
2 LJ
0.667 LW
N
1500.918 810.48 M
1507.381 815.504 L
S
GR
GS
[0.75 0 0 0.75 0 0] CT
0.4 GC
[1 3] 0 setdash
2 LJ
0.667 LW
N
1507.381 815.504 M
1513.923 819.107 L
S
GR
GS
[0.75 0 0 0.75 0 0] CT
0.4 GC
[1 3] 0 setdash
2 LJ
0.667 LW
N
1513.923 819.107 M
1520.516 821.275 L
S
GR
GS
[0.75 0 0 0.75 0 0] CT
0.4 GC
[1 3] 0 setdash
2 LJ
0.667 LW
N
1520.516 821.275 M
1527.136 822 L
S
GR
GS
[0.75 0 0 0.75 0 0] CT
0.4 GC
[1 3] 0 setdash
2 LJ
0.667 LW
N
1527.136 822 M
1533.756 821.278 L
S
GR
GS
[0.75 0 0 0.75 0 0] CT
0.4 GC
[1 3] 0 setdash
2 LJ
0.667 LW
N
1533.756 821.278 M
1540.35 819.113 L
S
GR
GS
[0.75 0 0 0.75 0 0] CT
0.4 GC
[1 3] 0 setdash
2 LJ
0.667 LW
N
1540.35 819.113 M
1546.891 815.513 L
S
GR
GS
[0.75 0 0 0.75 0 0] CT
0.4 GC
[1 3] 0 setdash
2 LJ
0.667 LW
N
1546.891 815.513 M
1553.355 810.492 L
S
GR
GS
[0.75 0 0 0.75 0 0] CT
0.4 GC
[1 3] 0 setdash
2 LJ
0.667 LW
N
1553.355 810.492 M
1559.715 804.07 L
S
GR
GS
[0.75 0 0 0.75 0 0] CT
0.4 GC
[1 3] 0 setdash
2 LJ
0.667 LW
N
1559.715 804.07 M
1565.947 796.272 L
S
GR
GS
[0.75 0 0 0.75 0 0] CT
0.4 GC
[1 3] 0 setdash
2 LJ
0.667 LW
N
1565.947 796.272 M
1572.026 787.13 L
S
GR
GS
[0.75 0 0 0.75 0 0] CT
0.4 GC
[1 3] 0 setdash
2 LJ
0.667 LW
N
1572.026 787.13 M
1577.927 776.679 L
S
GR
GS
[0.75 0 0 0.75 0 0] CT
0.4 GC
[1 3] 0 setdash
2 LJ
0.667 LW
N
1577.927 776.679 M
1583.628 764.96 L
S
GR
GS
[0.75 0 0 0.75 0 0] CT
0.4 GC
[1 3] 0 setdash
2 LJ
0.667 LW
N
1583.628 764.96 M
1589.106 752.02 L
S
GR
GS
[0.75 0 0 0.75 0 0] CT
0.4 GC
[1 3] 0 setdash
2 LJ
0.667 LW
N
1494.558 804.055 M
1500.918 810.48 L
S
GR
GS
[0.75 0 0 0.75 0 0] CT
0.4 GC
[1 3] 0 setdash
2 LJ
0.667 LW
N
1594.34 737.91 M
1599.308 722.686 L
S
GR
GS
[0.75 0 0 0.75 0 0] CT
0.4 GC
[1 3] 0 setdash
2 LJ
0.667 LW
N
1599.308 722.686 M
1603.992 706.407 L
S
GR
GS
[0.75 0 0 0.75 0 0] CT
0.4 GC
[1 3] 0 setdash
2 LJ
0.667 LW
N
1603.992 706.407 M
1608.372 689.137 L
S
GR
GS
[0.75 0 0 0.75 0 0] CT
0.4 GC
[1 3] 0 setdash
2 LJ
0.667 LW
N
1608.372 689.137 M
1612.432 670.946 L
S
GR
GS
[0.75 0 0 0.75 0 0] CT
0.4 GC
[1 3] 0 setdash
2 LJ
0.667 LW
N
1612.432 670.946 M
1616.155 651.905 L
S
GR
GS
[0.75 0 0 0.75 0 0] CT
0.4 GC
[1 3] 0 setdash
2 LJ
0.667 LW
N
1616.155 651.905 M
1619.527 632.088 L
S
GR
GS
[0.75 0 0 0.75 0 0] CT
0.4 GC
[1 3] 0 setdash
2 LJ
0.667 LW
N
1619.527 632.088 M
1622.534 611.574 L
S
GR
GS
[0.75 0 0 0.75 0 0] CT
0.4 GC
[1 3] 0 setdash
2 LJ
0.667 LW
N
1622.534 611.574 M
1625.165 590.445 L
S
GR
GS
[0.75 0 0 0.75 0 0] CT
0.4 GC
[1 3] 0 setdash
2 LJ
0.667 LW
N
1625.165 590.445 M
1627.409 568.783 L
S
GR
GS
[0.75 0 0 0.75 0 0] CT
0.4 GC
[1 3] 0 setdash
2 LJ
0.667 LW
N
1627.409 568.783 M
1629.257 546.674 L
S
GR
GS
[0.75 0 0 0.75 0 0] CT
0.4 GC
[1 3] 0 setdash
2 LJ
0.667 LW
N
1629.257 546.674 M
1630.702 524.205 L
S
GR
GS
[0.75 0 0 0.75 0 0] CT
0.4 GC
[1 3] 0 setdash
2 LJ
0.667 LW
N
1630.702 524.205 M
1631.739 501.465 L
S
GR
GS
[0.75 0 0 0.75 0 0] CT
0.4 GC
[1 3] 0 setdash
2 LJ
0.667 LW
N
1631.739 501.465 M
1632.363 478.544 L
S
GR
GS
[0.75 0 0 0.75 0 0] CT
0.4 GC
[1 3] 0 setdash
2 LJ
0.667 LW
N
1632.363 478.544 M
1632.571 455.531 L
S
GR
GS
[0.75 0 0 0.75 0 0] CT
0.4 GC
[1 3] 0 setdash
2 LJ
0.667 LW
N
1429.116 590.401 M
1431.746 611.532 L
S
GR
GS
[0.75 0 0 0.75 0 0] CT
0.4 GC
[1 3] 0 setdash
2 LJ
0.667 LW
N
1434.757 278.926 M
1431.75 299.44 L
S
GR
GS
[0.75 0 0 0.75 0 0] CT
0.4 GC
[1 3] 0 setdash
2 LJ
0.667 LW
N
1431.75 299.44 M
1429.119 320.57 L
S
GR
GS
[0.75 0 0 0.75 0 0] CT
0.4 GC
[1 3] 0 setdash
2 LJ
0.667 LW
N
1429.119 320.57 M
1426.876 342.232 L
S
GR
GS
[0.75 0 0 0.75 0 0] CT
0.4 GC
[1 3] 0 setdash
2 LJ
0.667 LW
N
1426.876 342.232 M
1425.028 364.341 L
S
GR
GS
[0.75 0 0 0.75 0 0] CT
0.4 GC
[1 3] 0 setdash
2 LJ
0.667 LW
N
1425.028 364.341 M
1423.583 386.81 L
S
GR
GS
[0.75 0 0 0.75 0 0] CT
0.4 GC
[1 3] 0 setdash
2 LJ
0.667 LW
N
1423.583 386.81 M
1422.546 409.55 L
S
GR
GS
[0.75 0 0 0.75 0 0] CT
0.4 GC
[1 3] 0 setdash
2 LJ
0.667 LW
N
1422.546 409.55 M
1421.923 432.472 L
S
GR
GS
[0.75 0 0 0.75 0 0] CT
0.4 GC
[1 3] 0 setdash
2 LJ
0.667 LW
N
1421.923 432.472 M
1421.714 455.484 L
S
GR
GS
[0.75 0 0 0.75 0 0] CT
0.4 GC
[1 3] 0 setdash
2 LJ
0.667 LW
N
1421.714 455.484 M
1421.922 478.497 L
S
GR
GS
[0.75 0 0 0.75 0 0] CT
0.4 GC
[1 3] 0 setdash
2 LJ
0.667 LW
N
1421.922 478.497 M
1422.545 501.418 L
S
GR
GS
[0.75 0 0 0.75 0 0] CT
0.4 GC
[1 3] 0 setdash
2 LJ
0.667 LW
N
1422.545 501.418 M
1423.581 524.159 L
S
GR
GS
[0.75 0 0 0.75 0 0] CT
0.4 GC
[1 3] 0 setdash
2 LJ
0.667 LW
N
1423.581 524.159 M
1425.025 546.628 L
S
GR
GS
[0.75 0 0 0.75 0 0] CT
0.4 GC
[1 3] 0 setdash
2 LJ
0.667 LW
N
1425.025 546.628 M
1426.873 568.738 L
S
GR
GS
[0.75 0 0 0.75 0 0] CT
0.4 GC
[1 3] 0 setdash
2 LJ
0.667 LW
N
1426.873 568.738 M
1429.116 590.401 L
S
GR
GS
[0.75 0 0 0.75 0 0] CT
0.4 GC
[1 3] 0 setdash
2 LJ
0.667 LW
N
1431.746 611.532 M
1434.753 632.047 L
S
GR
GS
[0.75 0 0 0.75 0 0] CT
0.4 GC
[1 3] 0 setdash
2 LJ
0.667 LW
N
1434.753 632.047 M
1438.124 651.865 L
S
GR
GS
[0.75 0 0 0.75 0 0] CT
0.4 GC
[1 3] 0 setdash
2 LJ
0.667 LW
N
1438.124 651.865 M
1441.846 670.908 L
S
GR
GS
[0.75 0 0 0.75 0 0] CT
0.4 GC
[1 3] 0 setdash
2 LJ
0.667 LW
N
1441.846 670.908 M
1445.905 689.101 L
S
GR
GS
[0.75 0 0 0.75 0 0] CT
0.4 GC
[1 3] 0 setdash
2 LJ
0.667 LW
N
1445.905 689.101 M
1450.285 706.372 L
S
GR
GS
[0.75 0 0 0.75 0 0] CT
0.4 GC
[1 3] 0 setdash
2 LJ
0.667 LW
N
1450.285 706.372 M
1454.968 722.654 L
S
GR
GS
[0.75 0 0 0.75 0 0] CT
0.4 GC
[1 3] 0 setdash
2 LJ
0.667 LW
N
1454.968 722.654 M
1459.936 737.88 L
S
GR
GS
[0.75 0 0 0.75 0 0] CT
0.4 GC
[1 3] 0 setdash
2 LJ
0.667 LW
N
1459.936 737.88 M
1465.169 751.993 L
S
GR
GS
[0.75 0 0 0.75 0 0] CT
0.4 GC
[1 3] 0 setdash
2 LJ
0.667 LW
N
1465.169 751.993 M
1470.646 764.935 L
S
GR
GS
[0.75 0 0 0.75 0 0] CT
0.4 GC
[1 3] 0 setdash
2 LJ
0.667 LW
N
1470.646 764.935 M
1476.347 776.656 L
S
GR
GS
[0.75 0 0 0.75 0 0] CT
0.4 GC
[1 3] 0 setdash
2 LJ
0.667 LW
N
1476.347 776.656 M
1482.248 787.11 L
S
GR
GS
[0.75 0 0 0.75 0 0] CT
0.4 GC
[1 3] 0 setdash
2 LJ
0.667 LW
N
1482.248 787.11 M
1488.326 796.255 L
S
GR
GS
[0.75 0 0 0.75 0 0] CT
0.4 GC
[1 3] 0 setdash
2 LJ
0.667 LW
N
1488.326 796.255 M
1494.558 804.055 L
S
GR
GS
[0.75 0 0 0.75 0 0] CT
0.4 GC
[1 3] 0 setdash
2 LJ
0.667 LW
N
261.824 455.5 M
1421.714 455.5 L
S
GR
GS
[0.75 0 0 0.75 0 0] CT
0.4 GC
[1 3] 0 setdash
2 LJ
0.667 LW
N
1421.714 455.5 M
1527.143 455.5 L
S
GR
GS
[0.75 0 0 0.75 0 0] CT
0.4 GC
[1 3] 0 setdash
2 LJ
0.667 LW
N
1527.143 455.5 M
1632.571 455.5 L
S
GR
GS
[0.75 0 0 0.75 0 0] CT
0.4 GC
[1 3] 0 setdash
2 LJ
0.667 LW
N
1632.571 455.5 M
1738.176 455.5 L
S
GR
GS
[0.75 0 0 0.75 0 0] CT
0.4 GC
[1 3] 0 setdash
2 LJ
0.667 LW
N
1527.143 89 M
1527.143 88.913 L
S
GR
GS
[0.75 0 0 0.75 0 0] CT
0.4 GC
[1 3] 0 setdash
2 LJ
0.667 LW
N
1527.143 822.087 M
1527.143 822 L
S
GR
GS
[0.75 0 0 0.75 0 0] CT
0.4 GC
[1 3] 0 setdash
2 LJ
0.667 LW
N
1527.143 822 M
1527.143 455.5 L
S
GR
GS
[0.75 0 0 0.75 0 0] CT
0.4 GC
[1 3] 0 setdash
2 LJ
0.667 LW
N
1527.143 455.5 M
1527.143 89 L
S
GR
GS
[0.75 0 0 0.75 240.73125 341.625] CT
0 0.447 0.741 RC
10.0 ML
0.667 LW
N
3.5 -0.5 M
3.5 -2.709 1.709 -4.5 -0.5 -4.5 C
-2.709 -4.5 -4.5 -2.709 -4.5 -0.5 C
-4.5 1.709 -2.709 3.5 -0.5 3.5 C
1.709 3.5 3.5 1.709 3.5 -0.5 C
S
GR
GS
[0.75 0 0 0.75 1060.62744 292.93538] CT
0 0.447 0.741 RC
10.0 ML
0.667 LW
N
3.5 -0.5 M
3.5 -2.709 1.709 -4.5 -0.5 -4.5 C
-2.709 -4.5 -4.5 -2.709 -4.5 -0.5 C
-4.5 1.709 -2.709 3.5 -0.5 3.5 C
1.709 3.5 3.5 1.709 3.5 -0.5 C
S
GR
GS
[0.75 0 0 0.75 1060.62744 390.31462] CT
0 0.447 0.741 RC
10.0 ML
0.667 LW
N
3.5 -0.5 M
3.5 -2.709 1.709 -4.5 -0.5 -4.5 C
-2.709 -4.5 -4.5 -2.709 -4.5 -0.5 C
-4.5 1.709 -2.709 3.5 -0.5 3.5 C
1.709 3.5 3.5 1.709 3.5 -0.5 C
S
GR
GS
[0.75 0 0 0.75 1103.55148 94.63049] CT
0 0.447 0.741 RC
10.0 ML
0.667 LW
N
3.5 -0.5 M
3.5 -2.709 1.709 -4.5 -0.5 -4.5 C
-2.709 -4.5 -4.5 -2.709 -4.5 -0.5 C
-4.5 1.709 -2.709 3.5 -0.5 3.5 C
1.709 3.5 3.5 1.709 3.5 -0.5 C
S
GR
GS
[0.75 0 0 0.75 1103.55148 588.61949] CT
0 0.447 0.741 RC
10.0 ML
0.667 LW
N
3.5 -0.5 M
3.5 -2.709 1.709 -4.5 -0.5 -4.5 C
-2.709 -4.5 -4.5 -2.709 -4.5 -0.5 C
-4.5 1.709 -2.709 3.5 -0.5 3.5 C
1.709 3.5 3.5 1.709 3.5 -0.5 C
S
GR
GS
[0.75 0 0 0.75 1076.70547 205.50043] CT
0 0.447 0.741 RC
10.0 ML
0.667 LW
N
3.5 -0.5 M
3.5 -2.709 1.709 -4.5 -0.5 -4.5 C
-2.709 -4.5 -4.5 -2.709 -4.5 -0.5 C
-4.5 1.709 -2.709 3.5 -0.5 3.5 C
1.709 3.5 3.5 1.709 3.5 -0.5 C
S
GR
GS
[0.75 0 0 0.75 1076.70547 477.74959] CT
0 0.447 0.741 RC
10.0 ML
0.667 LW
N
3.5 -0.5 M
3.5 -2.709 1.709 -4.5 -0.5 -4.5 C
-2.709 -4.5 -4.5 -2.709 -4.5 -0.5 C
-4.5 1.709 -2.709 3.5 -0.5 3.5 C
1.709 3.5 3.5 1.709 3.5 -0.5 C
S
GR
GS
[0.75 0 0 0.75 1224.29617 341.625] CT
0 0.447 0.741 RC
10.0 ML
0.667 LW
N
3.5 -0.5 M
3.5 -2.709 1.709 -4.5 -0.5 -4.5 C
-2.709 -4.5 -4.5 -2.709 -4.5 -0.5 C
-4.5 1.709 -2.709 3.5 -0.5 3.5 C
1.709 3.5 3.5 1.709 3.5 -0.5 C
S
GR
GS
[0.75 0 0 0.75 1164.69333 117.36523] CT
0 0.447 0.741 RC
10.0 ML
0.667 LW
N
3.5 -0.5 M
3.5 -2.709 1.709 -4.5 -0.5 -4.5 C
-2.709 -4.5 -4.5 -2.709 -4.5 -0.5 C
-4.5 1.709 -2.709 3.5 -0.5 3.5 C
1.709 3.5 3.5 1.709 3.5 -0.5 C
S
GR
GS
[0.75 0 0 0.75 1164.69333 565.88475] CT
0 0.447 0.741 RC
10.0 ML
0.667 LW
N
3.5 -0.5 M
3.5 -2.709 1.709 -4.5 -0.5 -4.5 C
-2.709 -4.5 -4.5 -2.709 -4.5 -0.5 C
-4.5 1.709 -2.709 3.5 -0.5 3.5 C
1.709 3.5 3.5 1.709 3.5 -0.5 C
S
GR
GS
[0.75 0 0 0.75 1102.57022 341.625] CT
0 0.447 0.741 RC
10.0 ML
0.667 LW
N
3.5 -0.5 M
3.5 -2.709 1.709 -4.5 -0.5 -4.5 C
-2.709 -4.5 -4.5 -2.709 -4.5 -0.5 C
-4.5 1.709 -2.709 3.5 -0.5 3.5 C
1.709 3.5 3.5 1.709 3.5 -0.5 C
S
GR
GS
[0.75 0 0 0.75 1199.3638 224.1207] CT
0 0.447 0.741 RC
10.0 ML
0.667 LW
N
3.5 -0.5 M
3.5 -2.709 1.709 -4.5 -0.5 -4.5 C
-2.709 -4.5 -4.5 -2.709 -4.5 -0.5 C
-4.5 1.709 -2.709 3.5 -0.5 3.5 C
1.709 3.5 3.5 1.709 3.5 -0.5 C
S
GR
GS
[0.75 0 0 0.75 1199.3638 459.12932] CT
0 0.447 0.741 RC
10.0 ML
0.667 LW
N
3.5 -0.5 M
3.5 -2.709 1.709 -4.5 -0.5 -4.5 C
-2.709 -4.5 -4.5 -2.709 -4.5 -0.5 C
-4.5 1.709 -2.709 3.5 -0.5 3.5 C
1.709 3.5 3.5 1.709 3.5 -0.5 C
S
GR
GS
[0.75 0 0 0.75 1173.13834 183.35545] CT
0 0.447 0.741 RC
10.0 ML
0.667 LW
N
3.5 -0.5 M
3.5 -2.709 1.709 -4.5 -0.5 -4.5 C
-2.709 -4.5 -4.5 -2.709 -4.5 -0.5 C
-4.5 1.709 -2.709 3.5 -0.5 3.5 C
1.709 3.5 3.5 1.709 3.5 -0.5 C
S
GR
GS
[0.75 0 0 0.75 1173.13834 499.89455] CT
0 0.447 0.741 RC
10.0 ML
0.667 LW
N
3.5 -0.5 M
3.5 -2.709 1.709 -4.5 -0.5 -4.5 C
-2.709 -4.5 -4.5 -2.709 -4.5 -0.5 C
-4.5 1.709 -2.709 3.5 -0.5 3.5 C
1.709 3.5 3.5 1.709 3.5 -0.5 C
S
GR
GS
[0.75 0 0 0.75 1183.03802 543.62032] CT
0 0.447 0.741 RC
10.0 ML
0.667 LW
N
-3.3 -3.3 M
3.3 3.3 L
-3.3 3.3 M
3.3 -3.3 L
S
GR
GS
[0.75 0 0 0.75 1183.03802 139.62968] CT
0 0.447 0.741 RC
10.0 ML
0.667 LW
N
-3.3 -3.3 M
3.3 3.3 L
-3.3 3.3 M
3.3 -3.3 L
S
GR
GS
[0.75 0 0 0.75 1168.58276 580.93968] CT
0 0.447 0.741 RC
10.0 ML
0.667 LW
N
-3.3 -3.3 M
3.3 3.3 L
-3.3 3.3 M
3.3 -3.3 L
S
GR
GS
[0.75 0 0 0.75 1168.58276 102.31031] CT
0 0.447 0.741 RC
10.0 ML
0.667 LW
N
-3.3 -3.3 M
3.3 3.3 L
-3.3 3.3 M
3.3 -3.3 L
S
GR
GS
[0.75 0 0 0.75 1210.62305 457.55919] CT
0 0.447 0.741 RC
10.0 ML
0.667 LW
N
-3.3 -3.3 M
3.3 3.3 L
-3.3 3.3 M
3.3 -3.3 L
S
GR
GS
[0.75 0 0 0.75 1210.62305 225.69079] CT
0 0.447 0.741 RC
10.0 ML
0.667 LW
N
-3.3 -3.3 M
3.3 3.3 L
-3.3 3.3 M
3.3 -3.3 L
S
GR
GS
[0.75 0 0 0.75 1076.37552 475.57951] CT
0 0.447 0.741 RC
10.0 ML
0.667 LW
N
-3.3 -3.3 M
3.3 3.3 L
-3.3 3.3 M
3.3 -3.3 L
S
GR
GS
[0.75 0 0 0.75 1076.37552 207.67049] CT
0 0.447 0.741 RC
10.0 ML
0.667 LW
N
-3.3 -3.3 M
3.3 3.3 L
-3.3 3.3 M
3.3 -3.3 L
S
GR
GS
[0.75 0 0 0.75 1069.17142 341.625] CT
0 0.447 0.741 RC
10.0 ML
0.667 LW
N
-3.3 -3.3 M
3.3 3.3 L
-3.3 3.3 M
3.3 -3.3 L
S
GR
GS
[0.75 0 0 0.75 1145.35712 341.625] CT
0 0.447 0.741 RC
10.0 ML
0.667 LW
N
-3.3 -3.3 M
3.3 3.3 L
-3.3 3.3 M
3.3 -3.3 L
S
GR
GS
[0.75 0 0 0.75 1145.35712 341.625] CT
0 0.447 0.741 RC
10.0 ML
0.667 LW
N
-3.3 -3.3 M
3.3 3.3 L
-3.3 3.3 M
3.3 -3.3 L
S
GR
GS
[0.75 0 0 0.75 1145.35712 341.625] CT
0 0.447 0.741 RC
10.0 ML
0.667 LW
N
-3.3 -3.3 M
3.3 3.3 L
-3.3 3.3 M
3.3 -3.3 L
S
GR
GS
[0.75 0 0 0.75 1145.35712 341.625] CT
0 0.447 0.741 RC
10.0 ML
0.667 LW
N
-3.3 -3.3 M
3.3 3.3 L
-3.3 3.3 M
3.3 -3.3 L
S
GR
GS
[0.75 0 0 0.75 1145.35712 341.625] CT
0 0.447 0.741 RC
10.0 ML
0.667 LW
N
-3.3 -3.3 M
3.3 3.3 L
-3.3 3.3 M
3.3 -3.3 L
S
GR
GS
[0.75 0 0 0.75 1145.35712 341.625] CT
0 0.447 0.741 RC
10.0 ML
0.667 LW
N
-3.3 -3.3 M
3.3 3.3 L
-3.3 3.3 M
3.3 -3.3 L
S
GR
GS
[0.75 0 0 0.75 1145.35712 341.625] CT
0 0.447 0.741 RC
10.0 ML
0.667 LW
N
-3.3 -3.3 M
3.3 3.3 L
-3.3 3.3 M
3.3 -3.3 L
S
GR
GS
[0.75 0 0 0.75 749.25 61.455] CT
/Helvetica-Bold 14.667 F
GS
[1 0 0 1 0 0] CT
-61.5 -4 moveto 
1 -1 scale
(Pole-Zero Map) t 
GR
GR
GS
[0.75 0 0 0.75 749.25 632.75002] CT
/Helvetica 14.667 F
GS
[1 0 0 1 0 0] CT
-34.5 14 moveto 
1 -1 scale
(Real Axis) t 
GR
GR
GS
[0 -0.75 0.75 0 170 342.3525] CT
/Helvetica 14.667 F
GS
[1 0 0 1 0 0] CT
-56 -4 moveto 
1 -1 scale
(Imaginary Axis) t 
GR
GR
%%Trailer
%%Pages: 1
%%EOF
