%!PS-Adobe-3.0 EPSF-3.0
%%Creator: (MATLAB, The Mathworks, Inc. Version 9.1.0.441655 \(R2016b\). Operating System: Windows 8)
%%Title: C:/Users/Eigenaar/WIT/SI/system-identification/Oefenzitting_3/plots/zeroinputtrend.eps
%%CreationDate: 2016-12-19T11:27:10
%%Pages: (atend)
%%BoundingBox: 0 0 680 513
%%LanguageLevel: 3
%%EndComments
%%BeginProlog
%%BeginResource: procset (Apache XML Graphics Std ProcSet) 1.2 0
%%Version: 1.2 0
%%Copyright: (Copyright 2001-2003,2010 The Apache Software Foundation. License terms: http://www.apache.org/licenses/LICENSE-2.0)
/bd{bind def}bind def
/ld{load def}bd
/GR/grestore ld
/M/moveto ld
/LJ/setlinejoin ld
/C/curveto ld
/f/fill ld
/LW/setlinewidth ld
/GC/setgray ld
/t/show ld
/N/newpath ld
/CT/concat ld
/cp/closepath ld
/S/stroke ld
/L/lineto ld
/CC/setcmykcolor ld
/A/ashow ld
/GS/gsave ld
/RC/setrgbcolor ld
/RM/rmoveto ld
/ML/setmiterlimit ld
/re {4 2 roll M
1 index 0 rlineto
0 exch rlineto
neg 0 rlineto
cp } bd
/_ctm matrix def
/_tm matrix def
/BT { _ctm currentmatrix pop matrix _tm copy pop 0 0 moveto } bd
/ET { _ctm setmatrix } bd
/iTm { _ctm setmatrix _tm concat } bd
/Tm { _tm astore pop iTm 0 0 moveto } bd
/ux 0.0 def
/uy 0.0 def
/F {
  /Tp exch def
  /Tf exch def
  Tf findfont Tp scalefont setfont
  /cf Tf def  /cs Tp def
} bd
/ULS {currentpoint /uy exch def /ux exch def} bd
/ULE {
  /Tcx currentpoint pop def
  gsave
  newpath
  cf findfont cs scalefont dup
  /FontMatrix get 0 get /Ts exch def /FontInfo get dup
  /UnderlinePosition get Ts mul /To exch def
  /UnderlineThickness get Ts mul /Tt exch def
  ux uy To add moveto  Tcx uy To add lineto
  Tt setlinewidth stroke
  grestore
} bd
/OLE {
  /Tcx currentpoint pop def
  gsave
  newpath
  cf findfont cs scalefont dup
  /FontMatrix get 0 get /Ts exch def /FontInfo get dup
  /UnderlinePosition get Ts mul /To exch def
  /UnderlineThickness get Ts mul /Tt exch def
  ux uy To add cs add moveto Tcx uy To add cs add lineto
  Tt setlinewidth stroke
  grestore
} bd
/SOE {
  /Tcx currentpoint pop def
  gsave
  newpath
  cf findfont cs scalefont dup
  /FontMatrix get 0 get /Ts exch def /FontInfo get dup
  /UnderlinePosition get Ts mul /To exch def
  /UnderlineThickness get Ts mul /Tt exch def
  ux uy To add cs 10 mul 26 idiv add moveto Tcx uy To add cs 10 mul 26 idiv add lineto
  Tt setlinewidth stroke
  grestore
} bd
/QT {
/Y22 exch store
/X22 exch store
/Y21 exch store
/X21 exch store
currentpoint
/Y21 load 2 mul add 3 div exch
/X21 load 2 mul add 3 div exch
/X21 load 2 mul /X22 load add 3 div
/Y21 load 2 mul /Y22 load add 3 div
/X22 load /Y22 load curveto
} bd
/SSPD {
dup length /d exch dict def
{
/v exch def
/k exch def
currentpagedevice k known {
/cpdv currentpagedevice k get def
v cpdv ne {
/upd false def
/nullv v type /nulltype eq def
/nullcpdv cpdv type /nulltype eq def
nullv nullcpdv or
{
/upd true def
} {
/sametype v type cpdv type eq def
sametype {
v type /arraytype eq {
/vlen v length def
/cpdvlen cpdv length def
vlen cpdvlen eq {
0 1 vlen 1 sub {
/i exch def
/obj v i get def
/cpdobj cpdv i get def
obj cpdobj ne {
/upd true def
exit
} if
} for
} {
/upd true def
} ifelse
} {
v type /dicttype eq {
v {
/dv exch def
/dk exch def
/cpddv cpdv dk get def
dv cpddv ne {
/upd true def
exit
} if
} forall
} {
/upd true def
} ifelse
} ifelse
} if
} ifelse
upd true eq {
d k v put
} if
} if
} if
} forall
d length 0 gt {
d setpagedevice
} if
} bd
/RE { % /NewFontName [NewEncodingArray] /FontName RE -
  findfont dup length dict begin
  {
    1 index /FID ne
    {def} {pop pop} ifelse
  } forall
  /Encoding exch def
  /FontName 1 index def
  currentdict definefont pop
  end
} bind def
%%EndResource
%%BeginResource: procset (Apache XML Graphics EPS ProcSet) 1.0 0
%%Version: 1.0 0
%%Copyright: (Copyright 2002-2003 The Apache Software Foundation. License terms: http://www.apache.org/licenses/LICENSE-2.0)
/BeginEPSF { %def
/b4_Inc_state save def         % Save state for cleanup
/dict_count countdictstack def % Count objects on dict stack
/op_count count 1 sub def      % Count objects on operand stack
userdict begin                 % Push userdict on dict stack
/showpage { } def              % Redefine showpage, { } = null proc
0 setgray 0 setlinecap         % Prepare graphics state
1 setlinewidth 0 setlinejoin
10 setmiterlimit [ ] 0 setdash newpath
/languagelevel where           % If level not equal to 1 then
{pop languagelevel             % set strokeadjust and
1 ne                           % overprint to their defaults.
{false setstrokeadjust false setoverprint
} if
} if
} bd
/EndEPSF { %def
count op_count sub {pop} repeat            % Clean up stacks
countdictstack dict_count sub {end} repeat
b4_Inc_state restore
} bd
%%EndResource
%FOPBeginFontDict
%%IncludeResource: font Courier-Bold
%%IncludeResource: font Helvetica
%%IncludeResource: font Courier-BoldOblique
%%IncludeResource: font Courier-Oblique
%%IncludeResource: font Times-Roman
%%IncludeResource: font Helvetica-BoldOblique
%%IncludeResource: font Helvetica-Bold
%%IncludeResource: font Helvetica-Oblique
%%IncludeResource: font Times-BoldItalic
%%IncludeResource: font Courier
%%IncludeResource: font Times-Italic
%%IncludeResource: font Times-Bold
%%IncludeResource: font Symbol
%%IncludeResource: font ZapfDingbats
%FOPEndFontDict
%%BeginResource: encoding WinAnsiEncoding
/WinAnsiEncoding [
/.notdef /.notdef /.notdef /.notdef /.notdef
/.notdef /.notdef /.notdef /.notdef /.notdef
/.notdef /.notdef /.notdef /.notdef /.notdef
/.notdef /.notdef /.notdef /.notdef /.notdef
/.notdef /.notdef /.notdef /.notdef /.notdef
/.notdef /.notdef /.notdef /.notdef /.notdef
/.notdef /.notdef /space /exclam /quotedbl
/numbersign /dollar /percent /ampersand /quotesingle
/parenleft /parenright /asterisk /plus /comma
/hyphen /period /slash /zero /one
/two /three /four /five /six
/seven /eight /nine /colon /semicolon
/less /equal /greater /question /at
/A /B /C /D /E
/F /G /H /I /J
/K /L /M /N /O
/P /Q /R /S /T
/U /V /W /X /Y
/Z /bracketleft /backslash /bracketright /asciicircum
/underscore /quoteleft /a /b /c
/d /e /f /g /h
/i /j /k /l /m
/n /o /p /q /r
/s /t /u /v /w
/x /y /z /braceleft /bar
/braceright /asciitilde /bullet /Euro /bullet
/quotesinglbase /florin /quotedblbase /ellipsis /dagger
/daggerdbl /circumflex /perthousand /Scaron /guilsinglleft
/OE /bullet /Zcaron /bullet /bullet
/quoteleft /quoteright /quotedblleft /quotedblright /bullet
/endash /emdash /asciitilde /trademark /scaron
/guilsinglright /oe /bullet /zcaron /Ydieresis
/space /exclamdown /cent /sterling /currency
/yen /brokenbar /section /dieresis /copyright
/ordfeminine /guillemotleft /logicalnot /sfthyphen /registered
/macron /degree /plusminus /twosuperior /threesuperior
/acute /mu /paragraph /middot /cedilla
/onesuperior /ordmasculine /guillemotright /onequarter /onehalf
/threequarters /questiondown /Agrave /Aacute /Acircumflex
/Atilde /Adieresis /Aring /AE /Ccedilla
/Egrave /Eacute /Ecircumflex /Edieresis /Igrave
/Iacute /Icircumflex /Idieresis /Eth /Ntilde
/Ograve /Oacute /Ocircumflex /Otilde /Odieresis
/multiply /Oslash /Ugrave /Uacute /Ucircumflex
/Udieresis /Yacute /Thorn /germandbls /agrave
/aacute /acircumflex /atilde /adieresis /aring
/ae /ccedilla /egrave /eacute /ecircumflex
/edieresis /igrave /iacute /icircumflex /idieresis
/eth /ntilde /ograve /oacute /ocircumflex
/otilde /odieresis /divide /oslash /ugrave
/uacute /ucircumflex /udieresis /yacute /thorn
/ydieresis
] def
%%EndResource
%FOPBeginFontReencode
/Courier-Bold findfont
dup length dict begin
  {1 index /FID ne {def} {pop pop} ifelse} forall
  /Encoding WinAnsiEncoding def
  currentdict
end
/Courier-Bold exch definefont pop
/Helvetica findfont
dup length dict begin
  {1 index /FID ne {def} {pop pop} ifelse} forall
  /Encoding WinAnsiEncoding def
  currentdict
end
/Helvetica exch definefont pop
/Courier-BoldOblique findfont
dup length dict begin
  {1 index /FID ne {def} {pop pop} ifelse} forall
  /Encoding WinAnsiEncoding def
  currentdict
end
/Courier-BoldOblique exch definefont pop
/Courier-Oblique findfont
dup length dict begin
  {1 index /FID ne {def} {pop pop} ifelse} forall
  /Encoding WinAnsiEncoding def
  currentdict
end
/Courier-Oblique exch definefont pop
/Times-Roman findfont
dup length dict begin
  {1 index /FID ne {def} {pop pop} ifelse} forall
  /Encoding WinAnsiEncoding def
  currentdict
end
/Times-Roman exch definefont pop
/Helvetica-BoldOblique findfont
dup length dict begin
  {1 index /FID ne {def} {pop pop} ifelse} forall
  /Encoding WinAnsiEncoding def
  currentdict
end
/Helvetica-BoldOblique exch definefont pop
/Helvetica-Bold findfont
dup length dict begin
  {1 index /FID ne {def} {pop pop} ifelse} forall
  /Encoding WinAnsiEncoding def
  currentdict
end
/Helvetica-Bold exch definefont pop
/Helvetica-Oblique findfont
dup length dict begin
  {1 index /FID ne {def} {pop pop} ifelse} forall
  /Encoding WinAnsiEncoding def
  currentdict
end
/Helvetica-Oblique exch definefont pop
/Times-BoldItalic findfont
dup length dict begin
  {1 index /FID ne {def} {pop pop} ifelse} forall
  /Encoding WinAnsiEncoding def
  currentdict
end
/Times-BoldItalic exch definefont pop
/Courier findfont
dup length dict begin
  {1 index /FID ne {def} {pop pop} ifelse} forall
  /Encoding WinAnsiEncoding def
  currentdict
end
/Courier exch definefont pop
/Times-Italic findfont
dup length dict begin
  {1 index /FID ne {def} {pop pop} ifelse} forall
  /Encoding WinAnsiEncoding def
  currentdict
end
/Times-Italic exch definefont pop
/Times-Bold findfont
dup length dict begin
  {1 index /FID ne {def} {pop pop} ifelse} forall
  /Encoding WinAnsiEncoding def
  currentdict
end
/Times-Bold exch definefont pop
%FOPEndFontReencode
%%EndProlog
%%Page: 1 1
%%PageBoundingBox: 0 0 680 513
%%BeginPageSetup
[1 0 0 -1 0 513] CT
%%EndPageSetup
GS
[0.75 0 0 0.75 0 0] CT
1 GC
N
0 0 906 684 re
f
GR
GS
[0.75 0 0 0.75 0 0] CT
1 GC
N
0 0 906 684 re
f
GR
GS
[0.75 0 0 0.75 0 0] CT
1 GC
N
118 609 M
820 609 L
820 51 L
118 51 L
cp
f
GR
GS
[0.75 0 0 0.75 0 0] CT
0.149 GC
2 setlinecap
1 LJ
0.667 LW
N
118 609 M
820 609 L
S
GR
GS
[0.75 0 0 0.75 0 0] CT
0.149 GC
2 setlinecap
1 LJ
0.667 LW
N
118 51 M
820 51 L
S
GR
GS
[0.75 0 0 0.75 0 0] CT
0.149 GC
2 setlinecap
1 LJ
0.667 LW
N
118 609 M
118 601.98 L
S
GR
GS
[0.75 0 0 0.75 0 0] CT
0.149 GC
2 setlinecap
1 LJ
0.667 LW
N
188.2 609 M
188.2 601.98 L
S
GR
GS
[0.75 0 0 0.75 0 0] CT
0.149 GC
2 setlinecap
1 LJ
0.667 LW
N
258.4 609 M
258.4 601.98 L
S
GR
GS
[0.75 0 0 0.75 0 0] CT
0.149 GC
2 setlinecap
1 LJ
0.667 LW
N
328.6 609 M
328.6 601.98 L
S
GR
GS
[0.75 0 0 0.75 0 0] CT
0.149 GC
2 setlinecap
1 LJ
0.667 LW
N
398.8 609 M
398.8 601.98 L
S
GR
GS
[0.75 0 0 0.75 0 0] CT
0.149 GC
2 setlinecap
1 LJ
0.667 LW
N
469 609 M
469 601.98 L
S
GR
GS
[0.75 0 0 0.75 0 0] CT
0.149 GC
2 setlinecap
1 LJ
0.667 LW
N
539.2 609 M
539.2 601.98 L
S
GR
GS
[0.75 0 0 0.75 0 0] CT
0.149 GC
2 setlinecap
1 LJ
0.667 LW
N
609.4 609 M
609.4 601.98 L
S
GR
GS
[0.75 0 0 0.75 0 0] CT
0.149 GC
2 setlinecap
1 LJ
0.667 LW
N
679.6 609 M
679.6 601.98 L
S
GR
GS
[0.75 0 0 0.75 0 0] CT
0.149 GC
2 setlinecap
1 LJ
0.667 LW
N
749.8 609 M
749.8 601.98 L
S
GR
GS
[0.75 0 0 0.75 0 0] CT
0.149 GC
2 setlinecap
1 LJ
0.667 LW
N
820 609 M
820 601.98 L
S
GR
GS
[0.75 0 0 0.75 0 0] CT
0.149 GC
2 setlinecap
1 LJ
0.667 LW
N
118 51 M
118 58.02 L
S
GR
GS
[0.75 0 0 0.75 0 0] CT
0.149 GC
2 setlinecap
1 LJ
0.667 LW
N
188.2 51 M
188.2 58.02 L
S
GR
GS
[0.75 0 0 0.75 0 0] CT
0.149 GC
2 setlinecap
1 LJ
0.667 LW
N
258.4 51 M
258.4 58.02 L
S
GR
GS
[0.75 0 0 0.75 0 0] CT
0.149 GC
2 setlinecap
1 LJ
0.667 LW
N
328.6 51 M
328.6 58.02 L
S
GR
GS
[0.75 0 0 0.75 0 0] CT
0.149 GC
2 setlinecap
1 LJ
0.667 LW
N
398.8 51 M
398.8 58.02 L
S
GR
GS
[0.75 0 0 0.75 0 0] CT
0.149 GC
2 setlinecap
1 LJ
0.667 LW
N
469 51 M
469 58.02 L
S
GR
GS
[0.75 0 0 0.75 0 0] CT
0.149 GC
2 setlinecap
1 LJ
0.667 LW
N
539.2 51 M
539.2 58.02 L
S
GR
GS
[0.75 0 0 0.75 0 0] CT
0.149 GC
2 setlinecap
1 LJ
0.667 LW
N
609.4 51 M
609.4 58.02 L
S
GR
GS
[0.75 0 0 0.75 0 0] CT
0.149 GC
2 setlinecap
1 LJ
0.667 LW
N
679.6 51 M
679.6 58.02 L
S
GR
GS
[0.75 0 0 0.75 0 0] CT
0.149 GC
2 setlinecap
1 LJ
0.667 LW
N
749.8 51 M
749.8 58.02 L
S
GR
GS
[0.75 0 0 0.75 0 0] CT
0.149 GC
2 setlinecap
1 LJ
0.667 LW
N
820 51 M
820 58.02 L
S
GR
GS
[0.75 0 0 0.75 88.5 460.75003] CT
0.149 GC
/Helvetica 13.333 F
GS
[1 0 0 1 0 0] CT
-4 14 moveto 
1 -1 scale
(0) t 
GR
GR
GS
[0.75 0 0 0.75 141.15 460.75003] CT
0.149 GC
/Helvetica 13.333 F
GS
[1 0 0 1 0 0] CT
-11 14 moveto 
1 -1 scale
(100) t 
GR
GR
GS
[0.75 0 0 0.75 193.8 460.75003] CT
0.149 GC
/Helvetica 13.333 F
GS
[1 0 0 1 0 0] CT
-11 14 moveto 
1 -1 scale
(200) t 
GR
GR
GS
[0.75 0 0 0.75 246.45 460.75003] CT
0.149 GC
/Helvetica 13.333 F
GS
[1 0 0 1 0 0] CT
-11 14 moveto 
1 -1 scale
(300) t 
GR
GR
GS
[0.75 0 0 0.75 299.09999 460.75003] CT
0.149 GC
/Helvetica 13.333 F
GS
[1 0 0 1 0 0] CT
-11 14 moveto 
1 -1 scale
(400) t 
GR
GR
GS
[0.75 0 0 0.75 351.75 460.75003] CT
0.149 GC
/Helvetica 13.333 F
GS
[1 0 0 1 0 0] CT
-11 14 moveto 
1 -1 scale
(500) t 
GR
GR
GS
[0.75 0 0 0.75 404.40001 460.75003] CT
0.149 GC
/Helvetica 13.333 F
GS
[1 0 0 1 0 0] CT
-11 14 moveto 
1 -1 scale
(600) t 
GR
GR
GS
[0.75 0 0 0.75 457.05002 460.75003] CT
0.149 GC
/Helvetica 13.333 F
GS
[1 0 0 1 0 0] CT
-11 14 moveto 
1 -1 scale
(700) t 
GR
GR
GS
[0.75 0 0 0.75 509.69998 460.75003] CT
0.149 GC
/Helvetica 13.333 F
GS
[1 0 0 1 0 0] CT
-11 14 moveto 
1 -1 scale
(800) t 
GR
GR
GS
[0.75 0 0 0.75 562.34999 460.75003] CT
0.149 GC
/Helvetica 13.333 F
GS
[1 0 0 1 0 0] CT
-11 14 moveto 
1 -1 scale
(900) t 
GR
GR
GS
[0.75 0 0 0.75 615 460.75003] CT
0.149 GC
/Helvetica 13.333 F
GS
[1 0 0 1 0 0] CT
-14.5 14 moveto 
1 -1 scale
(1000) t 
GR
GR
GS
[0.75 0 0 0.75 351.75025 474.50002] CT
0.149 GC
/Helvetica 14.667 F
GS
[1 0 0 1 0 0] CT
-17 16 moveto 
1 -1 scale
(Time) t 
GR
GR
GS
[0.75 0 0 0.75 0 0] CT
0.149 GC
2 setlinecap
1 LJ
0.667 LW
N
118 609 M
118 51 L
S
GR
GS
[0.75 0 0 0.75 0 0] CT
0.149 GC
2 setlinecap
1 LJ
0.667 LW
N
820 609 M
820 51 L
S
GR
GS
[0.75 0 0 0.75 0 0] CT
0.149 GC
2 setlinecap
1 LJ
0.667 LW
N
118 609 M
125.02 609 L
S
GR
GS
[0.75 0 0 0.75 0 0] CT
0.149 GC
2 setlinecap
1 LJ
0.667 LW
N
118 539.25 M
125.02 539.25 L
S
GR
GS
[0.75 0 0 0.75 0 0] CT
0.149 GC
2 setlinecap
1 LJ
0.667 LW
N
118 469.5 M
125.02 469.5 L
S
GR
GS
[0.75 0 0 0.75 0 0] CT
0.149 GC
2 setlinecap
1 LJ
0.667 LW
N
118 399.75 M
125.02 399.75 L
S
GR
GS
[0.75 0 0 0.75 0 0] CT
0.149 GC
2 setlinecap
1 LJ
0.667 LW
N
118 330 M
125.02 330 L
S
GR
GS
[0.75 0 0 0.75 0 0] CT
0.149 GC
2 setlinecap
1 LJ
0.667 LW
N
118 260.25 M
125.02 260.25 L
S
GR
GS
[0.75 0 0 0.75 0 0] CT
0.149 GC
2 setlinecap
1 LJ
0.667 LW
N
118 190.5 M
125.02 190.5 L
S
GR
GS
[0.75 0 0 0.75 0 0] CT
0.149 GC
2 setlinecap
1 LJ
0.667 LW
N
118 120.75 M
125.02 120.75 L
S
GR
GS
[0.75 0 0 0.75 0 0] CT
0.149 GC
2 setlinecap
1 LJ
0.667 LW
N
118 51 M
125.02 51 L
S
GR
GS
[0.75 0 0 0.75 0 0] CT
0.149 GC
2 setlinecap
1 LJ
0.667 LW
N
820 609 M
812.98 609 L
S
GR
GS
[0.75 0 0 0.75 0 0] CT
0.149 GC
2 setlinecap
1 LJ
0.667 LW
N
820 539.25 M
812.98 539.25 L
S
GR
GS
[0.75 0 0 0.75 0 0] CT
0.149 GC
2 setlinecap
1 LJ
0.667 LW
N
820 469.5 M
812.98 469.5 L
S
GR
GS
[0.75 0 0 0.75 0 0] CT
0.149 GC
2 setlinecap
1 LJ
0.667 LW
N
820 399.75 M
812.98 399.75 L
S
GR
GS
[0.75 0 0 0.75 0 0] CT
0.149 GC
2 setlinecap
1 LJ
0.667 LW
N
820 330 M
812.98 330 L
S
GR
GS
[0.75 0 0 0.75 0 0] CT
0.149 GC
2 setlinecap
1 LJ
0.667 LW
N
820 260.25 M
812.98 260.25 L
S
GR
GS
[0.75 0 0 0.75 0 0] CT
0.149 GC
2 setlinecap
1 LJ
0.667 LW
N
820 190.5 M
812.98 190.5 L
S
GR
GS
[0.75 0 0 0.75 0 0] CT
0.149 GC
2 setlinecap
1 LJ
0.667 LW
N
820 120.75 M
812.98 120.75 L
S
GR
GS
[0.75 0 0 0.75 0 0] CT
0.149 GC
2 setlinecap
1 LJ
0.667 LW
N
820 51 M
812.98 51 L
S
GR
GS
[0.75 0 0 0.75 84.5 456.75] CT
0.149 GC
/Helvetica 13.333 F
GS
[1 0 0 1 0 0] CT
-12 5.5 moveto 
1 -1 scale
(-1) t 
GR
GR
GS
[0.75 0 0 0.75 84.5 404.4375] CT
0.149 GC
/Helvetica 13.333 F
GS
[1 0 0 1 0 0] CT
-23 5.5 moveto 
1 -1 scale
(-0.8) t 
GR
GR
GS
[0.75 0 0 0.75 84.5 352.125] CT
0.149 GC
/Helvetica 13.333 F
GS
[1 0 0 1 0 0] CT
-23 5.5 moveto 
1 -1 scale
(-0.6) t 
GR
GR
GS
[0.75 0 0 0.75 84.5 299.8125] CT
0.149 GC
/Helvetica 13.333 F
GS
[1 0 0 1 0 0] CT
-23 5.5 moveto 
1 -1 scale
(-0.4) t 
GR
GR
GS
[0.75 0 0 0.75 84.5 247.5] CT
0.149 GC
/Helvetica 13.333 F
GS
[1 0 0 1 0 0] CT
-23 5.5 moveto 
1 -1 scale
(-0.2) t 
GR
GR
GS
[0.75 0 0 0.75 84.5 195.1875] CT
0.149 GC
/Helvetica 13.333 F
GS
[1 0 0 1 0 0] CT
-8 5.5 moveto 
1 -1 scale
(0) t 
GR
GR
GS
[0.75 0 0 0.75 84.5 142.875] CT
0.149 GC
/Helvetica 13.333 F
GS
[1 0 0 1 0 0] CT
-19 5.5 moveto 
1 -1 scale
(0.2) t 
GR
GR
GS
[0.75 0 0 0.75 84.5 90.5625] CT
0.149 GC
/Helvetica 13.333 F
GS
[1 0 0 1 0 0] CT
-19 5.5 moveto 
1 -1 scale
(0.4) t 
GR
GR
GS
[0.75 0 0 0.75 84.5 38.24999] CT
0.149 GC
/Helvetica 13.333 F
GS
[1 0 0 1 0 0] CT
-19 5.5 moveto 
1 -1 scale
(0.6) t 
GR
GR
GS
[0 -0.75 0.75 0 64.25 247.49979] CT
0.149 GC
/Helvetica 14.667 F
GS
[1 0 0 1 0 0] CT
-38.5 -4 moveto 
1 -1 scale
(Noise trend) t 
GR
GR
GS
[0.75 0 0 0.75 351.75034 36.1875] CT
/Helvetica-Bold 14.667 F
GS
[1 0 0 1 0 0] CT
-118 -4 moveto 
1 -1 scale
(Trend of the low frequency noise) t 
GR
GR
GS
[0.75 0 0 0.75 0 0] CT
0 0.447 0.741 RC
1 LJ
0.667 LW
N
118.702 213.789 M
119.404 212.951 L
120.106 212.22 L
120.808 211.596 L
121.51 211.074 L
122.212 210.65 L
122.914 210.323 L
123.616 210.089 L
124.318 209.942 L
125.02 209.874 L
125.722 209.883 L
126.424 209.965 L
127.126 210.113 L
127.828 210.319 L
128.53 210.579 L
129.232 210.883 L
129.934 211.224 L
130.636 211.593 L
131.338 211.981 L
132.04 212.374 L
132.742 212.758 L
133.444 213.119 L
134.146 213.442 L
134.848 213.708 L
135.55 213.891 L
136.252 213.963 L
136.954 213.901 L
137.656 213.685 L
138.358 213.301 L
139.06 212.755 L
139.762 212.072 L
140.464 211.281 L
141.166 210.409 L
141.868 209.472 L
142.57 208.488 L
143.272 207.476 L
143.974 206.453 L
144.676 205.429 L
145.378 204.415 L
146.08 203.42 L
146.782 202.455 L
147.484 201.53 L
148.186 200.652 L
148.888 199.828 L
149.59 199.07 L
150.292 198.39 L
150.994 197.798 L
151.696 197.304 L
152.398 196.923 L
153.1 196.676 L
153.802 196.585 L
154.504 196.668 L
155.206 196.945 L
155.908 197.445 L
156.61 198.191 L
157.312 199.192 L
158.014 200.442 L
158.716 201.916 L
159.418 203.577 L
160.12 205.382 L
160.822 207.294 L
161.524 209.279 L
162.226 211.305 L
162.928 213.348 L
163.63 215.387 L
164.332 217.404 L
165.034 219.381 L
165.736 221.303 L
166.438 223.166 L
167.14 224.964 L
167.842 226.692 L
168.544 228.352 L
169.246 229.951 L
169.948 231.493 L
170.65 232.986 L
171.352 234.447 L
172.054 235.89 L
172.756 237.33 L
173.458 238.784 L
174.16 240.275 L
174.862 241.819 L
175.564 243.442 L
176.266 245.184 L
176.968 247.087 L
177.67 249.181 L
178.372 251.471 L
179.074 253.938 L
179.776 256.544 L
180.478 259.244 L
181.18 261.989 L
181.882 264.739 L
182.584 267.463 L
183.286 270.133 L
183.988 272.72 L
184.69 275.201 L
185.392 277.557 L
186.094 279.77 L
186.796 281.822 L
187.498 283.702 L
188.2 285.402 L
188.902 286.913 L
189.604 288.232 L
190.306 289.354 L
191.008 290.275 L
191.71 290.994 L
192.412 291.519 L
193.114 291.854 L
193.816 292.002 L
194.518 291.965 L
195.22 291.756 L
195.922 291.393 L
196.624 290.888 L
197.326 290.249 L
198.028 289.494 L
198.73 288.647 L
199.432 287.73 L
200.134 286.767 L
200.836 285.781 L
201.538 284.804 L
202.24 283.869 L
202.942 283.009 L
203.644 282.253 L
204.346 281.62 L
205.048 281.101 L
205.75 280.666 L
206.452 280.278 L
207.154 279.911 L
207.856 279.543 L
208.558 279.151 L
209.26 278.71 L
209.962 278.205 L
210.664 277.637 L
211.366 277.002 L
212.068 276.293 L
212.77 275.503 L
213.472 274.631 L
214.174 273.676 L
214.876 272.644 L
215.578 271.543 L
216.28 270.385 L
216.982 269.184 L
217.684 267.955 L
218.386 266.713 L
219.088 265.474 L
219.79 264.246 L
220.492 263.043 L
221.194 261.879 L
221.896 260.765 L
222.598 259.71 L
223.3 258.722 L
224.002 257.813 L
224.704 256.99 L
225.406 256.26 L
226.108 255.625 L
226.81 255.093 L
227.512 254.67 L
228.214 254.356 L
228.916 254.148 L
229.618 254.047 L
230.32 254.055 L
231.022 254.168 L
231.724 254.377 L
232.426 254.676 L
233.128 255.059 L
233.83 255.517 L
234.532 256.035 L
235.234 256.595 L
235.936 257.183 L
236.638 257.782 L
237.34 258.37 L
238.042 258.921 L
238.744 259.41 L
239.446 259.807 L
240.148 260.084 L
240.85 260.228 L
241.552 260.248 L
242.254 260.168 L
242.956 260.013 L
243.658 259.802 L
244.36 259.558 L
245.062 259.301 L
245.764 259.043 L
246.466 258.793 L
247.168 258.566 L
247.87 258.376 L
248.572 258.224 L
249.274 258.113 L
249.976 258.05 L
250.678 258.038 L
251.38 258.078 L
252.082 258.167 L
252.784 258.304 L
253.486 258.492 L
254.188 258.732 L
254.89 259.026 L
255.592 259.393 L
256.294 259.875 L
256.996 260.526 L
257.698 261.406 L
258.4 262.581 L
259.102 264.105 L
259.804 266.013 L
260.506 268.304 L
261.208 270.953 L
261.91 273.923 L
262.612 277.181 L
263.314 280.708 L
264.016 284.482 L
264.718 288.479 L
265.42 292.674 L
266.122 297.048 L
266.824 301.587 L
267.526 306.275 L
268.228 311.09 L
268.93 316.008 L
269.632 321.012 L
270.334 326.083 L
271.036 331.198 L
271.738 336.324 L
272.44 341.424 L
273.142 346.462 L
273.844 351.401 L
274.546 356.193 L
275.248 360.777 L
275.95 365.088 L
276.652 369.058 L
277.354 372.606 L
278.056 375.645 L
278.758 378.107 L
279.46 379.962 L
280.162 381.234 L
280.864 381.974 L
281.566 382.228 L
282.268 382.026 L
282.97 381.397 L
283.672 380.364 L
284.374 378.949 L
285.076 377.173 L
285.778 375.053 L
286.48 372.612 L
287.182 369.877 L
287.884 366.887 L
288.586 363.678 L
289.288 360.28 L
289.99 356.713 L
290.692 352.998 L
291.394 349.151 L
292.096 345.184 L
292.798 341.11 L
293.5 336.941 L
294.202 332.688 L
294.904 328.362 L
295.606 323.976 L
296.308 319.544 L
297.01 315.08 L
297.712 310.607 L
298.414 306.148 L
299.116 301.735 L
299.818 297.395 L
300.52 293.166 L
301.222 289.099 L
301.924 285.248 L
302.626 281.66 L
303.328 278.35 L
304.03 275.301 L
304.732 272.47 L
305.434 269.806 L
306.136 267.264 L
306.838 264.81 L
307.54 262.412 L
308.242 260.05 L
308.944 257.709 L
309.646 255.38 L
310.348 253.056 L
311.05 250.734 L
311.752 248.423 L
312.454 246.129 L
313.156 243.862 L
313.858 241.636 L
314.56 239.472 L
315.262 237.387 L
315.964 235.4 L
316.666 233.531 L
317.368 231.803 L
318.07 230.232 L
318.772 228.82 L
319.474 227.55 L
320.176 226.384 L
320.878 225.275 L
321.58 224.175 L
322.282 223.036 L
322.984 221.805 L
323.686 220.418 L
324.388 218.805 L
325.09 216.915 L
325.792 214.742 L
326.494 212.324 L
327.196 209.73 L
327.898 207.041 L
328.6 204.331 L
329.302 201.661 L
330.004 199.083 L
330.706 196.65 L
331.408 194.411 L
332.11 192.408 L
332.812 190.681 L
333.514 189.263 L
334.216 188.184 L
334.918 187.475 L
335.62 187.161 L
336.322 187.25 L
337.024 187.738 L
337.726 188.607 L
338.428 189.835 L
339.13 191.399 L
339.832 193.274 L
340.534 195.439 L
341.236 197.875 L
341.938 200.558 L
342.64 203.464 L
343.342 206.571 L
344.044 209.863 L
344.746 213.319 L
345.448 216.922 L
346.15 220.652 L
346.852 224.489 L
347.554 228.416 L
348.256 232.42 L
348.958 236.492 L
349.66 240.617 L
350.362 244.775 L
351.064 248.953 L
351.766 253.146 L
352.468 257.345 L
353.17 261.541 L
353.872 265.72 L
354.574 269.871 L
355.276 273.993 L
355.978 278.082 L
356.68 282.131 L
357.382 286.13 L
358.084 290.075 L
358.786 293.964 L
359.488 297.793 L
360.19 301.558 L
360.892 305.257 L
361.594 308.888 L
362.296 312.449 L
362.998 315.935 L
363.7 319.343 L
364.402 322.672 L
365.104 325.919 L
365.806 329.083 L
366.508 332.158 L
367.21 335.14 L
367.912 338.023 L
368.614 340.801 L
369.316 343.465 L
370.018 346.009 L
370.72 348.423 L
371.422 350.691 L
372.124 352.798 L
372.826 354.73 L
373.528 356.467 L
374.23 357.987 L
374.932 359.267 L
375.634 360.276 L
376.336 360.979 L
377.038 361.342 L
377.74 361.351 L
378.442 361.011 L
379.144 360.341 L
379.846 359.362 L
380.548 358.095 L
381.25 356.559 L
381.952 354.762 L
382.654 352.709 L
383.356 350.405 L
384.058 347.863 L
384.76 345.099 L
385.462 342.135 L
386.164 338.992 L
386.866 335.691 L
387.568 332.243 L
388.27 328.659 L
388.972 324.951 L
389.674 321.133 L
390.376 317.214 L
391.078 313.207 L
391.78 309.124 L
392.482 304.968 L
393.184 300.736 L
393.886 296.427 L
394.588 292.043 L
395.29 287.583 L
395.992 283.036 L
396.694 278.388 L
397.396 273.63 L
398.098 268.765 L
398.8 263.808 L
399.502 258.782 L
400.204 253.715 L
400.906 248.63 L
401.608 243.551 L
402.31 238.497 L
403.012 233.483 L
403.714 228.526 L
404.416 223.643 L
405.118 218.851 L
405.82 214.161 L
406.522 209.581 L
407.224 205.124 L
407.926 200.801 L
408.628 196.62 L
409.33 192.593 L
410.032 188.727 L
410.734 185.026 L
411.436 181.499 L
412.138 178.15 L
412.84 174.984 L
413.542 172.002 L
414.244 169.195 L
414.946 166.545 L
415.648 164.033 L
416.35 161.642 L
417.052 159.36 L
417.754 157.188 L
418.456 155.131 L
419.158 153.193 L
419.86 151.372 L
420.562 149.665 L
421.264 148.078 L
421.966 146.616 L
422.668 145.279 L
423.37 144.068 L
424.072 142.988 L
424.774 142.046 L
425.476 141.25 L
426.178 140.604 L
426.88 140.118 L
427.582 139.8 L
428.284 139.661 L
428.986 139.714 L
429.688 139.972 L
430.39 140.445 L
431.092 141.155 L
431.794 142.123 L
432.496 143.368 L
433.198 144.908 L
433.9 146.769 L
434.602 148.958 L
435.304 151.459 L
436.006 154.243 L
436.708 157.279 L
437.41 160.538 L
438.112 163.994 L
438.814 167.622 L
439.516 171.402 L
440.218 175.31 L
440.92 179.328 L
441.622 183.441 L
442.324 187.637 L
443.026 191.895 L
443.728 196.199 L
444.43 200.54 L
445.132 204.912 L
445.834 209.302 L
446.536 213.694 L
447.238 218.074 L
447.94 222.442 L
448.642 226.788 L
449.344 231.096 L
450.046 235.35 L
450.748 239.544 L
451.45 243.671 L
452.152 247.715 L
452.854 251.659 L
453.556 255.499 L
454.258 259.241 L
454.96 262.893 L
455.662 266.468 L
456.364 269.975 L
457.066 273.423 L
457.768 276.816 L
458.47 280.161 L
459.172 283.466 L
459.874 286.733 L
460.576 289.966 L
461.278 293.164 L
461.98 296.328 L
462.682 299.456 L
463.384 302.547 L
464.086 305.599 L
464.788 308.607 L
465.49 311.562 L
466.192 314.456 L
466.894 317.281 L
467.596 320.025 L
468.298 322.673 L
469 325.212 L
469.702 327.629 L
470.404 329.901 L
471.106 332.004 L
471.808 333.914 L
472.51 335.611 L
473.212 337.072 L
473.914 338.284 L
474.616 339.249 L
475.318 339.994 L
476.02 340.547 L
476.722 340.931 L
477.424 341.155 L
478.126 341.239 L
478.828 341.209 L
479.53 341.082 L
480.232 340.868 L
480.934 340.575 L
481.636 340.219 L
482.338 339.818 L
483.04 339.387 L
483.742 338.932 L
484.444 338.463 L
485.146 337.987 L
485.848 337.5 L
486.55 336.991 L
487.252 336.449 L
487.954 335.86 L
488.656 335.214 L
489.358 334.505 L
490.06 333.722 L
490.762 332.854 L
491.464 331.89 L
492.166 330.826 L
492.868 329.66 L
493.57 328.381 L
494.272 326.982 L
494.974 325.462 L
495.676 323.82 L
496.378 322.051 L
497.08 320.152 L
497.782 318.126 L
498.484 315.974 L
499.186 313.698 L
499.888 311.299 L
500.59 308.783 L
501.292 306.156 L
501.994 303.425 L
502.696 300.593 L
503.398 297.667 L
504.1 294.661 L
504.802 291.586 L
505.504 288.448 L
506.206 285.255 L
506.908 282.02 L
507.61 278.761 L
508.312 275.489 L
509.014 272.208 L
509.716 268.93 L
510.418 265.675 L
511.12 262.455 L
511.822 259.278 L
512.524 256.152 L
513.226 253.093 L
513.928 250.115 L
514.63 247.226 L
515.332 244.434 L
516.034 241.753 L
516.736 239.193 L
517.438 236.765 L
518.14 234.476 L
518.842 232.338 L
519.544 230.367 L
520.246 228.579 L
520.948 226.983 L
521.65 225.588 L
522.352 224.391 L
523.054 223.371 L
523.756 222.508 L
524.458 221.788 L
525.16 221.2 L
525.862 220.725 L
526.564 220.337 L
527.266 220.021 L
527.968 219.771 L
528.67 219.584 L
529.372 219.456 L
530.074 219.385 L
530.776 219.381 L
531.478 219.45 L
532.18 219.59 L
532.882 219.794 L
533.584 220.066 L
534.286 220.415 L
534.988 220.843 L
535.69 221.347 L
536.392 221.927 L
537.094 222.588 L
537.796 223.338 L
538.498 224.183 L
539.2 225.126 L
539.902 226.171 L
540.604 227.329 L
541.306 228.614 L
542.008 230.036 L
542.71 231.605 L
543.412 233.335 L
544.114 235.24 L
544.816 237.326 L
545.518 239.588 L
546.22 242.018 L
546.922 244.606 L
547.624 247.341 L
548.326 250.213 L
549.028 253.209 L
549.73 256.319 L
550.432 259.538 L
551.134 262.861 L
551.836 266.277 L
552.538 269.78 L
553.24 273.364 L
553.942 277.026 L
554.644 280.76 L
555.346 284.556 L
556.048 288.409 L
556.75 292.312 L
557.452 296.262 L
558.154 300.248 L
558.856 304.256 L
559.558 308.28 L
560.26 312.314 L
560.962 316.344 L
561.664 320.353 L
562.366 324.33 L
563.068 328.26 L
563.77 332.126 L
564.472 335.905 L
565.174 339.581 L
565.876 343.135 L
566.578 346.538 L
567.28 349.763 L
567.982 352.788 L
568.684 355.585 L
569.386 358.12 L
570.088 360.379 L
570.79 362.372 L
571.492 364.122 L
572.194 365.655 L
572.896 366.988 L
573.598 368.141 L
574.3 369.137 L
575.002 369.996 L
575.704 370.739 L
576.406 371.386 L
577.108 371.954 L
577.81 372.464 L
578.512 372.939 L
579.214 373.401 L
579.916 373.872 L
580.618 374.376 L
581.32 374.922 L
582.022 375.505 L
582.724 376.104 L
583.426 376.699 L
584.128 377.277 L
584.83 377.82 L
585.532 378.311 L
586.234 378.741 L
586.936 379.104 L
587.638 379.391 L
588.34 379.596 L
589.042 379.72 L
589.744 379.765 L
590.446 379.724 L
591.148 379.595 L
591.85 379.379 L
592.552 379.079 L
593.254 378.694 L
593.956 378.224 L
594.658 377.672 L
595.36 377.038 L
596.062 376.324 L
596.764 375.535 L
597.466 374.675 L
598.168 373.746 L
598.87 372.753 L
599.572 371.702 L
600.274 370.601 L
600.976 369.454 L
601.678 368.271 L
602.38 367.066 L
603.082 365.849 L
603.784 364.631 L
604.486 363.426 L
605.188 362.253 L
605.89 361.13 L
606.592 360.075 L
607.294 359.112 L
607.996 358.256 L
608.698 357.505 L
609.4 356.826 L
610.102 356.162 L
610.804 355.452 L
611.506 354.634 L
612.208 353.655 L
612.91 352.483 L
613.612 351.107 L
614.314 349.533 L
615.016 347.775 L
615.718 345.85 L
616.42 343.768 L
617.122 341.541 L
617.824 339.181 L
618.526 336.702 L
619.228 334.114 L
619.93 331.426 L
620.632 328.651 L
621.334 325.797 L
622.036 322.873 L
622.738 319.89 L
623.44 316.858 L
624.142 313.788 L
624.844 310.686 L
625.546 307.564 L
626.248 304.433 L
626.95 301.305 L
627.652 298.191 L
628.354 295.102 L
629.056 292.055 L
629.758 289.065 L
630.46 286.147 L
631.162 283.315 L
631.864 280.59 L
632.566 277.994 L
633.268 275.539 L
633.97 273.216 L
634.672 271.009 L
635.374 268.906 L
636.076 266.898 L
636.778 264.975 L
637.48 263.132 L
638.182 261.361 L
638.884 259.651 L
639.586 257.975 L
640.288 256.28 L
640.99 254.499 L
641.692 252.572 L
642.394 250.467 L
643.096 248.172 L
643.798 245.684 L
644.5 243.01 L
645.202 240.159 L
645.904 237.141 L
646.606 233.966 L
647.308 230.647 L
648.01 227.206 L
648.712 223.67 L
649.414 220.058 L
650.116 216.398 L
650.818 212.726 L
651.52 209.081 L
652.222 205.506 L
652.924 202.044 L
653.626 198.755 L
654.328 195.702 L
655.03 192.942 L
655.732 190.501 L
656.434 188.368 L
657.136 186.507 L
657.838 184.877 L
658.54 183.442 L
659.242 182.173 L
659.944 181.051 L
660.646 180.063 L
661.348 179.193 L
662.05 178.437 L
662.752 177.799 L
663.454 177.272 L
664.156 176.837 L
664.858 176.467 L
665.56 176.139 L
666.262 175.842 L
666.964 175.563 L
667.666 175.288 L
668.368 175.004 L
669.07 174.707 L
669.772 174.402 L
670.474 174.088 L
671.176 173.764 L
671.878 173.435 L
672.58 173.109 L
673.282 172.796 L
673.984 172.507 L
674.686 172.257 L
675.388 172.063 L
676.09 171.938 L
676.792 171.885 L
677.494 171.896 L
678.196 171.957 L
678.898 172.048 L
679.6 172.149 L
680.302 172.245 L
681.004 172.324 L
681.706 172.373 L
682.408 172.381 L
683.11 172.34 L
683.812 172.243 L
684.514 172.084 L
685.216 171.857 L
685.918 171.557 L
686.62 171.184 L
687.322 170.738 L
688.024 170.22 L
688.726 169.632 L
689.428 168.973 L
690.13 168.251 L
690.832 167.474 L
691.534 166.644 L
692.236 165.746 L
692.938 164.766 L
693.64 163.702 L
694.342 162.549 L
695.044 161.292 L
695.746 159.923 L
696.448 158.444 L
697.15 156.855 L
697.852 155.156 L
698.554 153.351 L
699.256 151.457 L
699.958 149.493 L
700.66 147.481 L
701.362 145.449 L
702.064 143.424 L
702.766 141.43 L
703.468 139.488 L
704.17 137.619 L
704.872 135.844 L
705.574 134.172 L
706.276 132.593 L
706.978 131.08 L
707.68 129.594 L
708.382 128.1 L
709.084 126.575 L
709.786 125.006 L
710.488 123.38 L
711.19 121.688 L
711.892 119.928 L
712.594 118.099 L
713.296 116.205 L
713.998 114.248 L
714.7 112.231 L
715.402 110.163 L
716.104 108.054 L
716.806 105.919 L
717.508 103.776 L
718.21 101.638 L
718.912 99.519 L
719.614 97.443 L
720.316 95.437 L
721.018 93.526 L
721.72 91.732 L
722.422 90.082 L
723.124 88.608 L
723.826 87.347 L
724.528 86.329 L
725.23 85.577 L
725.932 85.107 L
726.634 84.928 L
727.336 85.051 L
728.038 85.483 L
728.74 86.233 L
729.442 87.31 L
730.144 88.723 L
730.846 90.476 L
731.548 92.58 L
732.25 95.037 L
732.952 97.837 L
733.654 100.961 L
734.356 104.385 L
735.058 108.085 L
735.76 112.032 L
736.462 116.189 L
737.164 120.508 L
737.866 124.936 L
738.568 129.428 L
739.27 133.944 L
739.972 138.442 L
740.674 142.872 L
741.376 147.175 L
742.078 151.28 L
742.78 155.095 L
743.482 158.526 L
744.184 161.502 L
744.886 164.008 L
745.588 166.087 L
746.29 167.826 L
746.992 169.331 L
747.694 170.706 L
748.396 172.037 L
749.098 173.376 L
749.8 174.718 L
750.502 176.024 L
751.204 177.252 L
751.906 178.375 L
752.608 179.381 L
753.31 180.268 L
754.012 181.039 L
754.714 181.698 L
755.416 182.244 L
756.118 182.688 L
756.82 183.07 L
757.522 183.447 L
758.224 183.873 L
758.926 184.393 L
759.628 185.056 L
760.33 185.913 L
761.032 187.006 L
761.734 188.373 L
762.436 190.045 L
763.138 192.03 L
763.84 194.318 L
764.542 196.887 L
765.244 199.716 L
765.946 202.793 L
766.648 206.103 L
767.35 209.635 L
768.052 213.38 L
768.754 217.328 L
769.456 221.472 L
770.158 225.812 L
770.86 230.349 L
771.562 235.072 L
772.264 239.96 L
772.966 244.99 L
773.668 250.143 L
774.37 255.392 L
775.072 260.718 L
775.774 266.104 L
776.476 271.538 L
777.178 277.005 L
777.88 282.494 L
778.582 287.995 L
779.284 293.494 L
779.986 298.969 L
780.688 304.394 L
781.39 309.746 L
782.092 315.009 L
782.794 320.175 L
783.496 325.242 L
784.198 330.204 L
784.9 335.054 L
785.602 339.786 L
786.304 344.39 L
787.006 348.854 L
787.708 353.172 L
788.41 357.347 L
789.112 361.392 L
789.814 365.317 L
790.516 369.128 L
791.218 372.83 L
791.92 376.43 L
792.622 379.935 L
793.324 383.349 L
794.026 386.677 L
794.728 389.921 L
795.43 393.085 L
796.132 396.173 L
796.834 399.194 L
797.536 402.157 L
798.238 405.072 L
798.94 407.947 L
799.642 410.794 L
800.344 413.63 L
801.046 416.479 L
801.748 419.363 L
802.45 422.304 L
803.152 425.329 L
803.854 428.472 L
804.556 431.772 L
805.258 435.268 L
805.96 439.002 L
806.662 443.018 L
807.364 447.367 L
808.066 452.101 L
808.768 457.276 L
809.47 462.944 L
810.172 469.162 L
810.874 475.984 L
811.576 483.461 L
812.278 491.618 L
812.98 500.444 L
813.682 509.881 L
814.384 519.835 L
815.086 530.176 L
815.788 540.752 L
816.49 551.391 L
817.192 561.906 L
817.894 572.095 L
818.596 581.742 L
819.298 590.602 L
820 598.397 L
S
GR
%%Trailer
%%Pages: 1
%%EOF
