%!PS-Adobe-3.0 EPSF-3.0
%%Creator: (MATLAB, The Mathworks, Inc. Version 9.1.0.441655 \(R2016b\). Operating System: Windows 8)
%%Title: C:/Users/Eigenaar/WIT/SI/system-identification/Oefenzitting_3/plots/zeroinputsystem.eps
%%CreationDate: 2016-12-19T11:47:58
%%Pages: (atend)
%%BoundingBox: 0 0 779 524
%%LanguageLevel: 3
%%EndComments
%%BeginProlog
%%BeginResource: procset (Apache XML Graphics Std ProcSet) 1.2 0
%%Version: 1.2 0
%%Copyright: (Copyright 2001-2003,2010 The Apache Software Foundation. License terms: http://www.apache.org/licenses/LICENSE-2.0)
/bd{bind def}bind def
/ld{load def}bd
/GR/grestore ld
/M/moveto ld
/LJ/setlinejoin ld
/C/curveto ld
/f/fill ld
/LW/setlinewidth ld
/GC/setgray ld
/t/show ld
/N/newpath ld
/CT/concat ld
/cp/closepath ld
/S/stroke ld
/L/lineto ld
/CC/setcmykcolor ld
/A/ashow ld
/GS/gsave ld
/RC/setrgbcolor ld
/RM/rmoveto ld
/ML/setmiterlimit ld
/re {4 2 roll M
1 index 0 rlineto
0 exch rlineto
neg 0 rlineto
cp } bd
/_ctm matrix def
/_tm matrix def
/BT { _ctm currentmatrix pop matrix _tm copy pop 0 0 moveto } bd
/ET { _ctm setmatrix } bd
/iTm { _ctm setmatrix _tm concat } bd
/Tm { _tm astore pop iTm 0 0 moveto } bd
/ux 0.0 def
/uy 0.0 def
/F {
  /Tp exch def
  /Tf exch def
  Tf findfont Tp scalefont setfont
  /cf Tf def  /cs Tp def
} bd
/ULS {currentpoint /uy exch def /ux exch def} bd
/ULE {
  /Tcx currentpoint pop def
  gsave
  newpath
  cf findfont cs scalefont dup
  /FontMatrix get 0 get /Ts exch def /FontInfo get dup
  /UnderlinePosition get Ts mul /To exch def
  /UnderlineThickness get Ts mul /Tt exch def
  ux uy To add moveto  Tcx uy To add lineto
  Tt setlinewidth stroke
  grestore
} bd
/OLE {
  /Tcx currentpoint pop def
  gsave
  newpath
  cf findfont cs scalefont dup
  /FontMatrix get 0 get /Ts exch def /FontInfo get dup
  /UnderlinePosition get Ts mul /To exch def
  /UnderlineThickness get Ts mul /Tt exch def
  ux uy To add cs add moveto Tcx uy To add cs add lineto
  Tt setlinewidth stroke
  grestore
} bd
/SOE {
  /Tcx currentpoint pop def
  gsave
  newpath
  cf findfont cs scalefont dup
  /FontMatrix get 0 get /Ts exch def /FontInfo get dup
  /UnderlinePosition get Ts mul /To exch def
  /UnderlineThickness get Ts mul /Tt exch def
  ux uy To add cs 10 mul 26 idiv add moveto Tcx uy To add cs 10 mul 26 idiv add lineto
  Tt setlinewidth stroke
  grestore
} bd
/QT {
/Y22 exch store
/X22 exch store
/Y21 exch store
/X21 exch store
currentpoint
/Y21 load 2 mul add 3 div exch
/X21 load 2 mul add 3 div exch
/X21 load 2 mul /X22 load add 3 div
/Y21 load 2 mul /Y22 load add 3 div
/X22 load /Y22 load curveto
} bd
/SSPD {
dup length /d exch dict def
{
/v exch def
/k exch def
currentpagedevice k known {
/cpdv currentpagedevice k get def
v cpdv ne {
/upd false def
/nullv v type /nulltype eq def
/nullcpdv cpdv type /nulltype eq def
nullv nullcpdv or
{
/upd true def
} {
/sametype v type cpdv type eq def
sametype {
v type /arraytype eq {
/vlen v length def
/cpdvlen cpdv length def
vlen cpdvlen eq {
0 1 vlen 1 sub {
/i exch def
/obj v i get def
/cpdobj cpdv i get def
obj cpdobj ne {
/upd true def
exit
} if
} for
} {
/upd true def
} ifelse
} {
v type /dicttype eq {
v {
/dv exch def
/dk exch def
/cpddv cpdv dk get def
dv cpddv ne {
/upd true def
exit
} if
} forall
} {
/upd true def
} ifelse
} ifelse
} if
} ifelse
upd true eq {
d k v put
} if
} if
} if
} forall
d length 0 gt {
d setpagedevice
} if
} bd
/RE { % /NewFontName [NewEncodingArray] /FontName RE -
  findfont dup length dict begin
  {
    1 index /FID ne
    {def} {pop pop} ifelse
  } forall
  /Encoding exch def
  /FontName 1 index def
  currentdict definefont pop
  end
} bind def
%%EndResource
%%BeginResource: procset (Apache XML Graphics EPS ProcSet) 1.0 0
%%Version: 1.0 0
%%Copyright: (Copyright 2002-2003 The Apache Software Foundation. License terms: http://www.apache.org/licenses/LICENSE-2.0)
/BeginEPSF { %def
/b4_Inc_state save def         % Save state for cleanup
/dict_count countdictstack def % Count objects on dict stack
/op_count count 1 sub def      % Count objects on operand stack
userdict begin                 % Push userdict on dict stack
/showpage { } def              % Redefine showpage, { } = null proc
0 setgray 0 setlinecap         % Prepare graphics state
1 setlinewidth 0 setlinejoin
10 setmiterlimit [ ] 0 setdash newpath
/languagelevel where           % If level not equal to 1 then
{pop languagelevel             % set strokeadjust and
1 ne                           % overprint to their defaults.
{false setstrokeadjust false setoverprint
} if
} if
} bd
/EndEPSF { %def
count op_count sub {pop} repeat            % Clean up stacks
countdictstack dict_count sub {end} repeat
b4_Inc_state restore
} bd
%%EndResource
%FOPBeginFontDict
%%IncludeResource: font Courier-Bold
%%IncludeResource: font Helvetica
%%IncludeResource: font Courier-BoldOblique
%%IncludeResource: font Courier-Oblique
%%IncludeResource: font Times-Roman
%%IncludeResource: font Helvetica-BoldOblique
%%IncludeResource: font Helvetica-Bold
%%IncludeResource: font Helvetica-Oblique
%%IncludeResource: font Times-BoldItalic
%%IncludeResource: font Courier
%%IncludeResource: font Times-Italic
%%IncludeResource: font Times-Bold
%%IncludeResource: font Symbol
%%IncludeResource: font ZapfDingbats
%FOPEndFontDict
%%BeginResource: encoding WinAnsiEncoding
/WinAnsiEncoding [
/.notdef /.notdef /.notdef /.notdef /.notdef
/.notdef /.notdef /.notdef /.notdef /.notdef
/.notdef /.notdef /.notdef /.notdef /.notdef
/.notdef /.notdef /.notdef /.notdef /.notdef
/.notdef /.notdef /.notdef /.notdef /.notdef
/.notdef /.notdef /.notdef /.notdef /.notdef
/.notdef /.notdef /space /exclam /quotedbl
/numbersign /dollar /percent /ampersand /quotesingle
/parenleft /parenright /asterisk /plus /comma
/hyphen /period /slash /zero /one
/two /three /four /five /six
/seven /eight /nine /colon /semicolon
/less /equal /greater /question /at
/A /B /C /D /E
/F /G /H /I /J
/K /L /M /N /O
/P /Q /R /S /T
/U /V /W /X /Y
/Z /bracketleft /backslash /bracketright /asciicircum
/underscore /quoteleft /a /b /c
/d /e /f /g /h
/i /j /k /l /m
/n /o /p /q /r
/s /t /u /v /w
/x /y /z /braceleft /bar
/braceright /asciitilde /bullet /Euro /bullet
/quotesinglbase /florin /quotedblbase /ellipsis /dagger
/daggerdbl /circumflex /perthousand /Scaron /guilsinglleft
/OE /bullet /Zcaron /bullet /bullet
/quoteleft /quoteright /quotedblleft /quotedblright /bullet
/endash /emdash /asciitilde /trademark /scaron
/guilsinglright /oe /bullet /zcaron /Ydieresis
/space /exclamdown /cent /sterling /currency
/yen /brokenbar /section /dieresis /copyright
/ordfeminine /guillemotleft /logicalnot /sfthyphen /registered
/macron /degree /plusminus /twosuperior /threesuperior
/acute /mu /paragraph /middot /cedilla
/onesuperior /ordmasculine /guillemotright /onequarter /onehalf
/threequarters /questiondown /Agrave /Aacute /Acircumflex
/Atilde /Adieresis /Aring /AE /Ccedilla
/Egrave /Eacute /Ecircumflex /Edieresis /Igrave
/Iacute /Icircumflex /Idieresis /Eth /Ntilde
/Ograve /Oacute /Ocircumflex /Otilde /Odieresis
/multiply /Oslash /Ugrave /Uacute /Ucircumflex
/Udieresis /Yacute /Thorn /germandbls /agrave
/aacute /acircumflex /atilde /adieresis /aring
/ae /ccedilla /egrave /eacute /ecircumflex
/edieresis /igrave /iacute /icircumflex /idieresis
/eth /ntilde /ograve /oacute /ocircumflex
/otilde /odieresis /divide /oslash /ugrave
/uacute /ucircumflex /udieresis /yacute /thorn
/ydieresis
] def
%%EndResource
%FOPBeginFontReencode
/Courier-Bold findfont
dup length dict begin
  {1 index /FID ne {def} {pop pop} ifelse} forall
  /Encoding WinAnsiEncoding def
  currentdict
end
/Courier-Bold exch definefont pop
/Helvetica findfont
dup length dict begin
  {1 index /FID ne {def} {pop pop} ifelse} forall
  /Encoding WinAnsiEncoding def
  currentdict
end
/Helvetica exch definefont pop
/Courier-BoldOblique findfont
dup length dict begin
  {1 index /FID ne {def} {pop pop} ifelse} forall
  /Encoding WinAnsiEncoding def
  currentdict
end
/Courier-BoldOblique exch definefont pop
/Courier-Oblique findfont
dup length dict begin
  {1 index /FID ne {def} {pop pop} ifelse} forall
  /Encoding WinAnsiEncoding def
  currentdict
end
/Courier-Oblique exch definefont pop
/Times-Roman findfont
dup length dict begin
  {1 index /FID ne {def} {pop pop} ifelse} forall
  /Encoding WinAnsiEncoding def
  currentdict
end
/Times-Roman exch definefont pop
/Helvetica-BoldOblique findfont
dup length dict begin
  {1 index /FID ne {def} {pop pop} ifelse} forall
  /Encoding WinAnsiEncoding def
  currentdict
end
/Helvetica-BoldOblique exch definefont pop
/Helvetica-Bold findfont
dup length dict begin
  {1 index /FID ne {def} {pop pop} ifelse} forall
  /Encoding WinAnsiEncoding def
  currentdict
end
/Helvetica-Bold exch definefont pop
/Helvetica-Oblique findfont
dup length dict begin
  {1 index /FID ne {def} {pop pop} ifelse} forall
  /Encoding WinAnsiEncoding def
  currentdict
end
/Helvetica-Oblique exch definefont pop
/Times-BoldItalic findfont
dup length dict begin
  {1 index /FID ne {def} {pop pop} ifelse} forall
  /Encoding WinAnsiEncoding def
  currentdict
end
/Times-BoldItalic exch definefont pop
/Courier findfont
dup length dict begin
  {1 index /FID ne {def} {pop pop} ifelse} forall
  /Encoding WinAnsiEncoding def
  currentdict
end
/Courier exch definefont pop
/Times-Italic findfont
dup length dict begin
  {1 index /FID ne {def} {pop pop} ifelse} forall
  /Encoding WinAnsiEncoding def
  currentdict
end
/Times-Italic exch definefont pop
/Times-Bold findfont
dup length dict begin
  {1 index /FID ne {def} {pop pop} ifelse} forall
  /Encoding WinAnsiEncoding def
  currentdict
end
/Times-Bold exch definefont pop
%FOPEndFontReencode
%%EndProlog
%%Page: 1 1
%%PageBoundingBox: 0 0 779 524
%%BeginPageSetup
[1 0 0 -1 0 524] CT
%%EndPageSetup
GS
[0.75 0 0 0.75 0 -0.25] CT
1 GC
N
0 0 1039 699 re
f
GR
GS
[0.75 0 0 0.75 0 -0.25] CT
1 GC
N
0 0 1039 699 re
f
GR
GS
[0.75 0 0 0.75 0 -0.25] CT
1 GC
N
135 622 M
940 622 L
940 52 L
135 52 L
cp
f
GR
GS
[0.75 0 0 0.75 0 -0.25] CT
0.149 GC
2 setlinecap
1 LJ
0.667 LW
N
135 622 M
940 622 L
S
GR
GS
[0.75 0 0 0.75 0 -0.25] CT
0.149 GC
2 setlinecap
1 LJ
0.667 LW
N
135 52 M
940 52 L
S
GR
GS
[0.75 0 0 0.75 0 -0.25] CT
0.149 GC
2 setlinecap
1 LJ
0.667 LW
N
135 622 M
135 613.95 L
S
GR
GS
[0.75 0 0 0.75 0 -0.25] CT
0.149 GC
2 setlinecap
1 LJ
0.667 LW
N
215.5 622 M
215.5 613.95 L
S
GR
GS
[0.75 0 0 0.75 0 -0.25] CT
0.149 GC
2 setlinecap
1 LJ
0.667 LW
N
296 622 M
296 613.95 L
S
GR
GS
[0.75 0 0 0.75 0 -0.25] CT
0.149 GC
2 setlinecap
1 LJ
0.667 LW
N
376.5 622 M
376.5 613.95 L
S
GR
GS
[0.75 0 0 0.75 0 -0.25] CT
0.149 GC
2 setlinecap
1 LJ
0.667 LW
N
457 622 M
457 613.95 L
S
GR
GS
[0.75 0 0 0.75 0 -0.25] CT
0.149 GC
2 setlinecap
1 LJ
0.667 LW
N
537.5 622 M
537.5 613.95 L
S
GR
GS
[0.75 0 0 0.75 0 -0.25] CT
0.149 GC
2 setlinecap
1 LJ
0.667 LW
N
618 622 M
618 613.95 L
S
GR
GS
[0.75 0 0 0.75 0 -0.25] CT
0.149 GC
2 setlinecap
1 LJ
0.667 LW
N
698.5 622 M
698.5 613.95 L
S
GR
GS
[0.75 0 0 0.75 0 -0.25] CT
0.149 GC
2 setlinecap
1 LJ
0.667 LW
N
779 622 M
779 613.95 L
S
GR
GS
[0.75 0 0 0.75 0 -0.25] CT
0.149 GC
2 setlinecap
1 LJ
0.667 LW
N
859.5 622 M
859.5 613.95 L
S
GR
GS
[0.75 0 0 0.75 0 -0.25] CT
0.149 GC
2 setlinecap
1 LJ
0.667 LW
N
940 622 M
940 613.95 L
S
GR
GS
[0.75 0 0 0.75 0 -0.25] CT
0.149 GC
2 setlinecap
1 LJ
0.667 LW
N
135 52 M
135 60.05 L
S
GR
GS
[0.75 0 0 0.75 0 -0.25] CT
0.149 GC
2 setlinecap
1 LJ
0.667 LW
N
215.5 52 M
215.5 60.05 L
S
GR
GS
[0.75 0 0 0.75 0 -0.25] CT
0.149 GC
2 setlinecap
1 LJ
0.667 LW
N
296 52 M
296 60.05 L
S
GR
GS
[0.75 0 0 0.75 0 -0.25] CT
0.149 GC
2 setlinecap
1 LJ
0.667 LW
N
376.5 52 M
376.5 60.05 L
S
GR
GS
[0.75 0 0 0.75 0 -0.25] CT
0.149 GC
2 setlinecap
1 LJ
0.667 LW
N
457 52 M
457 60.05 L
S
GR
GS
[0.75 0 0 0.75 0 -0.25] CT
0.149 GC
2 setlinecap
1 LJ
0.667 LW
N
537.5 52 M
537.5 60.05 L
S
GR
GS
[0.75 0 0 0.75 0 -0.25] CT
0.149 GC
2 setlinecap
1 LJ
0.667 LW
N
618 52 M
618 60.05 L
S
GR
GS
[0.75 0 0 0.75 0 -0.25] CT
0.149 GC
2 setlinecap
1 LJ
0.667 LW
N
698.5 52 M
698.5 60.05 L
S
GR
GS
[0.75 0 0 0.75 0 -0.25] CT
0.149 GC
2 setlinecap
1 LJ
0.667 LW
N
779 52 M
779 60.05 L
S
GR
GS
[0.75 0 0 0.75 0 -0.25] CT
0.149 GC
2 setlinecap
1 LJ
0.667 LW
N
859.5 52 M
859.5 60.05 L
S
GR
GS
[0.75 0 0 0.75 0 -0.25] CT
0.149 GC
2 setlinecap
1 LJ
0.667 LW
N
940 52 M
940 60.05 L
S
GR
GS
[0.75 0 0 0.75 101.25 470.24998] CT
0.149 GC
/Helvetica 13.333 F
GS
[1 0 0 1 0 0] CT
-4 14 moveto 
1 -1 scale
(0) t 
GR
GR
GS
[0.75 0 0 0.75 161.625 470.24998] CT
0.149 GC
/Helvetica 13.333 F
GS
[1 0 0 1 0 0] CT
-11 14 moveto 
1 -1 scale
(100) t 
GR
GR
GS
[0.75 0 0 0.75 222 470.24998] CT
0.149 GC
/Helvetica 13.333 F
GS
[1 0 0 1 0 0] CT
-11 14 moveto 
1 -1 scale
(200) t 
GR
GR
GS
[0.75 0 0 0.75 282.375 470.24998] CT
0.149 GC
/Helvetica 13.333 F
GS
[1 0 0 1 0 0] CT
-11 14 moveto 
1 -1 scale
(300) t 
GR
GR
GS
[0.75 0 0 0.75 342.75 470.24998] CT
0.149 GC
/Helvetica 13.333 F
GS
[1 0 0 1 0 0] CT
-11 14 moveto 
1 -1 scale
(400) t 
GR
GR
GS
[0.75 0 0 0.75 403.125 470.24998] CT
0.149 GC
/Helvetica 13.333 F
GS
[1 0 0 1 0 0] CT
-11 14 moveto 
1 -1 scale
(500) t 
GR
GR
GS
[0.75 0 0 0.75 463.5 470.24998] CT
0.149 GC
/Helvetica 13.333 F
GS
[1 0 0 1 0 0] CT
-11 14 moveto 
1 -1 scale
(600) t 
GR
GR
GS
[0.75 0 0 0.75 523.875 470.24998] CT
0.149 GC
/Helvetica 13.333 F
GS
[1 0 0 1 0 0] CT
-11 14 moveto 
1 -1 scale
(700) t 
GR
GR
GS
[0.75 0 0 0.75 584.25 470.24998] CT
0.149 GC
/Helvetica 13.333 F
GS
[1 0 0 1 0 0] CT
-11 14 moveto 
1 -1 scale
(800) t 
GR
GR
GS
[0.75 0 0 0.75 644.625 470.24998] CT
0.149 GC
/Helvetica 13.333 F
GS
[1 0 0 1 0 0] CT
-11 14 moveto 
1 -1 scale
(900) t 
GR
GR
GS
[0.75 0 0 0.75 705 470.24998] CT
0.149 GC
/Helvetica 13.333 F
GS
[1 0 0 1 0 0] CT
-14.5 14 moveto 
1 -1 scale
(1000) t 
GR
GR
GS
[0.75 0 0 0.75 403.12527 483.99997] CT
0.149 GC
/Helvetica 14.667 F
GS
[1 0 0 1 0 0] CT
-17 16 moveto 
1 -1 scale
(Time) t 
GR
GR
GS
[0.75 0 0 0.75 0 -0.25] CT
0.149 GC
2 setlinecap
1 LJ
0.667 LW
N
135 622 M
135 52 L
S
GR
GS
[0.75 0 0 0.75 0 -0.25] CT
0.149 GC
2 setlinecap
1 LJ
0.667 LW
N
940 622 M
940 52 L
S
GR
GS
[0.75 0 0 0.75 0 -0.25] CT
0.149 GC
2 setlinecap
1 LJ
0.667 LW
N
135 622 M
143.05 622 L
S
GR
GS
[0.75 0 0 0.75 0 -0.25] CT
0.149 GC
2 setlinecap
1 LJ
0.667 LW
N
135 527 M
143.05 527 L
S
GR
GS
[0.75 0 0 0.75 0 -0.25] CT
0.149 GC
2 setlinecap
1 LJ
0.667 LW
N
135 432 M
143.05 432 L
S
GR
GS
[0.75 0 0 0.75 0 -0.25] CT
0.149 GC
2 setlinecap
1 LJ
0.667 LW
N
135 337 M
143.05 337 L
S
GR
GS
[0.75 0 0 0.75 0 -0.25] CT
0.149 GC
2 setlinecap
1 LJ
0.667 LW
N
135 242 M
143.05 242 L
S
GR
GS
[0.75 0 0 0.75 0 -0.25] CT
0.149 GC
2 setlinecap
1 LJ
0.667 LW
N
135 147 M
143.05 147 L
S
GR
GS
[0.75 0 0 0.75 0 -0.25] CT
0.149 GC
2 setlinecap
1 LJ
0.667 LW
N
135 52 M
143.05 52 L
S
GR
GS
[0.75 0 0 0.75 0 -0.25] CT
0.149 GC
2 setlinecap
1 LJ
0.667 LW
N
940 622 M
931.95 622 L
S
GR
GS
[0.75 0 0 0.75 0 -0.25] CT
0.149 GC
2 setlinecap
1 LJ
0.667 LW
N
940 527 M
931.95 527 L
S
GR
GS
[0.75 0 0 0.75 0 -0.25] CT
0.149 GC
2 setlinecap
1 LJ
0.667 LW
N
940 432 M
931.95 432 L
S
GR
GS
[0.75 0 0 0.75 0 -0.25] CT
0.149 GC
2 setlinecap
1 LJ
0.667 LW
N
940 337 M
931.95 337 L
S
GR
GS
[0.75 0 0 0.75 0 -0.25] CT
0.149 GC
2 setlinecap
1 LJ
0.667 LW
N
940 242 M
931.95 242 L
S
GR
GS
[0.75 0 0 0.75 0 -0.25] CT
0.149 GC
2 setlinecap
1 LJ
0.667 LW
N
940 147 M
931.95 147 L
S
GR
GS
[0.75 0 0 0.75 0 -0.25] CT
0.149 GC
2 setlinecap
1 LJ
0.667 LW
N
940 52 M
931.95 52 L
S
GR
GS
[0.75 0 0 0.75 97.25 466.25] CT
0.149 GC
/Helvetica 13.333 F
GS
[1 0 0 1 0 0] CT
-12 5.5 moveto 
1 -1 scale
(-2) t 
GR
GR
GS
[0.75 0 0 0.75 97.25 395] CT
0.149 GC
/Helvetica 13.333 F
GS
[1 0 0 1 0 0] CT
-23 5.5 moveto 
1 -1 scale
(-1.5) t 
GR
GR
GS
[0.75 0 0 0.75 97.25 323.75] CT
0.149 GC
/Helvetica 13.333 F
GS
[1 0 0 1 0 0] CT
-12 5.5 moveto 
1 -1 scale
(-1) t 
GR
GR
GS
[0.75 0 0 0.75 97.25 252.5] CT
0.149 GC
/Helvetica 13.333 F
GS
[1 0 0 1 0 0] CT
-23 5.5 moveto 
1 -1 scale
(-0.5) t 
GR
GR
GS
[0.75 0 0 0.75 97.25 181.25] CT
0.149 GC
/Helvetica 13.333 F
GS
[1 0 0 1 0 0] CT
-8 5.5 moveto 
1 -1 scale
(0) t 
GR
GR
GS
[0.75 0 0 0.75 97.25 110] CT
0.149 GC
/Helvetica 13.333 F
GS
[1 0 0 1 0 0] CT
-19 5.5 moveto 
1 -1 scale
(0.5) t 
GR
GR
GS
[0.75 0 0 0.75 97.25 38.75] CT
0.149 GC
/Helvetica 13.333 F
GS
[1 0 0 1 0 0] CT
-8 5.5 moveto 
1 -1 scale
(1) t 
GR
GR
GS
[0 -0.75 0.75 0 77 252.49979] CT
0.149 GC
/Helvetica 14.667 F
GS
[1 0 0 1 0 0] CT
-25.5 -4 moveto 
1 -1 scale
(System) t 
GR
GR
GS
[0.75 0 0 0.75 403.12537 36.6875] CT
/Helvetica-Bold 14.667 F
GS
[1 0 0 1 0 0] CT
-125.5 -4 moveto 
1 -1 scale
(Signal without low frequency noise) t 
GR
GR
GS
[0.75 0 0 0.75 0 -0.25] CT
0 0.447 0.741 RC
1 LJ
0.667 LW
N
135.805 264.597 M
136.61 273.953 L
137.415 259.639 L
138.22 222.916 L
139.025 326.473 L
139.83 179.418 L
140.635 337.09 L
141.44 161.216 L
142.245 319.617 L
143.05 192.745 L
143.855 277.02 L
144.66 294.606 L
145.465 154.916 L
146.27 162.243 L
147.075 241.501 L
147.88 252.961 L
148.685 258.075 L
149.49 275.711 L
150.295 248.464 L
151.1 202.692 L
151.905 322.461 L
152.71 226.921 L
153.515 220.112 L
154.32 251.115 L
155.125 207.679 L
155.93 302.951 L
156.735 271.297 L
157.54 222.898 L
158.345 141.12 L
159.15 338.368 L
159.955 374.13 L
160.76 112.495 L
161.565 147.336 L
162.37 258.608 L
163.175 270.701 L
163.98 173.732 L
164.785 219.557 L
165.59 332.557 L
166.395 218.046 L
167.2 298.45 L
168.005 166.833 L
168.81 349.456 L
169.615 235.962 L
170.42 156.843 L
171.225 164.553 L
172.03 205.999 L
172.835 247.915 L
173.64 267.058 L
174.445 269.22 L
175.25 285.376 L
176.055 197.956 L
176.86 262.365 L
177.665 313.531 L
178.47 199.279 L
179.275 262.499 L
180.08 279.154 L
180.885 206.853 L
181.69 304.718 L
182.495 277.052 L
183.3 137.595 L
184.105 167.18 L
184.91 248.332 L
185.715 238.741 L
186.52 265.974 L
187.325 230.952 L
188.13 215.711 L
188.935 280.972 L
189.74 312.242 L
190.545 196.902 L
191.35 169.747 L
192.155 354.576 L
192.96 202.976 L
193.765 253.439 L
194.57 238.515 L
195.375 242.45 L
196.18 247.057 L
196.985 245.775 L
197.79 267.014 L
198.595 187.879 L
199.4 244.911 L
200.205 336.196 L
201.01 122.529 L
201.815 302.651 L
202.62 260.611 L
203.425 199.919 L
204.23 219.372 L
205.035 285.25 L
205.84 292.443 L
206.645 133.918 L
207.45 291.471 L
208.255 226.783 L
209.06 256.637 L
209.865 259.458 L
210.67 203.374 L
211.475 270.805 L
212.28 168.856 L
213.085 355.442 L
213.89 184.028 L
214.695 232.63 L
215.5 232.315 L
216.305 266.325 L
217.11 261.441 L
217.915 199.228 L
218.72 257.912 L
219.525 252.732 L
220.33 216.726 L
221.135 291.912 L
221.94 199.915 L
222.745 259.406 L
223.55 224.613 L
224.355 271.271 L
225.16 234.536 L
225.965 253.826 L
226.77 218.807 L
227.575 263.654 L
228.38 253.775 L
229.185 231.206 L
229.99 253.219 L
230.795 237.534 L
231.6 276.165 L
232.405 200.97 L
233.21 273.528 L
234.015 235.39 L
234.82 192.31 L
235.625 198.688 L
236.43 258.403 L
237.235 291.748 L
238.04 151.816 L
238.845 336.81 L
239.65 232.666 L
240.455 197.014 L
241.26 252.619 L
242.065 319.103 L
242.87 160.931 L
243.675 294.817 L
244.48 193.435 L
245.285 293.818 L
246.09 245.783 L
246.895 191.053 L
247.7 222.362 L
248.505 293.026 L
249.31 233.123 L
250.115 241.635 L
250.92 184.547 L
251.725 319.735 L
252.53 240.472 L
253.335 214.108 L
254.14 215.033 L
254.945 268.668 L
255.75 258.115 L
256.555 198.512 L
257.36 186.467 L
258.165 310.36 L
258.97 265.389 L
259.775 170.204 L
260.58 288.764 L
261.385 212.099 L
262.19 285.738 L
262.995 266.065 L
263.8 118.836 L
264.605 353.573 L
265.41 224.25 L
266.215 278.552 L
267.02 135.57 L
267.825 371.334 L
268.63 184.505 L
269.435 250.001 L
270.24 278.226 L
271.045 229.33 L
271.85 278.883 L
272.655 228.332 L
273.46 342.089 L
274.265 391.531 L
275.07 187.867 L
275.875 161.442 L
276.68 139.86 L
277.485 158.303 L
278.29 284.163 L
279.095 305.189 L
279.9 154.365 L
280.705 109.7 L
281.51 191.653 L
282.315 288.275 L
283.12 248.682 L
283.925 262.716 L
284.73 233.018 L
285.535 317.048 L
286.34 195.1 L
287.145 293.062 L
287.95 233.615 L
288.755 259.242 L
289.56 223.821 L
290.365 318.652 L
291.17 189.769 L
291.975 272.938 L
292.78 225.321 L
293.585 276.311 L
294.39 231.085 L
295.195 232.681 L
296 326.822 L
296.805 132.769 L
297.61 289.3 L
298.415 239.521 L
299.22 339.03 L
300.025 127.515 L
300.83 274.543 L
301.635 241.229 L
302.44 315.504 L
303.245 182.253 L
304.05 275.939 L
304.855 230.266 L
305.66 246.16 L
306.465 280.949 L
307.27 218.454 L
308.075 306.975 L
308.88 169.269 L
309.685 322.696 L
310.49 147.298 L
311.295 115.077 L
312.1 197.649 L
312.905 209.552 L
313.71 250.989 L
314.515 295.751 L
315.32 235.584 L
316.125 210.628 L
316.93 293.201 L
317.735 199.962 L
318.54 236.33 L
319.345 229.338 L
320.15 201.356 L
320.955 222.009 L
321.76 230.881 L
322.565 334.801 L
323.37 378.853 L
324.175 322.978 L
324.98 219.284 L
325.785 215.27 L
326.59 252.063 L
327.395 239.301 L
328.2 226.331 L
329.005 193.077 L
329.81 316.932 L
330.615 193.063 L
331.42 224.962 L
332.225 235.118 L
333.03 213.353 L
333.835 341.835 L
334.64 149.995 L
335.445 189.562 L
336.25 297.534 L
337.055 279.418 L
337.86 163.897 L
338.665 253.049 L
339.47 245.907 L
340.275 214.345 L
341.08 219.002 L
341.885 303.86 L
342.69 205.08 L
343.495 150.798 L
344.3 315.495 L
345.105 287.249 L
345.91 283.922 L
346.715 322.761 L
347.52 282.391 L
348.325 138.12 L
349.13 294.97 L
349.935 192.683 L
350.74 266.761 L
351.545 315.886 L
352.35 133.371 L
353.155 237.5 L
353.96 308.849 L
354.765 237.28 L
355.57 153.955 L
356.375 255.923 L
357.18 327.626 L
357.985 158.891 L
358.79 239.684 L
359.595 272.013 L
360.4 229.322 L
361.205 209.129 L
362.01 297.382 L
362.815 212.776 L
363.62 208.337 L
364.425 269.185 L
365.23 260.569 L
366.035 225.795 L
366.84 217.764 L
367.645 274.583 L
368.45 185.261 L
369.255 318.337 L
370.06 208.203 L
370.865 220.277 L
371.67 214.642 L
372.475 323.934 L
373.28 221.443 L
374.085 188.211 L
374.89 253.215 L
375.695 265.269 L
376.5 234.809 L
377.305 253.837 L
378.11 260.741 L
378.915 135.436 L
379.72 328.551 L
380.525 261.815 L
381.33 201.059 L
382.135 268.336 L
382.94 200.585 L
383.745 258.435 L
384.55 288.765 L
385.355 203.16 L
386.16 262.854 L
386.965 244.706 L
387.77 221.49 L
388.575 266.537 L
389.38 274.873 L
390.185 216.791 L
390.99 261.423 L
391.795 226.483 L
392.6 282.546 L
393.405 305.131 L
394.21 259.245 L
395.015 176.386 L
395.82 130.563 L
396.625 178.316 L
397.43 268.581 L
398.235 194.195 L
399.04 317.1 L
399.845 238.163 L
400.65 162.364 L
401.455 300.762 L
402.26 236.65 L
403.065 237.865 L
403.87 274.754 L
404.675 220.774 L
405.48 259.57 L
406.285 262.677 L
407.09 155.687 L
407.895 341.991 L
408.7 254.945 L
409.505 173.871 L
410.31 214.589 L
411.115 343.681 L
411.92 177.725 L
412.725 264.196 L
413.53 288.186 L
414.335 245.804 L
415.14 255.207 L
415.945 261.104 L
416.75 208.416 L
417.555 205.891 L
418.36 258.672 L
419.165 302.993 L
419.97 243.465 L
420.775 122.306 L
421.58 256.293 L
422.385 367.99 L
423.19 202.85 L
423.995 151.653 L
424.8 242.216 L
425.605 360.555 L
426.41 169.808 L
427.215 237.539 L
428.02 206.665 L
428.825 289.72 L
429.63 285.667 L
430.435 147.627 L
431.24 288.198 L
432.045 218.223 L
432.85 288.118 L
433.655 221.201 L
434.46 214.645 L
435.265 249.577 L
436.07 311.856 L
436.875 148.499 L
437.68 271.41 L
438.485 287.283 L
439.29 186.084 L
440.095 269.295 L
440.9 247.124 L
441.705 229.721 L
442.51 254.122 L
443.315 215.605 L
444.12 259.473 L
444.925 265.773 L
445.73 202.449 L
446.535 272.049 L
447.34 222.541 L
448.145 195.752 L
448.95 331.79 L
449.755 200.092 L
450.56 206.15 L
451.365 240.096 L
452.17 304.241 L
452.975 188.659 L
453.78 192.34 L
454.585 275.623 L
455.39 293.239 L
456.195 149.175 L
457 254.394 L
457.805 193.06 L
458.61 347.661 L
459.415 113.222 L
460.22 276.901 L
461.025 206.994 L
461.83 312.543 L
462.635 376.969 L
463.44 340.421 L
464.245 253.555 L
465.05 168.843 L
465.855 199.577 L
466.66 285.123 L
467.465 246.064 L
468.27 220.802 L
469.075 200.097 L
469.88 216.328 L
470.685 312.805 L
471.49 198.901 L
472.295 198.945 L
473.1 315.71 L
473.905 161.963 L
474.71 246.563 L
475.515 294.06 L
476.32 200.389 L
477.125 230.851 L
477.93 260.459 L
478.735 198.222 L
479.54 298.443 L
480.345 188.115 L
481.15 280.947 L
481.955 274.974 L
482.76 128.55 L
483.565 324.747 L
484.37 279.987 L
485.175 201.235 L
485.98 196.387 L
486.785 261.577 L
487.59 310.32 L
488.395 182.497 L
489.2 279.511 L
490.005 191.555 L
490.81 294.023 L
491.615 216.488 L
492.42 269.306 L
493.225 266.328 L
494.03 134.207 L
494.835 334.933 L
495.64 252.317 L
496.445 125.447 L
497.25 272.595 L
498.055 276.555 L
498.86 250.647 L
499.665 233.359 L
500.47 200.307 L
501.275 249.699 L
502.08 314.764 L
502.885 195.071 L
503.69 213.616 L
504.495 274.44 L
505.3 249.584 L
506.105 200.801 L
506.91 312.095 L
507.715 185.209 L
508.52 222.775 L
509.325 311.165 L
510.13 227.536 L
510.935 186.319 L
511.74 273.675 L
512.545 253.908 L
513.35 247.777 L
514.155 245.566 L
514.96 214.241 L
515.765 222.402 L
516.57 271.08 L
517.375 249.727 L
518.18 208.91 L
518.985 248.615 L
519.79 375.451 L
520.595 330.97 L
521.4 197.131 L
522.205 129.096 L
523.01 141.093 L
523.815 212.135 L
524.62 282.982 L
525.425 229.486 L
526.23 219.909 L
527.035 300.151 L
527.84 218.364 L
528.645 247.9 L
529.45 227.563 L
530.255 298.922 L
531.06 196.28 L
531.865 268.978 L
532.67 235.459 L
533.475 286.481 L
534.28 179.909 L
535.085 285.359 L
535.89 236.032 L
536.695 251.722 L
537.5 270.705 L
538.305 184.734 L
539.11 274.1 L
539.915 297.995 L
540.72 143.319 L
541.525 321.59 L
542.33 219.617 L
543.135 293.394 L
543.94 171.372 L
544.745 256.659 L
545.55 307.086 L
546.355 218.15 L
547.16 215.112 L
547.965 313.84 L
548.77 168.969 L
549.575 304.304 L
550.38 253.129 L
551.185 220.446 L
551.99 291.874 L
552.795 140.109 L
553.6 145.357 L
554.405 221.797 L
555.21 204.613 L
556.015 235.75 L
556.82 255.916 L
557.625 338.445 L
558.43 161.038 L
559.235 213.615 L
560.04 299.111 L
560.845 232.414 L
561.65 274.659 L
562.455 142.917 L
563.26 345.223 L
564.065 300.119 L
564.87 200.567 L
565.675 311.773 L
566.48 220.339 L
567.285 186.705 L
568.09 271.573 L
568.895 252.596 L
569.7 271.635 L
570.505 263.924 L
571.31 177.577 L
572.115 238.854 L
572.92 317.529 L
573.725 232.98 L
574.53 151.871 L
575.335 267.157 L
576.14 258.84 L
576.945 293.376 L
577.75 180.403 L
578.555 205.941 L
579.36 299.965 L
580.165 236.441 L
580.97 241.461 L
581.775 211.804 L
582.58 257.987 L
583.385 265.883 L
584.19 222.383 L
584.995 243.504 L
585.8 241.014 L
586.605 193.267 L
587.41 334.763 L
588.215 249.1 L
589.02 149.749 L
589.825 250.157 L
590.63 335.433 L
591.435 164.094 L
592.24 305.739 L
593.045 197.57 L
593.85 233.243 L
594.655 287.524 L
595.46 209.431 L
596.265 280.671 L
597.07 193.08 L
597.875 275.87 L
598.68 226.748 L
599.485 297.17 L
600.29 196.206 L
601.095 175.54 L
601.9 320.15 L
602.705 313.17 L
603.51 144.026 L
604.315 220.251 L
605.12 243.16 L
605.925 328.733 L
606.73 190.141 L
607.535 248.384 L
608.34 204.006 L
609.145 205.676 L
609.95 357.767 L
610.755 188.116 L
611.56 167.977 L
612.365 280.614 L
613.17 275.861 L
613.975 223.286 L
614.78 214.165 L
615.585 260.955 L
616.39 227.221 L
617.195 225.225 L
618 228.876 L
618.805 270.325 L
619.61 180.32 L
620.415 238.443 L
621.22 278.542 L
622.025 287.555 L
622.83 310.216 L
623.635 291.019 L
624.44 200.231 L
625.245 209.465 L
626.05 319.845 L
626.855 127.697 L
627.66 290.928 L
628.465 223.883 L
629.27 238.894 L
630.075 253.539 L
630.88 201.65 L
631.685 204.633 L
632.49 347.024 L
633.295 184.658 L
634.1 216.023 L
634.905 236.95 L
635.71 286.385 L
636.515 247.705 L
637.32 208.166 L
638.125 258.967 L
638.93 275.174 L
639.735 277.457 L
640.54 271.036 L
641.345 174.706 L
642.15 302.401 L
642.955 231.279 L
643.76 116.498 L
644.565 160.243 L
645.37 328.783 L
646.175 200.809 L
646.98 299.418 L
647.785 257.329 L
648.59 181.396 L
649.395 311.988 L
650.2 237.65 L
651.005 252.011 L
651.81 285.38 L
652.615 316.059 L
653.42 285.416 L
654.225 159.613 L
655.03 78.363 L
655.835 130.884 L
656.64 291.908 L
657.445 263.309 L
658.25 156.843 L
659.055 375.173 L
659.86 233.147 L
660.665 214.803 L
661.47 215.2 L
662.275 301.972 L
663.08 210.138 L
663.885 323.402 L
664.69 178.73 L
665.495 230.151 L
666.3 307.43 L
667.105 204.139 L
667.91 257.462 L
668.715 296.892 L
669.52 246.477 L
670.325 195.18 L
671.13 331.212 L
671.935 196.059 L
672.74 241.063 L
673.545 294.975 L
674.35 249.863 L
675.155 174.375 L
675.96 303.789 L
676.765 323.436 L
677.57 196.688 L
678.375 193.848 L
679.18 340.866 L
679.985 274.005 L
680.79 224.285 L
681.595 317.692 L
682.4 124.09 L
683.205 100.043 L
684.01 247.509 L
684.815 321.602 L
685.62 144.762 L
686.425 240.663 L
687.23 216.147 L
688.035 165.28 L
688.84 267.601 L
689.645 294.352 L
690.45 243.333 L
691.255 199.978 L
692.06 220.971 L
692.865 248.012 L
693.67 231.493 L
694.475 266.993 L
695.28 340.678 L
696.085 184.842 L
696.89 238.358 L
697.695 299.117 L
698.5 180.743 L
699.305 328.336 L
700.11 240.661 L
700.915 219.919 L
701.72 206.907 L
702.525 322.777 L
703.33 203.035 L
704.135 282.939 L
704.94 177.278 L
705.745 273.866 L
706.55 262.259 L
707.355 236.418 L
708.16 203.584 L
708.965 312.661 L
709.77 163.463 L
710.575 267.94 L
711.38 312.062 L
712.185 131.229 L
712.99 306.45 L
713.795 234.466 L
714.6 276.236 L
715.405 153.702 L
716.21 350.982 L
717.015 202.699 L
717.82 197.578 L
718.625 302.419 L
719.43 271.109 L
720.235 161.064 L
721.04 331.304 L
721.845 238.031 L
722.65 216.057 L
723.455 201.598 L
724.26 193.361 L
725.065 256.552 L
725.87 341.638 L
726.675 198.678 L
727.48 233.813 L
728.285 302.773 L
729.09 321.567 L
729.895 175.803 L
730.7 266.612 L
731.505 340.835 L
732.31 260.137 L
733.115 177.453 L
733.92 149.265 L
734.725 176.231 L
735.53 267.229 L
736.335 370.041 L
737.14 223.741 L
737.945 166.159 L
738.75 123.503 L
739.555 100.422 L
740.36 164.663 L
741.165 284.595 L
741.97 250.04 L
742.775 338.014 L
743.58 195.817 L
744.385 214.669 L
745.19 276.796 L
745.995 225.55 L
746.8 301.706 L
747.605 189.236 L
748.41 151.038 L
749.215 328.526 L
750.02 231.094 L
750.825 162.979 L
751.63 188.214 L
752.435 241.999 L
753.24 217.163 L
754.045 256.693 L
754.85 80.386 L
755.655 251.883 L
756.46 444.416 L
757.265 534.006 L
758.07 533.68 L
758.875 456.405 L
759.68 315.081 L
760.485 184.814 L
761.29 206.072 L
762.095 83.171 L
762.9 117.385 L
763.705 191.511 L
764.51 153.705 L
765.315 217.853 L
766.12 240.42 L
766.925 260.5 L
767.73 161.012 L
768.535 277.695 L
769.34 196.551 L
770.145 231.579 L
770.95 193.281 L
771.755 362.129 L
772.56 163.65 L
773.365 198.07 L
774.17 219.962 L
774.975 328.082 L
775.78 256.9 L
776.585 172.739 L
777.39 208.279 L
778.195 297.932 L
779 273.41 L
779.805 214.645 L
780.61 224.301 L
781.415 238.644 L
782.22 293.904 L
783.025 185.042 L
783.83 292.407 L
784.635 206.836 L
785.44 297.835 L
786.245 178.567 L
787.05 222.072 L
787.855 338.38 L
788.66 206.052 L
789.465 220.205 L
790.27 185.626 L
791.075 328.287 L
791.88 241.138 L
792.685 195.427 L
793.49 222.041 L
794.295 236.711 L
795.1 302.8 L
795.905 198.887 L
796.71 204.311 L
797.515 237.22 L
798.32 262.703 L
799.125 227.286 L
799.93 205.614 L
800.735 296.825 L
801.54 394.855 L
802.345 423.124 L
803.15 327.375 L
803.955 160.926 L
804.76 191.344 L
805.565 106.835 L
806.37 90.118 L
807.175 306.12 L
807.98 299.923 L
808.785 151.033 L
809.59 235.197 L
810.395 309.033 L
811.2 245.53 L
812.005 181.718 L
812.81 293.588 L
813.615 202.619 L
814.42 330.787 L
815.225 152.207 L
816.03 320.228 L
816.835 215.315 L
817.64 274.183 L
818.445 190.271 L
819.25 353.402 L
820.055 180.205 L
820.86 264.814 L
821.665 249.879 L
822.47 167.887 L
823.275 180.003 L
824.08 302.139 L
824.885 243.774 L
825.69 245.069 L
826.495 264.132 L
827.3 266.925 L
828.105 229.639 L
828.91 151.447 L
829.715 162.107 L
830.52 306.15 L
831.325 280.546 L
832.13 200.027 L
832.935 293.269 L
833.74 273.35 L
834.545 148.1 L
835.35 321.635 L
836.155 296.4 L
836.96 189.198 L
837.765 144.156 L
838.57 224.227 L
839.375 343.399 L
840.18 175.421 L
840.985 238.3 L
841.79 256.927 L
842.595 291.269 L
843.4 278.365 L
844.205 169.912 L
845.01 218.537 L
845.815 365.018 L
846.62 198.877 L
847.425 172.134 L
848.23 323.04 L
849.035 190.934 L
849.84 266.516 L
850.645 271.199 L
851.45 223.416 L
852.255 188.317 L
853.06 270.859 L
853.865 327.75 L
854.67 144.33 L
855.475 255.07 L
856.28 259.961 L
857.085 234.019 L
857.89 273.808 L
858.695 259.434 L
859.5 229.749 L
860.305 243.977 L
861.11 243.726 L
861.915 211.603 L
862.72 206.655 L
863.525 321.684 L
864.33 203.958 L
865.135 236.335 L
865.94 278.342 L
866.745 181.941 L
867.55 243.663 L
868.355 266.645 L
869.16 149.639 L
869.965 333.209 L
870.77 181.601 L
871.575 339.493 L
872.38 143.93 L
873.185 255.895 L
873.99 330.915 L
874.795 119.848 L
875.6 333.455 L
876.405 252.219 L
877.21 164.999 L
878.015 306.776 L
878.82 205.644 L
879.625 279.711 L
880.43 233.297 L
881.235 199.01 L
882.04 259.42 L
882.845 322.795 L
883.65 146.332 L
884.455 235.171 L
885.26 295.502 L
886.065 268.862 L
886.87 141.195 L
887.675 326.505 L
888.48 179.442 L
889.285 326.106 L
890.09 159.542 L
890.895 288.942 L
891.7 195.484 L
892.505 320.229 L
893.31 208.123 L
894.115 179.638 L
894.92 349.843 L
895.725 165.778 L
896.53 291.651 L
897.335 237.978 L
898.14 246.162 L
898.945 160.747 L
899.75 383.702 L
900.555 220.723 L
901.36 154.718 L
902.165 208.597 L
902.97 264.023 L
903.775 239.525 L
904.58 199.345 L
905.385 318.35 L
906.19 181.78 L
906.995 350.099 L
907.8 139.29 L
908.605 290.362 L
909.41 294.166 L
910.215 172.379 L
911.02 281.716 L
911.825 284.746 L
912.63 200.095 L
913.435 156.289 L
914.24 261.791 L
915.045 389.68 L
915.85 122.318 L
916.655 264.479 L
917.46 249.952 L
918.265 307.185 L
919.07 172.262 L
919.875 269.217 L
920.68 270.801 L
921.485 242.317 L
922.29 218.296 L
923.095 224.77 L
923.9 352.297 L
924.705 124.845 L
925.51 278.548 L
926.315 260.555 L
927.12 229.87 L
927.925 237.749 L
928.73 238.815 L
929.535 189.994 L
930.34 300.908 L
931.145 193.709 L
931.95 244.061 L
932.755 214.317 L
933.56 204.796 L
934.365 298.036 L
935.17 100.207 L
935.975 289.743 L
936.78 235.888 L
937.585 188.198 L
938.39 185.343 L
939.195 188.519 L
940 282.42 L
S
GR
%%Trailer
%%Pages: 1
%%EOF
