%!PS-Adobe-3.0 EPSF-3.0
%%Creator: (MATLAB, The Mathworks, Inc. Version 9.1.0.441655 \(R2016b\). Operating System: Windows 8)
%%Title: C:/Users/Eigenaar/WIT/SI/system-identification/Oefenzitting_3/plots/zeroinputoriginal.eps
%%CreationDate: 2016-12-19T11:22:05
%%Pages: (atend)
%%BoundingBox: 0 0 983 357
%%LanguageLevel: 3
%%EndComments
%%BeginProlog
%%BeginResource: procset (Apache XML Graphics Std ProcSet) 1.2 0
%%Version: 1.2 0
%%Copyright: (Copyright 2001-2003,2010 The Apache Software Foundation. License terms: http://www.apache.org/licenses/LICENSE-2.0)
/bd{bind def}bind def
/ld{load def}bd
/GR/grestore ld
/M/moveto ld
/LJ/setlinejoin ld
/C/curveto ld
/f/fill ld
/LW/setlinewidth ld
/GC/setgray ld
/t/show ld
/N/newpath ld
/CT/concat ld
/cp/closepath ld
/S/stroke ld
/L/lineto ld
/CC/setcmykcolor ld
/A/ashow ld
/GS/gsave ld
/RC/setrgbcolor ld
/RM/rmoveto ld
/ML/setmiterlimit ld
/re {4 2 roll M
1 index 0 rlineto
0 exch rlineto
neg 0 rlineto
cp } bd
/_ctm matrix def
/_tm matrix def
/BT { _ctm currentmatrix pop matrix _tm copy pop 0 0 moveto } bd
/ET { _ctm setmatrix } bd
/iTm { _ctm setmatrix _tm concat } bd
/Tm { _tm astore pop iTm 0 0 moveto } bd
/ux 0.0 def
/uy 0.0 def
/F {
  /Tp exch def
  /Tf exch def
  Tf findfont Tp scalefont setfont
  /cf Tf def  /cs Tp def
} bd
/ULS {currentpoint /uy exch def /ux exch def} bd
/ULE {
  /Tcx currentpoint pop def
  gsave
  newpath
  cf findfont cs scalefont dup
  /FontMatrix get 0 get /Ts exch def /FontInfo get dup
  /UnderlinePosition get Ts mul /To exch def
  /UnderlineThickness get Ts mul /Tt exch def
  ux uy To add moveto  Tcx uy To add lineto
  Tt setlinewidth stroke
  grestore
} bd
/OLE {
  /Tcx currentpoint pop def
  gsave
  newpath
  cf findfont cs scalefont dup
  /FontMatrix get 0 get /Ts exch def /FontInfo get dup
  /UnderlinePosition get Ts mul /To exch def
  /UnderlineThickness get Ts mul /Tt exch def
  ux uy To add cs add moveto Tcx uy To add cs add lineto
  Tt setlinewidth stroke
  grestore
} bd
/SOE {
  /Tcx currentpoint pop def
  gsave
  newpath
  cf findfont cs scalefont dup
  /FontMatrix get 0 get /Ts exch def /FontInfo get dup
  /UnderlinePosition get Ts mul /To exch def
  /UnderlineThickness get Ts mul /Tt exch def
  ux uy To add cs 10 mul 26 idiv add moveto Tcx uy To add cs 10 mul 26 idiv add lineto
  Tt setlinewidth stroke
  grestore
} bd
/QT {
/Y22 exch store
/X22 exch store
/Y21 exch store
/X21 exch store
currentpoint
/Y21 load 2 mul add 3 div exch
/X21 load 2 mul add 3 div exch
/X21 load 2 mul /X22 load add 3 div
/Y21 load 2 mul /Y22 load add 3 div
/X22 load /Y22 load curveto
} bd
/SSPD {
dup length /d exch dict def
{
/v exch def
/k exch def
currentpagedevice k known {
/cpdv currentpagedevice k get def
v cpdv ne {
/upd false def
/nullv v type /nulltype eq def
/nullcpdv cpdv type /nulltype eq def
nullv nullcpdv or
{
/upd true def
} {
/sametype v type cpdv type eq def
sametype {
v type /arraytype eq {
/vlen v length def
/cpdvlen cpdv length def
vlen cpdvlen eq {
0 1 vlen 1 sub {
/i exch def
/obj v i get def
/cpdobj cpdv i get def
obj cpdobj ne {
/upd true def
exit
} if
} for
} {
/upd true def
} ifelse
} {
v type /dicttype eq {
v {
/dv exch def
/dk exch def
/cpddv cpdv dk get def
dv cpddv ne {
/upd true def
exit
} if
} forall
} {
/upd true def
} ifelse
} ifelse
} if
} ifelse
upd true eq {
d k v put
} if
} if
} if
} forall
d length 0 gt {
d setpagedevice
} if
} bd
/RE { % /NewFontName [NewEncodingArray] /FontName RE -
  findfont dup length dict begin
  {
    1 index /FID ne
    {def} {pop pop} ifelse
  } forall
  /Encoding exch def
  /FontName 1 index def
  currentdict definefont pop
  end
} bind def
%%EndResource
%%BeginResource: procset (Apache XML Graphics EPS ProcSet) 1.0 0
%%Version: 1.0 0
%%Copyright: (Copyright 2002-2003 The Apache Software Foundation. License terms: http://www.apache.org/licenses/LICENSE-2.0)
/BeginEPSF { %def
/b4_Inc_state save def         % Save state for cleanup
/dict_count countdictstack def % Count objects on dict stack
/op_count count 1 sub def      % Count objects on operand stack
userdict begin                 % Push userdict on dict stack
/showpage { } def              % Redefine showpage, { } = null proc
0 setgray 0 setlinecap         % Prepare graphics state
1 setlinewidth 0 setlinejoin
10 setmiterlimit [ ] 0 setdash newpath
/languagelevel where           % If level not equal to 1 then
{pop languagelevel             % set strokeadjust and
1 ne                           % overprint to their defaults.
{false setstrokeadjust false setoverprint
} if
} if
} bd
/EndEPSF { %def
count op_count sub {pop} repeat            % Clean up stacks
countdictstack dict_count sub {end} repeat
b4_Inc_state restore
} bd
%%EndResource
%FOPBeginFontDict
%%IncludeResource: font Courier-Bold
%%IncludeResource: font Helvetica
%%IncludeResource: font Courier-BoldOblique
%%IncludeResource: font Courier-Oblique
%%IncludeResource: font Times-Roman
%%IncludeResource: font Helvetica-BoldOblique
%%IncludeResource: font Helvetica-Bold
%%IncludeResource: font Helvetica-Oblique
%%IncludeResource: font Times-BoldItalic
%%IncludeResource: font Courier
%%IncludeResource: font Times-Italic
%%IncludeResource: font Times-Bold
%%IncludeResource: font Symbol
%%IncludeResource: font ZapfDingbats
%FOPEndFontDict
%%BeginResource: encoding WinAnsiEncoding
/WinAnsiEncoding [
/.notdef /.notdef /.notdef /.notdef /.notdef
/.notdef /.notdef /.notdef /.notdef /.notdef
/.notdef /.notdef /.notdef /.notdef /.notdef
/.notdef /.notdef /.notdef /.notdef /.notdef
/.notdef /.notdef /.notdef /.notdef /.notdef
/.notdef /.notdef /.notdef /.notdef /.notdef
/.notdef /.notdef /space /exclam /quotedbl
/numbersign /dollar /percent /ampersand /quotesingle
/parenleft /parenright /asterisk /plus /comma
/hyphen /period /slash /zero /one
/two /three /four /five /six
/seven /eight /nine /colon /semicolon
/less /equal /greater /question /at
/A /B /C /D /E
/F /G /H /I /J
/K /L /M /N /O
/P /Q /R /S /T
/U /V /W /X /Y
/Z /bracketleft /backslash /bracketright /asciicircum
/underscore /quoteleft /a /b /c
/d /e /f /g /h
/i /j /k /l /m
/n /o /p /q /r
/s /t /u /v /w
/x /y /z /braceleft /bar
/braceright /asciitilde /bullet /Euro /bullet
/quotesinglbase /florin /quotedblbase /ellipsis /dagger
/daggerdbl /circumflex /perthousand /Scaron /guilsinglleft
/OE /bullet /Zcaron /bullet /bullet
/quoteleft /quoteright /quotedblleft /quotedblright /bullet
/endash /emdash /asciitilde /trademark /scaron
/guilsinglright /oe /bullet /zcaron /Ydieresis
/space /exclamdown /cent /sterling /currency
/yen /brokenbar /section /dieresis /copyright
/ordfeminine /guillemotleft /logicalnot /sfthyphen /registered
/macron /degree /plusminus /twosuperior /threesuperior
/acute /mu /paragraph /middot /cedilla
/onesuperior /ordmasculine /guillemotright /onequarter /onehalf
/threequarters /questiondown /Agrave /Aacute /Acircumflex
/Atilde /Adieresis /Aring /AE /Ccedilla
/Egrave /Eacute /Ecircumflex /Edieresis /Igrave
/Iacute /Icircumflex /Idieresis /Eth /Ntilde
/Ograve /Oacute /Ocircumflex /Otilde /Odieresis
/multiply /Oslash /Ugrave /Uacute /Ucircumflex
/Udieresis /Yacute /Thorn /germandbls /agrave
/aacute /acircumflex /atilde /adieresis /aring
/ae /ccedilla /egrave /eacute /ecircumflex
/edieresis /igrave /iacute /icircumflex /idieresis
/eth /ntilde /ograve /oacute /ocircumflex
/otilde /odieresis /divide /oslash /ugrave
/uacute /ucircumflex /udieresis /yacute /thorn
/ydieresis
] def
%%EndResource
%FOPBeginFontReencode
/Courier-Bold findfont
dup length dict begin
  {1 index /FID ne {def} {pop pop} ifelse} forall
  /Encoding WinAnsiEncoding def
  currentdict
end
/Courier-Bold exch definefont pop
/Helvetica findfont
dup length dict begin
  {1 index /FID ne {def} {pop pop} ifelse} forall
  /Encoding WinAnsiEncoding def
  currentdict
end
/Helvetica exch definefont pop
/Courier-BoldOblique findfont
dup length dict begin
  {1 index /FID ne {def} {pop pop} ifelse} forall
  /Encoding WinAnsiEncoding def
  currentdict
end
/Courier-BoldOblique exch definefont pop
/Courier-Oblique findfont
dup length dict begin
  {1 index /FID ne {def} {pop pop} ifelse} forall
  /Encoding WinAnsiEncoding def
  currentdict
end
/Courier-Oblique exch definefont pop
/Times-Roman findfont
dup length dict begin
  {1 index /FID ne {def} {pop pop} ifelse} forall
  /Encoding WinAnsiEncoding def
  currentdict
end
/Times-Roman exch definefont pop
/Helvetica-BoldOblique findfont
dup length dict begin
  {1 index /FID ne {def} {pop pop} ifelse} forall
  /Encoding WinAnsiEncoding def
  currentdict
end
/Helvetica-BoldOblique exch definefont pop
/Helvetica-Bold findfont
dup length dict begin
  {1 index /FID ne {def} {pop pop} ifelse} forall
  /Encoding WinAnsiEncoding def
  currentdict
end
/Helvetica-Bold exch definefont pop
/Helvetica-Oblique findfont
dup length dict begin
  {1 index /FID ne {def} {pop pop} ifelse} forall
  /Encoding WinAnsiEncoding def
  currentdict
end
/Helvetica-Oblique exch definefont pop
/Times-BoldItalic findfont
dup length dict begin
  {1 index /FID ne {def} {pop pop} ifelse} forall
  /Encoding WinAnsiEncoding def
  currentdict
end
/Times-BoldItalic exch definefont pop
/Courier findfont
dup length dict begin
  {1 index /FID ne {def} {pop pop} ifelse} forall
  /Encoding WinAnsiEncoding def
  currentdict
end
/Courier exch definefont pop
/Times-Italic findfont
dup length dict begin
  {1 index /FID ne {def} {pop pop} ifelse} forall
  /Encoding WinAnsiEncoding def
  currentdict
end
/Times-Italic exch definefont pop
/Times-Bold findfont
dup length dict begin
  {1 index /FID ne {def} {pop pop} ifelse} forall
  /Encoding WinAnsiEncoding def
  currentdict
end
/Times-Bold exch definefont pop
%FOPEndFontReencode
%%EndProlog
%%Page: 1 1
%%PageBoundingBox: 0 0 983 357
%%BeginPageSetup
[1 0 0 -1 0 357] CT
%%EndPageSetup
GS
[0.75 0 0 0.75 0 0] CT
1 GC
N
0 0 1311 476 re
f
GR
GS
[0.75 0 0 0.75 0 0] CT
1 GC
N
0 0 1311 476 re
f
GR
GS
[0.75 0 0 0.75 0 0] CT
1 GC
N
170 424 M
1186 424 L
1186 36 L
170 36 L
cp
f
GR
GS
[0.75 0 0 0.75 0 0] CT
0.149 GC
2 setlinecap
1 LJ
0.667 LW
N
170 424 M
1186 424 L
S
GR
GS
[0.75 0 0 0.75 0 0] CT
0.149 GC
2 setlinecap
1 LJ
0.667 LW
N
170 36 M
1186 36 L
S
GR
GS
[0.75 0 0 0.75 0 0] CT
0.149 GC
2 setlinecap
1 LJ
0.667 LW
N
170 424 M
170 413.84 L
S
GR
GS
[0.75 0 0 0.75 0 0] CT
0.149 GC
2 setlinecap
1 LJ
0.667 LW
N
271.6 424 M
271.6 413.84 L
S
GR
GS
[0.75 0 0 0.75 0 0] CT
0.149 GC
2 setlinecap
1 LJ
0.667 LW
N
373.2 424 M
373.2 413.84 L
S
GR
GS
[0.75 0 0 0.75 0 0] CT
0.149 GC
2 setlinecap
1 LJ
0.667 LW
N
474.8 424 M
474.8 413.84 L
S
GR
GS
[0.75 0 0 0.75 0 0] CT
0.149 GC
2 setlinecap
1 LJ
0.667 LW
N
576.4 424 M
576.4 413.84 L
S
GR
GS
[0.75 0 0 0.75 0 0] CT
0.149 GC
2 setlinecap
1 LJ
0.667 LW
N
678 424 M
678 413.84 L
S
GR
GS
[0.75 0 0 0.75 0 0] CT
0.149 GC
2 setlinecap
1 LJ
0.667 LW
N
779.6 424 M
779.6 413.84 L
S
GR
GS
[0.75 0 0 0.75 0 0] CT
0.149 GC
2 setlinecap
1 LJ
0.667 LW
N
881.2 424 M
881.2 413.84 L
S
GR
GS
[0.75 0 0 0.75 0 0] CT
0.149 GC
2 setlinecap
1 LJ
0.667 LW
N
982.8 424 M
982.8 413.84 L
S
GR
GS
[0.75 0 0 0.75 0 0] CT
0.149 GC
2 setlinecap
1 LJ
0.667 LW
N
1084.4 424 M
1084.4 413.84 L
S
GR
GS
[0.75 0 0 0.75 0 0] CT
0.149 GC
2 setlinecap
1 LJ
0.667 LW
N
1186 424 M
1186 413.84 L
S
GR
GS
[0.75 0 0 0.75 0 0] CT
0.149 GC
2 setlinecap
1 LJ
0.667 LW
N
170 36 M
170 46.16 L
S
GR
GS
[0.75 0 0 0.75 0 0] CT
0.149 GC
2 setlinecap
1 LJ
0.667 LW
N
271.6 36 M
271.6 46.16 L
S
GR
GS
[0.75 0 0 0.75 0 0] CT
0.149 GC
2 setlinecap
1 LJ
0.667 LW
N
373.2 36 M
373.2 46.16 L
S
GR
GS
[0.75 0 0 0.75 0 0] CT
0.149 GC
2 setlinecap
1 LJ
0.667 LW
N
474.8 36 M
474.8 46.16 L
S
GR
GS
[0.75 0 0 0.75 0 0] CT
0.149 GC
2 setlinecap
1 LJ
0.667 LW
N
576.4 36 M
576.4 46.16 L
S
GR
GS
[0.75 0 0 0.75 0 0] CT
0.149 GC
2 setlinecap
1 LJ
0.667 LW
N
678 36 M
678 46.16 L
S
GR
GS
[0.75 0 0 0.75 0 0] CT
0.149 GC
2 setlinecap
1 LJ
0.667 LW
N
779.6 36 M
779.6 46.16 L
S
GR
GS
[0.75 0 0 0.75 0 0] CT
0.149 GC
2 setlinecap
1 LJ
0.667 LW
N
881.2 36 M
881.2 46.16 L
S
GR
GS
[0.75 0 0 0.75 0 0] CT
0.149 GC
2 setlinecap
1 LJ
0.667 LW
N
982.8 36 M
982.8 46.16 L
S
GR
GS
[0.75 0 0 0.75 0 0] CT
0.149 GC
2 setlinecap
1 LJ
0.667 LW
N
1084.4 36 M
1084.4 46.16 L
S
GR
GS
[0.75 0 0 0.75 0 0] CT
0.149 GC
2 setlinecap
1 LJ
0.667 LW
N
1186 36 M
1186 46.16 L
S
GR
GS
[0.75 0 0 0.75 127.5 321.99998] CT
0.149 GC
/Helvetica 13.333 F
GS
[1 0 0 1 0 0] CT
-4 14 moveto 
1 -1 scale
(0) t 
GR
GR
GS
[0.75 0 0 0.75 203.7 321.99998] CT
0.149 GC
/Helvetica 13.333 F
GS
[1 0 0 1 0 0] CT
-11 14 moveto 
1 -1 scale
(100) t 
GR
GR
GS
[0.75 0 0 0.75 279.90001 321.99998] CT
0.149 GC
/Helvetica 13.333 F
GS
[1 0 0 1 0 0] CT
-11 14 moveto 
1 -1 scale
(200) t 
GR
GR
GS
[0.75 0 0 0.75 356.09999 321.99998] CT
0.149 GC
/Helvetica 13.333 F
GS
[1 0 0 1 0 0] CT
-11 14 moveto 
1 -1 scale
(300) t 
GR
GR
GS
[0.75 0 0 0.75 432.30002 321.99998] CT
0.149 GC
/Helvetica 13.333 F
GS
[1 0 0 1 0 0] CT
-11 14 moveto 
1 -1 scale
(400) t 
GR
GR
GS
[0.75 0 0 0.75 508.5 321.99998] CT
0.149 GC
/Helvetica 13.333 F
GS
[1 0 0 1 0 0] CT
-11 14 moveto 
1 -1 scale
(500) t 
GR
GR
GS
[0.75 0 0 0.75 584.69998 321.99998] CT
0.149 GC
/Helvetica 13.333 F
GS
[1 0 0 1 0 0] CT
-11 14 moveto 
1 -1 scale
(600) t 
GR
GR
GS
[0.75 0 0 0.75 660.90001 321.99998] CT
0.149 GC
/Helvetica 13.333 F
GS
[1 0 0 1 0 0] CT
-11 14 moveto 
1 -1 scale
(700) t 
GR
GR
GS
[0.75 0 0 0.75 737.09999 321.99998] CT
0.149 GC
/Helvetica 13.333 F
GS
[1 0 0 1 0 0] CT
-11 14 moveto 
1 -1 scale
(800) t 
GR
GR
GS
[0.75 0 0 0.75 813.30002 321.99998] CT
0.149 GC
/Helvetica 13.333 F
GS
[1 0 0 1 0 0] CT
-11 14 moveto 
1 -1 scale
(900) t 
GR
GR
GS
[0.75 0 0 0.75 889.5 321.99998] CT
0.149 GC
/Helvetica 13.333 F
GS
[1 0 0 1 0 0] CT
-14.5 14 moveto 
1 -1 scale
(1000) t 
GR
GR
GS
[0.75 0 0 0.75 508.50037 335.74999] CT
0.149 GC
/Helvetica 14.667 F
GS
[1 0 0 1 0 0] CT
-17 16 moveto 
1 -1 scale
(Time) t 
GR
GR
GS
[0.75 0 0 0.75 0 0] CT
0.149 GC
2 setlinecap
1 LJ
0.667 LW
N
170 424 M
170 36 L
S
GR
GS
[0.75 0 0 0.75 0 0] CT
0.149 GC
2 setlinecap
1 LJ
0.667 LW
N
1186 424 M
1186 36 L
S
GR
GS
[0.75 0 0 0.75 0 0] CT
0.149 GC
2 setlinecap
1 LJ
0.667 LW
N
170 424 M
180.16 424 L
S
GR
GS
[0.75 0 0 0.75 0 0] CT
0.149 GC
2 setlinecap
1 LJ
0.667 LW
N
170 294.667 M
180.16 294.667 L
S
GR
GS
[0.75 0 0 0.75 0 0] CT
0.149 GC
2 setlinecap
1 LJ
0.667 LW
N
170 165.333 M
180.16 165.333 L
S
GR
GS
[0.75 0 0 0.75 0 0] CT
0.149 GC
2 setlinecap
1 LJ
0.667 LW
N
170 36 M
180.16 36 L
S
GR
GS
[0.75 0 0 0.75 0 0] CT
0.149 GC
2 setlinecap
1 LJ
0.667 LW
N
1186 424 M
1175.84 424 L
S
GR
GS
[0.75 0 0 0.75 0 0] CT
0.149 GC
2 setlinecap
1 LJ
0.667 LW
N
1186 294.667 M
1175.84 294.667 L
S
GR
GS
[0.75 0 0 0.75 0 0] CT
0.149 GC
2 setlinecap
1 LJ
0.667 LW
N
1186 165.333 M
1175.84 165.333 L
S
GR
GS
[0.75 0 0 0.75 0 0] CT
0.149 GC
2 setlinecap
1 LJ
0.667 LW
N
1186 36 M
1175.84 36 L
S
GR
GS
[0.75 0 0 0.75 123.5 318] CT
0.149 GC
/Helvetica 13.333 F
GS
[1 0 0 1 0 0] CT
-15 5.5 moveto 
1 -1 scale
(10) t 
GR
GR
GS
[0.75 0 0 0.75 123.5 220.99999] CT
0.149 GC
/Helvetica 13.333 F
GS
[1 0 0 1 0 0] CT
-15 5.5 moveto 
1 -1 scale
(15) t 
GR
GR
GS
[0.75 0 0 0.75 123.5 124] CT
0.149 GC
/Helvetica 13.333 F
GS
[1 0 0 1 0 0] CT
-15 5.5 moveto 
1 -1 scale
(20) t 
GR
GR
GS
[0.75 0 0 0.75 123.5 27] CT
0.149 GC
/Helvetica 13.333 F
GS
[1 0 0 1 0 0] CT
-15 5.5 moveto 
1 -1 scale
(25) t 
GR
GR
GS
[0 -0.75 0.75 0 109.25 172.49985] CT
0.149 GC
/Helvetica 14.667 F
GS
[1 0 0 1 0 0] CT
-34 -4 moveto 
1 -1 scale
(Response) t 
GR
GR
GS
[0.75 0 0 0.75 508.5005 24.93751] CT
/Helvetica-Bold 14.667 F
GS
[1 0 0 1 0 0] CT
-45 -4 moveto 
1 -1 scale
(original data) t 
GR
GR
GS
[0.75 0 0 0.75 0 0] CT
0 0.447 0.741 RC
1 LJ
0.667 LW
N
171.016 226.344 M
172.032 228.663 L
173.048 224.056 L
174.064 225.724 L
175.08 232.094 L
176.096 224.671 L
177.112 223.748 L
178.128 224.845 L
179.144 235.887 L
180.16 220.587 L
181.176 225.247 L
182.192 229.886 L
183.208 225.484 L
184.224 225.554 L
185.24 229.469 L
186.256 221.978 L
187.272 232.511 L
188.288 222.107 L
189.304 223.626 L
190.32 234.621 L
191.336 219.228 L
192.352 234.132 L
193.368 215.988 L
194.384 227.312 L
195.4 235.888 L
196.416 221.661 L
197.432 226.65 L
198.448 359.772 L
199.464 237.519 L
200.48 227.431 L
201.496 218.627 L
202.512 230.631 L
203.528 220.394 L
204.544 231.967 L
205.56 228.617 L
206.576 215.819 L
207.592 233.42 L
208.608 221.369 L
209.624 232.835 L
210.64 219.103 L
211.656 230.29 L
212.672 222.42 L
213.688 226.857 L
214.704 234.918 L
215.72 211.572 L
216.736 234.469 L
217.752 224.699 L
218.768 226.885 L
219.784 232.94 L
220.8 211.594 L
221.816 233.214 L
222.832 232.151 L
223.848 83.041 L
224.864 218.093 L
225.88 224.846 L
226.896 385.381 L
227.912 217.231 L
228.928 228.692 L
229.944 225.172 L
230.96 232.87 L
231.976 222.081 L
232.992 227.589 L
234.008 232.695 L
235.024 229.012 L
236.04 215.424 L
237.056 239.083 L
238.072 227.843 L
239.088 224.509 L
240.104 231.792 L
241.12 219.876 L
242.136 245.878 L
243.152 212.549 L
244.168 230.927 L
245.184 240.103 L
246.2 219.149 L
247.216 374.009 L
248.232 237.043 L
249.248 222.951 L
250.264 231.139 L
251.28 224.45 L
252.296 240.058 L
253.312 234.06 L
254.328 219.367 L
255.344 220.244 L
256.36 254.901 L
257.376 223.724 L
258.392 224.612 L
259.408 232.007 L
260.424 231.376 L
261.44 236.704 L
262.456 230.38 L
263.472 225.889 L
264.488 235.301 L
265.504 236.811 L
266.52 225.219 L
267.536 231.346 L
268.552 236.674 L
269.568 236.148 L
270.584 220.236 L
271.6 244.743 L
272.616 229.296 L
273.632 225.318 L
274.648 238.636 L
275.664 239.416 L
276.68 223.355 L
277.696 236.449 L
278.712 226.609 L
279.728 241.858 L
280.744 234.691 L
281.76 227.579 L
282.776 226.316 L
283.792 241.101 L
284.808 238.963 L
285.824 219.575 L
286.84 244.252 L
287.856 219.72 L
288.872 245.923 L
289.888 228.947 L
290.904 226.857 L
291.92 237.323 L
292.936 229.844 L
293.952 386.42 L
294.968 218.969 L
295.984 233.233 L
297 240.618 L
298.016 229.268 L
299.032 232.888 L
300.048 225.236 L
301.064 375.417 L
302.08 244.275 L
303.096 227.397 L
304.112 219.132 L
305.128 243.607 L
306.144 227.51 L
307.16 232.163 L
308.176 231.673 L
309.192 372.622 L
310.208 232.807 L
311.224 227.697 L
312.24 235.429 L
313.256 224.144 L
314.272 242.568 L
315.288 212.667 L
316.304 240.669 L
317.32 233.497 L
318.336 220.952 L
319.352 234.428 L
320.368 229.866 L
321.384 223.481 L
322.4 243.975 L
323.416 214.687 L
324.432 230.496 L
325.448 238.1 L
326.464 228.671 L
327.48 217.679 L
328.496 237.458 L
329.512 225.692 L
330.528 237.854 L
331.544 219.593 L
332.56 224.392 L
333.576 244.04 L
334.592 214.316 L
335.608 241.477 L
336.624 219.749 L
337.64 225.954 L
338.656 239.098 L
339.672 227.428 L
340.688 219.015 L
341.704 237.838 L
342.72 226.476 L
343.736 229.724 L
344.752 223.076 L
345.768 239.914 L
346.784 74.408 L
347.8 232.79 L
348.816 234.467 L
349.832 214.02 L
350.848 246.332 L
351.864 220.453 L
352.88 229.647 L
353.896 223.774 L
354.912 237.116 L
355.928 233.589 L
356.944 214.218 L
357.96 234.091 L
358.976 381.084 L
359.992 225.408 L
361.008 225.557 L
362.024 231.514 L
363.04 229.248 L
364.056 229.937 L
365.072 235.853 L
366.088 213.737 L
367.104 244.946 L
368.12 82.658 L
369.136 224.962 L
370.152 232.159 L
371.168 234.313 L
372.184 230.623 L
373.2 215.92 L
374.216 252.48 L
375.232 224.316 L
376.248 216.547 L
377.264 244.382 L
378.28 233.39 L
379.296 226.65 L
380.312 233.875 L
381.328 225.262 L
382.344 236.334 L
383.36 237.998 L
384.376 230.444 L
385.392 221.711 L
386.408 241.279 L
387.424 235.45 L
388.44 228.398 L
389.456 238.594 L
390.472 226.985 L
391.488 231.438 L
392.504 242.206 L
393.52 231.003 L
394.536 237.737 L
395.552 221.287 L
396.568 246.593 L
397.584 231.421 L
398.6 234.953 L
399.616 230.888 L
400.632 240.969 L
401.648 90.1 L
402.664 80.216 L
403.68 251.739 L
404.696 230.023 L
405.712 223.332 L
406.728 251.713 L
407.744 230.796 L
408.76 83.594 L
409.776 245.73 L
410.792 230.26 L
411.808 240.157 L
412.824 372.19 L
413.84 240.044 L
414.856 240.266 L
415.872 229.682 L
416.888 234.32 L
417.904 240.596 L
418.92 235.198 L
419.936 229.665 L
420.952 95.85 L
421.968 240.318 L
422.984 223.306 L
424 246.422 L
425.016 227.919 L
426.032 239.356 L
427.048 232.011 L
428.064 234.689 L
429.08 236.455 L
430.096 238.307 L
431.112 224.472 L
432.128 234.441 L
433.144 247.439 L
434.16 224.649 L
435.176 235.153 L
436.192 219.197 L
437.208 256.456 L
438.224 224.12 L
439.24 227.402 L
440.256 233.518 L
441.272 239.103 L
442.288 221.605 L
443.304 239.859 L
444.32 228.597 L
445.336 232.133 L
446.352 227.329 L
447.368 229.84 L
448.384 236.966 L
449.4 225.887 L
450.416 224.001 L
451.432 233.705 L
452.448 236.907 L
453.464 215.129 L
454.48 230.343 L
455.496 236.54 L
456.512 219.535 L
457.528 229.717 L
458.544 224.415 L
459.56 377.768 L
460.576 218.751 L
461.592 226.477 L
462.608 226.297 L
463.624 229.797 L
464.64 219.336 L
465.656 234.256 L
466.672 206.913 L
467.688 235.073 L
468.704 93.668 L
469.72 198.62 L
470.736 232.271 L
471.752 234.192 L
472.768 216.931 L
473.784 221.071 L
474.8 221.011 L
475.816 228.748 L
476.832 222.67 L
477.848 221.759 L
478.864 221.789 L
479.88 226.201 L
480.896 219.391 L
481.912 223.17 L
482.928 230.937 L
483.944 210.779 L
484.96 86.839 L
485.976 226.589 L
486.992 213.683 L
488.008 232.284 L
489.024 220.382 L
490.04 219.166 L
491.056 236.157 L
492.072 217.523 L
493.088 217.561 L
494.104 235.571 L
495.12 223.573 L
496.136 219.016 L
497.152 233.275 L
498.168 220.513 L
499.184 225.942 L
500.2 228.546 L
501.216 223.584 L
502.232 237.873 L
503.248 216.112 L
504.264 224.47 L
505.28 233.849 L
506.296 233.596 L
507.312 220.895 L
508.328 232.116 L
509.344 224.089 L
510.36 229.551 L
511.376 238.197 L
512.392 225.366 L
513.408 229.873 L
514.424 222.146 L
515.44 244.706 L
516.456 225.065 L
517.472 227.387 L
518.488 239.103 L
519.504 225.282 L
520.52 236.441 L
521.536 233.367 L
522.552 224.246 L
523.568 240.67 L
524.584 232.696 L
525.6 228.381 L
526.616 240.56 L
527.632 227.354 L
528.648 234.34 L
529.664 238.541 L
530.68 229.898 L
531.696 233.394 L
532.712 241.023 L
533.728 230.78 L
534.744 229.382 L
535.76 240.385 L
536.776 239.22 L
537.792 224.953 L
538.808 241.507 L
539.824 236.022 L
540.84 231.496 L
541.856 233.627 L
542.872 382.457 L
543.888 241.366 L
544.904 367.588 L
545.92 242.431 L
546.936 229.573 L
547.952 240.564 L
548.968 236.281 L
549.984 230.975 L
551 231.807 L
552.016 237.657 L
553.032 241.972 L
554.048 80.424 L
555.064 233.108 L
556.08 244.614 L
557.096 226.039 L
558.112 234.816 L
559.128 232.252 L
560.144 236.732 L
561.16 87.529 L
562.176 230.085 L
563.192 233.174 L
564.208 239.787 L
565.224 224.337 L
566.24 227.295 L
567.256 238.686 L
568.272 229.041 L
569.288 237.613 L
570.304 219.873 L
571.32 227.841 L
572.336 239.841 L
573.352 228.711 L
574.368 75.756 L
575.384 237.171 L
576.4 223.443 L
577.416 232.693 L
578.432 221.557 L
579.448 235.541 L
580.464 215.805 L
581.48 234.299 L
582.496 225.442 L
583.512 227.787 L
584.528 221.453 L
585.544 222.651 L
586.56 232.805 L
587.576 222.776 L
588.592 215.955 L
589.608 238.642 L
590.624 212.235 L
591.64 224.632 L
592.656 227.563 L
593.672 78.597 L
594.688 220.069 L
595.704 226.551 L
596.72 216.311 L
597.736 217.833 L
598.752 244.107 L
599.768 200.883 L
600.784 224.378 L
601.8 223.911 L
602.816 221.609 L
603.832 228.786 L
604.848 205.734 L
605.864 224.022 L
606.88 231.043 L
607.896 212.732 L
608.912 221.541 L
609.928 217.104 L
610.944 366.069 L
611.96 226.451 L
612.976 214.052 L
613.992 214.685 L
615.008 232.084 L
616.024 213.795 L
617.04 212.839 L
618.056 236.773 L
619.072 208.341 L
620.088 213.272 L
621.104 237.054 L
622.12 215.865 L
623.136 209.222 L
624.152 226.68 L
625.168 227.651 L
626.184 209.92 L
627.2 371.659 L
628.216 217.381 L
629.232 222.64 L
630.248 221.085 L
631.264 220.779 L
632.28 222.374 L
633.296 223.046 L
634.312 219.135 L
635.328 222.374 L
636.344 228.01 L
637.36 218.692 L
638.376 225.295 L
639.392 211.4 L
640.408 240.378 L
641.424 222.602 L
642.44 214.839 L
643.456 225.794 L
644.472 223.664 L
645.488 234.948 L
646.504 223.787 L
647.52 212.891 L
648.536 227.778 L
649.552 240.019 L
650.568 220.241 L
651.584 222.193 L
652.6 221.969 L
653.616 240.281 L
654.632 366.592 L
655.648 221.346 L
656.664 236.315 L
657.68 225.416 L
658.696 225.899 L
659.712 230.663 L
660.728 227.805 L
661.744 233.287 L
662.76 224.482 L
663.776 232.745 L
664.792 227.876 L
665.808 229.669 L
666.824 234.773 L
667.84 224.444 L
668.856 234.726 L
669.872 235.127 L
670.888 218.587 L
671.904 242.608 L
672.92 227.771 L
673.936 232.916 L
674.952 229.078 L
675.968 233.173 L
676.984 239.297 L
678 221.48 L
679.016 237.111 L
680.032 231.66 L
681.048 237.627 L
682.064 230.637 L
683.08 233.653 L
684.096 79.023 L
685.112 244.605 L
686.128 239.129 L
687.144 223.811 L
688.16 225.904 L
689.176 243.612 L
690.192 242.378 L
691.208 222.863 L
692.224 232.651 L
693.24 232.96 L
694.256 239.492 L
695.272 236.239 L
696.288 232.08 L
697.304 225.238 L
698.32 241.125 L
699.336 236.553 L
700.352 87.898 L
701.368 228.478 L
702.384 244.506 L
703.4 222.462 L
704.416 239.109 L
705.432 240.368 L
706.448 224.279 L
707.464 237.044 L
708.48 229.819 L
709.496 241.725 L
710.512 234.356 L
711.528 223.092 L
712.544 236.123 L
713.56 242.846 L
714.576 225.87 L
715.592 233.734 L
716.608 230.777 L
717.624 237.873 L
718.64 234.051 L
719.656 224.665 L
720.672 237.985 L
721.688 234.057 L
722.704 225.616 L
723.72 241.85 L
724.736 220.456 L
725.752 235.549 L
726.768 235.816 L
727.784 230.526 L
728.8 224.435 L
729.816 230.615 L
730.832 233.897 L
731.848 236.768 L
732.864 222.412 L
733.88 219.573 L
734.896 241.496 L
735.912 232.968 L
736.928 221.453 L
737.944 224.684 L
738.96 229.139 L
739.976 237.659 L
740.992 219.657 L
742.008 227.222 L
743.024 227.008 L
744.04 372.32 L
745.056 229.047 L
746.072 222.569 L
747.088 224.487 L
748.104 229.439 L
749.12 231.131 L
750.136 220.767 L
751.152 66.34 L
752.168 249.367 L
753.184 223.711 L
754.2 207.392 L
755.216 232.027 L
756.232 230.621 L
757.248 228.649 L
758.264 212.639 L
759.28 228.046 L
760.296 225.824 L
761.312 231.067 L
762.328 76.887 L
763.344 219.293 L
764.36 221.15 L
765.376 240.73 L
766.392 218.562 L
767.408 217.724 L
768.424 226.524 L
769.44 222.379 L
770.456 243.84 L
771.472 205.942 L
772.488 223.364 L
773.504 236.312 L
774.52 216.418 L
775.536 234.362 L
776.552 219.898 L
777.568 221.255 L
778.584 231.785 L
779.6 219.146 L
780.616 236.718 L
781.632 219.109 L
782.648 218.562 L
783.664 235.852 L
784.68 226.196 L
785.696 79.538 L
786.712 221.32 L
787.728 376.897 L
788.744 227.102 L
789.76 222.277 L
790.776 232.088 L
791.792 224.074 L
792.808 220.277 L
793.824 242.8 L
794.84 218.943 L
795.856 223.477 L
796.872 234.165 L
797.888 230.027 L
798.904 220.694 L
799.92 237.426 L
800.936 223.987 L
801.952 223.614 L
802.968 242.265 L
803.984 222.047 L
805 230.086 L
806.016 226.39 L
807.032 235.986 L
808.048 234.992 L
809.064 221.475 L
810.08 231.812 L
811.096 235.993 L
812.112 232.036 L
813.128 231.136 L
814.144 223.68 L
815.16 243.34 L
816.176 236.914 L
817.192 215.065 L
818.208 242.453 L
819.224 240.996 L
820.24 228.561 L
821.256 223.276 L
822.272 247.33 L
823.288 373.607 L
824.304 236.349 L
825.32 235.27 L
826.336 229.429 L
827.352 236.75 L
828.368 241.283 L
829.384 228.683 L
830.4 239.216 L
831.416 236.624 L
832.432 228.509 L
833.448 243.37 L
834.464 235.466 L
835.48 233.593 L
836.496 235.271 L
837.512 239.292 L
838.528 235.526 L
839.544 94.67 L
840.56 226.825 L
841.576 247.553 L
842.592 233.525 L
843.608 238.478 L
844.624 223.743 L
845.64 253.336 L
846.656 379.174 L
847.672 220.519 L
848.688 250.468 L
849.704 235.75 L
850.72 236.105 L
851.736 230.503 L
852.752 241.702 L
853.768 231.874 L
854.784 247.893 L
855.8 223.074 L
856.816 238.643 L
857.832 247.416 L
858.848 222.41 L
859.864 240.229 L
860.88 242.103 L
861.896 234.084 L
862.912 227.155 L
863.928 246.951 L
864.944 233.893 L
865.96 230.314 L
866.976 242.662 L
867.992 229.564 L
869.008 243.547 L
870.024 232.842 L
871.04 228.305 L
872.056 245.191 L
873.072 232.528 L
874.088 236.696 L
875.104 229.587 L
876.12 244.537 L
877.136 228.496 L
878.152 233.084 L
879.168 103.441 L
880.184 219.422 L
881.2 246.067 L
882.216 228.056 L
883.232 233.505 L
884.248 247.432 L
885.264 364.418 L
886.28 234.236 L
887.296 240.919 L
888.312 234.737 L
889.328 225.706 L
890.344 239.511 L
891.36 229.838 L
892.376 238.459 L
893.392 228.45 L
894.408 228.489 L
895.424 247.549 L
896.44 215.435 L
897.456 240.703 L
898.472 232.535 L
899.488 229.449 L
900.504 234.779 L
901.52 225.769 L
902.536 234.775 L
903.552 234.291 L
904.568 224.151 L
905.584 237.79 L
906.6 221.308 L
907.616 240.32 L
908.632 226.05 L
909.648 228.439 L
910.664 226.765 L
911.68 235.393 L
912.696 231.818 L
913.712 223.209 L
914.728 86.397 L
915.744 224.765 L
916.76 237.406 L
917.776 222.895 L
918.792 232.294 L
919.808 222.111 L
920.824 234.648 L
921.84 224.319 L
922.856 222.371 L
923.872 97.07 L
924.888 217.421 L
925.904 232.225 L
926.92 75.544 L
927.936 91.976 L
928.952 367.009 L
929.968 225.196 L
930.984 229.451 L
932 228.616 L
933.016 219.495 L
934.032 226.692 L
935.048 232.154 L
936.064 229.795 L
937.08 210.003 L
938.096 233.333 L
939.112 231.102 L
940.128 219.224 L
941.144 224.559 L
942.16 226.664 L
943.176 220.175 L
944.192 237.311 L
945.208 215.303 L
946.224 212.51 L
947.24 245.549 L
948.256 211.132 L
949.272 231.739 L
950.288 210.625 L
951.304 233.412 L
952.32 222.557 L
953.336 223.592 L
954.352 215.686 L
955.368 224.559 L
956.384 233.073 L
957.4 212.475 L
958.416 79.853 L
959.432 220.813 L
960.448 221.627 L
961.464 229.057 L
962.48 220.235 L
963.496 211.855 L
964.512 228.754 L
965.528 217.545 L
966.544 232.184 L
967.56 213.573 L
968.576 213.701 L
969.592 233.651 L
970.608 216.082 L
971.624 220.631 L
972.64 222.921 L
973.656 216.756 L
974.672 229.1 L
975.688 215.401 L
976.704 214.517 L
977.72 376.543 L
978.736 219.543 L
979.752 214.69 L
980.768 220.272 L
981.784 228.539 L
982.8 216.963 L
983.816 216.251 L
984.832 228.811 L
985.848 213.789 L
986.864 227.131 L
987.88 216.946 L
988.896 216.783 L
989.912 229.602 L
990.928 214.143 L
991.944 221.209 L
992.96 227.214 L
993.976 209.542 L
994.992 229.756 L
996.008 210.709 L
997.024 235.222 L
998.04 212.141 L
999.056 69.865 L
1000.072 222.774 L
1001.088 231.849 L
1002.104 217.545 L
1003.12 205.954 L
1004.136 225.699 L
1005.152 233.16 L
1006.168 207.842 L
1007.184 218.949 L
1008.2 223.227 L
1009.216 225.089 L
1010.232 69.254 L
1011.248 215.186 L
1012.264 225.928 L
1013.28 368.33 L
1014.296 210.931 L
1015.312 218.203 L
1016.328 221.57 L
1017.344 81.106 L
1018.36 212.712 L
1019.376 212.053 L
1020.392 375.561 L
1021.408 211.497 L
1022.424 216.852 L
1023.44 75.861 L
1024.456 223.194 L
1025.472 207.376 L
1026.488 222.467 L
1027.504 216.056 L
1028.52 226.511 L
1029.536 199.507 L
1030.552 235.714 L
1031.568 198.69 L
1032.584 229.271 L
1033.6 210.45 L
1034.616 217.595 L
1035.632 221.334 L
1036.648 206.021 L
1037.664 217.91 L
1038.68 217.001 L
1039.696 222.806 L
1040.712 206.204 L
1041.728 212.536 L
1042.744 218.309 L
1043.76 219.343 L
1044.776 209.887 L
1045.792 215.946 L
1046.808 210.22 L
1047.824 73.65 L
1048.84 213.528 L
1049.856 216.827 L
1050.872 207.595 L
1051.888 216.762 L
1052.904 215.2 L
1053.92 212.515 L
1054.936 207.702 L
1055.952 222.418 L
1056.968 211.976 L
1057.984 353.976 L
1059 210.66 L
1060.016 218.409 L
1061.032 210.311 L
1062.048 216.304 L
1063.064 213.591 L
1064.08 209.968 L
1065.096 210.05 L
1066.112 222.485 L
1067.128 66.012 L
1068.144 212.5 L
1069.16 207.084 L
1070.176 227.876 L
1071.192 204.184 L
1072.208 218.739 L
1073.224 202.347 L
1074.24 233.274 L
1075.256 195.678 L
1076.272 233.254 L
1077.288 51.511 L
1078.304 229.048 L
1079.32 201.179 L
1080.336 232.068 L
1081.352 205.366 L
1082.368 360.615 L
1083.384 353.43 L
1084.4 224.535 L
1085.416 71.882 L
1086.432 364.756 L
1087.448 200.612 L
1088.464 223.246 L
1089.48 228.18 L
1090.496 204.486 L
1091.512 225.932 L
1092.528 64.235 L
1093.544 229.429 L
1094.56 212.474 L
1095.576 210.158 L
1096.592 234.903 L
1097.608 217.096 L
1098.624 353.33 L
1099.64 223.149 L
1100.656 219.791 L
1101.672 375.963 L
1102.688 211.722 L
1103.704 216.929 L
1104.72 223.862 L
1105.736 230.162 L
1106.752 214.43 L
1107.768 220.658 L
1108.784 234.286 L
1109.8 211.683 L
1110.816 224.748 L
1111.832 227.458 L
1112.848 231.082 L
1113.864 209.881 L
1114.88 85.777 L
1115.896 232.89 L
1116.912 221.037 L
1117.928 222.915 L
1118.944 225.819 L
1119.96 231.585 L
1120.976 226.713 L
1121.992 221.238 L
1123.008 231.492 L
1124.024 230.041 L
1125.04 224.085 L
1126.056 224.951 L
1127.072 92.803 L
1128.088 229.738 L
1129.104 75.043 L
1130.12 234.349 L
1131.136 235.978 L
1132.152 221.978 L
1133.168 229.497 L
1134.184 243.004 L
1135.2 218.062 L
1136.216 237.262 L
1137.232 231.862 L
1138.248 371.117 L
1139.264 241.283 L
1140.28 229.442 L
1141.296 225.922 L
1142.312 245.501 L
1143.328 220.594 L
1144.344 249.506 L
1145.36 223.263 L
1146.376 236.657 L
1147.392 238.877 L
1148.408 234.327 L
1149.424 229.484 L
1150.44 244.985 L
1151.456 237.988 L
1152.472 227.774 L
1153.488 240.676 L
1154.504 241.116 L
1155.52 230.251 L
1156.536 248.17 L
1157.552 235.404 L
1158.568 231.04 L
1159.584 243.118 L
1160.6 242.002 L
1161.616 240.854 L
1162.632 232.548 L
1163.648 245.42 L
1164.664 234.973 L
1165.68 244.178 L
1166.696 241.896 L
1167.712 235.512 L
1168.728 244.295 L
1169.744 237.621 L
1170.76 243.865 L
1171.776 242.199 L
1172.792 234.005 L
1173.808 259.066 L
1174.824 211.34 L
1175.84 268.33 L
1176.856 234.788 L
1177.872 238.978 L
1178.888 241.843 L
1179.904 238.771 L
1180.92 247.441 L
1181.936 244.622 L
1182.952 240.275 L
1183.968 235.126 L
1184.984 240.833 L
1186 116.149 L
S
GR
%%Trailer
%%Pages: 1
%%EOF
